# COL 1: Snapshot #
# COL 2-: 3-sigma residue at Ngrid = 21, 51, 81, 101, 201, 301 [um]

[linear]
1  331.370290  43.014577  19.341925  11.997683  3.244012  1.204932  
2  267.842332  44.568155  16.858828  9.911883  2.841763  1.230613  
3  267.860229  44.568552  16.859153  9.913126  2.842562  1.230635  

[natural]
1  258.642431  37.108755  15.080893  9.842598  2.442522  0.997922  
2  226.142496  35.922711  14.830613  8.698433  2.311159  1.006541  
3  226.149356  35.924178  14.830908  8.698324  2.310970  1.006649 