# COL 1-2: True indices
# COL 3-5: True X/Y/Z plate [mm]
# COL 6-7: True X/Y position [pix]
# COL 8-9: Estimated X/Y centroid [pix]
# COL 10: Centroid error [pix]
1  525  -561.690327  134.187828  -51.362113  13.043375  1308.722927  13.000000  1308.585092  0.144499
2  462  -600.000000  57.398832  -56.000910  21.840814  1121.725883  21.782534  1121.782534  0.081277
3  719  -407.707692  404.516497  -50.795302  26.595481  1970.432307  26.500000  1970.500000  0.117043
4  669  -446.304005  327.245833  -47.128849  31.212993  1791.185927  31.217466  1791.217466  0.031855
5  614  -484.836866  249.995042  -45.775271  37.101884  1608.860207  37.217466  1608.782534  0.139257
6  555  -523.300796  172.841420  -46.731201  44.199100  1424.078905  44.217466  1424.217466  0.139773
7  493  -561.690327  95.862078  -49.990572  52.430740  1237.497500  52.500000  1237.500000  0.069305
8  430  -600.000000  19.133851  -55.544627  61.712656  1049.795216  61.782534  1049.782534  0.071019
9  694  -407.707692  366.164772  -46.200556  63.958489  1903.607494  64.000000  1903.500000  0.115231
10  642  -446.304005  288.855884  -43.455694  69.269337  1722.789144  69.217466  1722.782534  0.052290
11  584  -484.836866  211.594446  -43.023308  75.796928  1539.115442  75.782534  1539.217466  0.103035
12  524  -523.300796  134.457706  -44.899106  83.472734  1353.225205  83.442684  1353.311981  0.091832
13  461  -561.690327  57.522699  -49.076103  92.217819  1165.786157  92.217466  1165.782534  0.003641
14  718  -369.053413  405.094779  -46.200556  97.088418  2015.013670  97.000000  2015.000000  0.089468
15  668  -407.707692  327.760988  -42.063420  101.838808  1835.954472  101.782534  1835.782534  0.180913
16  400  -600.000000  -19.133851  -55.544627  101.943531  977.486627  102.000000  977.500000  0.058031
17  613  -446.304005  250.424868  -40.240541  107.811553  1653.652023  107.688019  1653.557316  0.155660
18  554  -484.836866  173.163766  -40.729407  114.943391  1468.725382  115.000000  1468.585092  0.151281
19  492  -523.300796  96.054875  -43.524807  123.160552  1281.827404  123.217466  1281.782534  0.072475
20  429  -561.690327  19.175142  -48.618836  132.379343  1093.636875  132.500000  1093.500000  0.182463
21  693  -369.053413  366.688228  -41.599241  134.782233  1948.185023  134.782534  1948.217466  0.032445
22  641  -407.707692  289.310605  -38.384484  140.216484  1767.510863  140.311981  1767.557316  0.106196
23  370  -600.000000  -57.398832  -56.000910  142.506946  904.849933  142.500000  905.000000  0.150228
24  583  -446.304005  211.958248  -37.483846  146.817953  1583.815699  146.782534  1583.782534  0.048523
25  523  -484.836866  134.708467  -38.893895  154.517963  1397.734294  154.500000  1397.500000  0.234982
26  460  -523.300796  57.638388  -42.608498  163.237762  1209.932440  163.414908  1210.000000  0.189592
27  399  -561.690327  -19.175142  -48.618836  172.889211  1021.098751  172.782534  1021.217466  0.159604
28  667  -369.053413  328.229543  -37.456191  172.984214  1880.517835  173.000000  1880.500000  0.023818
29  612  -407.707692  250.819090  -35.164269  179.070474  1698.316083  179.000000  1698.500000  0.196957
30  338  -600.000000  -95.655652  -56.913409  183.375682  831.935828  183.500000  832.000000  0.139904
31  553  -446.304005  173.461493  -35.186001  186.265814  1513.322952  186.311981  1513.442684  0.128324
32  491  -484.836866  96.234016  -37.517032  194.496372  1326.187906  194.500000  1326.000000  0.187941
33  428  -523.300796  19.213707  -42.150312  203.678699  1137.588503  203.500000  1137.500000  0.199414
34  692  -330.346665  367.159551  -37.456191  206.086408  1992.503350  206.000000  1992.500000  0.086473
35  640  -369.053413  289.724193  -33.771995  211.673992  1812.049673  211.500000  1812.000000  0.180944
36  369  -561.690327  -57.522699  -49.076103  213.720546  948.221895  213.782534  948.217466  0.062146
37  582  -407.707692  212.291915  -32.403235  218.378681  1628.411277  218.500000  1628.500000  0.150300
38  306  -600.000000  -133.898873  -58.281997  224.521850  758.795760  224.500000  759.000000  0.205405
39  522  -446.304005  134.940076  -33.347333  226.131423  1442.218131  226.217466  1442.217466  0.086046
40  459  -484.836866  57.745883  -36.599015  234.853433  1254.133313  234.782534  1254.217466  0.110039
41  398  -523.300796  -19.213707  -42.150312  244.456877  1064.844927  244.500000  1065.000000  0.160957
42  666  -330.346665  328.651433  -33.307816  244.600700  1924.843731  244.500000  1925.000000  0.185905
43  611  -369.053413  251.177652  -30.547177  250.830117  1742.819917  250.782534  1742.782534  0.060512
44  337  -561.690327  -95.862078  -49.990572  254.845752  875.057315  254.782534  875.217466  0.172177
45  552  -407.707692  173.734558  -30.101773  258.117980  1557.839258  258.217466  1557.782534  0.114522
46  490  -446.304005  96.399474  -31.968104  266.390112  1370.547067  266.500000  1370.500000  0.119544
47  427  -484.836866  19.249540  -36.139974  275.563094  1181.618887  275.500000  1181.500000  0.134592
48  691  -291.592951  367.578673  -33.771995  277.822134  2036.530506  278.000000  2036.500000  0.180463
49  639  -330.346665  290.096590  -29.618885  283.592830  1856.373204  283.500000  1856.500000  0.157145
50  368  -523.300796  -57.638388  -42.608498  285.545040  991.752080  285.500000  991.500000  0.256072
51  581  -369.053413  212.595400  -27.782196  290.430089  1672.869698  290.500000  1673.000000  0.147872
52  305  -561.690327  -134.187828  -51.362113  296.236574  801.656794  296.311981  801.557316  0.124828
53  521  -407.707692  135.152500  -28.260210  298.264262  1486.644426  298.311981  1486.557316  0.099324
54  458  -446.304005  57.845167  -31.048508  307.016311  1298.356984  307.000000  1298.500000  0.143943
55  397  -484.836866  -19.249540  -36.139974  316.598492  1108.694164  316.500000  1108.500000  0.217716
56  665  -291.592951  329.026598  -29.618885  316.638856  1968.900056  316.500000  1969.000000  0.171084
57  610  -330.346665  251.500503  -26.389922  323.040947  1787.131092  323.217466  1787.217466  0.196519
58  336  -523.300796  -96.054875  -43.524807  326.915230  918.361249  327.000000  918.500000  0.162597
59  551  -369.053413  173.982922  -25.477444  330.450391  1602.241831  330.500000  1602.500000  0.262892
60  274  -561.690327  -172.494500  -53.190531  337.864173  728.072772  337.782534  728.217466  0.166137
61  489  -407.707692  96.551227  -26.878809  338.792476  1414.872687  338.782534  1414.782534  0.090700
62  426  -446.304005  19.282636  -30.588678  347.983592  1225.696400  348.000000  1225.585092  0.112511
63  638  -291.592951  290.427743  -25.925742  355.923073  1900.449239  356.000000  1900.500000  0.092165
64  367  -484.836866  -57.745883  -36.599015  357.932010  1035.409739  358.000000  1035.500000  0.113003
65  580  -330.346665  212.868659  -23.621386  362.922157  1717.158484  362.782534  1717.217466  0.151571
66  304  -523.300796  -134.457706  -44.899106  368.538845  844.724522  368.500000  844.500000  0.227858
67  520  -369.053413  135.345709  -23.633248  370.866528  1530.980743  370.782534  1530.782534  0.215272
68  457  -407.707692  57.936228  -25.957766  379.676675  1342.571362  379.500000  1342.500000  0.190543
69  244  -561.690327  -210.776648  -55.475566  379.699181  654.358211  379.500000  654.500000  0.244494
70  664  -252.797779  329.354983  -26.389922  389.048487  2012.654970  389.000000  2012.500000  0.162378
71  396  -446.304005  -19.282636  -30.588678  389.264730  1152.615026  389.500000  1152.500000  0.261883
72  609  -291.592951  251.787598  -22.693093  395.652541  1831.217294  395.557316  1831.311981  0.134289
73  335  -484.836866  -96.234016  -37.517032  399.535339  961.817148  399.500000  962.000000  0.186236
74  550  -330.346665  174.206551  -21.313672  403.212559  1646.498174  403.000000  1646.500000  0.212567
75  273  -523.300796  -172.841420  -46.731201  410.386707  770.894659  410.500000  771.000000  0.154700
76  488  -369.053413  96.689254  -22.249873  411.653074  1459.132385  411.500000  1459.000000  0.202379
77  425  -407.707692  19.312991  -25.497212  420.890068  1269.789087  420.782534  1269.782534  0.107734
78  214  -561.690327  -249.028830  -58.216893  421.711784  580.566471  421.500000  580.500000  0.221970
79  637  -252.797779  290.717605  -22.693093  428.614018  1944.245792  428.557316  1944.311981  0.087156
80  366  -446.304005  -57.845167  -31.048508  430.831756  1079.163648  430.782534  1079.217466  0.072933
81  579  -291.592951  213.111655  -19.921398  435.803983  1761.245246  435.782534  1761.217466  0.035097
82  303  -484.836866  -134.708467  -38.893895  441.379541  887.968744  441.500000  888.000000  0.124448
83  519  -330.346665  135.519676  -19.467106  443.887283  1575.194583  443.782534  1575.217466  0.107220
84  243  -523.300796  -211.200561  -49.020832  452.429134  696.924964  452.500000  697.000000  0.103210
85  456  -369.053413  58.019051  -21.327513  452.783718  1386.744142  452.782534  1386.782534  0.038410
86  395  -407.707692  -19.312991  -25.497212  462.405080  1196.575709  462.500000  1196.500000  0.121415
87  608  -252.797779  252.038895  -19.457218  468.613708  1875.046411  468.500000  1875.000000  0.122815
88  334  -446.304005  -96.399474  -31.968104  472.656026  1005.394014  472.500000  1005.500000  0.188619
89  549  -291.592951  174.405413  -17.611049  476.353122  1690.575838  476.500000  1690.500000  0.165301
90  272  -484.836866  -173.163766  -40.729407  483.435120  813.917578  483.500000  814.000000  0.104894
91  487  -330.346665  96.813533  -18.081952  484.920540  1503.293679  485.000000  1503.414908  0.144950
92  424  -369.053413  19.340600  -20.866300  494.231321  1313.864736  494.217466  1313.782534  0.083362
93  213  -523.300796  -249.529674  -51.767673  494.636007  622.869156  494.500000  623.000000  0.188727
94  636  -213.966667  290.966135  -19.921398  501.614310  1987.731188  501.500000  1987.500000  0.257904
95  365  -407.707692  -57.936228  -25.957766  504.193406  1122.982175  504.414908  1123.000000  0.222218
96  578  -252.797779  213.324351  -16.682756  509.023906  1805.097761  509.000000  1805.000000  0.100641
97  302  -446.304005  -134.940076  -33.347333  514.708282  931.358715  514.500000  931.500000  0.251680
98  518  -291.592951  135.674375  -15.762375  517.274729  1619.253462  517.217466  1619.217466  0.067636
99  242  -484.836866  -211.594446  -43.023308  525.672090  739.717259  525.500000  739.500000  0.277158
100  455  -330.346665  58.093626  -17.158407  526.285671  1430.842881  526.217466  1430.782534  0.091070
101  394  -369.053413  -19.340600  -20.866300  535.967968  1240.544120  536.000000  1240.500000  0.054522
102  184  -523.300796  -287.823311  -54.971333  536.976852  548.781232  537.000000  548.585092  0.197502
103  607  -213.966667  252.254359  -16.682756  541.872615  1918.586609  542.000000  1918.500000  0.154039
104  333  -407.707692  -96.551227  -26.878809  546.226080  1049.060412  546.414908  1049.000000  0.198257
105  548  -252.797779  174.579479  -14.370101  549.819975  1734.442513  550.000000  1734.500000  0.188981
106  271  -446.304005  -173.461493  -35.186001  556.958724  857.111049  556.782534  857.217466  0.205834
107  486  -291.592951  96.924048  -14.375640  558.542662  1547.324069  558.500000  1547.500000  0.181030
108  423  -330.346665  19.365460  -16.696601  567.955196  1357.890965  567.782534  1357.782534  0.203886
109  212  -484.836866  -249.995042  -45.775271  568.060049  665.421830  568.000000  665.500000  0.098572
110  635  -175.105134  291.173297  -17.611049  574.872068  2030.874147  574.782534  2030.782534  0.128099
111  364  -369.053413  -58.019051  -21.327513  577.965036  1166.833364  577.782534  1166.782534  0.189449
112  577  -213.966667  213.506719  -13.905922  582.529638  1848.684056  582.500000  1848.500000  0.186427
113  301  -407.707692  -135.152500  -28.260210  588.473541  974.863209  588.500000  975.000000  0.139326
114  517  -252.797779  135.809785  -12.519583  590.976331  1663.124995  590.782534  1663.217466  0.214729
115  241  -446.304005  -211.958248  -37.483846  599.377081  782.704901  599.500000  782.500000  0.238942
116  454  -291.592951  58.159942  -13.451040  600.129924  1474.835082  600.217466  1474.782534  0.102103
117  393  -330.346665  -19.365460  -16.696601  609.900882  1284.487954  610.000000  1284.500000  0.099847
118  183  -484.836866  -288.360097  -48.984906  610.568258  591.085627  610.500000  591.000000  0.109504
119  606  -175.105134  252.433959  -14.370101  615.376915  1961.806417  615.442684  1961.688018  0.135439
120  332  -369.053413  -96.689254  -22.249873  620.193253  1092.784541  620.217466  1092.782534  0.024297
121  547  -213.966667  174.728724  -11.591290  623.560389  1778.066099  623.500000  1778.000000  0.089532
122  270  -407.707692  -173.734558  -30.101773  630.905702  900.444081  631.000000  900.500000  0.109631
123  485  -252.797779  97.020784  -11.131463  632.466500  1591.191117  632.500000  1591.000000  0.194031
124  211  -446.304005  -250.424868  -40.240541  641.932685  708.194600  641.782534  708.217466  0.151883
125  422  -291.592951  19.387566  -12.988708  642.008716  1401.835297  642.000000  1401.585092  0.250357
126  363  -330.346665  -58.093626  -17.158407  652.093798  1210.685010  652.000000  1210.500000  0.207429
127  156  -484.836866  -326.684154  -52.651756  653.165711  516.763144  653.217466  516.782534  0.055268
128  576  -175.105134  213.658731  -11.591290  656.268385  1891.972486  656.414908  1892.000000  0.149084
129  300  -369.053413  -135.345709  -23.633248  662.622770  1018.450602  662.500000  1018.500000  0.132335
130  516  -213.966667  135.925887  -9.739189  664.938952  1706.776979  665.000000  1706.585092  0.201364
131  240  -407.707692  -212.291915  -32.403235  673.492024  825.857149  673.500000  826.000000  0.143073
132  453  -252.797779  58.217988  -10.205941  674.263160  1518.688273  674.311981  1518.557316  0.139761
133  392  -291.592951  -19.387566  -12.988708  684.150497  1328.374778  684.000000  1328.500000  0.195780
134  182  -446.304005  -288.855884  -43.455694  684.594549  633.634789  684.500000  633.500000  0.164644
135  605  -136.218706  252.577670  -12.519583  689.073874  2004.674805  689.000000  2004.500000  0.189774
136  331  -330.346665  -96.813533  -18.081952  694.504385  1136.534316  694.500000  1136.500000  0.034595
137  130  -484.836866  -364.961765  -56.775299  695.821222  442.508893  696.000000  442.500000  0.178999
138  546  -175.105134  174.853127  -9.275010  697.521153  1821.414796  697.500000  1821.500000  0.087790
139  269  -369.053413  -173.982922  -25.477444  705.223230  943.885245  705.217466  943.782534  0.102873
140  484  -213.966667  97.103725  -8.349884  706.638526  1634.862532  706.500000  1635.000000  0.195159
141  210  -407.707692  -250.819090  -35.164269  716.201592  751.156994  716.217466  751.217466  0.062521
142  421  -252.797779  19.406916  -9.743147  716.338206  1445.665250  716.500000  1445.500000  0.231268
143  362  -291.592951  -58.159942  -13.451040  726.526047  1254.504744  726.500000  1254.500000  0.026475
144  155  -446.304005  -327.245833  -47.128849  727.331444  559.080279  727.500000  559.000000  0.186697
145  575  -136.218706  213.780367  -9.739189  730.186986  1934.931817  730.217466  1934.782534  0.152363
146  299  -330.346665  -135.519676  -19.467106  737.102523  1062.088949  737.217466  1062.217466  0.172420
147  515  -175.105134  136.022664  -7.421591  739.108978  1750.177474  739.217466  1750.217466  0.115625
148  239  -369.053413  -212.595400  -27.782196  747.963846  869.142787  747.782534  869.217466  0.196090
149  452  -213.966667  58.267758  -7.423570  748.631486  1562.370097  748.500000  1562.500000  0.184833
150  391  -252.797779  -19.406916  -9.743147  758.662808  1372.172116  758.557316  1372.311981  0.175188
151  181  -407.707692  -289.310605  -38.384484  759.003190  676.398527  759.000000  676.500000  0.101523
152  330  -291.592951  -96.924048  -14.375640  769.105536  1180.277448  769.217466  1180.217466  0.126989
153  129  -446.304005  -365.589257  -51.259482  770.111979  484.585917  770.000000  484.500000  0.141142
154  545  -136.218706  174.952671  -7.421591  771.648698  1864.457181  771.500000  1864.500000  0.154740
155  268  -330.346665  -174.206551  -21.313672  779.857605  987.402752  780.000000  987.500000  0.172434
156  483  -175.105134  97.172861  -6.031296  781.004755  1678.306254  781.000000  1678.414908  0.108758
157  209  -369.053413  -251.177652  -30.547177  790.813474  794.278028  790.782534  794.217466  0.068007
158  420  -213.966667  19.423506  -6.960380  790.889435  1489.348414  791.000000  1489.500000  0.187624
159  361  -252.797779  -58.217988  -10.205941  801.207475  1298.260110  801.217466  1298.217466  0.043798
160  154  -407.707692  -327.760988  -42.063420  801.865385  601.636844  802.000000  601.500000  0.191957
161  574  -97.312912  213.871609  -8.349884  804.232041  1977.531300  804.500000  1977.500000  0.269781
162  298  -291.592951  -135.674375  -15.762375  811.858593  1105.746061  811.782534  1105.782534  0.084352
163  104  -446.304005  -403.880703  -55.847006  812.904678  410.206442  812.782534  410.217466  0.122641
164  514  -136.218706  136.100101  -5.567117  813.432462  1793.294885  813.500000  1793.500000  0.215948
165  238  -330.346665  -212.868659  -23.621386  822.738613  912.530204  822.500000  912.500000  0.240517
166  451  -175.105134  58.309243  -5.104323  823.180567  1605.848385  823.217466  1605.782534  0.075485
167  390  -213.966667  -19.423506  -6.960380  833.383270  1415.847524  833.500000  1416.000000  0.192028
168  180  -369.053413  -289.724193  -33.771995  833.740690  719.346107  833.688019  719.442684  0.110006
169  329  -252.797779  -97.020784  -11.131463  843.942122  1223.981528  844.000000  1224.000000  0.060754
170  128  -407.707692  -366.164772  -46.200556  844.756600  526.927089  844.585092  527.000000  0.186363
171  544  -97.312912  175.027341  -6.031296  845.889237  1907.162288  845.782534  1907.217466  0.120126
172  267  -291.592951  -174.405413  -17.611049  854.754379  1030.964534  854.585092  1031.000000  0.172963
173  482  -136.218706  97.228182  -4.176030  855.510883  1721.490531  855.500000  1721.500000  0.014426
174  419  -175.105134  19.437336  -4.640803  865.607745  1532.852535  865.500000  1533.000000  0.182633
175  208  -330.346665  -251.500503  -26.389922  865.714193  837.526284  865.500000  837.500000  0.215800
176  360  -213.966667  -58.267758  -7.423570  876.083248  1341.918656  876.217466  1341.782534  0.191165
177  153  -369.053413  -328.229543  -37.456191  876.713875  644.402370  876.500000  644.500000  0.235105
178  573  -58.393282  213.932445  -7.423570  878.350050  2019.740751  878.442684  2019.688018  0.106591
179  297  -252.797779  -135.809785  -12.519583  886.836145  1149.389592  887.000000  1149.500000  0.197581
180  103  -407.707692  -404.516497  -50.795302  887.645203  452.324311  887.500000  452.500000  0.227927
181  513  -97.312912  136.158189  -4.176030  887.855253  1836.098040  887.782534  1836.217466  0.139824
182  237  -291.592951  -213.111655  -19.921398  897.761664  955.987471  897.585092  956.000000  0.177016
183  450  -136.218706  58.342439  -3.248529  897.855770  1649.091249  897.782534  1649.217466  0.145926
184  389  -175.105134  -19.437336  -4.640803  908.256932  1459.368682  908.311981  1459.442684  0.092232
185  179  -330.346665  -290.096590  -29.618885  908.752736  762.446325  908.500000  762.500000  0.258373
186  328  -213.966667  -97.103725  -8.349884  918.959049  1267.614107  919.000000  1267.500000  0.121233
187  127  -369.053413  -366.688228  -41.599241  919.701292  569.502221  919.500000  569.500000  0.201304
188  543  -58.393282  175.077127  -5.104323  920.188899  1949.499681  920.000000  1949.500000  0.188899
189  266  -252.797779  -174.579479  -14.370101  929.858495  1074.538327  930.000000  1074.500000  0.146604
190  481  -97.312912  97.269679  -2.784350  930.102421  1764.384001  930.000000  1764.500000  0.154744
191  80  -407.707692  -442.810711  -55.847006  930.499580  377.883322  930.500000  378.000000  0.116679
192  418  -136.218706  19.448401  -2.784746  940.438199  1576.145601  940.500000  1576.000000  0.158174
193  207  -291.592951  -251.787598  -22.693093  940.848906  880.869990  940.782534  880.782534  0.109790
194  359  -175.105134  -58.309243  -5.104323  951.098147  1385.448009  951.000000  1385.500000  0.111067
195  152  -330.346665  -328.651433  -33.307816  951.822457  687.345882  951.688019  687.442684  0.165663
196  296  -213.966667  -135.925887  -9.739189  961.979856  1192.987119  962.000000  1193.000000  0.023910
197  512  -58.393282  136.196919  -3.248529  962.323137  1878.556270  962.500000  1878.500000  0.185599
198  102  -369.053413  -405.094779  -46.200556  962.671166  494.700983  962.500000  494.500000  0.263992
199  449  -97.312912  58.367340  -1.856453  972.602294  1692.067153  972.500000  1692.000000  0.122367
200  236  -252.797779  -213.324351  -16.682756  972.977750  999.482423  973.000000  999.500000  0.028355
201  388  -136.218706  -19.448401  -2.784746  983.228577  1502.703472  983.311981  1502.557316  0.168279
202  178  -291.592951  -290.427743  -25.925742  983.984329  805.667583  984.000000  805.500000  0.168314
203  327  -175.105134  -97.172861  -6.031296  994.100859  1311.142781  994.217466  1311.217466  0.138475
204  542  -19.465350  175.102022  -4.640803  994.493865  1991.439537  994.500000  1991.500000  0.060773
205  126  -330.346665  -367.159551  -37.456191  994.891476  612.280584  994.782534  612.217466  0.125906
206  480  -58.393282  97.297347  -1.856453  1004.724838  1806.955775  1004.585092  1807.000000  0.146577
207  265  -213.966667  -174.728724  -11.591290  1005.114427  1118.091750  1005.217466  1118.217466  0.162548
208  79  -369.053413  -443.443737  -51.259482  1005.591772  420.053754  1005.500000  420.000000  0.106356
209  417  -97.312912  19.456702  -1.392472  1015.325713  1619.195921  1015.442684  1619.311981  0.164779
210  206  -252.797779  -252.038895  -19.457218  1016.162199  924.277101  1016.217466  924.217466  0.081307
211  358  -136.218706  -58.342439  -3.248529  1026.196710  1428.815965  1026.217466  1428.782534  0.039351
212  151  -291.592951  -329.026598  -29.618885  1027.136004  730.435975  1027.000000  730.500000  0.150321
213  511  -19.465350  136.216285  -2.784746  1036.781972  1920.639484  1036.688019  1920.557316  0.124815
214  295  -175.105134  -136.022664  -7.421591  1037.234056  1236.506223  1037.500000  1236.500000  0.266017
215  101  -330.346665  -405.615468  -42.063420  1037.927904  537.305989  1038.000000  537.414908  0.130619
216  448  -58.393282  58.383942  -0.928293  1047.365319  1734.745002  1047.442684  1734.688018  0.096085
217  235  -213.966667  -213.506719  -13.905922  1048.331171  1042.982741  1048.500000  1043.000000  0.169709
218  58  -369.053413  -481.729649  -56.775299  1048.431509  345.615270  1048.500000  345.500000  0.134083
219  387  -97.312912  -19.456702  -1.392472  1058.242869  1545.820063  1058.217466  1545.782534  0.045318
220  177  -252.797779  -290.717605  -22.693093  1059.379920  848.977972  1059.500000  849.000000  0.122084
221  541  19.465350  175.102022  -4.640803  1068.750503  2032.952712  1068.585092  2033.000000  0.172038
222  326  -136.218706  -97.228182  -4.176030  1069.311869  1354.535277  1069.500000  1354.500000  0.191410
223  125  -291.592951  -367.578673  -33.771995  1070.271932  655.230980  1070.217466  655.217466  0.056117
224  479  -19.465350  97.311182  -1.392472  1079.323696  1849.175509  1079.442684  1849.311981  0.181060
225  264  -175.105134  -174.853127  -9.275010  1080.466325  1161.592391  1080.500000  1161.500000  0.098337
226  78  -330.346665  -444.013718  -47.128849  1080.899919  462.477447  1081.000000  462.500000  0.102591
227  416  -58.393282  19.462236  -0.464179  1090.215205  1661.972206  1090.414908  1662.000000  0.201628
228  205  -213.966667  -252.254359  -16.682756  1091.598229  967.715377  1091.500000  967.500000  0.236720
229  357  -97.312912  -58.367340  -1.856453  1101.323370  1471.990569  1101.500000  1472.000000  0.176882
230  150  -252.797779  -329.354983  -26.389922  1102.598864  773.640893  1102.500000  773.500000  0.172119
231  510  19.465350  136.216285  -2.784746  1111.177826  1962.318243  1111.311981  1962.442684  0.182984
232  294  -136.218706  -136.100101  -5.567117  1112.542873  1279.914580  1112.500000  1280.000000  0.095575
233  100  -291.592951  -406.078489  -38.384484  1113.360127  580.108358  1113.500000  580.000000  0.176935
234  447  -19.465350  58.392244  -0.464179  1122.090139  1777.094212  1122.217466  1777.217466  0.177212
235  234  -175.105134  -213.658731  -11.591290  1123.765925  1086.456036  1123.688018  1086.442684  0.079042
236  57  -330.346665  -482.348840  -52.651756  1123.775854  387.849954  1123.782534  387.782534  0.067751
237  386  -58.393282  -19.462236  -0.464179  1133.244488  1588.686991  1133.311981  1588.557316  0.146188
238  176  -213.966667  -290.966135  -19.921398  1134.883555  892.345350  1135.000000  892.500000  0.193587
239  325  -97.312912  -97.269679  -2.784350  1144.536317  1397.759533  1144.500000  1397.500000  0.262062
240  124  -252.797779  -367.945536  -30.547177  1145.786932  698.321827  1145.688018  698.442684  0.156174
241  478  19.465350  97.311182  -1.392472  1153.844791  1891.013481  1153.782534  1891.217466  0.213275
242  263  -136.218706  -174.952671  -7.421591  1155.858154  1205.007889  1155.782534  1205.217466  0.222803
243  77  -291.592951  -444.520571  -43.455694  1156.368698  505.123670  1156.500000  505.000000  0.180373
244  204  -175.105134  -252.433959  -14.370101  1167.100872  1011.152471  1167.217466  1011.217466  0.133487
245  356  -58.393282  -58.383942  -0.928293  1176.422605  1514.940195  1176.500000  1515.000000  0.097809
246  149  -213.966667  -329.636543  -23.621386  1178.155000  816.928611  1178.217466  816.782534  0.158873
247  509  58.393282  136.196919  -3.248529  1185.457108  2003.563831  1185.500000  2003.500000  0.076903
248  293  -97.312912  -136.158189  -4.176030  1187.850373  1323.180037  1187.782534  1323.217466  0.077480
249  99  -252.797779  -406.483776  -35.164269  1188.912067  623.076695  1188.782534  623.217466  0.191300
250  446  19.465350  58.392244  -0.464179  1196.722303  1819.084790  1196.585092  1819.000000  0.161296
251  233  -136.218706  -213.780367  -9.739189  1199.225848  1129.869932  1199.217466  1129.782534  0.087799
252  56  -291.592951  -482.899454  -48.984906  1199.265931  430.332136  1199.311981  430.442684  0.119756
253  175  -175.105134  -291.173297  -17.611049  1210.439018  935.737429  1210.500000  935.500000  0.245135
254  324  -58.393282  -97.297347  -1.856453  1219.718502  1440.783779  1219.782534  1440.782534  0.064044
255  123  -213.966667  -368.260086  -27.782196  1221.380389  741.521233  1221.500000  741.500000  0.121481
256  801  0.000000  0.000000  0.000000  1224.000000  1689.010817  1224.000000  1689.000000  0.010817
257  477  58.393282  97.297347  -1.856453  1228.234284  1932.440662  1228.311981  1932.442684  0.077724
258  262  -97.312912  -175.027341  -6.031296  1231.233845  1248.306022  1231.311981  1248.442684  0.157422
259  76  -252.797779  -444.964226  -40.240541  1231.942326  547.961232  1232.000000  548.000000  0.069493
260  38  -291.592951  -521.209682  -54.971333  1242.020367  355.788493  1242.000000  355.585092  0.204419
261  203  -136.218706  -252.577670  -12.519583  1242.613865  1054.556009  1242.500000  1054.500000  0.126895
262  355  -19.465350  -58.392244  -0.464179  1251.439074  1557.633631  1251.500000  1557.500000  0.146865
263  148  -175.105134  -329.871238  -21.313672  1253.748135  860.266918  1253.782534  860.217466  0.060239
264  508  97.312912  136.158189  -4.176030  1259.566705  2044.348321  1259.500000  2044.500000  0.165699
265  292  -58.393282  -136.196919  -3.248529  1263.100712  1366.270700  1263.217466  1366.217466  0.128318
266  98  -213.966667  -406.831273  -32.403235  1264.527613  666.179257  1264.500000  666.000000  0.181371
267  445  58.393282  58.383942  -0.928293  1271.207752  1860.687407  1271.311981  1860.557316  0.166695
268  232  -97.312912  -213.871609  -8.349884  1274.654761  1173.192151  1274.557316  1173.311981  0.154450
269  55  -252.797779  -483.381413  -45.775271  1274.845972  473.030845  1274.782534  473.217466  0.197109
270  174  -136.218706  -291.339062  -15.762375  1285.989977  979.121856  1286.000000  979.000000  0.122268
271  323  -19.465350  -97.311182  -1.392472  1294.802929  1483.576624  1294.688019  1483.557316  0.116521
272  122  -175.105134  -368.522280  -25.477444  1296.995996  784.797079  1297.000000  784.585092  0.212025
273  476  97.312912  97.269679  -2.784350  1302.438836  1973.428786  1302.500000  1973.500000  0.093875
274  261  -58.393282  -175.077127  -5.104323  1306.537435  1291.454784  1306.500000  1291.500000  0.058701
275  75  -213.966667  -445.344619  -37.483846  1307.564703  590.958558  1307.500000  591.000000  0.076837
276  415  58.393282  19.462236  -0.464179  1314.347607  1788.351641  1314.500000  1788.500000  0.212683
277  37  -252.797779  -521.729877  -51.767673  1317.591548  398.340471  1317.500000  398.500000  0.183931
278  202  -97.312912  -252.685470  -11.131463  1318.080950  1097.893676  1318.217466  1097.782534  0.176038
279  354  19.465350  -58.392244  -0.464179  1326.317760  1600.040154  1326.500000  1600.000000  0.186611
280  147  -136.218706  -330.059034  -19.467106  1329.321899  903.623499  1329.500000  903.500000  0.216730
281  291  -19.465350  -136.216285  -2.784746  1338.238271  1409.155011  1338.217466  1409.217466  0.065829
282  97  -175.105134  -407.120929  -30.101773  1340.150460  709.384041  1340.000000  709.500000  0.189960
283  444  97.312912  58.367340  -1.856453  1345.492951  1901.873467  1345.500000  1902.000000  0.126729
284  231  -58.393282  -213.932445  -7.423570  1349.996616  1216.390596  1350.000000  1216.500000  0.109456
285  54  -213.966667  -483.794648  -43.023308  1350.459920  515.914690  1350.500000  516.000000  0.094256
286  385  58.393282  -19.462236  -0.464179  1357.623380  1715.482306  1357.500000  1715.500000  0.124642
287  22  -252.797779  -560.004164  -58.216893  1360.147960  323.944438  1360.217466  323.782534  0.176194
288  173  -97.312912  -291.463406  -14.375640  1361.480126  1022.466297  1361.500000  1022.500000  0.039126
289  322  19.465350  -97.311182  -1.392472  1369.734454  1526.107128  1369.782534  1526.217466  0.120359
290  121  -136.218706  -368.732080  -23.633248  1372.577374  828.117108  1372.500000  828.000000  0.140360
291  475  136.218706  97.228182  -4.176030  1376.405742  2013.950412  1376.500000  2014.000000  0.106506
292  260  -19.465350  -175.102022  -4.640803  1381.713213  1334.422471  1381.500000  1334.500000  0.226871
293  74  -175.105134  -445.661695  -35.186001  1383.179556  634.083772  1383.217466  634.217466  0.138965
294  414  97.312912  19.456702  -1.392472  1388.699010  1829.729655  1388.557316  1829.688018  0.147684
295  36  -213.966667  -522.175895  -49.020832  1393.181829  441.102753  1393.217466  441.217466  0.120122
296  201  -58.393282  -252.757346  -10.205941  1393.446025  1141.133300  1393.500000  1141.000000  0.143813
297  353  58.393282  -58.383942  -0.928293  1401.004111  1642.129605  1401.000000  1642.000000  0.129670
298  146  -97.312912  -330.199904  -18.081952  1404.819972  946.966017  1404.782534  946.782534  0.187264
299  290  19.465350  -136.216285  -2.784746  1413.207805  1451.801833  1413.217466  1451.782534  0.021583
300  96  -136.218706  -407.352703  -28.260210  1415.724255  752.658859  1415.500000  752.500000  0.274821
301  443  136.218706  58.342439  -3.248529  1419.525022  1942.615171  1419.500000  1942.500000  0.117858
302  230  -19.465350  -213.962864  -6.960380  1425.195640  1259.433431  1425.311981  1259.442684  0.116709
303  53  -175.105134  -484.139100  -40.729407  1426.051564  558.951942  1426.000000  559.000000  0.070487
304  384  97.312912  -19.456702  -1.392472  1432.026434  1757.046011  1432.000000  1757.000000  0.053064
305  21  -213.966667  -560.482903  -55.475566  1435.699384  366.577248  1435.500000  366.500000  0.213825
306  172  -58.393282  -291.546313  -13.451040  1436.853340  1065.738521  1436.782534  1065.782534  0.083371
307  321  58.393282  -97.297347  -1.856453  1444.458418  1568.344886  1444.500000  1568.500000  0.160591
308  120  -97.312912  -368.889456  -22.249873  1448.068220  871.449001  1448.000000  871.500000  0.085176
309  259  19.465350  -175.102022  -4.640803  1456.705864  1377.177762  1456.782534  1377.217466  0.086340
310  73  -136.218706  -445.915410  -33.347333  1458.730586  677.304780  1458.688019  677.442684  0.144324
311  413  136.218706  19.448401  -2.784746  1462.781800  1870.685896  1462.688018  1870.557316  0.159147
312  200  -19.465350  -252.793287  -9.743147  1468.653283  1184.242931  1468.557316  1184.311981  0.118227
313  35  -175.105134  -522.547674  -46.731201  1468.735094  484.043771  1468.585092  484.000000  0.156258
314  352  97.312912  -58.367340  -1.856453  1475.444175  1683.872465  1475.500000  1684.000000  0.139218
315  145  -58.393282  -330.293829  -17.158407  1480.186233  990.262204  1480.217466  990.217466  0.054562
316  289  58.393282  -136.196919  -3.248529  1487.954579  1494.180524  1487.782534  1494.217466  0.175967
317  95  -97.312912  -407.526562  -26.878809  1491.192738  795.971429  1491.414908  796.000000  0.224000
318  442  175.105134  58.309243  -5.104323  1493.251872  1982.885585  1493.217466  1982.782534  0.108643
319  229  19.465350  -213.962864  -6.960380  1500.196476  1302.289168  1500.217466  1302.217466  0.074711
320  52  -136.218706  -484.414721  -38.893895  1501.564691  602.110611  1501.500000  602.000000  0.128139
321  383  136.218706  -19.448401  -2.784746  1506.145409  1798.210940  1506.217466  1798.217466  0.072352
322  20  -175.105134  -560.881955  -53.190531  1511.199169  409.413898  1511.311981  409.442684  0.116427
323  171  -19.465350  -291.587769  -12.988708  1512.053810  1108.906484  1512.217466  1108.782534  0.205298
324  320  97.312912  -97.269679  -2.784350  1518.920787  1610.260094  1519.000000  1610.414908  0.173903
325  119  -58.393282  -368.994386  -21.327513  1523.412449  914.760465  1523.442684  914.688019  0.078502
326  258  58.393282  -175.077127  -5.104323  1531.460605  1419.689793  1531.500000  1419.500000  0.193838
327  72  -97.312912  -446.105728  -31.968104  1534.161612  720.589350  1534.000000  720.500000  0.184667
328  412  175.105134  19.437336  -4.640803  1536.543768  1911.193054  1536.500000  1911.000000  0.197953
329  199  19.465350  -252.793287  -9.743147  1543.647360  1227.190929  1543.557316  1227.311981  0.150869
330  34  -136.218706  -522.845161  -44.899106  1544.195246  527.131662  1544.217466  527.217466  0.088635
331  351  136.218706  -58.342439  -3.248529  1549.584732  1725.239924  1549.557316  1725.311981  0.077097
332  144  -19.465350  -330.340794  -16.696601  1555.364903  1033.479935  1555.500000  1033.500000  0.136579
333  288  97.312912  -136.158189  -4.176030  1562.424506  1536.261012  1562.500000  1536.500000  0.250628
334  94  -58.393282  -407.642482  -25.957766  1566.499895  839.289452  1566.500000  839.500000  0.210548
335  441  213.966667  58.267758  -7.423570  1566.622313  2022.658693  1566.500000  2022.500000  0.200360
336  228  58.393282  -213.932445  -7.423570  1574.944327  1344.926739  1575.000000  1345.000000  0.092014
337  51  -97.312912  -484.621471  -37.517032  1576.943228  645.358538  1577.000000  645.500000  0.152429
338  382  175.105134  -19.437336  -4.640803  1579.928004  1838.949413  1580.000000  1839.000000  0.087991
339  19  -136.218706  -561.201266  -51.362113  1586.591366  452.422668  1586.500000  452.500000  0.119700
340  170  19.465350  -291.587769  -12.988708  1587.026193  1151.938410  1587.000000  1152.000000  0.066928
341  319  136.218706  -97.228182  -4.176030  1593.068284  1651.823628  1593.217466  1651.782534  0.154739
342  118  -19.465350  -369.046855  -20.866300  1598.554343  958.019315  1598.500000  958.000000  0.057673
343  257  97.312912  -175.027341  -6.031296  1605.923329  1461.928241  1605.782534  1461.782534  0.202618
344  71  -58.393282  -446.232622  -31.048508  1609.416717  763.905196  1609.500000  764.000000  0.126190
345  411  213.966667  19.423506  -6.960380  1609.933636  1951.224712  1609.782534  1951.217466  0.151276
346  198  58.393282  -252.757346  -10.205941  1618.373471  1269.946039  1618.500000  1270.000000  0.137555
347  33  -97.312912  -523.068312  -43.524807  1619.506351  570.334351  1619.500000  570.500000  0.165771
348  350  175.105134  -58.309243  -5.104323  1623.373423  1766.203948  1623.442684  1766.311981  0.128329
349  8  -136.218706  -599.477583  -58.281997  1628.722678  378.037657  1628.585092  378.000000  0.142647
350  143  19.465350  -330.340794  -16.696601  1630.300690  1076.587317  1630.500000  1076.500000  0.217598
351  287  136.218706  -136.100101  -5.567117  1636.564284  1578.013872  1636.500000  1578.000000  0.065764
352  93  -19.465350  -407.700446  -25.497212  1641.590097  882.580701  1641.500000  882.500000  0.120955
353  227  97.312912  -213.871609  -8.349884  1649.385091  1387.315579  1649.500000  1387.500000  0.217291
354  50  -58.393282  -484.759320  -36.599015  1652.131388  688.663468  1652.000000  688.500000  0.209725
355  381  213.966667  -19.423506  -6.960380  1653.322882  1879.234620  1653.442684  1879.311981  0.142609
356  169  58.393282  -291.546313  -13.451040  1661.715747  1194.802871  1661.782534  1194.782534  0.069814
357  18  -97.312912  -561.440788  -49.990572  1661.820209  495.571587  1662.000000  495.500000  0.193519
358  318  175.105134  -97.172861  -6.031296  1666.848519  1693.007110  1666.782534  1693.217466  0.220463
359  117  19.465350  -369.046855  -20.866300  1673.438691  1001.193558  1673.442684  1001.311981  0.118491
360  256  136.218706  -174.952671  -7.421591  1680.040732  1503.863388  1680.217466  1503.782534  0.194351
361  410  252.797779  19.406916  -9.743147  1682.901178  1990.755403  1682.782534  1990.782534  0.121707
362  70  -19.465350  -446.296074  -30.588678  1684.440394  807.220067  1684.442684  807.311981  0.091943
363  197  97.312912  -252.685470  -11.131463  1692.777551  1312.477471  1692.688018  1312.442684  0.096053
364  32  -58.393282  -523.217098  -42.608498  1694.612783  613.619634  1694.500000  613.500000  0.164415
365  349  213.966667  -58.267758  -7.423570  1696.758874  1806.737342  1696.782534  1806.782534  0.051010
366  7  -97.312912  -599.733442  -56.913409  1703.854561  421.124348  1703.782534  421.217466  0.117724
367  142  58.393282  -330.293829  -17.158407  1704.938925  1119.552767  1705.000000  1119.500000  0.080713
368  286  175.105134  -136.022664  -7.421591  1710.321516  1619.410389  1710.500000  1619.500000  0.199716
369  92  19.465350  -407.700446  -25.497212  1716.408243  925.813101  1716.442684  925.688018  0.129737
370  226  136.218706  -213.780367  -9.739189  1723.465495  1429.425697  1723.500000  1429.500000  0.081924
371  380  252.797779  -19.406916  -9.743147  1726.279780  1919.040676  1726.414908  1919.000000  0.141118
372  49  -19.465350  -484.828250  -36.139974  1727.073813  731.993140  1727.000000  732.000000  0.074131
373  168  97.312912  -291.463406  -14.375640  1736.068472  1237.468869  1736.000000  1237.500000  0.075217
374  17  -58.393282  -561.600489  -49.076103  1736.830259  538.828517  1736.782534  538.782534  0.066274
375  317  213.966667  -97.103725  -8.349884  1740.210111  1733.782967  1740.217466  1733.782534  0.007368
376  116  58.393282  -368.994386  -21.327513  1748.010927  1044.251475  1748.000000  1044.414908  0.163798
377  255  175.105134  -174.853127  -9.275010  1753.760444  1545.466200  1753.500000  1545.500000  0.262628
378  409  291.592951  19.387566  -12.988708  1755.397331  2029.760663  1755.442684  2029.688018  0.085639
379  69  19.465350  -446.296074  -30.588678  1759.177682  850.501823  1759.000000  850.500000  0.177691
380  196  136.218706  -252.577670  -12.519583  1766.806385  1354.754973  1766.782534  1354.782534  0.036448
381  31  -19.465350  -523.291496  -42.150312  1769.459361  656.955260  1769.500000  657.000000  0.060442
382  348  252.797779  -58.217988  -10.205941  1769.690814  1846.813808  1769.557316  1846.688018  0.183425
383  6  -58.393282  -599.904034  -56.000910  1778.753733  464.344256  1778.688018  464.442684  0.118349
384  141  97.312912  -330.199904  -18.081952  1779.225705  1162.345096  1779.311981  1162.442684  0.130257
385  285  213.966667  -135.925887  -9.739189  1783.644844  1660.422628  1783.500000  1660.500000  0.164214
386  91  58.393282  -407.642482  -25.957766  1790.899902  968.954811  1790.782534  968.782534  0.208458
387  225  175.105134  -213.658731  -11.591290  1797.133223  1471.227750  1797.217466  1471.217466  0.084869
388  379  291.592951  -19.387566  -12.988708  1798.749626  1958.342672  1798.688018  1958.442684  0.117464
389  48  19.465350  -484.828250  -36.139974  1801.715716  775.315370  1801.500000  775.500000  0.283939
390  167  136.218706  -291.339062  -15.762375  1810.031243  1279.905909  1810.000000  1280.000000  0.099143
391  16  -19.465350  -561.680344  -48.618836  1811.566548  582.161234  1811.500000  582.000000  0.174428
392  316  252.797779  -97.020784  -11.131463  1813.102807  1774.124499  1813.217466  1774.217466  0.147613
393  115  97.312912  -368.889456  -22.249873  1822.217271  1087.161697  1822.217466  1087.217466  0.055770
394  254  213.966667  -174.728724  -11.591290  1827.031156  1586.708389  1827.000000  1586.585092  0.127173
395  68  58.393282  -446.232622  -31.048508  1833.574313  893.718520  1833.500000  893.500000  0.230810
396  195  175.105134  -252.433959  -14.370101  1840.407739  1396.748908  1840.442684  1396.688018  0.070204
397  347  291.592951  -58.159942  -13.451040  1842.120189  1886.408000  1842.000000  1886.500000  0.151358
398  30  19.465350  -523.291496  -42.150312  1843.991499  700.309015  1844.000000  700.414908  0.106234
399  140  136.218706  -330.059034  -19.467106  1853.108019  1204.933577  1853.217466  1204.782534  0.186528
400  5  -19.465350  -599.989337  -55.544627  1853.365465  507.665204  1853.500000  507.500000  0.213054
401  284  252.797779  -135.809785  -12.519583  1856.484061  1701.023495  1856.500000  1701.000000  0.028391
402  90  97.312912  -407.526562  -26.878809  1865.011446  1011.974306  1865.000000  1012.000000  0.028128
403  224  213.966667  -213.506719  -13.905922  1870.337040  1512.693108  1870.500000  1512.500000  0.252679
404  378  330.346665  -19.365460  -16.696601  1870.684644  1997.116725  1870.500000  1997.000000  0.218445
405  47  58.393282  -484.759320  -36.599015  1876.003015  818.598129  1876.000000  818.500000  0.098175
406  166  175.105134  -291.173297  -17.611049  1883.551934  1322.084072  1883.500000  1322.000000  0.098819
407  315  291.592951  -96.924048  -14.375640  1885.477597  1814.005930  1885.500000  1814.000000  0.023175
408  15  19.465350  -561.680344  -48.618836  1885.974715  625.537516  1886.000000  625.500000  0.045241
409  114  136.218706  -368.732080  -23.633248  1896.004859  1129.893289  1896.000000  1130.000000  0.106822
410  253  252.797779  -174.579479  -14.370101  1899.802732  1627.562476  1899.688018  1627.557316  0.114829
411  67  97.312912  -446.105728  -31.968104  1907.576839  936.838493  1907.500000  937.000000  0.178854
412  194  213.966667  -252.254359  -16.682756  1913.530484  1438.430319  1913.500000  1438.500000  0.076057
413  346  330.346665  -58.093626  -17.158407  1913.999265  1925.495575  1914.000000  1925.500000  0.004486
414  29  58.393282  -523.217098  -42.608498  1918.155334  743.648807  1918.311981  743.557316  0.181408
415  139  175.105134  -329.871238  -21.313672  1926.533880  1247.288030  1926.500000  1247.500000  0.214661
416  4  19.465350  -599.989337  -55.544627  1927.635651  551.054979  1927.500000  551.000000  0.146369
417  283  291.592951  -135.674375  -15.762375  1928.790225  1741.186793  1928.782534  1741.217466  0.031623
418  89  136.218706  -407.352703  -28.260210  1938.690182  1054.840453  1938.557316  1054.688019  0.202212
419  377  369.053413  -19.340600  -20.866300  1942.038451  2035.340023  1942.000000  2035.500000  0.164533
420  223  252.797779  -213.324351  -16.682756  1943.026912  1553.793924  1943.000000  1553.585092  0.210559
421  46  97.312912  -484.621471  -37.517032  1949.882473  861.809629  1949.782534  861.782534  0.103547
422  165  213.966667  -290.966135  -19.921398  1956.579546  1363.974089  1956.500000  1364.000000  0.083660
423  314  330.346665  -96.813533  -18.081952  1957.286814  1853.402463  1957.500000  1853.500000  0.234439
424  14  58.393282  -561.600489  -49.076103  1960.001147  668.925222  1960.000000  669.000000  0.074787
425  113  175.105134  -368.522280  -25.477444  1969.321866  1172.415820  1969.500000  1172.500000  0.197023
426  252  291.592951  -174.405413  -17.611049  1972.026327  1668.001854  1972.000000  1668.000000  0.026392
427  66  136.218706  -445.915410  -33.347333  1981.132767  979.830432  1981.217466  979.782534  0.097305
428  345  369.053413  -58.019051  -21.327513  1985.281728  1964.053236  1985.414908  1964.000000  0.143426
429  193  252.797779  -252.038895  -19.457218  1986.124707  1479.770998  1986.217466  1479.782534  0.093474
430  28  97.312912  -523.068312  -43.524807  1991.897867  786.942742  1991.782534  786.782534  0.197405
431  138  213.966667  -329.636543  -23.621386  1999.452446  1289.378885  1999.500000  1289.500000  0.130116
432  282  330.346665  -135.519676  -19.467106  2000.515764  1780.887276  2000.500000  1781.000000  0.113821
433  3  58.393282  -599.904034  -56.000910  2001.510951  594.481410  2001.500000  594.500000  0.021576
434  88  175.105134  -407.120929  -30.101773  2011.884480  1097.522592  2012.000000  1097.500000  0.117708
435  222  291.592951  -213.111655  -19.921398  2015.154113  1594.503186  2015.000000  1594.500000  0.154146
436  45  136.218706  -484.414721  -38.893895  2023.301826  904.918402  2023.414908  905.000000  0.139448
437  313  369.053413  -96.689254  -22.249873  2028.484238  1892.290322  2028.500000  1892.500000  0.210270
438  164  252.797779  -290.717605  -22.693093  2029.064321  1405.547405  2029.000000  1405.500000  0.079903
439  13  97.312912  -561.440788  -49.990572  2033.593105  712.292375  2033.500000  712.500000  0.227545
440  112  213.966667  -368.260086  -27.782196  2042.117636  1214.699439  2042.217466  1214.782534  0.129888
441  251  330.346665  -174.206551  -21.313672  2043.654486  1708.000838  2043.500000  1708.000000  0.154488
442  65  175.105134  -445.661695  -35.186001  2054.190686  1022.663461  2054.311981  1022.557316  0.161181
443  344  407.707692  -57.936228  -25.957766  2055.922776  2002.058774  2056.000000  2002.000000  0.097046
444  192  291.592951  -251.787598  -22.693093  2058.141833  1520.743546  2058.217466  1520.782534  0.085091
445  27  136.218706  -522.845161  -44.899106  2065.167084  830.159211  2065.217466  830.217466  0.077020
446  281  369.053413  -135.345709  -23.633248  2071.614573  1820.100699  2071.500000  1820.000000  0.152536
447  137  252.797779  -329.354983  -26.389922  2071.814135  1331.177257  2071.782534  1331.217466  0.051141
448  2  97.312912  -599.733442  -56.913409  2074.938917  637.912453  2074.782534  637.782534  0.203310
449  87  213.966667  -406.831273  -32.403235  2084.543891  1139.990603  2084.500000  1140.000000  0.044886
450  221  330.346665  -212.868659  -23.621386  2086.671332  1634.794782  2086.557316  1634.688018  0.156199
451  44  175.105134  -484.139100  -40.729407  2096.209904  947.893374  2096.217466  947.782534  0.111098
452  312  407.707692  -96.551227  -26.878809  2099.025185  1930.646800  2099.000000  1930.500000  0.148945
453  163  291.592951  -290.427743  -25.925742  2100.957852  1446.776244  2101.000000  1446.585092  0.195744
454  12  136.218706  -561.201266  -51.362113  2106.698858  755.607242  2106.500000  755.500000  0.225932
455  111  252.797779  -367.945536  -30.547177  2114.342790  1256.714942  2114.500000  1256.500000  0.266299
456  250  369.053413  -173.982922  -25.477444  2114.641246  1747.534718  2114.500000  1747.500000  0.145450
457  343  446.304005  -57.845167  -31.048508  2125.879205  2039.491104  2126.000000  2039.500000  0.121122
458  64  213.966667  -445.344619  -37.483846  2126.700381  1065.307213  2126.500000  1065.500000  0.278064
459  191  330.346665  -251.500503  -26.389922  2129.534716  1561.321431  2129.500000  1561.500000  0.181912
460  26  175.105134  -522.547674  -46.731201  2137.912088  873.266963  2138.000000  873.414908  0.172094
461  280  407.707692  -135.152500  -28.260210  2142.042109  1858.803859  2142.000000  1858.585092  0.222783
462  136  291.592951  -329.026598  -29.618885  2143.570739  1372.655004  2143.500000  1372.500000  0.170383
463  1  136.218706  -599.477583  -58.281997  2147.868122  681.316271  2147.688018  681.442684  0.220040
464  86  252.797779  -406.483776  -35.164269  2156.619264  1182.214983  2156.557316  1182.311981  0.115092
465  220  369.053413  -212.595400  -27.782196  2157.532772  1674.643546  2157.500000  1674.500000  0.147239
466  43  213.966667  -483.794648  -43.023308  2168.556755  990.703945  2168.500000  990.500000  0.211695
467  311  446.304005  -96.399474  -31.968104  2168.866588  1968.450292  2169.000000  1968.500000  0.142372
468  162  330.346665  -290.096590  -29.618885  2172.213187  1487.633666  2172.311981  1487.557316  0.124858
469  11  175.105134  -560.881955  -53.190531  2179.267800  798.838411  2179.217466  798.782534  0.075205
470  249  407.707692  -173.734558  -30.101773  2184.942226  1786.579804  2185.000000  1786.500000  0.098522
471  110  291.592951  -367.578673  -33.771995  2185.949338  1298.433840  2186.000000  1298.500000  0.083329
472  63  252.797779  -444.964226  -40.240541  2198.612955  1107.731896  2198.500000  1107.500000  0.257943
473  190  369.053413  -251.177652  -30.547177  2200.257746  1601.479041  2200.500000  1601.500000  0.243159
474  25  213.966667  -522.175895  -49.020832  2210.083210  916.235182  2210.217466  916.217466  0.135420
475  279  446.304005  -134.940076  -33.347333  2211.755468  1896.974635  2211.585092  1897.000000  0.172254
476  135  330.346665  -328.651433  -33.307816  2214.675518  1413.784794  2214.557316  1413.688018  0.152765
477  219  407.707692  -212.291915  -32.403235  2227.694233  1714.025306  2227.585092  1714.000000  0.112037
478  85  291.592951  -406.078489  -38.384484  2228.062854  1224.166906  2228.217466  1224.217466  0.162669
479  310  484.836866  -96.234016  -37.517032  2237.967077  2005.680328  2238.000000  2005.500000  0.183309
480  42  252.797779  -483.381413  -45.775271  2240.293755  1033.320057  2240.500000  1033.500000  0.273709
481  161  369.053413  -289.724193  -33.771995  2242.784925  1528.093625  2242.782534  1528.217466  0.123865
482  10  213.966667  -560.482903  -55.475566  2251.250572  841.954872  2251.414908  842.000000  0.170420
483  248  446.304005  -173.461493  -35.186001  2254.514705  1825.113465  2254.500000  1825.000000  0.114414
484  109  330.346665  -367.159551  -37.456191  2256.890780  1339.828417  2256.782534  1339.782534  0.117569
485  62  291.592951  -444.520571  -43.455694  2269.880929  1149.908369  2269.782534  1149.782534  0.159738
486  189  407.707692  -250.819090  -35.164269  2270.266931  1641.191733  2270.217466  1641.217466  0.055758
487  278  484.836866  -134.708467  -38.893895  2280.713462  1934.592025  2280.500000  1934.500000  0.232453
488  24  252.797779  -521.729877  -51.767673  2281.632126  959.033561  2281.500000  959.000000  0.136322
489  134  369.053413  -328.229543  -37.456191  2285.083305  1454.540157  2285.000000  1454.500000  0.092479
490  218  446.304005  -211.958248  -37.483846  2297.113201  1752.916931  2297.217466  1752.782534  0.170100
491  84  330.346665  -405.615468  -42.063420  2298.828421  1265.818292  2298.782534  1265.782534  0.058175
492  309  523.300796  -96.054875  -43.524807  2306.287042  2042.317601  2306.500000  2042.500000  0.280393
493  41  291.592951  -482.899454  -48.984906  2311.373716  1075.712267  2311.500000  1075.500000  0.246992
494  160  407.707692  -289.310605  -38.384484  2312.629302  1568.131018  2312.500000  1568.000000  0.184078
495  9  252.797779  -560.004164  -58.216893  2322.599170  884.926087  2322.500000  885.000000  0.123684
496  247  484.836866  -173.163766  -40.729407  2323.317700  1863.114169  2323.500000  1863.000000  0.215100
497  108  369.053413  -366.688228  -41.599241  2327.122201  1380.871794  2327.217466  1380.782534  0.130549
498  188  446.304005  -250.424868  -40.240541  2339.519983  1680.435879  2339.500000  1680.500000  0.067163
499  61  330.346665  -444.013718  -47.128849  2340.458344  1191.808201  2340.500000  1192.000000  0.196270
500  277  523.300796  -134.457706  -44.899106  2348.876688  1971.636168  2349.000000  1971.500000  0.183705
501  23  291.592951  -521.209682  -54.971333  2352.511956  1001.632373  2352.500000  1001.500000  0.132912
502  133  407.707692  -327.760988  -42.063420  2354.750585  1494.895537  2354.782534  1494.782534  0.117433
503  217  484.836866  -211.594446  -43.023308  2365.748918  1791.296362  2365.688018  1791.442684  0.158489
504  83  369.053413  -405.094779  -46.200556  2368.871324  1307.141865  2368.782534  1307.217466  0.116616
505  159  446.304005  -288.855884  -43.455694  2381.704275  1607.721728  2381.557316  1607.688018  0.150775
506  40  330.346665  -482.348840  -52.651756  2381.750981  1117.851809  2381.782534  1117.782534  0.076123
507  246  523.300796  -172.841420  -46.731201  2391.312032  1900.561506  2391.500000  1900.500000  0.197775
508  107  407.707692  -366.164772  -46.200556  2396.600356  1421.537978  2396.500000  1421.500000  0.107302
509  187  484.836866  -249.995042  -45.775271  2407.976385  1719.188903  2408.000000  1719.414908  0.227236
510  60  369.053413  -443.443737  -51.259482  2410.300853  1233.403733  2410.500000  1233.500000  0.221194
511  276  561.690327  -134.187828  -51.362113  2416.207581  2008.088375  2416.217466  2008.217466  0.129469
512  132  446.304005  -327.245833  -47.128849  2423.635578  1534.826343  2423.557316  1534.688018  0.158929
513  216  523.300796  -211.200561  -49.020832  2433.562444  1829.142646  2433.500000  1829.000000  0.155715
514  82  407.707692  -404.516497  -50.795302  2438.148605  1348.111206  2438.217466  1348.217466  0.126622
