# COL 1-3: Estimated X/Y/Z plate position [mm]
# COL 4-6: X/Y/Z plate position error [mm]
407.736610  404.515986  -50.914955  0.028918  -0.000511  -0.003604
523.318065  211.196500  -49.139424  0.017269  -0.004061  -0.002543
446.324298  327.242556  -47.247379  0.020293  -0.003277  -0.002482
561.716045  134.179925  -51.482327  0.025718  -0.007903  -0.004165
369.065416  443.444781  -51.377053  0.012003  0.001044  -0.001522
484.868908  249.986693  -45.895498  0.032042  -0.008349  -0.004178
407.733307  366.162534  -46.319595  0.025615  -0.002238  -0.002990
523.326547  172.830470  -46.850850  0.025751  -0.010950  -0.003600
330.371818  482.351604  -52.770806  0.025153  0.002764  -0.003001
446.313794  288.854012  -43.572932  0.009789  -0.001872  -0.001189
369.069775  405.094995  -46.318508  0.016362  0.000216  -0.001903
484.863034  211.588131  -43.142880  0.026168  -0.006315  -0.003523
407.737324  327.756665  -42.182779  0.029632  -0.004323  -0.003310
291.605427  521.213533  -55.089140  0.012476  0.003851  -0.001758
523.319207  134.451444  -45.017886  0.018411  -0.006262  -0.002731
330.370231  444.014167  -47.247379  0.023566  0.000449  -0.002481
446.325016  250.417937  -40.358960  0.021011  -0.006931  -0.002370
369.060855  366.687470  -41.716056  0.007442  -0.000758  -0.000766
484.868922  173.151560  -40.849621  0.032056  -0.012206  -0.004165
252.818468  560.009336  -58.335477  0.020689  0.005172  -0.002535
407.732551  289.306242  -38.503283  0.024859  -0.004363  -0.002750
291.606277  482.902487  -49.102619  0.013326  0.003033  -0.001664
523.325717  96.041209  -43.644497  0.024921  -0.013666  -0.003642
330.372668  405.615036  -42.182081  0.026003  -0.000432  -0.002612
446.313272  211.955853  -37.601019  0.009267  -0.002395  -0.001124
369.070991  328.226387  -37.573929  0.017578  -0.003156  -0.001689
252.818706  521.733645  -51.885980  0.020927  0.003768  -0.002258
484.863789  134.699546  -39.013618  0.026923  -0.008921  -0.003674
407.737565  250.810753  -35.283442  0.029873  -0.008337  -0.003124
291.602072  444.521437  -43.572689  0.009121  0.000866  -0.000946
330.369074  367.157447  -37.574294  0.022409  -0.002104  -0.002054
446.324729  173.451264  -35.304365  0.020724  -0.010229  -0.002315
213.977673  560.487897  -55.593221  0.011006  0.004994  -0.001606
369.055891  289.723581  -33.888272  0.002478  -0.000612  -0.000228
252.819510  483.384398  -45.893475  0.021731  0.002985  -0.002155
484.868467  96.218679  -37.637371  0.031601  -0.015337  -0.004290
291.607832  406.078745  -38.501910  0.014881  0.000256  -0.001377
407.732622  212.285369  -32.521998  0.024930  -0.006546  -0.002714
330.373045  328.647178  -33.426129  0.026380  -0.004255  -0.002264
446.315402  134.934782  -33.464735  0.011397  -0.005294  -0.001353
213.977358  522.179326  -49.138149  0.010691  0.003431  -0.001268
369.071240  251.171022  -30.664746  0.017827  -0.006630  -0.001520
252.817231  444.964595  -40.358166  0.019452  0.000369  -0.001576
291.598407  367.578078  -33.888469  0.005456  -0.000595  -0.000425
407.737449  173.722491  -30.220924  0.029757  -0.012067  -0.003102
175.122255  560.887493  -53.308481  0.017121  0.005538  -0.001901
330.368733  290.092360  -29.736808  0.022068  -0.004230  -0.001874
446.323579  96.386805  -32.086477  0.019574  -0.012669  -0.002324
213.979332  483.797820  -43.140674  0.012665  0.003172  -0.001317
369.057451  212.593729  -27.898595  0.004038  -0.001671  -0.000350
252.820022  406.483435  -35.282016  0.022243  -0.000341  -0.001698
136.230104  599.484534  -58.399830  0.011398  0.006951  -0.001784
291.608456  329.023505  -29.736017  0.015505  -0.003093  -0.001083
407.733340  135.143172  -28.379101  0.025648  -0.009328  -0.002842
175.121645  522.551056  -46.848698  0.016511  0.003382  -0.001448
330.373101  251.492354  -26.508035  0.026436  -0.008149  -0.002064
213.975205  445.345244  -37.600548  0.008538  0.000625  -0.000653
446.318633  57.835437  -31.166402  0.014628  -0.009730  -0.001845
369.070744  173.973216  -25.594946  0.017331  -0.009706  -0.001454
252.816532  367.943586  -30.664470  0.018753  -0.001950  -0.001244
136.229639  561.206640  -51.479564  0.010933  0.005374  -0.001402
291.596601  290.427000  -26.042053  0.003650  -0.000743  -0.000262
407.737026  96.536094  -26.998101  0.029334  -0.015133  -0.003243
175.122956  484.142212  -40.846891  0.017822  0.003112  -0.001435
330.368940  212.862151  -23.739278  0.022275  -0.006508  -0.001843
213.980185  406.831515  -32.520209  0.013518  0.000242  -0.000925
97.326417  599.740605  -57.031207  0.013505  0.007163  -0.001749
252.820197  329.350871  -26.507303  0.022418  -0.004112  -0.001332
369.061720  135.340609  -23.750030  0.008307  -0.005100  -0.000733
136.228810  522.848295  -45.016091  0.010104  0.003134  -0.000936
291.608423  251.781166  -22.810035  0.015472  -0.006432  -0.000892
407.734706  57.922895  -26.076977  0.027014  -0.013333  -0.003162
175.120524  445.662026  -35.302931  0.015390  0.000331  -0.000881
330.372924  174.194817  -21.431765  0.026259  -0.011734  -0.002045
213.973725  368.259279  -27.898619  0.007058  -0.000807  -0.000374
97.326211  561.446479  -50.108017  0.013299  0.005691  -0.001396
252.816393  290.713589  -22.810234  0.018614  -0.004016  -0.001092
369.069602  96.677261  -22.367407  0.016189  -0.011993  -0.001485
136.230457  484.417948  -39.010925  0.011751  0.003227  -0.000981
291.598218  213.109352  -20.037769  0.005267  -0.002303  -0.000322
175.123264  407.120684  -30.218772  0.018130  -0.000245  -0.000950
58.403487  599.910858  -56.118420  0.010205  0.006824  -0.001462
330.369598  135.510317  -19.585099  0.022933  -0.009359  -0.001944
213.980449  329.633454  -23.738031  0.013782  -0.003089  -0.000596
97.325281  523.071412  -43.641733  0.012369  0.003100  -0.000878
252.820154  252.031025  -19.574399  0.022375  -0.007870  -0.001132
369.065140  58.009664  -21.444728  0.011727  -0.009387  -0.001166
136.227494  445.915804  -33.463807  0.008788  0.000394  -0.000425
291.607891  174.396047  -17.727936  0.014940  -0.009366  -0.000838
175.120067  368.520495  -25.594097  0.014933  -0.001785  -0.000605
58.403409  561.606095  -49.193315  0.010127  0.005606  -0.001163
330.372550  96.798819  -18.200196  0.025885  -0.014714  -0.002195
213.973475  290.964559  -20.037754  0.006808  -0.001576  -0.000308
97.326704  484.624647  -37.633974  0.013792  0.003176  -0.000893
252.816653  213.318050  -16.799860  0.018874  -0.006301  -0.001055
369.067817  19.327468  -20.983909  0.014404  -0.013132  -0.001560
136.230870  407.352887  -28.376794  0.012164  0.000184  -0.000535
291.601076  135.668894  -15.878924  0.008125  -0.005481  -0.000500
19.474902  599.996203  -55.662018  0.009552  0.006866  -0.001342
175.123329  329.867309  -21.430303  0.018195  -0.003929  -0.000583
58.402469  523.220074  -42.725197  0.009187  0.002976  -0.000650
330.370713  58.080361  -17.276665  0.024048  -0.013265  -0.002209
213.980302  252.248012  -16.799210  0.013635  -0.006347  -0.000405
97.324412  446.106037  -32.084541  0.011500  0.000309  -0.000388
252.819960  174.568172  -14.487268  0.022181  -0.011307  -0.001118
136.226763  368.731034  -23.749517  0.008057  -0.001046  -0.000220
19.474872  561.686024  -48.735934  0.009522  0.005680  -0.001049
291.606933  96.912454  -14.492598  0.013982  -0.011594  -0.000909
175.120031  291.169549  -17.727565  0.014897  -0.003748  -0.000467
58.403836  484.762547  -36.715740  0.010554  0.003227  -0.000676
330.371971  19.348642  -16.815124  0.025306  -0.016818  -0.002474
213.974326  213.503495  -14.022263  0.007659  -0.003224  -0.000292
97.326899  407.526416  -26.995260  0.013987  -0.000146  -0.000402
252.817249  135.800624  -12.636762  0.019470  -0.009161  -0.001130
-19.457005  599.996186  -55.661906  0.008345  0.006849  -0.001230
136.230951  330.055878  -19.583348  0.012245  -0.003156  -0.000193
19.473987  523.294443  -42.266891  0.008637  0.002947  -0.000530
291.603550  58.150502  -13.567871  0.010599  -0.009440  -0.000782
175.123243  252.426411  -14.486539  0.018109  -0.007548  -0.000389
58.401516  446.232932  -31.164749  0.008234  0.000310  -0.000192
213.979853  174.719508  -11.707711  0.013186  -0.009216  -0.000372
97.324087  368.887841  -22.366073  0.011175  -0.001615  -0.000151
252.819640  97.006593  -11.248788  0.021861  -0.014191  -0.001276
-19.457030  561.686012  -48.735824  0.008320  0.005668  -0.000939
136.226767  291.336855  -15.878564  0.008061  -0.002207  -0.000140
19.475238  484.831447  -36.256563  0.009888  0.003197  -0.000540
291.605554  19.374724  -13.105810  0.012603  -0.012842  -0.001053
175.120305  213.652746  -11.707762  0.015171  -0.005985  -0.000423
58.404003  407.642558  -26.074018  0.010721  0.000076  -0.000203
213.975555  135.919759  -9.855567  0.008888  -0.006128  -0.000329
97.326913  330.196178  -18.198042  0.014001  -0.003726  -0.000041
-58.387216  599.910773  -56.118108  0.006066  0.006739  -0.001150
252.818191  58.204988  -10.323343  0.020412  -0.013000  -0.001353
-19.457809  523.294435  -42.266792  0.007541  0.002939  -0.000431
136.230802  252.571276  -12.635642  0.012096  -0.006394  -0.000010
19.473263  446.296368  -30.704815  0.007913  0.000294  -0.000088
291.605586  -19.401416  -13.105972  0.012635  -0.013850  -0.001215
175.123056  174.842282  -9.391441  0.017922  -0.010845  -0.000382
58.401147  368.993133  -21.443561  0.007865  -0.001253  0.000001
213.979162  97.092261  -8.466412  0.012495  -0.011464  -0.000479
-58.387269  561.606019  -49.193009  0.006013  0.005530  -0.000857
97.324100  291.459968  -14.491716  0.011188  -0.003438  -0.000027
-19.456712  484.831441  -36.256450  0.008638  0.003191  -0.000427
252.819185  19.390608  -9.860761  0.021406  -0.016308  -0.001565
136.227296  213.776376  -9.855336  0.008590  -0.003991  -0.000098
19.475376  407.700404  -25.613316  0.010026  -0.000042  -0.000055
175.120842  136.013838  -7.538116  0.015708  -0.008826  -0.000476
58.404008  330.290517  -17.274312  0.010726  -0.003312  0.000144
-97.307040  599.740470  -57.030594  0.005872  0.007028  -0.001136
213.976955  58.257968  -7.540120  0.010288  -0.009790  -0.000501
-58.387891  523.220029  -42.724926  0.005391  0.002931  -0.000379
97.326816  252.678257  -11.247368  0.013904  -0.007213  0.000144
-19.458440  446.296367  -30.704726  0.006910  0.000293  0.000001
252.819259  -19.424529  -9.860969  0.021480  -0.017613  -0.001773
136.230501  174.943398  -7.537635  0.011795  -0.009273  0.000005
19.473003  369.045418  -20.982232  0.007653  -0.001437  0.000117
175.122787  97.159234  -6.147887  0.017653  -0.013627  -0.000542
-97.307141  561.446366  -50.107420  0.005771  0.005578  -0.000799
58.401188  291.543621  -13.566990  0.007906  -0.002692  0.000099
213.978250  19.410615  -7.077113  0.011583  -0.012891  -0.000684
-58.386981  484.762505  -36.715429  0.006301  0.003185  -0.000365
97.324367  213.866020  -8.465908  0.011455  -0.005589  0.000025
-19.456593  407.700405  -25.613203  0.008757  -0.000041  0.000058
136.228170  136.093194  -5.683273  0.009464  -0.006907  -0.000107
19.475374  330.337284  -16.812353  0.010024  -0.003510  0.000297
-136.215558  599.484359  -58.399179  0.003148  0.006776  -0.001133
175.121647  58.296632  -5.221033  0.016513  -0.012611  -0.000661
-97.307610  523.071342  -43.641187  0.005302  0.003030  -0.000332
58.403914  252.750749  -10.321668  0.010632  -0.006597  0.000322
213.978291  -19.437425  -7.077276  0.011624  -0.013919  -0.000847
-58.388516  446.232920  -31.164512  0.004766  0.000298  0.000045
97.326648  175.016964  -6.147198  0.013736  -0.010377  0.000147
-19.458668  369.045419  -20.982146  0.006682  -0.001436  0.000203
136.230099  97.216564  -4.292209  0.011393  -0.011618  -0.000130
19.473034  291.584686  -13.104526  0.007684  -0.003083  0.000231
-136.215712  561.206501  -51.478949  0.002994  0.005235  -0.000787
175.122429  19.421614  -4.757688  0.017295  -0.015722  -0.000836
-97.306895  484.624584  -37.633367  0.006017  0.003113  -0.000286
58.401529  213.927831  -7.539464  0.008247  -0.004614  0.000155
213.977136  -58.281053  -7.540544  0.010469  -0.013295  -0.000925
-58.386869  407.642554  -26.073709  0.006413  0.000072  0.000106
97.324851  136.149784  -4.292085  0.011939  -0.008405  -0.000006
-19.456598  330.337292  -16.812242  0.008752  -0.003502  0.000408
136.228960  58.332002  -3.364820  0.010254  -0.010437  -0.000242
-136.216006  522.848209  -45.015536  0.002700  0.003048  -0.000381
19.475286  252.786415  -9.858722  0.009936  -0.006872  0.000474
175.122493  -19.454323  -4.757886  0.017359  -0.016987  -0.001034
-97.308028  446.106019  -32.084046  0.004884  0.000291  0.000107
58.403755  175.067565  -5.220046  0.010473  -0.009562  0.000326
-58.388755  368.993139  -21.443338  0.004527  -0.001247  0.000224
97.326425  97.256624  -2.900413  0.013513  -0.013055  -0.000014
-19.458642  291.584692  -13.104441  0.006708  -0.003077  0.000316
-175.102431  560.887278  -53.307362  0.002703  0.005323  -0.000782
136.229647  19.435102  -2.901173  0.010941  -0.013299  -0.000378
-136.215443  484.417861  -39.010278  0.003263  0.003140  -0.000334
19.473281  213.957744  -7.076140  0.007931  -0.005120  0.000289
175.121946  -58.326170  -5.221578  0.016812  -0.016927  -0.001206
-97.306800  407.526411  -26.994656  0.006112  -0.000151  0.000202
58.402130  136.189432  -3.364424  0.008848  -0.007487  0.000154
-58.386869  330.290553  -17.274007  0.006413  -0.003276  0.000449
97.325530  58.355209  -1.972662  0.012618  -0.012131  -0.000160
-175.102585  522.550916  -46.847638  0.002549  0.003242  -0.000388
-19.456675  252.786430  -9.858612  0.008675  -0.006857  0.000584
136.229688  -19.462762  -2.901339  0.010982  -0.014361  -0.000544
-136.216482  445.915783  -33.463340  0.002224  0.000373  0.000042
19.475144  175.092107  -4.756378  0.009794  -0.009915  0.000474
-97.308186  368.887853  -22.365597  0.004726  -0.001603  0.000325
58.403549  97.285299  -1.972327  0.010267  -0.012048  0.000175
-58.388731  291.543645  -13.566768  0.004551  -0.002668  0.000321
-213.965927  560.487688  -55.592401  0.000740  0.004785  -0.000786
97.326141  19.441607  -1.508825  0.013229  -0.015095  -0.000304
-175.102251  484.142088  -40.845748  0.002883  0.002988  -0.000292
-19.458427  213.957754  -7.076052  0.006923  -0.005110  0.000377
136.229198  -58.356619  -3.365270  0.010492  -0.014180  -0.000692
-136.215316  407.352882  -28.376139  0.003390  0.000179  0.000120
19.473719  136.208358  -2.900514  0.008369  -0.007927  0.000281
-97.306799  330.196235  -18.197445  0.006113  -0.003669  0.000556
58.402756  58.372873  -1.044313  0.009474  -0.011069  0.000029
-58.386937  252.750822  -10.321370  0.006345  -0.006524  0.000620
-213.965967  522.179182  -49.137368  0.000700  0.003287  -0.000487
97.326192  -19.473014  -1.509014  0.013280  -0.016312  -0.000493
-175.102847  445.661991  -35.301967  0.002287  0.000296  0.000083
-19.456799  175.092128  -4.756270  0.008551  -0.009894  0.000582
136.230423  -97.246746  -4.293122  0.011717  -0.018564  -0.001043
-136.216733  368.731046  -23.749097  0.001973  -0.001034  0.000200
19.474962  97.298698  -1.508206  0.009612  -0.012484  0.000315
-97.308184  291.460010  -14.491243  0.004728  -0.003396  0.000446
-252.798443  560.009034  -58.333845  -0.000664  0.004870  -0.000903
58.403293  19.448327  -0.580324  0.010011  -0.013909  -0.000096
-213.965769  483.797685  -43.139753  0.000898  0.003037  -0.000396
-58.388513  213.927883  -7.539234  0.004769  -0.004562  0.000385
97.325769  -58.383659  -1.973178  0.012857  -0.016319  -0.000676
-175.102177  407.120673  -30.217629  0.002957  -0.000256  0.000193
-19.458045  136.208375  -2.900421  0.007305  -0.007910  0.000374
-136.215299  330.055966  -19.582700  0.003407  -0.003068  0.000455
19.474267  58.380669  -0.580074  0.008917  -0.011575  0.000154
-97.306854  252.678374  -11.246780  0.006058  -0.007096  0.000732
-252.798422  521.733425  -51.884348  -0.000643  0.003548  -0.000626
58.403326  -19.477260  -0.580498  0.010044  -0.015024  -0.000270
-213.966222  445.345215  -37.599948  0.000445  0.000596  -0.000053
-58.387050  175.067674  -5.219753  0.006232  -0.009453  0.000619
97.326816  -97.290415  -2.901432  0.013904  -0.020736  -0.001033
-175.102955  368.520520  -25.593174  0.002179  -0.001760  0.000318
-19.456957  97.298724  -1.508099  0.008393  -0.012458  0.000422
-136.216735  291.336897  -15.878147  0.001971  -0.002165  0.000277
-252.798357  483.384216  -45.891786  -0.000578  0.002803  -0.000466
-97.308060  213.866100  -8.465426  0.004852  -0.005509  0.000507
58.402965  -58.398918  -1.044783  0.009683  -0.014976  -0.000441
-213.965699  406.831512  -32.519250  0.000968  0.000239  0.000034
-58.388125  136.189525  -3.364177  0.005157  -0.007394  0.000401
97.325372  -136.174961  -4.293151  0.012460  -0.016772  -0.001072
-175.102168  329.867419  -21.429172  0.002966  -0.003819  0.000548
-19.457566  58.380697  -0.579975  0.007784  -0.011547  0.000253
-136.215357  252.571450  -12.635008  0.003349  -0.006220  0.000624
-291.593846  521.213308  -55.088052  -0.000895  0.003626  -0.000670
-252.798521  444.964543  -40.356692  -0.000742  0.000317  -0.000102
-97.306944  175.017136  -6.146619  0.005968  -0.010205  0.000726
58.403859  -97.316569  -1.973265  0.010577  -0.019222  -0.000763
-0.000000  0.000000  0.000000  -0.000000  0.000000  0.000000
-213.966445  368.259298  -27.898140  0.000222  -0.000788  0.000105
-58.387196  97.285441  -1.972038  0.006086  -0.011906  0.000464
-175.102969  291.169632  -17.726652  0.002165  -0.003665  0.000446
-291.593902  482.902309  -49.101470  -0.000951  0.002855  -0.000515
-136.216557  213.776473  -9.854893  0.002149  -0.003894  0.000345
19.474444  -58.407853  -0.580562  0.009094  -0.015609  -0.000334
-252.798321  406.483420  -35.280316  -0.000542  -0.000356  0.000002
-97.307830  136.149920  -4.291582  0.005082  -0.008269  0.000497
58.402522  -136.211930  -3.365371  0.009240  -0.015011  -0.000793
-213.965688  329.633604  -23.737072  0.000979  -0.002939  0.000363
-58.387719  58.373007  -1.044047  0.005563  -0.010935  0.000295
-175.102200  252.426638  -14.485424  0.002934  -0.007321  0.000726
-291.593655  444.521392  -43.571920  -0.000704  0.000821  -0.000177
-136.215464  174.943643  -7.537020  0.003242  -0.009028  0.000620
19.475248  -97.331057  -1.509173  0.009898  -0.019875  -0.000652
-252.798567  367.943628  -30.663071  -0.000788  -0.001908  0.000155
-97.307063  97.256844  -2.899842  0.005849  -0.012835  0.000557
-213.966483  290.964602  -20.037297  0.000184  -0.001533  0.000149
-58.387376  19.448495  -0.580041  0.005906  -0.013741  0.000187
-330.350793  482.351374  -52.768610  -0.004128  0.002534  -0.000805
-175.102914  213.652901  -11.706836  0.002220  -0.005830  0.000503
-19.457402  -58.407820  -0.580460  0.007948  -0.015576  -0.000232
-291.594018  406.078744  -38.500661  -0.001067  0.000255  -0.000128
-136.216256  136.093371  -5.682782  0.002450  -0.006730  0.000384
19.474078  -136.232124  -2.901508  0.008728  -0.015839  -0.000713
-252.798316  329.351037  -26.505611  -0.000537  -0.003946  0.000360
-97.307506  58.355421  -1.972128  0.005406  -0.011919  0.000374
-213.965717  252.248307  -16.798272  0.000950  -0.006052  0.000533
-58.387352  -19.477086  -0.580211  0.005930  -0.014850  0.000017
-330.350707  444.014100  -47.245365  -0.004042  0.000382  -0.000467
-175.102260  174.842618  -9.390340  0.002874  -0.010509  0.000719
-19.456705  -97.331014  -1.509061  0.008645  -0.019832  -0.000540
-291.593450  367.578118  -33.888026  -0.000499  -0.000555  0.000018
-136.215602  97.216859  -4.291612  0.003104  -0.011323  0.000467
19.475698  -175.126277  -4.758217  0.010348  -0.024255  -0.001365
-252.798583  290.713716  -22.808856  -0.000804  -0.003889  0.000286
-97.307209  19.441865  -1.508262  0.005703  -0.014837  0.000259
-369.055845  481.732213  -56.892013  -0.002432  0.002564  -0.000665
-213.966364  213.503616  -14.021747  0.000303  -0.003103  0.000224
-58.387604  -58.398730  -1.044505  0.005678  -0.014788  -0.000163
-330.350841  405.615018  -42.179841  -0.004176  -0.000450  -0.000372
-175.102797  136.014092  -7.537156  0.002337  -0.008572  0.000484
-19.457723  -136.232082  -2.901409  0.007627  -0.015797  -0.000614
-291.594076  329.023721  -29.734743  -0.001125  -0.002877  0.000191
-136.215985  58.332254  -3.364283  0.002721  -0.010185  0.000295
-252.798333  252.031367  -19.572726  -0.000554  -0.007528  0.000541
-97.307187  -19.472735  -1.508446  0.005725  -0.016033  0.000075
-369.055543  443.444717  -51.375910  -0.002130  0.000980  -0.000379
-213.965772  174.719925  -11.706808  0.000895  -0.008799  0.000531
-58.387011  -97.316354  -1.972957  0.006271  -0.019007  -0.000455
-330.350646  367.157513  -37.572416  -0.003981  -0.002038  -0.000176
-19.456308  -175.126225  -4.758098  0.009042  -0.024203  -0.001246
-175.102341  97.159662  -6.146801  0.002793  -0.013199  0.000544
-291.593418  290.427025  -26.041769  -0.000467  -0.000718  0.000022
-136.215759  19.435426  -2.900595  0.002947  -0.012975  0.000200
-252.798578  213.318276  -16.798468  -0.000799  -0.006075  0.000337
-97.307395  -58.383377  -1.972625  0.005517  -0.016037  -0.000123
-369.056316  405.095000  -46.316966  -0.002903  0.000221  -0.000361
-58.387905  -136.211733  -3.365101  0.005377  -0.014814  -0.000523
-213.966199  135.919992  -9.854962  0.000468  -0.005895  0.000276
-330.350873  328.647399  -33.423885  -0.004208  -0.004034  -0.000020
-175.102618  58.297040  -5.220018  0.002516  -0.012203  0.000354
-291.594092  251.781591  -22.808779  -0.001141  -0.006007  0.000364
-136.215748  -19.462422  -2.900755  0.002958  -0.014021  0.000040
-407.715108  442.811251  -55.964072  -0.007416  0.000540  -0.001017
-97.306889  -97.290070  -2.900827  0.006023  -0.020391  -0.000428
-252.798366  174.568675  -14.485616  -0.000587  -0.010804  0.000534
-58.386693  -175.100393  -5.221503  0.006589  -0.023266  -0.001131
-369.054750  366.687547  -41.715366  -0.001337  -0.000681  -0.000076
-213.965848  97.092762  -8.465552  0.000819  -0.010963  0.000381
-330.350637  290.092533  -29.734975  -0.003972  -0.004057  -0.000041
-175.102441  19.422114  -4.756617  0.002693  -0.015222  0.000235
-136.215929  -58.356263  -3.364710  0.002777  -0.013824  -0.000132
-291.593447  213.109480  -20.037348  -0.000496  -0.002175  0.000099
-97.307589  -136.174672  -4.292609  0.005323  -0.016483  -0.000530
-407.715327  404.515968  -50.912253  -0.007635  -0.000529  -0.000902
-252.798552  135.800988  -12.635324  -0.000773  -0.008797  0.000308
-58.388138  -213.946827  -7.540471  0.005144  -0.014382  -0.000852
-369.056553  328.226666  -37.572307  -0.003140  -0.002877  -0.000067
-213.966060  58.258369  -7.539411  0.000607  -0.009389  0.000208
-330.350893  251.492809  -26.505804  -0.004228  -0.007694  0.000167
-175.102431  -19.453784  -4.756805  0.002703  -0.016448  0.000047
-136.215520  -97.246298  -4.292486  0.003186  -0.018116  -0.000407
-291.594073  174.396646  -17.726727  -0.001122  -0.008767  0.000371
-97.306606  -175.052187  -6.148491  0.006306  -0.024846  -0.001146
-407.714837  366.162636  -46.317267  -0.007145  -0.002136  -0.000662
-252.798409  97.007235  -11.247157  -0.000630  -0.013549  0.000355
-369.053902  289.723618  -33.888049  -0.000489  -0.000575  -0.000005
-213.965942  19.411153  -7.076308  0.000725  -0.012353  0.000121
-175.102568  -58.325628  -5.220527  0.002566  -0.016385  -0.000155
-330.350663  212.862441  -23.737434  -0.003998  -0.006218  0.000001
-136.216148  -136.113698  -5.683627  0.002558  -0.013597  -0.000461
-446.308880  403.880811  -55.963747  -0.004875  0.000108  -0.000692
-291.593625  135.669227  -15.878270  -0.000674  -0.005148  0.000154
-97.307650  -213.888808  -8.466905  0.005262  -0.017199  -0.000972
-407.715450  327.756937  -42.180039  -0.007758  -0.004051  -0.000570
-252.798503  58.205586  -10.321824  -0.000724  -0.012402  0.000166
-213.965940  -19.436849  -7.076461  0.000727  -0.013343  -0.000032
-369.056617  251.171570  -30.663120  -0.003204  -0.006082  0.000106
-175.102260  -97.193791  -6.147815  0.002874  -0.020930  -0.000470
-330.350905  174.195488  -21.429558  -0.004240  -0.011063  0.000162
-136.215306  -174.974977  -7.538696  0.003400  -0.022306  -0.001056
-446.307623  365.588177  -51.375910  -0.003618  -0.001080  -0.000379
-291.594022  96.913174  -14.491461  -0.001071  -0.010874  0.000228
-407.714744  289.306459  -38.501052  -0.007052  -0.004146  -0.000519
-252.798460  19.391354  -9.859156  -0.000681  -0.015562  0.000040
-213.966055  -58.280533  -7.539807  0.000612  -0.012775  -0.000188
-369.054157  212.593848  -27.898228  -0.000744  -0.001552  0.000017
-175.102677  -136.039707  -7.538220  0.002457  -0.017043  -0.000580
-330.350715  135.510775  -19.583196  -0.004050  -0.008901  -0.000041
-136.216391  -213.792695  -9.855951  0.002315  -0.012328  -0.000713
-446.309392  327.242881  -47.245344  -0.005387  -0.002952  -0.000447
-291.593797  58.151072  -13.567007  -0.000846  -0.008870  0.000082
-252.798461  -19.423729  -9.859349  -0.000682  -0.016813  -0.000153
-407.715508  250.811313  -35.280701  -0.007816  -0.007777  -0.000383
-213.965838  -97.121260  -8.466401  0.000829  -0.017535  -0.000468
-369.056546  173.973991  -25.593370  -0.003133  -0.008931  0.000122
-175.102103  -174.878609  -9.392265  0.003031  -0.025482  -0.001206
-484.846813  364.959585  -56.892603  -0.009947  -0.002180  -0.001255
-330.350908  96.799672  -18.198019  -0.004243  -0.013861  -0.000018
-136.215122  -252.604028  -12.637529  0.003584  -0.026358  -0.001897
-446.307029  288.854125  -43.572004  -0.003024  -0.001759  -0.000261
-291.593940  19.375495  -13.104773  -0.000989  -0.012071  -0.000016
-252.798519  -58.234615  -10.322345  -0.000740  -0.016627  -0.000355
-407.714772  212.285707  -32.519769  -0.007080  -0.006208  -0.000485
-213.966190  -135.937930  -9.855710  0.000477  -0.012043  -0.000472
-369.054924  135.340993  -23.749273  -0.001511  -0.004716  0.000024
-175.102710  -213.676821  -11.708397  0.002424  -0.018090  -0.001058
-484.847607  326.680205  -52.769024  -0.010741  -0.003949  -0.001219
-330.350790  58.081120  -17.274652  -0.004125  -0.012506  -0.000196
-291.593943  -19.400598  -13.104923  -0.000992  -0.013032  -0.000166
-446.309593  250.418582  -40.356875  -0.005588  -0.006286  -0.000285
-252.798431  -97.042235  -11.248203  -0.000652  -0.021451  -0.000691
-407.715516  173.723316  -30.218204  -0.007824  -0.011242  -0.000382
-213.965753  -174.750473  -11.708447  0.000914  -0.021749  -0.001108
-369.056355  96.678190  -22.365927  -0.002942  -0.011064  -0.000005
-175.101965  -252.463841  -14.488300  0.003169  -0.029882  -0.002150
-484.846488  288.355980  -49.102037  -0.009622  -0.004117  -0.001082
-330.350897  19.349627  -16.812986  -0.004232  -0.015833  -0.000336
-291.593822  -58.172022  -13.567384  -0.000871  -0.012080  -0.000295
-446.306941  211.955948  -37.600150  -0.002936  -0.002300  -0.000255
-252.798584  -135.827225  -12.636422  -0.000805  -0.017440  -0.000790
-407.714894  135.143697  -28.376799  -0.007202  -0.008803  -0.000540
-213.966351  -213.516603  -14.022599  0.000316  -0.009884  -0.000628
-369.055552  58.010361  -21.443650  -0.002139  -0.008690  -0.000088
-175.102678  -291.193030  -17.728735  0.002456  -0.019733  -0.001637
-484.847762  249.987335  -45.892363  -0.010896  -0.007707  -0.001043
-330.350911  -19.382562  -16.813184  -0.004246  -0.017102  -0.000534
-291.594064  -96.941428  -14.492307  -0.001113  -0.017380  -0.000618
-446.309538  173.452178  -35.302315  -0.005533  -0.009315  -0.000265
-252.798410  -174.605585  -14.487601  -0.000631  -0.026106  -0.001451
-407.715479  96.537142  -26.995419  -0.007787  -0.014085  -0.000561
-213.965686  -252.280067  -16.800737  0.000981  -0.025708  -0.001932
-523.307872  287.820330  -55.088268  -0.007076  -0.002981  -0.000887
-369.056044  19.328450  -20.982576  -0.002631  -0.012150  -0.000227
-330.350870  -58.110377  -17.275183  -0.004205  -0.016751  -0.000727
-484.846457  211.588492  -43.140409  -0.009591  -0.005954  -0.001052
-291.593666  -135.684934  -15.878929  -0.000715  -0.010559  -0.000505
-446.307354  134.935147  -33.463639  -0.003349  -0.004929  -0.000257
-252.798627  -213.343069  -16.800100  -0.000848  -0.018718  -0.001295
-407.715100  57.923791  -26.074525  -0.007408  -0.012437  -0.000710
-213.966455  -290.974579  -20.038190  0.000212  -0.008444  -0.000744
-523.309714  249.522997  -51.884655  -0.008918  -0.006677  -0.000933
-369.056051  -19.353712  -20.982727  -0.002638  -0.013112  -0.000378
-330.351034  -96.835450  -18.199099  -0.004369  -0.021917  -0.001098
-484.847795  173.152505  -40.846495  -0.010929  -0.011261  -0.001039
-291.594156  -174.427064  -17.728369  -0.001205  -0.021651  -0.001271
-446.309263  96.387893  -32.084533  -0.005258  -0.011581  -0.000380
-252.798400  -252.069408  -19.575685  -0.000621  -0.030513  -0.002418
-407.715390  19.297013  -25.614134  -0.007698  -0.015978  -0.000873
-369.055598  -58.030882  -21.444022  -0.002185  -0.011831  -0.000460
-523.307620  211.196705  -49.137738  -0.006824  -0.003856  -0.000857
-330.350905  -135.537268  -19.584321  -0.004240  -0.017592  -0.001166
-484.846635  134.700093  -39.011062  -0.009769  -0.008374  -0.001118
-291.593490  -213.118804  -20.037965  -0.000539  -0.007149  -0.000518
-446.308045  57.836167  -31.164954  -0.004040  -0.009000  -0.000397
-252.798649  -290.738260  -22.811062  -0.000870  -0.020655  -0.001920
-561.703129  249.021449  -58.334612  -0.012802  -0.007381  -0.001670
-407.715413  -19.330244  -25.614335  -0.007721  -0.017253  -0.001074
-369.056438  -96.706918  -22.366793  -0.003025  -0.017664  -0.000871
-523.309762  172.831431  -46.848172  -0.008966  -0.009989  -0.000922
-330.351154  -174.233216  -21.431610  -0.004489  -0.026665  -0.001890
-484.847721  96.219880  -37.634291  -0.010855  -0.014136  -0.001210
-291.594217  -251.813104  -22.811237  -0.001266  -0.025506  -0.002094
-446.308784  19.269954  -30.705311  -0.004779  -0.012682  -0.000584
-252.798401  -329.389272  -26.509507  -0.000622  -0.034289  -0.003536
-561.701161  210.771321  -55.593161  -0.010834  -0.005327  -0.001546
-407.715241  -57.952874  -26.075063  -0.007549  -0.016646  -0.001248
-369.054987  -135.355378  -23.749880  -0.001574  -0.009669  -0.000583
-523.307896  134.451852  -45.016064  -0.007100  -0.005854  -0.000909
-330.350974  -212.887671  -23.739123  -0.004309  -0.019012  -0.001688
-484.847010  57.733806  -36.716372  -0.010144  -0.012077  -0.001308
-291.593463  -290.431624  -26.042186  -0.000512  -0.003881  -0.000395
-446.308792  -19.296317  -30.705469  -0.004787  -0.013681  -0.000742
-407.715707  -96.573481  -26.996531  -0.008015  -0.022254  -0.001673
-561.703238  172.483505  -53.308247  -0.012911  -0.010995  -0.001667
-369.056716  -174.004931  -25.595051  -0.003303  -0.022009  -0.001559
-523.309570  96.042331  -43.641907  -0.008774  -0.012544  -0.001052
-330.351264  -251.531518  -26.508849  -0.004599  -0.031015  -0.002878
-291.594236  -329.055068  -29.737945  -0.001285  -0.028470  -0.003011
-484.847532  19.233637  -36.257530  -0.010666  -0.015903  -0.001507
-446.308132  -57.857398  -31.165345  -0.004127  -0.012231  -0.000788
-407.715232  -135.169844  -28.377933  -0.007540  -0.017344  -0.001674
-561.701364  134.180424  -51.479782  -0.011037  -0.007404  -0.001620
-369.054186  -212.600521  -27.898669  -0.000773  -0.005121  -0.000424
-523.308626  57.628292  -42.725638  -0.007830  -0.010096  -0.001091
-330.351064  -290.117809  -29.737286  -0.004399  -0.021219  -0.002352
-291.593505  -367.587786  -33.889131  -0.000554  -0.009113  -0.001087
-484.847563  -19.266703  -36.257732  -0.010697  -0.017163  -0.001709
-446.309399  -96.417932  -32.085448  -0.005394  -0.018458  -0.001295
-407.715965  -173.761615  -30.220318  -0.008273  -0.027057  -0.002496
-561.703138  95.848202  -50.108445  -0.012811  -0.013876  -0.001824
-369.056872  -251.203371  -30.665619  -0.003459  -0.025719  -0.002393
-330.351353  -328.685935  -33.427853  -0.004688  -0.034502  -0.003988
-523.309238  19.199801  -42.267649  -0.008442  -0.013906  -0.001288
-484.847202  -57.762038  -36.716906  -0.010336  -0.016155  -0.001842
-446.307491  -134.950033  -33.464280  -0.003486  -0.009957  -0.000898
-600.011946  133.891554  -58.399976  -0.011946  -0.007319  -0.001930
-407.715327  -212.310728  -32.521482  -0.007635  -0.018813  -0.002198
-561.702011  57.511401  -49.193991  -0.011684  -0.011298  -0.001839
-369.053944  -289.727270  -33.888381  -0.000531  -0.003077  -0.000337
-330.351163  -367.184105  -37.575494  -0.004498  -0.024554  -0.003254
-523.309283  -19.228732  -42.267828  -0.008487  -0.015025  -0.001467
-484.848041  -96.256350  -37.635426  -0.011175  -0.022334  -0.002345
-446.309817  -173.484364  -35.304082  -0.005812  -0.022871  -0.002032
-600.014048  95.641645  -57.031668  -0.014048  -0.014007  -0.002210
-407.716174  -250.850330  -35.283815  -0.008482  -0.031240  -0.003497
-369.056873  -328.257754  -37.575505  -0.003460  -0.028211  -0.003265
-561.702824  19.159686  -48.736975  -0.012497  -0.015456  -0.002090
-523.308774  -57.651982  -42.726086  -0.007978  -0.013594  -0.001539
-484.847088  -134.724908  -39.012167  -0.010222  -0.016441  -0.002223
-446.307145  -211.965348  -37.600796  -0.003140  -0.007100  -0.000901
-600.012700  57.387617  -56.119133  -0.012700  -0.011215  -0.002175
-407.715495  -289.331909  -38.503429  -0.007803  -0.021304  -0.002896
-369.054836  -366.700123  -41.716806  -0.001423  -0.011895  -0.001516
-561.702857  -19.191807  -48.737173  -0.012530  -0.016665  -0.002288
-523.309829  -96.074844  -43.642918  -0.009033  -0.019969  -0.002063
-484.848425  -173.190881  -40.848651  -0.011559  -0.027115  -0.003195
-446.310004  -250.451243  -40.359469  -0.005999  -0.026375  -0.002879
-600.013654  19.118315  -55.663136  -0.013654  -0.015536  -0.002460
-407.716302  -327.795217  -42.184040  -0.008610  -0.034229  -0.004571
-369.056663  -405.123437  -46.320584  -0.003250  -0.028658  -0.003979
-561.702247  -57.537839  -49.194505  -0.011920  -0.015140  -0.002353
-523.308209  -134.469305  -45.016844  -0.007413  -0.011599  -0.001689
-484.847199  -211.612299  -43.142084  -0.010333  -0.017853  -0.002727
-446.307288  -288.864900  -43.573007  -0.003283  -0.009016  -0.001264
-407.715714  -366.190070  -46.320499  -0.008022  -0.025298  -0.003894
-600.013714  -19.150630  -55.663340  -0.013714  -0.016779  -0.002664
-561.703524  -95.884030  -50.109581  -0.013197  -0.021952  -0.002960
-523.310253  -172.865840  -46.850100  -0.009457  -0.024420  -0.002850
-484.848686  -250.026003  -45.895505  -0.011820  -0.030961  -0.004185
-446.309898  -327.274095  -47.248589  -0.005893  -0.028262  -0.003692
-407.716298  -404.551719  -50.916876  -0.008606  -0.035222  -0.005525
-600.012917  -57.413812  -56.119642  -0.012917  -0.014980  -0.002684
-561.701860  -134.202311  -51.480783  -0.011533  -0.014483  -0.002621
-523.308117  -211.212101  -49.138830  -0.007321  -0.011540  -0.001949
