# COL 1-3: Estimated X/Y/Z plate position [mm]
# COL 4-6: X/Y/Z plate position error [mm]
-58.393909  -561.601164  -49.192281  -0.000627  -0.000675  -0.000129
-97.313436  -561.441428  -50.106749  -0.000524  -0.000640  -0.000128
-136.219250  -561.201923  -51.478300  -0.000544  -0.000657  -0.000138
-175.105827  -560.882655  -53.306740  -0.000693  -0.000700  -0.000160
291.592721  -521.210319  -55.087464  -0.000230  -0.000637  -0.000082
252.797466  -521.730543  -51.883805  -0.000313  -0.000666  -0.000083
213.966328  -522.176501  -49.136957  -0.000339  -0.000606  -0.000076
175.104847  -522.548157  -46.847313  -0.000287  -0.000483  -0.000063
136.218526  -522.845499  -45.015202  -0.000180  -0.000338  -0.000047
97.312691  -523.068602  -43.640896  -0.000221  -0.000290  -0.000041
58.392892  -523.217459  -42.724599  -0.000390  -0.000361  -0.000052
19.464831  -523.291922  -42.266427  -0.000519  -0.000426  -0.000066
-19.465914  -523.291924  -42.266433  -0.000564  -0.000428  -0.000072
-58.393782  -523.217465  -42.724616  -0.000500  -0.000367  -0.000069
-97.313239  -523.068608  -43.640913  -0.000327  -0.000296  -0.000058
-136.219027  -522.845514  -45.015226  -0.000321  -0.000353  -0.000071
-175.105742  -522.548185  -46.847366  -0.000608  -0.000511  -0.000116
369.053296  -481.730193  -56.891416  -0.000117  -0.000544  -0.000068
330.346528  -482.349345  -52.767866  -0.000137  -0.000505  -0.000061
291.592750  -482.899930  -49.101008  -0.000201  -0.000476  -0.000053
252.797520  -483.381830  -45.891362  -0.000259  -0.000417  -0.000042
213.966386  -483.795012  -43.139393  -0.000281  -0.000364  -0.000036
175.104908  -484.139359  -40.845483  -0.000226  -0.000259  -0.000027
136.218591  -484.414914  -39.009968  -0.000115  -0.000193  -0.000024
97.312685  -484.621769  -37.633119  -0.000227  -0.000298  -0.000038
58.392869  -484.759725  -36.715118  -0.000413  -0.000405  -0.000054
19.464809  -484.828711  -36.256089  -0.000541  -0.000461  -0.000066
-19.465937  -484.828714  -36.256096  -0.000587  -0.000464  -0.000073
-58.393813  -484.759734  -36.715136  -0.000531  -0.000414  -0.000072
-97.313256  -484.621779  -37.633138  -0.000344  -0.000308  -0.000057
-136.218911  -484.414920  -39.009982  -0.000205  -0.000199  -0.000038
-175.105616  -484.139368  -40.845522  -0.000482  -0.000268  -0.000066
407.707601  -442.811237  -55.963116  -0.000091  -0.000526  -0.000061
369.053327  -443.444092  -51.375570  -0.000086  -0.000355  -0.000039
330.346603  -444.013897  -47.244916  -0.000062  -0.000179  -0.000018
291.592789  -444.520853  -43.571768  -0.000162  -0.000282  -0.000025
252.797524  -444.964603  -40.356622  -0.000255  -0.000377  -0.000032
213.966362  -445.345049  -37.599934  -0.000305  -0.000430  -0.000039
175.104839  -445.662146  -35.302097  -0.000295  -0.000451  -0.000047
136.218434  -445.915864  -33.463434  -0.000272  -0.000454  -0.000052
97.312577  -446.106217  -32.084210  -0.000335  -0.000489  -0.000057
58.392796  -446.233169  -31.164624  -0.000486  -0.000547  -0.000067
19.464739  -446.296657  -30.704804  -0.000611  -0.000583  -0.000077
-19.466013  -446.296661  -30.704812  -0.000663  -0.000587  -0.000085
-58.393901  -446.233179  -31.164645  -0.000619  -0.000557  -0.000088
-97.313417  -446.106233  -32.084237  -0.000505  -0.000505  -0.000084
-136.219192  -445.915889  -33.463469  -0.000486  -0.000479  -0.000087
-175.105753  -445.662170  -35.302149  -0.000619  -0.000475  -0.000099
446.303975  -403.881092  -55.963100  -0.000030  -0.000389  -0.000045
407.707630  -404.516790  -50.911380  -0.000062  -0.000293  -0.000029
369.053358  -405.094947  -46.316620  -0.000055  -0.000168  -0.000015
330.346573  -405.615749  -42.179495  -0.000092  -0.000281  -0.000026
291.592746  -406.078919  -38.500568  -0.000205  -0.000430  -0.000035
252.797479  -406.484281  -35.280358  -0.000300  -0.000505  -0.000040
213.966323  -406.831791  -32.519326  -0.000344  -0.000518  -0.000042
175.104817  -407.121411  -30.217865  -0.000317  -0.000482  -0.000043
136.218417  -407.353149  -28.376303  -0.000289  -0.000446  -0.000044
97.312582  -407.527005  -26.994904  -0.000330  -0.000443  -0.000046
58.392811  -407.642958  -26.073866  -0.000471  -0.000476  -0.000051
19.464761  -407.700945  -25.613320  -0.000589  -0.000499  -0.000059
-19.465989  -407.700948  -25.613328  -0.000639  -0.000502  -0.000067
-58.393882  -407.642967  -26.073887  -0.000600  -0.000485  -0.000072
-97.313410  -407.527020  -26.994931  -0.000498  -0.000458  -0.000073
-136.219223  -407.353174  -28.376340  -0.000517  -0.000471  -0.000081
-175.105800  -407.121436  -30.217922  -0.000666  -0.000507  -0.000100
484.836880  -364.961955  -56.891372  0.000014  -0.000190  -0.000024
446.303984  -365.589549  -51.375561  -0.000021  -0.000292  -0.000030
407.707617  -366.165123  -46.316635  -0.000075  -0.000351  -0.000030
369.053310  -366.688603  -41.715321  -0.000103  -0.000375  -0.000031
330.346527  -367.159956  -37.572272  -0.000138  -0.000405  -0.000032
291.592731  -367.579121  -33.888075  -0.000220  -0.000448  -0.000031
252.797483  -367.945990  -30.663255  -0.000296  -0.000454  -0.000029
213.966345  -368.260502  -27.898271  -0.000322  -0.000416  -0.000026
175.104856  -368.522624  -25.593517  -0.000278  -0.000344  -0.000025
136.218514  -368.732345  -23.749319  -0.000192  -0.000265  -0.000022
97.312680  -368.889702  -22.365943  -0.000232  -0.000246  -0.000021
58.392893  -368.994664  -21.443586  -0.000389  -0.000278  -0.000024
19.464841  -369.047167  -20.982382  -0.000509  -0.000312  -0.000033
-19.465903  -369.047169  -20.982388  -0.000553  -0.000314  -0.000039
-58.393781  -368.994669  -21.443603  -0.000499  -0.000283  -0.000041
-97.313261  -368.889709  -22.365961  -0.000349  -0.000253  -0.000039
-136.219051  -368.732359  -23.749344  -0.000345  -0.000279  -0.000047
484.836866  -326.684456  -52.767835  0.000000  -0.000302  -0.000030
446.303963  -327.246236  -47.244933  -0.000042  -0.000403  -0.000036
407.707599  -327.761401  -42.179500  -0.000093  -0.000413  -0.000031
369.053305  -328.229900  -37.572264  -0.000108  -0.000357  -0.000024
330.346545  -328.651746  -33.423885  -0.000120  -0.000313  -0.000020
291.592763  -329.026902  -29.734948  -0.000188  -0.000304  -0.000014
252.797529  -329.355265  -26.505980  -0.000250  -0.000282  -0.000009
213.966395  -329.636793  -23.737443  -0.000272  -0.000250  -0.000008
175.104917  -329.871410  -21.429726  -0.000217  -0.000172  -0.000006
136.218645  -330.059079  -19.583157  -0.000061  -0.000045  -0.000002
97.312734  -330.200025  -18.198008  -0.000178  -0.000121  -0.000007
58.392912  -330.294046  -17.274471  -0.000370  -0.000217  -0.000015
19.464853  -330.341058  -16.812674  -0.000497  -0.000264  -0.000024
-19.465889  -330.341059  -16.812680  -0.000539  -0.000265  -0.000030
-58.393755  -330.294050  -17.274487  -0.000473  -0.000221  -0.000031
-97.313182  -330.200027  -18.198022  -0.000270  -0.000123  -0.000021
-136.218815  -330.059079  -19.583164  -0.000109  -0.000045  -0.000009
523.300811  -287.823625  -55.087412  0.000015  -0.000314  -0.000031
484.836858  -288.360434  -49.100984  -0.000008  -0.000337  -0.000029
446.303965  -288.856232  -43.571769  -0.000040  -0.000348  -0.000026
407.707615  -289.310898  -38.500549  -0.000077  -0.000293  -0.000016
369.053343  -289.724379  -33.888053  -0.000070  -0.000186  -0.000009
330.346611  -290.096689  -29.734937  -0.000054  -0.000099  -0.000003
291.592795  -290.427922  -26.041793  -0.000156  -0.000179  -0.000002
252.797538  -290.717833  -22.809144  -0.000241  -0.000228  -0.000002
213.966391  -290.966369  -20.037449  -0.000276  -0.000234  -0.000003
175.104882  -291.173524  -17.727104  -0.000252  -0.000227  -0.000006
136.218506  -291.339285  -15.878436  -0.000200  -0.000223  -0.000012
97.312642  -291.463659  -14.491704  -0.000270  -0.000253  -0.000015
58.392847  -291.546612  -13.567108  -0.000435  -0.000299  -0.000019
19.464795  -291.588095  -13.104783  -0.000555  -0.000326  -0.000026
-19.465953  -291.588097  -13.104790  -0.000603  -0.000328  -0.000033
-58.393838  -291.546619  -13.567127  -0.000556  -0.000306  -0.000038
-97.313319  -291.463667  -14.491725  -0.000407  -0.000261  -0.000036
-136.219066  -291.339297  -15.878460  -0.000360  -0.000235  -0.000036
561.690425  -249.029138  -58.332983  0.000098  -0.000308  -0.000041
523.300810  -249.529905  -51.883742  0.000014  -0.000231  -0.000020
484.836872  -249.995237  -45.891336  0.000006  -0.000195  -0.000016
446.303985  -250.425065  -40.356603  -0.000020  -0.000197  -0.000013
407.707634  -250.819264  -35.280325  -0.000058  -0.000174  -0.000007
369.053357  -251.177766  -30.663229  -0.000056  -0.000114  -0.000003
330.346584  -251.500660  -26.505975  -0.000081  -0.000157  -0.000004
291.592765  -251.787833  -22.809144  -0.000186  -0.000235  -0.000001
252.797504  -252.039175  -19.573267  -0.000275  -0.000280  -0.000000
213.966347  -252.254653  -16.798807  -0.000320  -0.000294  -0.000002
175.104835  -252.434242  -14.486156  -0.000299  -0.000283  -0.000006
136.218429  -252.577945  -12.635641  -0.000277  -0.000275  -0.000009
97.312582  -252.685755  -11.247525  -0.000330  -0.000285  -0.000013
58.392812  -252.757659  -10.322006  -0.000470  -0.000313  -0.000016
19.464759  -252.793619  -9.859218  -0.000591  -0.000332  -0.000022
-19.465991  -252.793622  -9.859226  -0.000641  -0.000335  -0.000030
-58.393881  -252.757665  -10.322026  -0.000599  -0.000319  -0.000036
-97.313410  -252.685766  -11.247550  -0.000498  -0.000296  -0.000038
-136.219204  -252.577961  -12.635675  -0.000498  -0.000291  -0.000043
561.690428  -210.776806  -55.591643  0.000101  -0.000158  -0.000028
523.300813  -211.200605  -49.136887  0.000017  -0.000044  -0.000006
484.836879  -211.594565  -43.139367  0.000013  -0.000119  -0.000010
446.303980  -211.958437  -37.599904  -0.000025  -0.000189  -0.000009
407.707616  -212.292131  -32.519288  -0.000076  -0.000216  -0.000004
369.053316  -212.595611  -27.898247  -0.000097  -0.000211  -0.000002
330.346537  -212.868884  -23.737437  -0.000128  -0.000225  -0.000002
291.592739  -213.111913  -20.037444  -0.000212  -0.000258  0.000003
252.797484  -213.324626  -16.798800  -0.000295  -0.000275  0.000005
213.966335  -213.506991  -14.021967  -0.000332  -0.000272  0.000004
175.104830  -213.658981  -11.707339  -0.000304  -0.000250  0.000000
136.218429  -213.780601  -9.855242  -0.000277  -0.000234  -0.000004
97.312591  -213.871844  -8.465938  -0.000321  -0.000235  -0.000005
58.392822  -213.932699  -7.539627  -0.000460  -0.000254  -0.000008
19.464773  -213.963133  -7.076443  -0.000577  -0.000269  -0.000014
-19.465976  -213.963135  -7.076451  -0.000626  -0.000271  -0.000022
-58.393868  -213.932705  -7.539647  -0.000586  -0.000260  -0.000028
-97.313397  -213.871853  -8.465963  -0.000485  -0.000244  -0.000030
-136.219204  -213.780614  -9.855276  -0.000498  -0.000247  -0.000038
561.690426  -172.494661  -53.306606  0.000099  -0.000161  -0.000026
523.300810  -172.841579  -46.847261  0.000014  -0.000159  -0.000011
484.836861  -173.163955  -40.845465  -0.000005  -0.000189  -0.000009
446.303963  -173.461713  -35.302056  -0.000042  -0.000220  -0.000006
407.707602  -173.734777  -30.217822  -0.000090  -0.000219  -0.000000
369.053305  -173.983117  -25.593491  -0.000108  -0.000195  0.000001
330.346534  -174.206739  -21.429717  -0.000131  -0.000188  0.000003
291.592745  -174.405613  -17.727090  -0.000206  -0.000200  0.000008
252.797499  -174.579683  -14.486139  -0.000280  -0.000204  0.000011
213.966358  -174.728916  -11.707329  -0.000309  -0.000192  0.000010
175.104861  -174.853295  -9.391053  -0.000273  -0.000168  0.000006
136.218495  -174.952814  -7.537639  -0.000211  -0.000143  0.000001
97.312657  -175.027483  -6.147345  -0.000255  -0.000142  -0.000000
58.392873  -175.077287  -5.220373  -0.000409  -0.000160  -0.000001
19.464829  -175.102193  -4.756858  -0.000521  -0.000171  -0.000006
-19.465916  -175.102194  -4.756865  -0.000566  -0.000172  -0.000013
-58.393806  -175.077291  -5.220390  -0.000524  -0.000164  -0.000018
-97.313297  -175.027489  -6.147364  -0.000385  -0.000148  -0.000019
-136.219086  -174.952823  -7.537664  -0.000380  -0.000152  -0.000024
600.000148  -133.899043  -58.398081  0.000148  -0.000170  -0.000035
561.690423  -134.187999  -51.478186  0.000096  -0.000171  -0.000024
523.300811  -134.457855  -45.015164  0.000015  -0.000149  -0.000009
484.836860  -134.708618  -39.009949  -0.000006  -0.000151  -0.000005
446.303967  -134.940234  -33.463384  -0.000038  -0.000158  -0.000002
407.707613  -135.152645  -28.376255  -0.000079  -0.000145  0.000004
369.053329  -135.345823  -23.749293  -0.000084  -0.000114  0.000004
330.346574  -135.519774  -19.583150  -0.000091  -0.000098  0.000005
291.592782  -135.674482  -15.878413  -0.000169  -0.000107  0.000011
252.797538  -135.809898  -12.635617  -0.000241  -0.000113  0.000015
213.966400  -135.925991  -9.855225  -0.000267  -0.000104  0.000013
175.104916  -136.022741  -7.537631  -0.000218  -0.000077  0.000009
136.218618  -136.100142  -5.683164  -0.000088  -0.000041  0.000002
97.312736  -136.158240  -4.292076  -0.000176  -0.000051  0.000003
58.392925  -136.197005  -3.364576  -0.000357  -0.000086  0.000002
19.464871  -136.216390  -2.900796  -0.000479  -0.000105  -0.000001
-19.465871  -136.216390  -2.900802  -0.000521  -0.000105  -0.000007
-58.393740  -136.197007  -3.364590  -0.000458  -0.000088  -0.000012
-97.313179  -136.158241  -4.292089  -0.000267  -0.000052  -0.000010
-136.218865  -136.100144  -5.683174  -0.000159  -0.000043  -0.000008
600.000146  -95.655753  -57.029489  0.000146  -0.000101  -0.000031
561.690426  -95.862169  -50.106641  0.000099  -0.000091  -0.000020
523.300808  -96.054937  -43.640859  0.000012  -0.000062  -0.000004
484.836877  -96.234077  -37.633085  0.000011  -0.000061  -0.000004
446.303986  -96.399549  -32.084152  -0.000019  -0.000075  0.000001
407.707635  -96.551295  -26.994853  -0.000057  -0.000068  0.000005
369.053365  -96.689288  -22.365917  -0.000048  -0.000034  0.000005
330.346621  -96.813556  -18.197997  -0.000044  -0.000023  0.000004
291.592799  -96.924107  -14.491677  -0.000152  -0.000059  0.000012
252.797546  -97.020859  -11.247497  -0.000233  -0.000075  0.000015
213.966405  -97.103797  -8.465918  -0.000262  -0.000072  0.000015
175.104916  -97.172916  -6.147335  -0.000218  -0.000055  0.000010
136.218594  -97.228223  -4.292076  -0.000112  -0.000041  0.000003
97.312714  -97.269729  -2.900395  -0.000198  -0.000050  0.000004
58.392913  -97.297416  -1.972498  -0.000369  -0.000069  0.000004
19.464861  -97.311263  -1.508520  -0.000489  -0.000081  0.000001
-19.465881  -97.311263  -1.508527  -0.000531  -0.000081  -0.000006
-58.393755  -97.297417  -1.972513  -0.000473  -0.000070  -0.000011
-97.313211  -97.269731  -2.900410  -0.000299  -0.000052  -0.000011
-136.218907  -97.228225  -4.292089  -0.000201  -0.000043  -0.000010
600.000145  -57.398874  -56.116986  0.000145  -0.000042  -0.000028
561.690427  -57.522741  -49.192170  0.000100  -0.000042  -0.000018
523.300809  -57.638413  -42.724550  0.000013  -0.000025  -0.000003
484.836877  -57.745920  -36.715067  0.000011  -0.000037  -0.000003
446.303983  -57.845216  -31.164555  -0.000022  -0.000049  0.000002
407.707628  -57.936277  -26.073808  -0.000064  -0.000049  0.000007
369.053339  -58.019094  -21.443554  -0.000074  -0.000043  0.000008
330.346573  -58.093669  -17.274447  -0.000092  -0.000043  0.000009
291.592770  -58.159996  -13.567074  -0.000181  -0.000054  0.000015
252.797519  -58.218047  -10.321971  -0.000260  -0.000059  0.000019
213.966371  -58.267818  -7.539601  -0.000296  -0.000060  0.000018
175.104865  -58.309299  -5.220358  -0.000269  -0.000056  0.000014
136.218485  -58.342490  -3.364570  -0.000221  -0.000051  0.000008
97.312638  -58.367394  -1.972495  -0.000274  -0.000054  0.000007
58.392855  -58.384003  -1.044335  -0.000427  -0.000061  0.000007
19.464806  -58.392310  -0.580226  -0.000544  -0.000066  0.000002
-19.465940  -58.392310  -0.580233  -0.000590  -0.000066  -0.000005
-58.393828  -58.384005  -1.044353  -0.000546  -0.000063  -0.000011
-97.313326  -58.367396  -1.972516  -0.000414  -0.000056  -0.000014
-136.219104  -58.342494  -3.364596  -0.000398  -0.000055  -0.000018
600.000147  -19.133875  -55.660704  0.000147  -0.000024  -0.000028
561.690424  -19.175165  -48.734902  0.000097  -0.000023  -0.000017
523.300811  -19.213728  -42.266363  0.000015  -0.000021  -0.000002
484.836861  -19.249562  -36.256022  -0.000005  -0.000022  0.000001
446.303965  -19.282660  -30.704721  -0.000040  -0.000024  0.000006
407.707605  -19.313015  -25.613250  -0.000087  -0.000024  0.000011
369.053310  -19.340621  -20.982337  -0.000103  -0.000021  0.000012
330.346536  -19.365481  -16.812637  -0.000129  -0.000021  0.000013
291.592743  -19.387589  -13.104738  -0.000208  -0.000023  0.000019
252.797492  -19.406941  -9.859174  -0.000287  -0.000025  0.000022
213.966343  -19.423530  -7.076408  -0.000324  -0.000024  0.000021
175.104836  -19.437359  -4.756836  -0.000298  -0.000023  0.000016
136.218432  -19.448423  -2.900784  -0.000274  -0.000022  0.000011
97.312590  -19.456724  -1.508511  -0.000322  -0.000022  0.000010
58.392823  -19.462260  -0.580220  -0.000459  -0.000024  0.000008
-58.393868  -19.462260  -0.580239  -0.000586  -0.000024  -0.000011
-97.313399  -19.456725  -1.508536  -0.000487  -0.000023  -0.000015
-136.219199  -19.448424  -2.900816  -0.000493  -0.000023  -0.000021
600.000147  19.133874  -55.660704  0.000147  0.000023  -0.000028
561.690424  19.175165  -48.734902  0.000097  0.000023  -0.000017
523.300811  19.213727  -42.266363  0.000015  0.000020  -0.000002
484.836861  19.249562  -36.256022  -0.000005  0.000022  0.000001
446.303965  19.282660  -30.704721  -0.000040  0.000024  0.000006
407.707605  19.313015  -25.613250  -0.000087  0.000024  0.000011
369.053309  19.340621  -20.982337  -0.000104  0.000021  0.000012
330.346536  19.365481  -16.812637  -0.000129  0.000021  0.000013
291.592744  19.387589  -13.104738  -0.000207  0.000023  0.000019
252.797492  19.406941  -9.859174  -0.000287  0.000025  0.000022
213.966343  19.423530  -7.076408  -0.000324  0.000024  0.000021
175.104837  19.437359  -4.756836  -0.000297  0.000023  0.000016
136.218432  19.448423  -2.900784  -0.000274  0.000022  0.000011
97.312590  19.456724  -1.508511  -0.000322  0.000022  0.000010
58.392823  19.462260  -0.580220  -0.000459  0.000024  0.000008
-58.393868  19.462261  -0.580239  -0.000586  0.000025  -0.000011
-97.313399  19.456725  -1.508536  -0.000487  0.000023  -0.000015
-136.219200  19.448424  -2.900816  -0.000494  0.000023  -0.000021
600.000145  57.398874  -56.116986  0.000145  0.000042  -0.000028
561.690428  57.522741  -49.192170  0.000101  0.000042  -0.000018
523.300809  57.638413  -42.724550  0.000013  0.000025  -0.000003
484.836877  57.745920  -36.715067  0.000011  0.000037  -0.000003
446.303983  57.845217  -31.164555  -0.000022  0.000050  0.000002
407.707627  57.936277  -26.073808  -0.000065  0.000049  0.000007
369.053338  58.019094  -21.443554  -0.000075  0.000043  0.000008
330.346573  58.093670  -17.274447  -0.000092  0.000044  0.000009
291.592770  58.159996  -13.567074  -0.000181  0.000054  0.000015
252.797519  58.218048  -10.321971  -0.000260  0.000060  0.000019
213.966370  58.267818  -7.539601  -0.000297  0.000060  0.000018
175.104865  58.309299  -5.220358  -0.000269  0.000056  0.000014
136.218485  58.342490  -3.364570  -0.000221  0.000051  0.000008
97.312638  58.367394  -1.972495  -0.000274  0.000054  0.000007
58.392855  58.384003  -1.044335  -0.000427  0.000061  0.000007
19.464807  58.392310  -0.580226  -0.000543  0.000066  0.000002
-19.465940  58.392310  -0.580233  -0.000590  0.000066  -0.000005
-58.393828  58.384005  -1.044353  -0.000546  0.000063  -0.000011
-97.313326  58.367396  -1.972516  -0.000414  0.000056  -0.000014
-136.219103  58.342494  -3.364596  -0.000397  0.000055  -0.000018
600.000147  95.655753  -57.029489  0.000147  0.000101  -0.000031
561.690426  95.862169  -50.106641  0.000099  0.000091  -0.000020
523.300809  96.054937  -43.640859  0.000013  0.000062  -0.000004
484.836876  96.234077  -37.633085  0.000010  0.000061  -0.000004
446.303985  96.399550  -32.084152  -0.000020  0.000076  0.000001
407.707635  96.551295  -26.994853  -0.000057  0.000068  0.000005
369.053365  96.689288  -22.365917  -0.000048  0.000034  0.000005
330.346622  96.813555  -18.197997  -0.000043  0.000022  0.000004
291.592799  96.924107  -14.491677  -0.000152  0.000059  0.000012
252.797546  97.020859  -11.247497  -0.000233  0.000075  0.000015
213.966405  97.103797  -8.465918  -0.000262  0.000072  0.000015
175.104917  97.172916  -6.147335  -0.000217  0.000055  0.000010
136.218594  97.228222  -4.292076  -0.000112  0.000040  0.000003
97.312714  97.269729  -2.900395  -0.000198  0.000050  0.000004
58.392913  97.297416  -1.972498  -0.000369  0.000069  0.000004
19.464861  97.311263  -1.508520  -0.000489  0.000081  0.000001
-19.465881  97.311263  -1.508527  -0.000531  0.000081  -0.000006
-58.393755  97.297417  -1.972513  -0.000473  0.000070  -0.000011
-97.313212  97.269731  -2.900410  -0.000300  0.000052  -0.000011
-136.218907  97.228225  -4.292089  -0.000201  0.000043  -0.000010
600.000148  133.899043  -58.398081  0.000148  0.000170  -0.000035
561.690424  134.187999  -51.478186  0.000097  0.000171  -0.000024
523.300811  134.457855  -45.015164  0.000015  0.000149  -0.000009
484.836860  134.708617  -39.009949  -0.000006  0.000150  -0.000005
446.303967  134.940235  -33.463384  -0.000038  0.000159  -0.000002
407.707613  135.152645  -28.376255  -0.000079  0.000145  0.000004
369.053328  135.345823  -23.749292  -0.000085  0.000114  0.000005
330.346573  135.519774  -19.583150  -0.000092  0.000098  0.000005
291.592781  135.674482  -15.878413  -0.000170  0.000107  0.000011
252.797538  135.809898  -12.635617  -0.000241  0.000113  0.000015
213.966400  135.925991  -9.855225  -0.000267  0.000104  0.000013
175.104916  136.022741  -7.537631  -0.000218  0.000077  0.000009
136.218617  136.100142  -5.683164  -0.000089  0.000041  0.000002
97.312736  136.158240  -4.292076  -0.000176  0.000051  0.000003
58.392925  136.197005  -3.364576  -0.000357  0.000086  0.000002
19.464871  136.216390  -2.900796  -0.000479  0.000105  -0.000001
-19.465871  136.216391  -2.900802  -0.000521  0.000106  -0.000007
-58.393740  136.197007  -3.364590  -0.000458  0.000088  -0.000012
-97.313179  136.158242  -4.292089  -0.000267  0.000053  -0.000010
-136.218865  136.100144  -5.683174  -0.000159  0.000043  -0.000008
561.690427  172.494661  -53.306606  0.000100  0.000161  -0.000026
523.300810  172.841578  -46.847261  0.000014  0.000158  -0.000011
484.836861  173.163955  -40.845465  -0.000005  0.000189  -0.000009
446.303963  173.461713  -35.302056  -0.000042  0.000220  -0.000006
407.707602  173.734776  -30.217822  -0.000090  0.000218  -0.000000
369.053305  173.983117  -25.593491  -0.000108  0.000195  0.000001
330.346534  174.206739  -21.429717  -0.000131  0.000188  0.000003
291.592745  174.405613  -17.727090  -0.000206  0.000200  0.000008
252.797499  174.579683  -14.486139  -0.000280  0.000204  0.000011
213.966358  174.728916  -11.707329  -0.000309  0.000192  0.000010
175.104861  174.853295  -9.391053  -0.000273  0.000168  0.000006
136.218495  174.952815  -7.537639  -0.000211  0.000144  0.000001
97.312657  175.027484  -6.147345  -0.000255  0.000143  -0.000000
58.392873  175.077288  -5.220373  -0.000409  0.000161  -0.000001
19.464829  175.102192  -4.756858  -0.000521  0.000170  -0.000006
-19.465916  175.102194  -4.756865  -0.000566  0.000172  -0.000013
-58.393806  175.077291  -5.220390  -0.000524  0.000164  -0.000018
-97.313297  175.027489  -6.147364  -0.000385  0.000148  -0.000019
-136.219086  174.952823  -7.537664  -0.000380  0.000152  -0.000024
561.690428  210.776806  -55.591643  0.000101  0.000158  -0.000028
523.300813  211.200605  -49.136887  0.000017  0.000044  -0.000006
484.836879  211.594565  -43.139367  0.000013  0.000119  -0.000010
446.303981  211.958437  -37.599904  -0.000024  0.000189  -0.000009
407.707616  212.292131  -32.519288  -0.000076  0.000216  -0.000004
369.053316  212.595611  -27.898247  -0.000097  0.000211  -0.000002
330.346536  212.868883  -23.737437  -0.000129  0.000224  -0.000002
291.592738  213.111912  -20.037444  -0.000213  0.000257  0.000003
252.797484  213.324626  -16.798800  -0.000295  0.000275  0.000005
213.966335  213.506991  -14.021967  -0.000332  0.000272  0.000004
175.104830  213.658981  -11.707339  -0.000304  0.000250  0.000000
136.218429  213.780601  -9.855242  -0.000277  0.000234  -0.000004
97.312591  213.871844  -8.465938  -0.000321  0.000235  -0.000005
58.392822  213.932700  -7.539628  -0.000460  0.000255  -0.000009
19.464773  213.963133  -7.076443  -0.000577  0.000269  -0.000014
-19.465976  213.963135  -7.076451  -0.000626  0.000271  -0.000022
-58.393868  213.932705  -7.539647  -0.000586  0.000260  -0.000028
-97.313398  213.871853  -8.465963  -0.000486  0.000244  -0.000030
-136.219205  213.780614  -9.855276  -0.000499  0.000247  -0.000038
561.690424  249.029138  -58.332983  0.000097  0.000308  -0.000041
523.300810  249.529905  -51.883742  0.000014  0.000231  -0.000020
484.836871  249.995237  -45.891336  0.000005  0.000195  -0.000016
446.303985  250.425065  -40.356603  -0.000020  0.000197  -0.000013
407.707635  250.819264  -35.280325  -0.000057  0.000174  -0.000007
369.053357  251.177766  -30.663229  -0.000056  0.000114  -0.000003
330.346584  251.500660  -26.505975  -0.000081  0.000157  -0.000004
291.592765  251.787833  -22.809144  -0.000186  0.000235  -0.000001
252.797504  252.039175  -19.573267  -0.000275  0.000280  -0.000000
213.966347  252.254653  -16.798807  -0.000320  0.000294  -0.000002
175.104836  252.434242  -14.486156  -0.000298  0.000283  -0.000006
136.218429  252.577945  -12.635641  -0.000277  0.000275  -0.000009
97.312582  252.685755  -11.247525  -0.000330  0.000285  -0.000013
58.392812  252.757659  -10.322006  -0.000470  0.000313  -0.000016
19.464759  252.793619  -9.859218  -0.000591  0.000332  -0.000022
-19.465991  252.793622  -9.859226  -0.000641  0.000335  -0.000030
-58.393881  252.757665  -10.322026  -0.000599  0.000319  -0.000036
-97.313410  252.685766  -11.247550  -0.000498  0.000296  -0.000038
-136.219204  252.577961  -12.635675  -0.000498  0.000291  -0.000043
523.300811  287.823625  -55.087412  0.000015  0.000314  -0.000031
484.836858  288.360433  -49.100984  -0.000008  0.000336  -0.000029
446.303965  288.856231  -43.571769  -0.000040  0.000347  -0.000026
407.707615  289.310898  -38.500549  -0.000077  0.000293  -0.000016
369.053342  289.724379  -33.888053  -0.000071  0.000186  -0.000009
330.346611  290.096689  -29.734937  -0.000054  0.000099  -0.000003
291.592795  290.427922  -26.041793  -0.000156  0.000179  -0.000002
252.797539  290.717834  -22.809144  -0.000240  0.000229  -0.000002
213.966391  290.966369  -20.037449  -0.000276  0.000234  -0.000003
175.104882  291.173524  -17.727104  -0.000252  0.000227  -0.000006
136.218506  291.339285  -15.878436  -0.000200  0.000223  -0.000012
97.312642  291.463659  -14.491704  -0.000270  0.000253  -0.000015
58.392847  291.546612  -13.567108  -0.000435  0.000299  -0.000019
19.464795  291.588094  -13.104783  -0.000555  0.000325  -0.000026
-19.465953  291.588097  -13.104790  -0.000603  0.000328  -0.000033
-58.393838  291.546619  -13.567127  -0.000556  0.000306  -0.000038
-97.313319  291.463667  -14.491725  -0.000407  0.000261  -0.000036
-136.219066  291.339298  -15.878460  -0.000360  0.000236  -0.000036
484.836867  326.684457  -52.767835  0.000001  0.000303  -0.000030
446.303963  327.246236  -47.244933  -0.000042  0.000403  -0.000036
407.707599  327.761401  -42.179500  -0.000093  0.000413  -0.000031
369.053305  328.229901  -37.572264  -0.000108  0.000358  -0.000024
330.346545  328.651747  -33.423885  -0.000120  0.000314  -0.000020
291.592763  329.026902  -29.734948  -0.000188  0.000304  -0.000014
252.797529  329.355265  -26.505980  -0.000250  0.000282  -0.000009
213.966395  329.636793  -23.737442  -0.000272  0.000250  -0.000007
175.104917  329.871410  -21.429726  -0.000217  0.000172  -0.000006
136.218645  330.059080  -19.583157  -0.000061  0.000046  -0.000002
97.312734  330.200025  -18.198008  -0.000178  0.000121  -0.000007
58.392912  330.294046  -17.274471  -0.000370  0.000217  -0.000015
19.464854  330.341058  -16.812674  -0.000496  0.000264  -0.000024
-19.465889  330.341059  -16.812680  -0.000539  0.000265  -0.000030
-58.393756  330.294049  -17.274487  -0.000474  0.000220  -0.000031
-97.313182  330.200027  -18.198022  -0.000270  0.000123  -0.000021
-136.218815  330.059080  -19.583164  -0.000109  0.000046  -0.000009
484.836880  364.961954  -56.891372  0.000014  0.000189  -0.000024
446.303984  365.589549  -51.375561  -0.000021  0.000292  -0.000030
407.707617  366.165123  -46.316635  -0.000075  0.000351  -0.000030
369.053310  366.688603  -41.715321  -0.000103  0.000375  -0.000031
330.346526  367.159956  -37.572272  -0.000139  0.000405  -0.000032
291.592731  367.579121  -33.888075  -0.000220  0.000448  -0.000031
252.797483  367.945990  -30.663255  -0.000296  0.000454  -0.000029
213.966345  368.260502  -27.898271  -0.000322  0.000416  -0.000026
175.104856  368.522624  -25.593517  -0.000278  0.000344  -0.000025
136.218514  368.732345  -23.749319  -0.000192  0.000265  -0.000022
97.312680  368.889702  -22.365943  -0.000232  0.000246  -0.000021
58.392893  368.994664  -21.443586  -0.000389  0.000278  -0.000024
19.464841  369.047167  -20.982382  -0.000509  0.000312  -0.000033
-19.465903  369.047169  -20.982388  -0.000553  0.000314  -0.000039
-58.393781  368.994669  -21.443603  -0.000499  0.000283  -0.000041
-97.313261  368.889709  -22.365961  -0.000349  0.000253  -0.000039
-136.219051  368.732359  -23.749344  -0.000345  0.000279  -0.000047
446.303975  403.881092  -55.963100  -0.000030  0.000389  -0.000045
407.707630  404.516790  -50.911380  -0.000062  0.000293  -0.000029
369.053358  405.094947  -46.316620  -0.000055  0.000168  -0.000015
330.346573  405.615749  -42.179495  -0.000092  0.000281  -0.000026
291.592746  406.078919  -38.500568  -0.000205  0.000430  -0.000035
252.797479  406.484281  -35.280358  -0.000300  0.000505  -0.000040
213.966323  406.831791  -32.519326  -0.000344  0.000518  -0.000042
175.104817  407.121411  -30.217865  -0.000317  0.000482  -0.000043
136.218417  407.353149  -28.376303  -0.000289  0.000446  -0.000044
97.312582  407.527004  -26.994904  -0.000330  0.000442  -0.000046
58.392811  407.642958  -26.073866  -0.000471  0.000476  -0.000051
19.464761  407.700945  -25.613320  -0.000589  0.000499  -0.000059
-19.465989  407.700949  -25.613328  -0.000639  0.000503  -0.000067
-58.393882  407.642967  -26.073887  -0.000600  0.000485  -0.000072
-97.313410  407.527020  -26.994931  -0.000498  0.000458  -0.000073
-136.219223  407.353174  -28.376340  -0.000517  0.000471  -0.000081
-175.105801  407.121437  -30.217922  -0.000667  0.000508  -0.000100
407.707600  442.811237  -55.963116  -0.000092  0.000526  -0.000061
369.053327  443.444092  -51.375570  -0.000086  0.000355  -0.000039
330.346603  444.013898  -47.244916  -0.000062  0.000180  -0.000018
291.592788  444.520853  -43.571768  -0.000163  0.000282  -0.000025
252.797524  444.964602  -40.356622  -0.000255  0.000376  -0.000032
213.966362  445.345049  -37.599934  -0.000305  0.000430  -0.000039
175.104839  445.662147  -35.302097  -0.000295  0.000452  -0.000047
136.218434  445.915864  -33.463434  -0.000272  0.000454  -0.000052
97.312577  446.106216  -32.084210  -0.000335  0.000488  -0.000057
58.392796  446.233168  -31.164624  -0.000486  0.000546  -0.000067
19.464739  446.296657  -30.704804  -0.000611  0.000583  -0.000077
-19.466013  446.296661  -30.704812  -0.000663  0.000587  -0.000085
-58.393902  446.233179  -31.164645  -0.000620  0.000557  -0.000088
-97.313417  446.106233  -32.084237  -0.000505  0.000505  -0.000084
-136.219193  445.915889  -33.463469  -0.000487  0.000479  -0.000087
-175.105753  445.662169  -35.302149  -0.000619  0.000474  -0.000099
369.053296  481.730193  -56.891416  -0.000117  0.000544  -0.000068
330.346529  482.349345  -52.767866  -0.000136  0.000505  -0.000061
291.592750  482.899930  -49.101008  -0.000201  0.000476  -0.000053
252.797520  483.381830  -45.891362  -0.000259  0.000417  -0.000042
213.966386  483.795012  -43.139393  -0.000281  0.000364  -0.000036
175.104908  484.139359  -40.845483  -0.000226  0.000259  -0.000027
136.218591  484.414914  -39.009968  -0.000115  0.000193  -0.000024
97.312684  484.621768  -37.633119  -0.000228  0.000297  -0.000038
58.392869  484.759724  -36.715117  -0.000413  0.000404  -0.000053
19.464809  484.828711  -36.256089  -0.000541  0.000461  -0.000066
-19.465937  484.828714  -36.256096  -0.000587  0.000464  -0.000073
-58.393813  484.759734  -36.715136  -0.000531  0.000414  -0.000072
-97.313256  484.621779  -37.633138  -0.000344  0.000308  -0.000057
-136.218911  484.414920  -39.009982  -0.000205  0.000199  -0.000038
-175.105616  484.139368  -40.845522  -0.000482  0.000268  -0.000066
291.592721  521.210319  -55.087464  -0.000230  0.000637  -0.000082
252.797466  521.730543  -51.883805  -0.000313  0.000666  -0.000083
213.966328  522.176501  -49.136957  -0.000339  0.000606  -0.000076
175.104847  522.548157  -46.847313  -0.000287  0.000483  -0.000063
136.218525  522.845499  -45.015202  -0.000181  0.000338  -0.000047
97.312692  523.068603  -43.640896  -0.000220  0.000291  -0.000041
58.392892  523.217459  -42.724599  -0.000390  0.000361  -0.000052
19.464831  523.291921  -42.266427  -0.000519  0.000425  -0.000066
-19.465914  523.291924  -42.266434  -0.000564  0.000428  -0.000073
-58.393782  523.217465  -42.724616  -0.000500  0.000367  -0.000069
-97.313239  523.068608  -43.640913  -0.000327  0.000296  -0.000058
-136.219027  522.845514  -45.015226  -0.000321  0.000353  -0.000071
-175.105742  522.548185  -46.847366  -0.000608  0.000511  -0.000116
-58.393909  561.601165  -49.192281  -0.000627  0.000676  -0.000129
-97.313436  561.441428  -50.106749  -0.000524  0.000640  -0.000128
-136.219250  561.201923  -51.478300  -0.000544  0.000657  -0.000138
-175.105827  560.882655  -53.306740  -0.000693  0.000700  -0.000160
0.000000  -0.000000  0.000000  0.000000  -0.000000  0.000000
