# COL 1-3: Estimated X/Y/Z plate position [mm]
# COL 4-6: X/Y/Z plate position error [mm]
407.708324  404.516474  -50.911429  0.000632  -0.000023  -0.000078
523.301006  211.200512  -49.136912  0.000210  -0.000049  -0.000031
446.304865  327.245712  -47.245004  0.000860  -0.000121  -0.000107
561.691298  134.187427  -51.478315  0.000971  -0.000401  -0.000153
369.053824  443.443768  -51.375582  0.000411  0.000031  -0.000051
484.837440  249.994896  -45.891395  0.000574  -0.000146  -0.000075
407.708393  366.164714  -46.316687  0.000701  -0.000058  -0.000082
523.301338  172.841178  -46.847325  0.000542  -0.000242  -0.000075
330.347121  482.348931  -52.767865  0.000456  0.000091  -0.000060
446.304858  288.855712  -43.571846  0.000853  -0.000172  -0.000103
369.053718  405.094770  -46.316639  0.000305  -0.000009  -0.000034
484.837374  211.594314  -43.139425  0.000508  -0.000132  -0.000068
407.708466  327.760871  -42.179555  0.000774  -0.000117  -0.000086
291.593542  521.209826  -55.087459  0.000591  0.000144  -0.000077
523.301441  134.457366  -45.015246  0.000645  -0.000340  -0.000091
330.346887  444.013731  -47.244922  0.000222  0.000013  -0.000024
446.304740  250.424711  -40.356680  0.000735  -0.000157  -0.000090
369.053901  366.688186  -41.715341  0.000488  -0.000042  -0.000051
484.837531  173.163484  -40.845541  0.000665  -0.000282  -0.000085
252.798385  560.004328  -58.333019  0.000606  0.000164  -0.000077
407.708406  289.310459  -38.500610  0.000714  -0.000146  -0.000077
291.593491  482.899524  -49.101014  0.000540  0.000070  -0.000059
523.301199  96.054648  -43.640914  0.000403  -0.000227  -0.000059
330.346981  405.615469  -42.179502  0.000316  0.000001  -0.000033
446.304776  211.958037  -37.599988  0.000771  -0.000211  -0.000093
369.053926  328.229452  -37.572290  0.000513  -0.000091  -0.000050
252.798416  521.730020  -51.883795  0.000637  0.000143  -0.000073
484.837544  134.708130  -39.010032  0.000678  -0.000337  -0.000088
407.708317  250.818953  -35.280387  0.000625  -0.000137  -0.000069
291.593408  444.520577  -43.571786  0.000457  0.000006  -0.000043
330.347135  367.159509  -37.572283  0.000470  -0.000042  -0.000043
446.304878  173.461156  -35.302153  0.000873  -0.000337  -0.000103
213.967226  560.483091  -55.591685  0.000559  0.000188  -0.000070
369.053773  289.724108  -33.888078  0.000360  -0.000085  -0.000034
252.798329  483.381460  -45.891370  0.000550  0.000047  -0.000050
484.837405  96.233783  -37.633155  0.000539  -0.000233  -0.000074
291.593502  406.078481  -38.500582  0.000551  -0.000008  -0.000049
407.708407  212.291685  -32.519359  0.000715  -0.000230  -0.000075
330.347078  328.651355  -33.423899  0.000413  -0.000078  -0.000034
446.304858  134.939707  -33.463485  0.000853  -0.000369  -0.000103
213.967211  522.176023  -49.136938  0.000544  0.000128  -0.000057
369.053728  251.177569  -30.663256  0.000315  -0.000083  -0.000030
252.798323  444.964238  -40.356635  0.000544  0.000012  -0.000045
291.593533  367.578618  -33.888091  0.000582  -0.000055  -0.000047
407.708468  173.734231  -30.217902  0.000776  -0.000327  -0.000080
175.105545  560.882144  -53.306635  0.000411  0.000189  -0.000055
330.346872  290.096543  -29.734951  0.000207  -0.000047  -0.000017
446.304750  96.399185  -32.084247  0.000745  -0.000289  -0.000094
213.967129  483.794685  -43.139393  0.000462  0.000037  -0.000036
369.053889  212.595193  -27.898285  0.000476  -0.000207  -0.000040
252.798403  406.483764  -35.280366  0.000624  -0.000012  -0.000048
136.218944  599.477756  -58.398088  0.000238  0.000173  -0.000042
291.593474  329.026510  -29.734972  0.000523  -0.000088  -0.000038
407.708426  135.152168  -28.376338  0.000734  -0.000332  -0.000079
175.105498  522.547779  -46.847287  0.000364  0.000105  -0.000037
330.346953  251.500400  -26.505992  0.000288  -0.000103  -0.000021
213.967172  445.344643  -37.599932  0.000505  0.000024  -0.000037
446.304772  57.844822  -31.164657  0.000767  -0.000345  -0.000100
369.053939  173.982641  -25.593537  0.000526  -0.000281  -0.000045
252.798400  367.945473  -30.663268  0.000621  -0.000063  -0.000042
136.219014  561.201451  -51.478207  0.000308  0.000185  -0.000045
291.593405  290.427651  -26.041824  0.000454  -0.000092  -0.000033
407.708330  96.550970  -26.994931  0.000638  -0.000257  -0.000073
175.105429  484.139127  -40.845476  0.000295  0.000027  -0.000020
330.347115  212.868443  -23.737467  0.000450  -0.000216  -0.000032
213.967225  406.831264  -32.519320  0.000558  -0.000009  -0.000036
97.313174  599.733639  -57.029503  0.000262  0.000197  -0.000045
252.798325  329.354893  -26.506004  0.000546  -0.000090  -0.000033
369.053840  135.345460  -23.749336  0.000427  -0.000249  -0.000039
136.218890  522.845241  -45.015176  0.000184  0.000080  -0.000021
291.593475  251.787435  -22.809177  0.000524  -0.000163  -0.000034
407.708370  57.935892  -26.073894  0.000678  -0.000336  -0.000079
175.105509  445.661733  -35.302076  0.000375  0.000038  -0.000026
330.347125  174.206284  -21.429753  0.000460  -0.000267  -0.000033
213.967199  368.260029  -27.898273  0.000532  -0.000057  -0.000028
97.313198  561.440967  -50.106661  0.000286  0.000179  -0.000040
252.798309  290.717490  -22.809173  0.000530  -0.000115  -0.000031
369.053706  96.689129  -22.365951  0.000293  -0.000125  -0.000029
136.218825  484.414754  -39.009954  0.000119  0.000033  -0.000010
291.593531  213.111404  -20.037482  0.000580  -0.000251  -0.000035
175.105536  407.120930  -30.217844  0.000402  0.000001  -0.000022
58.393609  599.904252  -56.117005  0.000327  0.000218  -0.000047
330.346995  135.519464  -19.583180  0.000330  -0.000212  -0.000025
213.967129  329.636463  -23.737457  0.000462  -0.000080  -0.000022
97.313096  523.068373  -43.640871  0.000184  0.000061  -0.000016
252.798376  252.038701  -19.573299  0.000597  -0.000194  -0.000032
369.053801  58.018778  -21.443601  0.000388  -0.000273  -0.000039
136.218984  445.915458  -33.463401  0.000278  0.000048  -0.000019
291.593521  174.405124  -17.727133  0.000570  -0.000289  -0.000035
175.105494  368.522238  -25.593507  0.000360  -0.000042  -0.000015
58.393609  561.600666  -49.192189  0.000327  0.000177  -0.000037
330.346848  96.813452  -18.198017  0.000183  -0.000081  -0.000016
213.967139  290.966021  -20.037467  0.000472  -0.000114  -0.000021
97.313103  484.621517  -37.633094  0.000191  0.000046  -0.000013
252.798411  213.324079  -16.798836  0.000632  -0.000272  -0.000031
369.053931  19.340152  -20.982405  0.000518  -0.000448  -0.000056
136.219002  407.352710  -28.376273  0.000296  0.000007  -0.000014
291.593450  135.674133  -15.878459  0.000499  -0.000242  -0.000035
19.465681  599.989565  -55.660721  0.000331  0.000228  -0.000045
175.105425  329.871184  -21.429731  0.000291  -0.000054  -0.000011
58.393546  523.217159  -42.724562  0.000264  0.000061  -0.000015
330.347000  58.093353  -17.274485  0.000335  -0.000273  -0.000029
213.967205  252.254162  -16.798825  0.000538  -0.000197  -0.000020
97.313190  446.105777  -32.084168  0.000278  0.000049  -0.000015
252.798390  174.579180  -14.486182  0.000611  -0.000299  -0.000032
136.218905  368.732055  -23.749303  0.000199  -0.000025  -0.000006
19.465677  561.680521  -48.734918  0.000327  0.000177  -0.000033
291.593413  96.923830  -14.491724  0.000462  -0.000218  -0.000035
175.105469  291.173197  -17.727107  0.000335  -0.000100  -0.000009
58.393564  484.759372  -36.715077  0.000282  0.000052  -0.000013
330.347129  19.365020  -16.812695  0.000464  -0.000440  -0.000045
213.967224  213.506455  -14.021990  0.000557  -0.000264  -0.000019
97.313187  407.526567  -26.994867  0.000275  0.000005  -0.000009
252.798326  135.809528  -12.635663  0.000547  -0.000257  -0.000031
-19.465069  599.989564  -55.660717  0.000281  0.000227  -0.000041
136.218772  330.059021  -19.583156  0.000066  -0.000013  -0.000001
19.465627  523.291564  -42.266373  0.000277  0.000068  -0.000012
291.593479  58.159594  -13.567131  0.000528  -0.000348  -0.000042
175.105523  252.433782  -14.486157  0.000389  -0.000177  -0.000007
58.393610  446.232666  -31.164569  0.000328  0.000044  -0.000012
213.967196  174.728446  -11.707359  0.000529  -0.000278  -0.000020
97.313109  368.889428  -22.365924  0.000197  -0.000028  -0.000002
252.798314  97.020514  -11.247546  0.000535  -0.000270  -0.000034
-19.465073  561.680520  -48.734914  0.000277  0.000176  -0.000029
136.218915  291.338976  -15.878425  0.000209  -0.000086  -0.000001
19.465642  484.828305  -36.256033  0.000292  0.000055  -0.000010
291.593538  19.387077  -13.104806  0.000587  -0.000489  -0.000049
175.105533  213.658500  -11.707345  0.000399  -0.000231  -0.000006
58.393602  407.642477  -26.073820  0.000320  -0.000005  -0.000005
213.967138  135.925652  -9.855260  0.000471  -0.000235  -0.000022
97.313067  330.199869  -18.198002  0.000155  -0.000035  -0.000001
-58.393082  599.904250  -56.116995  0.000200  0.000216  -0.000037
252.798366  58.217602  -10.322029  0.000587  -0.000386  -0.000039
-19.465116  523.291564  -42.266370  0.000234  0.000068  -0.000009
136.218997  252.577506  -12.635631  0.000291  -0.000164  0.000001
19.465680  446.296115  -30.704734  0.000330  0.000041  -0.000007
291.593542  -19.388103  -13.104813  0.000591  -0.000537  -0.000056
175.105500  174.852894  -9.391066  0.000366  -0.000233  -0.000007
58.393552  368.994343  -21.443562  0.000270  -0.000043  0.000000
213.967133  97.103469  -8.465956  0.000466  -0.000256  -0.000023
-58.393082  561.600665  -49.192179  0.000200  0.000176  -0.000027
97.313142  291.463308  -14.491687  0.000230  -0.000098  0.000002
-19.465102  484.828305  -36.256030  0.000248  0.000055  -0.000007
252.798417  19.406395  -9.859242  0.000638  -0.000521  -0.000046
136.218999  213.780158  -9.855237  0.000293  -0.000209  0.000001
19.465670  407.700435  -25.613261  0.000320  -0.000011  -0.000000
175.105437  136.022493  -7.537649  0.000303  -0.000171  -0.000009
58.393539  330.293764  -17.274454  0.000257  -0.000065  0.000002
-97.312798  599.733636  -57.029491  0.000114  0.000194  -0.000033
213.967186  58.267376  -7.539646  0.000519  -0.000382  -0.000027
-58.393124  523.217158  -42.724554  0.000158  0.000060  -0.000007
97.313193  252.685300  -11.247508  0.000281  -0.000170  0.000004
-19.465070  446.296115  -30.704731  0.000280  0.000041  -0.000004
252.798421  -19.407488  -9.859249  0.000642  -0.000572  -0.000053
136.218931  174.952481  -7.537639  0.000225  -0.000190  0.000001
19.465629  369.046804  -20.982345  0.000279  -0.000051  0.000004
175.105438  97.172669  -6.147356  0.000304  -0.000192  -0.000011
-97.312787  561.440964  -50.106648  0.000125  0.000176  -0.000027
58.393584  291.546187  -13.567084  0.000302  -0.000126  0.000005
213.967230  19.422998  -7.076463  0.000563  -0.000508  -0.000034
-58.393112  484.759372  -36.715069  0.000170  0.000052  -0.000005
97.313188  213.871400  -8.465927  0.000276  -0.000209  0.000006
-19.465079  407.700435  -25.613258  0.000271  -0.000011  0.000003
136.218801  136.100017  -5.683166  0.000095  -0.000084  -0.000000
19.465623  330.340714  -16.812644  0.000273  -0.000080  0.000006
-136.218635  599.477751  -58.398074  0.000071  0.000168  -0.000028
175.105501  58.308902  -5.220385  0.000367  -0.000341  -0.000013
-97.312834  523.068371  -43.640863  0.000078  0.000059  -0.000008
58.393609  252.757153  -10.321981  0.000327  -0.000193  0.000009
213.967233  -19.424064  -7.076470  0.000566  -0.000558  -0.000041
-58.393082  446.232666  -31.164560  0.000200  0.000044  -0.000003
97.313134  175.027151  -6.147341  0.000222  -0.000190  0.000004
-19.465114  369.046804  -20.982342  0.000236  -0.000051  0.000007
136.218827  97.228055  -4.292080  0.000121  -0.000127  -0.000001
19.465657  291.587630  -13.104746  0.000307  -0.000139  0.000011
-136.218614  561.201446  -51.478190  0.000092  0.000180  -0.000028
175.105538  19.436880  -4.756871  0.000404  -0.000456  -0.000019
-97.312831  484.621516  -37.633086  0.000081  0.000045  -0.000005
58.393604  213.932212  -7.539609  0.000322  -0.000233  0.000010
213.967195  -58.268263  -7.539663  0.000528  -0.000505  -0.000044
-58.393087  407.642477  -26.073811  0.000195  -0.000005  0.000004
97.313071  136.158079  -4.292079  0.000159  -0.000110  -0.000000
-19.465119  330.340715  -16.812641  0.000231  -0.000079  0.000009
136.218945  58.342137  -3.364583  0.000239  -0.000302  -0.000005
-136.218652  522.845239  -45.015165  0.000054  0.000078  -0.000010
19.465678  252.793079  -9.859182  0.000328  -0.000208  0.000014
175.105541  -19.437838  -4.756877  0.000407  -0.000502  -0.000025
-97.312791  446.105776  -32.084156  0.000121  0.000048  -0.000003
58.393572  175.076904  -5.220365  0.000290  -0.000223  0.000007
-58.393120  368.994343  -21.443554  0.000162  -0.000043  0.000008
97.313089  97.269516  -2.900399  0.000177  -0.000163  -0.000000
-19.465090  291.587630  -13.104743  0.000260  -0.000139  0.000014
-175.105063  560.882139  -53.306608  0.000071  0.000184  -0.000028
136.219004  19.447978  -2.900805  0.000298  -0.000423  -0.000010
-136.218671  484.414753  -39.009947  0.000035  0.000032  -0.000003
19.465672  213.962615  -7.076415  0.000322  -0.000249  0.000014
175.105508  -58.309696  -5.220400  0.000374  -0.000453  -0.000028
-97.312792  407.526567  -26.994855  0.000120  0.000005  0.000003
58.393540  136.196732  -3.364575  0.000258  -0.000187  0.000003
-58.393129  330.293764  -17.274446  0.000153  -0.000065  0.000010
97.313154  58.367025  -1.972504  0.000242  -0.000315  -0.000002
-175.105074  522.547775  -46.847263  0.000060  0.000101  -0.000013
-19.465072  252.793080  -9.859178  0.000278  -0.000207  0.000018
136.219005  -19.448866  -2.900810  0.000299  -0.000465  -0.000015
-136.218624  445.915457  -33.463385  0.000082  0.000047  -0.000003
19.465644  175.101783  -4.756841  0.000294  -0.000239  0.000011
-97.312828  368.889429  -22.365916  0.000084  -0.000027  0.000006
58.393549  97.297116  -1.972500  0.000267  -0.000231  0.000002
-58.393099  291.546189  -13.567075  0.000183  -0.000124  0.000014
-213.966633  560.483083  -55.591644  0.000034  0.000180  -0.000029
97.313197  19.456273  -1.508527  0.000285  -0.000429  -0.000006
-175.105091  484.139125  -40.845457  0.000043  0.000025  -0.000001
-19.465076  213.962616  -7.076411  0.000274  -0.000248  0.000018
136.218948  -58.342842  -3.364596  0.000242  -0.000403  -0.000018
-136.218619  407.352710  -28.376256  0.000087  0.000007  0.000003
19.465624  136.216059  -2.900787  0.000274  -0.000226  0.000008
-97.312848  330.199869  -18.197996  0.000064  -0.000035  0.000005
58.393590  58.383576  -1.044341  0.000308  -0.000366  0.000001
-58.393083  252.757155  -10.321972  0.000199  -0.000191  0.000018
-213.966635  522.176017  -49.136899  0.000032  0.000122  -0.000018
97.313198  -19.457174  -1.508532  0.000286  -0.000472  -0.000011
-175.105072  445.661732  -35.302052  0.000062  0.000037  -0.000002
-19.465101  175.101784  -4.756838  0.000249  -0.000238  0.000014
136.218829  -97.228388  -4.292090  0.000123  -0.000206  -0.000011
-136.218648  368.732056  -23.749292  0.000058  -0.000024  0.000005
19.465631  97.310912  -1.508515  0.000281  -0.000270  0.000006
-97.312813  291.463310  -14.491677  0.000099  -0.000096  0.000012
-252.797797  560.004318  -58.332971  -0.000018  0.000154  -0.000029
58.393614  19.461762  -0.580231  0.000332  -0.000474  -0.000003
-213.966648  483.794682  -43.139361  0.000019  0.000034  -0.000004
-58.393086  213.932214  -7.539600  0.000196  -0.000231  0.000019
97.313157  -58.367761  -1.972517  0.000245  -0.000421  -0.000015
-175.105065  407.120930  -30.217818  0.000069  0.000001  0.000004
-19.465119  136.216060  -2.900784  0.000231  -0.000225  0.000011
-136.218688  330.059021  -19.583153  0.000018  -0.000013  0.000002
19.465662  58.391851  -0.580223  0.000312  -0.000393  0.000005
-97.312790  252.685304  -11.247496  0.000122  -0.000166  0.000016
-252.797795  521.730013  -51.883745  -0.000016  0.000136  -0.000023
58.393616  -19.462757  -0.580237  0.000334  -0.000521  -0.000009
-213.966642  445.344641  -37.599897  0.000025  0.000022  -0.000002
-58.393107  175.076907  -5.220357  0.000175  -0.000220  0.000015
97.313095  -97.269942  -2.900412  0.000183  -0.000263  -0.000013
-175.105076  368.522239  -25.593485  0.000058  -0.000041  0.000007
-19.465113  97.310913  -1.508511  0.000237  -0.000269  0.000010
-136.218645  291.338979  -15.878414  0.000061  -0.000083  0.000010
-252.797801  483.381456  -45.891328  -0.000022  0.000043  -0.000008
-97.312793  213.871404  -8.465916  0.000119  -0.000205  0.000017
58.393596  -58.384429  -1.044356  0.000314  -0.000487  -0.000014
-213.966633  406.831264  -32.519280  0.000034  -0.000009  0.000004
-58.393128  136.196734  -3.364568  0.000154  -0.000185  0.000010
97.313078  -136.158405  -4.292093  0.000166  -0.000216  -0.000014
-175.105092  329.871185  -21.429713  0.000042  -0.000053  0.000007
-19.465086  58.391852  -0.580220  0.000264  -0.000392  0.000008
-136.218621  252.577511  -12.635616  0.000085  -0.000159  0.000016
-291.593004  521.209819  -55.087409  -0.000053  0.000137  -0.000027
-252.797802  444.964236  -40.356593  -0.000023  0.000010  -0.000003
-97.312817  175.027155  -6.147332  0.000095  -0.000186  0.000013
58.393558  -97.297719  -1.972518  0.000276  -0.000372  -0.000016
-0.000000  0.000000  0.000000  -0.000000  0.000000  0.000000
-213.966638  368.260030  -27.898236  0.000029  -0.000056  0.000009
-58.393123  97.297118  -1.972493  0.000159  -0.000229  0.000009
-175.105082  291.173200  -17.727086  0.000052  -0.000097  0.000012
-291.593004  482.899519  -49.100970  -0.000053  0.000065  -0.000015
-136.218620  213.780165  -9.855222  0.000086  -0.000202  0.000016
19.465667  -58.392765  -0.580239  0.000317  -0.000521  -0.000011
-252.797796  406.483764  -35.280318  -0.000017  -0.000012  -0.000000
-97.312847  136.158080  -4.292073  0.000065  -0.000109  0.000006
58.393553  -136.197287  -3.364599  0.000271  -0.000368  -0.000021
-213.966648  329.636465  -23.737426  0.000019  -0.000078  0.000009
-58.393096  58.383580  -1.044332  0.000186  -0.000362  0.000010
-175.105069  252.433787  -14.486133  0.000065  -0.000172  0.000017
-291.593005  444.520576  -43.571749  -0.000054  0.000005  -0.000006
-136.218641  174.952486  -7.537627  0.000065  -0.000185  0.000013
19.465641  -97.311616  -1.508536  0.000291  -0.000434  -0.000015
-252.797796  367.945475  -30.663221  -0.000017  -0.000061  0.000005
-97.312838  97.269519  -2.900392  0.000074  -0.000160  0.000007
-213.966647  290.966025  -20.037435  0.000020  -0.000110  0.000011
-58.393080  19.461767  -0.580222  0.000202  -0.000469  0.000006
-330.346724  482.348925  -52.767823  -0.000059  0.000085  -0.000018
-175.105067  213.658506  -11.707321  0.000067  -0.000225  0.000018
-19.465082  -58.392763  -0.580236  0.000268  -0.000519  -0.000008
-291.593004  406.078480  -38.500537  -0.000053  -0.000009  -0.000004
-136.218679  136.100020  -5.683161  0.000027  -0.000081  0.000005
19.465638  -136.216728  -2.900815  0.000288  -0.000443  -0.000020
-252.797802  329.354896  -26.505964  -0.000023  -0.000087  0.000007
-97.312808  58.367031  -1.972494  0.000104  -0.000309  0.000008
-213.966637  252.254169  -16.798788  0.000030  -0.000190  0.000017
-58.393079  -19.462752  -0.580228  0.000203  -0.000516  0.000000
-330.346700  444.013730  -47.244903  -0.000035  0.000012  -0.000005
-175.105075  174.852901  -9.391044  0.000059  -0.000226  0.000015
-19.465105  -97.311615  -1.508532  0.000245  -0.000433  -0.000011
-291.593004  367.578620  -33.888043  -0.000053  -0.000053  0.000001
-136.218671  97.228059  -4.292074  0.000035  -0.000123  0.000005
19.465658  -175.102595  -4.756885  0.000308  -0.000573  -0.000033
-252.797803  290.717493  -22.809134  -0.000024  -0.000112  0.000008
-97.312789  19.456282  -1.508515  0.000123  -0.000420  0.000006
-369.053511  481.729740  -56.891373  -0.000098  0.000091  -0.000025
-213.966634  213.506465  -14.021952  0.000033  -0.000254  0.000019
-58.393092  -58.384423  -1.044347  0.000190  -0.000481  -0.000005
-330.346709  405.615469  -42.179474  -0.000044  0.000001  -0.000005
-175.105090  136.022498  -7.537631  0.000044  -0.000166  0.000009
-19.465106  -136.216727  -2.900812  0.000244  -0.000442  -0.000017
-291.593005  329.026514  -29.734930  -0.000054  -0.000084  0.000004
-136.218637  58.342146  -3.364570  0.000069  -0.000293  0.000008
-252.797798  252.038709  -19.573254  -0.000019  -0.000186  0.000013
-97.312788  -19.457165  -1.508520  0.000124  -0.000463  0.000001
-369.053493  443.443766  -51.375544  -0.000080  0.000029  -0.000013
-213.966639  174.728456  -11.707323  0.000028  -0.000268  0.000016
-58.393117  -97.297715  -1.972510  0.000165  -0.000368  -0.000008
-330.346727  367.159512  -37.572242  -0.000062  -0.000039  -0.000002
-19.465089  -175.102592  -4.756881  0.000261  -0.000570  -0.000029
-175.105090  97.172674  -6.147337  0.000044  -0.000187  0.000008
-291.593005  290.427654  -26.041788  -0.000054  -0.000089  0.000003
-136.218619  19.447991  -2.900789  0.000087  -0.000410  0.000006
-252.797796  213.324091  -16.798789  -0.000017  -0.000260  0.000016
-97.312806  -58.367753  -1.972507  0.000106  -0.000413  -0.000005
-369.053481  405.094770  -46.316611  -0.000068  -0.000009  -0.000006
-58.393120  -136.197283  -3.364591  0.000162  -0.000364  -0.000013
-213.966648  135.925659  -9.855228  0.000019  -0.000228  0.000010
-330.346720  328.651361  -33.423863  -0.000055  -0.000072  0.000002
-175.105075  58.308913  -5.220363  0.000059  -0.000330  0.000009
-291.593005  251.787443  -22.809135  -0.000054  -0.000155  0.000008
-136.218619  -19.448852  -2.900794  0.000087  -0.000451  0.000001
-407.707888  442.810744  -55.963085  -0.000196  0.000033  -0.000030
-97.312836  -97.269937  -2.900404  0.000076  -0.000258  -0.000005
-252.797798  174.579194  -14.486136  -0.000019  -0.000285  0.000014
-58.393098  -175.077660  -5.220397  0.000184  -0.000533  -0.000025
-369.053505  366.688190  -41.715296  -0.000092  -0.000038  -0.000006
-213.966648  97.103477  -8.465924  0.000019  -0.000248  0.000009
-330.346699  290.096545  -29.734933  -0.000034  -0.000045  0.000001
-175.105066  19.436892  -4.756846  0.000068  -0.000444  0.000006
-136.218636  -58.342830  -3.364582  0.000070  -0.000391  -0.000004
-291.593005  213.111416  -20.037436  -0.000054  -0.000239  0.000011
-97.312844  -136.158402  -4.292086  0.000068  -0.000213  -0.000007
-407.707869  404.516473  -50.911371  -0.000177  -0.000024  -0.000020
-252.797803  135.809538  -12.635623  -0.000024  -0.000247  0.000009
-58.393072  -213.933172  -7.539663  0.000210  -0.000727  -0.000044
-369.053509  328.229459  -37.572242  -0.000096  -0.000084  -0.000002
-213.966641  58.267392  -7.539611  0.000026  -0.000366  0.000008
-330.346706  251.500407  -26.505967  -0.000041  -0.000096  0.000004
-175.105066  -19.437824  -4.756852  0.000068  -0.000488  0.000000
-136.218670  -97.228383  -4.292084  0.000036  -0.000201  -0.000005
-291.593005  174.405139  -17.727088  -0.000054  -0.000274  0.000010
-97.312812  -175.027803  -6.147367  0.000100  -0.000462  -0.000022
-407.707879  366.164718  -46.316622  -0.000187  -0.000054  -0.000017
-252.797803  97.020524  -11.247507  -0.000024  -0.000260  0.000005
-369.053488  289.724113  -33.888046  -0.000075  -0.000080  -0.000002
-213.966635  19.423018  -7.076424  0.000032  -0.000488  0.000005
-175.105074  -58.309683  -5.220376  0.000060  -0.000440  -0.000004
-330.346725  212.868458  -23.737428  -0.000060  -0.000201  0.000007
-136.218678  -136.100262  -5.683171  0.000028  -0.000161  -0.000005
-446.304253  403.880680  -55.963087  -0.000248  -0.000023  -0.000032
-291.593005  135.674146  -15.878419  -0.000054  -0.000229  0.000005
-97.312786  -213.872266  -8.465972  0.000126  -0.000657  -0.000039
-407.707891  327.760878  -42.179483  -0.000199  -0.000110  -0.000014
-252.797800  58.217620  -10.321985  -0.000021  -0.000368  0.000005
-213.966635  -19.424043  -7.076430  0.000032  -0.000537  -0.000001
-369.053483  251.177574  -30.663228  -0.000070  -0.000078  -0.000002
-175.105088  -97.173162  -6.147352  0.000046  -0.000301  -0.000007
-330.346727  174.206303  -21.429713  -0.000062  -0.000248  0.000007
-136.218638  -174.953130  -7.537662  0.000068  -0.000459  -0.000022
-446.304243  365.589201  -51.375557  -0.000238  -0.000056  -0.000026
-291.593006  96.923839  -14.491688  -0.000055  -0.000209  0.000001
-407.707881  289.310469  -38.500545  -0.000189  -0.000136  -0.000012
-252.797798  19.406418  -9.859194  -0.000019  -0.000498  0.000002
-213.966641  -58.268243  -7.539626  0.000026  -0.000485  -0.000007
-369.053504  212.595208  -27.898242  -0.000091  -0.000192  0.000003
-175.105088  -136.022989  -7.537651  0.000046  -0.000325  -0.000011
-330.346711  135.519478  -19.583151  -0.000046  -0.000198  0.000004
-136.218616  -213.781017  -9.855277  0.000090  -0.000650  -0.000039
-446.304267  327.245720  -47.244922  -0.000262  -0.000113  -0.000025
-291.593006  58.159612  -13.567088  -0.000055  -0.000330  0.000001
-252.797798  -19.407462  -9.859201  -0.000019  -0.000546  -0.000005
-407.707869  250.818960  -35.280331  -0.000177  -0.000130  -0.000013
-213.966647  -97.104123  -8.465943  0.000020  -0.000398  -0.000010
-369.053512  173.982662  -25.593490  -0.000099  -0.000260  0.000002
-175.105072  -174.853683  -9.391086  0.000062  -0.000556  -0.000027
-484.837044  364.961728  -56.891371  -0.000178  -0.000037  -0.000023
-330.346698  96.813454  -18.198002  -0.000033  -0.000079  -0.000001
-136.218615  -252.578355  -12.635681  0.000091  -0.000685  -0.000049
-446.304265  288.855725  -43.571765  -0.000260  -0.000159  -0.000022
-291.593007  19.387101  -13.104759  -0.000056  -0.000465  -0.000002
-252.797801  -58.218474  -10.322000  -0.000022  -0.000486  -0.000010
-407.707882  212.291701  -32.519294  -0.000190  -0.000214  -0.000010
-213.966646  -135.926331  -9.855256  0.000021  -0.000444  -0.000018
-369.053497  135.345476  -23.749297  -0.000084  -0.000233  -0.000000
-175.105062  -213.659447  -11.707382  0.000072  -0.000716  -0.000043
-484.837071  326.684074  -52.767827  -0.000205  -0.000080  -0.000022
-330.346712  58.093371  -17.274456  -0.000047  -0.000255  0.000000
-291.593007  -19.388078  -13.104765  -0.000056  -0.000512  -0.000008
-446.304243  250.424720  -40.356612  -0.000238  -0.000148  -0.000022
-252.797804  -97.021200  -11.247527  -0.000025  -0.000416  -0.000015
-407.707892  173.734252  -30.217831  -0.000200  -0.000306  -0.000009
-213.966638  -174.729372  -11.707372  0.000029  -0.000648  -0.000033
-369.053481  96.689133  -22.365926  -0.000068  -0.000121  -0.000004
-175.105063  -252.434689  -14.486203  0.000071  -0.000730  -0.000053
-484.837088  288.359956  -49.100976  -0.000222  -0.000141  -0.000021
-330.346728  19.365049  -16.812654  -0.000063  -0.000411  -0.000004
-291.593007  -58.160380  -13.567102  -0.000056  -0.000438  -0.000013
-446.304250  211.958051  -37.599916  -0.000245  -0.000197  -0.000021
-252.797803  -135.810265  -12.635653  -0.000024  -0.000480  -0.000021
-407.707886  135.152190  -28.376271  -0.000194  -0.000310  -0.000012
-213.966632  -213.507510  -14.022020  0.000035  -0.000791  -0.000049
-369.053492  58.018795  -21.443566  -0.000079  -0.000256  -0.000004
-175.105077  -291.173842  -17.727143  0.000057  -0.000545  -0.000045
-484.837062  249.994907  -45.891339  -0.000196  -0.000135  -0.000019
-330.346728  -19.365912  -16.812659  -0.000063  -0.000452  -0.000009
-291.593008  -96.924384  -14.491704  -0.000057  -0.000336  -0.000015
-446.304270  173.461180  -35.302070  -0.000265  -0.000313  -0.000020
-252.797799  -174.580169  -14.486189  -0.000020  -0.000690  -0.000039
-407.707872  96.550984  -26.994874  -0.000180  -0.000243  -0.000016
-213.966635  -252.255132  -16.798863  0.000032  -0.000773  -0.000058
-523.301005  287.823181  -55.087404  -0.000209  -0.000130  -0.000023
-369.053511  19.340182  -20.982358  -0.000098  -0.000418  -0.000009
-330.346713  -58.093967  -17.274467  -0.000048  -0.000341  -0.000011
-484.837048  211.594322  -43.139376  -0.000182  -0.000124  -0.000019
-291.593008  -135.674819  -15.878448  -0.000057  -0.000444  -0.000024
-446.304267  134.939735  -33.463404  -0.000262  -0.000341  -0.000022
-252.797798  -213.325158  -16.798859  -0.000019  -0.000807  -0.000054
-407.707878  57.935914  -26.073833  -0.000186  -0.000314  -0.000018
-213.966644  -290.966727  -20.037498  0.000023  -0.000592  -0.000052
-523.300978  249.529526  -51.883740  -0.000182  -0.000148  -0.000018
-369.053512  -19.341060  -20.982363  -0.000099  -0.000460  -0.000014
-330.346699  -96.813660  -18.198008  -0.000034  -0.000127  -0.000007
-484.837084  173.163505  -40.845475  -0.000218  -0.000261  -0.000019
-291.593009  -174.406086  -17.727139  -0.000058  -0.000673  -0.000041
-446.304247  96.399201  -32.084178  -0.000242  -0.000273  -0.000025
-252.797800  -252.039637  -19.573326  -0.000021  -0.000742  -0.000059
-407.707895  19.312507  -25.613283  -0.000203  -0.000484  -0.000022
-369.053493  -58.019392  -21.443577  -0.000080  -0.000341  -0.000015
-523.300879  211.200514  -49.136892  -0.000083  -0.000047  -0.000011
-330.346713  -135.520068  -19.583176  -0.000048  -0.000392  -0.000021
-484.837087  134.708156  -39.009964  -0.000221  -0.000311  -0.000020
-291.593010  -213.112406  -20.037501  -0.000059  -0.000751  -0.000054
-446.304251  57.844844  -31.164585  -0.000246  -0.000323  -0.000028
-252.797805  -290.718198  -22.809198  -0.000026  -0.000593  -0.000056
-561.690711  249.028617  -58.332993  -0.000384  -0.000213  -0.000051
-407.707896  -19.313522  -25.613290  -0.000204  -0.000531  -0.000029
-369.053483  -96.689447  -22.365935  -0.000070  -0.000193  -0.000013
-523.300977  172.841203  -46.847268  -0.000181  -0.000217  -0.000018
-330.346731  -174.207168  -21.429760  -0.000066  -0.000617  -0.000040
-484.837055  96.233801  -37.633103  -0.000189  -0.000215  -0.000022
-291.593010  -251.788222  -22.809196  -0.000059  -0.000624  -0.000053
-446.304273  19.282137  -30.704761  -0.000268  -0.000499  -0.000034
-252.797804  -329.355652  -26.506041  -0.000025  -0.000669  -0.000070
-561.690666  210.776474  -55.591663  -0.000339  -0.000174  -0.000048
-407.707881  -57.936643  -26.073846  -0.000189  -0.000415  -0.000031
-369.053500  -135.346169  -23.749327  -0.000087  -0.000460  -0.000030
-523.301010  134.457401  -45.015177  -0.000214  -0.000305  -0.000022
-330.346730  -212.869301  -23.737484  -0.000065  -0.000642  -0.000049
-484.837055  57.745648  -36.715088  -0.000189  -0.000235  -0.000024
-291.593010  -290.428214  -26.041839  -0.000059  -0.000471  -0.000048
-446.304275  -19.283184  -30.704767  -0.000270  -0.000548  -0.000040
-407.707878  -96.551615  -26.994893  -0.000186  -0.000388  -0.000035
-561.690684  172.494257  -53.306629  -0.000357  -0.000243  -0.000049
-369.053518  -173.983569  -25.593539  -0.000105  -0.000647  -0.000047
-523.300933  96.054669  -43.640872  -0.000137  -0.000206  -0.000017
-330.346709  -251.500909  -26.506007  -0.000044  -0.000406  -0.000036
-291.593010  -329.027289  -29.735009  -0.000059  -0.000691  -0.000075
-484.837090  19.249102  -36.256054  -0.000224  -0.000438  -0.000031
-446.304255  -57.845594  -31.164599  -0.000250  -0.000427  -0.000042
-407.707894  -135.153102  -28.376310  -0.000202  -0.000602  -0.000051
-561.690718  134.187461  -51.478215  -0.000391  -0.000367  -0.000053
-369.053510  -212.596010  -27.898296  -0.000097  -0.000610  -0.000051
-523.300901  57.638233  -42.724562  -0.000105  -0.000155  -0.000015
-330.346702  -290.096835  -29.734959  -0.000037  -0.000245  -0.000025
-291.593012  -367.579619  -33.888157  -0.000061  -0.000946  -0.000113
-484.837091  -19.250022  -36.256060  -0.000225  -0.000482  -0.000037
-446.304255  -96.399908  -32.084200  -0.000250  -0.000434  -0.000047
-407.707905  -173.735304  -30.217889  -0.000213  -0.000746  -0.000067
-561.690689  95.861754  -50.106675  -0.000362  -0.000324  -0.000054
-369.053488  -251.177963  -30.663259  -0.000075  -0.000311  -0.000033
-330.346726  -328.652121  -33.423941  -0.000061  -0.000688  -0.000076
-523.301002  19.213298  -42.266392  -0.000206  -0.000409  -0.000031
-484.837058  -57.746194  -36.715099  -0.000192  -0.000311  -0.000035
-446.304278  -134.940738  -33.463448  -0.000273  -0.000662  -0.000066
-600.000446  133.898503  -58.398114  -0.000446  -0.000370  -0.000068
-407.707894  -212.292565  -32.519352  -0.000202  -0.000650  -0.000068
-561.690670  57.522414  -49.192207  -0.000343  -0.000285  -0.000055
-369.053496  -289.724646  -33.888094  -0.000083  -0.000453  -0.000050
-330.346734  -367.160386  -37.572342  -0.000069  -0.000835  -0.000102
-523.301003  -19.214156  -42.266397  -0.000207  -0.000449  -0.000036
-484.837060  -96.234356  -37.633121  -0.000194  -0.000340  -0.000040
-446.304286  -173.462251  -35.302130  -0.000281  -0.000758  -0.000080
-600.000425  95.655293  -57.029527  -0.000425  -0.000359  -0.000069
-407.707885  -250.819595  -35.280382  -0.000193  -0.000505  -0.000064
-369.053519  -328.230335  -37.572333  -0.000106  -0.000792  -0.000093
-561.690716  19.174654  -48.734950  -0.000389  -0.000488  -0.000065
-523.300903  -57.638594  -42.724568  -0.000107  -0.000206  -0.000021
-484.837097  -134.709082  -39.010004  -0.000231  -0.000615  -0.000060
-446.304265  -211.958837  -37.599970  -0.000260  -0.000589  -0.000075
-600.000392  57.398542  -56.117027  -0.000392  -0.000290  -0.000069
-407.707898  -289.311333  -38.500624  -0.000206  -0.000728  -0.000091
-369.053515  -366.689010  -41.715391  -0.000102  -0.000782  -0.000101
-561.690718  -19.175677  -48.734956  -0.000391  -0.000535  -0.000071
-523.300936  -96.055204  -43.640888  -0.000140  -0.000329  -0.000033
-484.837097  -173.164408  -40.845525  -0.000231  -0.000642  -0.000069
-446.304264  -250.425438  -40.356670  -0.000259  -0.000570  -0.000080
-600.000444  19.133359  -55.660756  -0.000444  -0.000492  -0.000080
-407.707913  -327.761930  -42.179593  -0.000221  -0.000942  -0.000124
-369.053491  -405.095140  -46.316659  -0.000078  -0.000361  -0.000054
-561.690676  -57.523076  -49.192220  -0.000349  -0.000377  -0.000068
-523.301018  -134.458307  -45.015216  -0.000222  -0.000601  -0.000061
-484.837060  -211.594820  -43.139411  -0.000194  -0.000374  -0.000054
-446.304289  -288.856747  -43.571860  -0.000284  -0.000863  -0.000117
-407.707898  -366.165537  -46.316718  -0.000206  -0.000765  -0.000113
-600.000447  -19.134391  -55.660763  -0.000447  -0.000540  -0.000087
-561.690699  -95.862588  -50.106701  -0.000372  -0.000510  -0.000080
-523.300985  -172.841954  -46.847310  -0.000189  -0.000534  -0.000060
-484.837077  -249.995572  -45.891393  -0.000211  -0.000530  -0.000073
-446.304294  -327.246762  -47.245032  -0.000289  -0.000929  -0.000135
-407.707895  -404.517149  -50.911459  -0.000203  -0.000652  -0.000108
-600.000400  -57.399214  -56.117040  -0.000400  -0.000382  -0.000082
-561.690735  -134.188544  -51.478263  -0.000408  -0.000716  -0.000101
-523.300885  -211.200702  -49.136905  -0.000089  -0.000141  -0.000024
