# COL 1-3: Estimated X/Y/Z plate position [mm]
# COL 4-6: X/Y/Z plate position error [mm]
407.717972  404.516363  -50.912639  0.010280  -0.000134  -0.001288
523.311428  211.197554  -49.138414  0.010632  -0.003007  -0.001533
446.308786  327.245022  -47.245478  0.004781  -0.000811  -0.000581
561.695126  134.185546  -51.478906  0.004799  -0.002282  -0.000744
369.062339  443.443858  -51.376572  0.008926  0.000121  -0.001041
484.847799  249.992726  -45.892787  0.010933  -0.002316  -0.001467
407.716698  366.164056  -46.317664  0.009006  -0.000716  -0.001059
523.312839  172.836798  -46.848960  0.012043  -0.004622  -0.001710
330.351505  482.349860  -52.768456  0.004840  0.001020  -0.000651
446.312044  288.853865  -43.572676  0.008039  -0.002019  -0.000933
369.063928  405.094603  -46.317788  0.010515  -0.000176  -0.001183
484.848030  211.591424  -43.140838  0.011164  -0.003022  -0.001481
407.716217  327.759810  -42.180428  0.008525  -0.001178  -0.000959
291.601795  521.211659  -55.088506  0.008844  0.001977  -0.001124
523.310946  134.454186  -45.016658  0.010150  -0.003520  -0.001503
330.348985  444.013927  -47.245165  0.002320  0.000209  -0.000267
446.308978  250.423290  -40.357156  0.004973  -0.001578  -0.000566
369.062987  366.687437  -41.716296  0.009574  -0.000791  -0.001006
484.849603  173.158941  -40.847112  0.012737  -0.004825  -0.001656
252.804498  560.005426  -58.333692  0.006719  0.001262  -0.000750
407.717917  289.308297  -38.501618  0.010225  -0.002308  -0.001085
291.601236  482.900512  -49.101865  0.008285  0.001058  -0.000910
523.311295  96.050505  -43.642431  0.010499  -0.004370  -0.001576
330.353046  405.615519  -42.180130  0.006381  0.000051  -0.000661
446.308524  211.956417  -37.600400  0.004519  -0.001831  -0.000505
369.062213  328.228316  -37.573122  0.008800  -0.001227  -0.000882
252.805896  521.731794  -51.884672  0.008117  0.001917  -0.000950
484.847964  134.704567  -39.011449  0.011098  -0.003900  -0.001505
407.716759  250.816784  -35.281284  0.009067  -0.002306  -0.000966
291.600123  444.520663  -43.572405  0.007172  0.000092  -0.000662
330.351682  367.159130  -37.572706  0.005017  -0.000421  -0.000466
446.312052  173.457471  -35.302946  0.008047  -0.004022  -0.000896
213.967699  560.483233  -55.591742  0.001032  0.000330  -0.000127
369.063875  289.721808  -33.889025  0.010462  -0.002385  -0.000981
252.805577  483.382542  -45.892102  0.007798  0.001129  -0.000782
484.848038  96.229501  -37.634625  0.011172  -0.004515  -0.001544
291.601638  406.078344  -38.501300  0.008687  -0.000145  -0.000767
407.716221  212.289438  -32.520197  0.008529  -0.002477  -0.000913
330.348786  328.651019  -33.424040  0.002121  -0.000414  -0.000175
446.309010  134.937312  -33.463958  0.005005  -0.002764  -0.000576
213.971480  522.177713  -49.137496  0.004813  0.001818  -0.000615
369.062968  251.175145  -30.664122  0.009555  -0.002507  -0.000896
252.804368  444.964317  -40.357119  0.006589  0.000091  -0.000529
291.601214  367.577918  -33.888704  0.008263  -0.000755  -0.000660
407.717959  173.730091  -30.218876  0.010267  -0.004467  -0.001054
175.111198  560.883269  -53.307140  0.006064  0.001314  -0.000560
330.353004  290.094728  -29.735414  0.006339  -0.001862  -0.000480
446.308619  96.396553  -32.084702  0.004614  -0.002921  -0.000549
213.971249  483.795871  -43.139845  0.004582  0.001223  -0.000488
369.062271  212.592817  -27.899085  0.008858  -0.002583  -0.000840
252.805757  406.483634  -35.280925  0.007978  -0.000142  -0.000607
136.224339  599.480649  -58.398858  0.005633  0.003066  -0.000812
291.600085  329.025511  -29.735466  0.007134  -0.001087  -0.000532
407.716726  135.148709  -28.377239  0.009034  -0.003791  -0.000980
175.112223  522.549470  -46.847928  0.007089  0.001796  -0.000678
330.351537  251.498645  -26.506323  0.004872  -0.001858  -0.000352
213.967547  445.344637  -37.599956  0.000880  0.000018  -0.000061
446.312123  57.839176  -31.165570  0.008118  -0.005991  -0.001013
369.063933  173.978326  -25.594444  0.010520  -0.004596  -0.000952
252.805519  367.944790  -30.663746  0.007740  -0.000746  -0.000520
136.223167  561.202341  -51.478539  0.004461  0.001075  -0.000377
291.601624  290.425509  -26.042372  0.008673  -0.002234  -0.000581
407.716400  96.547319  -26.995838  0.008708  -0.003908  -0.000980
175.112225  484.140306  -40.846022  0.007091  0.001206  -0.000566
330.349142  212.867469  -23.737609  0.002477  -0.001190  -0.000174
213.971348  406.831335  -32.519601  0.004681  0.000062  -0.000317
97.316698  599.736423  -57.030131  0.003786  0.002981  -0.000673
252.804339  329.353933  -26.506376  0.006560  -0.001050  -0.000405
369.062872  135.341664  -23.750205  0.009459  -0.004045  -0.000908
136.224204  522.846879  -45.015667  0.005498  0.001718  -0.000512
291.601112  251.785072  -22.809680  0.008161  -0.002526  -0.000537
407.718083  57.929604  -26.075005  0.010391  -0.006624  -0.001190
175.111114  445.661804  -35.302390  0.005980  0.000109  -0.000340
330.353091  174.202754  -21.430171  0.006426  -0.003797  -0.000451
213.971172  368.259636  -27.898491  0.004505  -0.000450  -0.000246
97.314841  561.441358  -50.106779  0.001929  0.000570  -0.000158
252.805766  290.715422  -22.809569  0.007987  -0.002183  -0.000427
369.062474  96.685166  -22.366831  0.009061  -0.004088  -0.000909
136.224302  484.415964  -39.010367  0.005596  0.001243  -0.000423
291.600167  213.109329  -20.037942  0.007216  -0.002326  -0.000495
175.112126  407.120751  -30.218178  0.006992  -0.000178  -0.000356
58.398681  599.907273  -56.117662  0.005399  0.003239  -0.000704
330.351154  135.516674  -19.583486  0.004489  -0.003002  -0.000331
213.967603  329.636362  -23.737478  0.000936  -0.000181  -0.000043
97.316416  523.069955  -43.641228  0.003504  0.001643  -0.000373
252.805400  252.036352  -19.573663  0.007621  -0.002543  -0.000396
369.064071  58.012234  -21.444653  0.010658  -0.006817  -0.001091
136.223111  445.915514  -33.463582  0.004405  0.000104  -0.000200
291.601716  174.401036  -17.727650  0.008765  -0.004377  -0.000552
175.112137  368.521494  -25.593782  0.007003  -0.000786  -0.000290
58.397842  561.601867  -49.192475  0.004560  0.001378  -0.000323
330.349819  96.811121  -18.198250  0.003154  -0.002412  -0.000249
213.971435  290.964427  -20.037608  0.004768  -0.001708  -0.000162
97.316703  484.622756  -37.633389  0.003791  0.001285  -0.000308
252.804415  213.322097  -16.799173  0.006636  -0.002254  -0.000368
369.062744  19.335307  -20.983379  0.009331  -0.005293  -0.001030
136.224133  407.352606  -28.376475  0.005427  -0.000097  -0.000216
291.600946  135.670348  -15.878974  0.007995  -0.004027  -0.000550
19.468760  599.992397  -55.661269  0.003410  0.003060  -0.000593
175.111081  329.870139  -21.429930  0.005947  -0.001099  -0.000210
58.398449  523.218755  -42.724910  0.005167  0.001657  -0.000363
330.353215  58.087883  -17.275019  0.006550  -0.005743  -0.000563
213.970918  252.252366  -16.798930  0.004251  -0.001993  -0.000125
97.314836  446.105811  -32.084222  0.001924  0.000083  -0.000069
252.805876  174.575170  -14.486548  0.008097  -0.004309  -0.000398
136.224217  368.731416  -23.749453  0.005511  -0.000664  -0.000156
19.467767  561.681227  -48.735054  0.002417  0.000883  -0.000169
291.600391  96.920275  -14.492244  0.007440  -0.003773  -0.000555
175.112174  291.171118  -17.727282  0.007040  -0.002179  -0.000184
58.398624  484.760565  -36.715348  0.005342  0.001245  -0.000284
330.350569  19.361797  -16.813025  0.003904  -0.003663  -0.000375
213.968055  213.505953  -14.022012  0.001388  -0.000766  -0.000041
97.316374  407.526603  -26.994967  0.003462  0.000041  -0.000109
252.805219  135.805749  -12.636041  0.007440  -0.004036  -0.000409
-19.462492  599.992384  -55.661228  0.002858  0.003047  -0.000552
136.223076  330.058157  -19.583249  0.004370  -0.000877  -0.000094
19.468530  523.293092  -42.266639  0.003180  0.001596  -0.000278
291.601862  58.153385  -13.567771  0.008911  -0.006557  -0.000682
175.112012  252.431298  -14.486314  0.006878  -0.002661  -0.000164
58.397780  446.232752  -31.164656  0.004498  0.000130  -0.000099
213.971630  174.725120  -11.707472  0.004963  -0.003604  -0.000133
97.316603  368.888975  -22.365978  0.003691  -0.000481  -0.000056
252.804631  97.017106  -11.247935  0.006852  -0.003678  -0.000423
-19.463357  561.681221  -48.735026  0.001993  0.000877  -0.000141
136.224195  291.337104  -15.878479  0.005489  -0.001958  -0.000055
19.468726  484.829528  -36.256235  0.003376  0.001278  -0.000212
291.600718  19.382485  -13.105423  0.007767  -0.005081  -0.000666
175.111127  213.656382  -11.707507  0.005993  -0.002349  -0.000168
58.398401  407.642279  -26.073882  0.005119  -0.000203  -0.000067
213.970469  135.922750  -9.855357  0.003802  -0.003137  -0.000119
97.314783  330.199480  -18.198014  0.001871  -0.000424  -0.000013
-58.389983  599.907233  -56.117496  0.003299  0.003199  -0.000538
252.806026  58.211502  -10.322515  0.008247  -0.006486  -0.000525
-19.462690  523.293085  -42.266603  0.002660  0.001589  -0.000242
136.224098  252.575226  -12.635668  0.005392  -0.002444  -0.000036
19.467739  446.296183  -30.704756  0.002389  0.000109  -0.000029
291.600768  -19.393198  -13.105491  0.007817  -0.005632  -0.000734
175.112305  174.848805  -9.391213  0.007171  -0.004322  -0.000154
58.398543  368.993584  -21.443565  0.005261  -0.000802  -0.000003
213.968916  97.101634  -8.466018  0.002249  -0.002091  -0.000085
-58.390535  561.601848  -49.192340  0.002747  0.001359  -0.000188
97.316504  291.461765  -14.491649  0.003592  -0.001641  0.000040
-19.462520  484.829522  -36.256197  0.002830  0.001272  -0.000174
252.804967  19.401886  -9.859724  0.007188  -0.005030  -0.000528
136.223117  213.778470  -9.855298  0.004411  -0.001897  -0.000060
19.468500  407.700420  -25.613276  0.003150  -0.000026  -0.000015
175.111831  136.018471  -7.537825  0.006697  -0.004193  -0.000185
58.397741  330.292709  -17.274422  0.004459  -0.001120  0.000034
-97.311219  599.736367  -57.029954  0.001693  0.002925  -0.000496
213.971807  58.262200  -7.539857  0.005140  -0.005558  -0.000238
-58.390137  523.218732  -42.724756  0.003145  0.001634  -0.000209
97.316409  252.683380  -11.247455  0.003497  -0.002090  0.000057
-19.463380  446.296181  -30.704730  0.001970  0.000107  -0.000003
252.805019  -19.412497  -9.859791  0.007240  -0.005581  -0.000595
136.224326  174.948686  -7.537661  0.005620  -0.003985  -0.000021
19.468655  369.046304  -20.982306  0.003305  -0.000551  0.000043
175.111300  97.169058  -6.147563  0.006166  -0.003803  -0.000218
-97.312081  561.441348  -50.106694  0.000831  0.000560  -0.000073
58.398467  291.544172  -13.566991  0.005185  -0.002141  0.000098
213.969800  19.419884  -7.076613  0.003133  -0.003622  -0.000184
-58.390020  484.760548  -36.715190  0.003262  0.001228  -0.000126
97.314833  213.870630  -8.465926  0.001921  -0.000979  0.000007
-19.462717  407.700420  -25.613242  0.002633  -0.000026  0.000019
136.223920  136.096232  -5.683222  0.005214  -0.003869  -0.000056
19.467696  330.340123  -16.812596  0.002346  -0.000671  0.000054
-136.217151  599.480566  -58.398538  0.001555  0.002983  -0.000492
175.112458  58.302701  -5.220648  0.007324  -0.006542  -0.000276
-97.311350  523.069925  -43.641070  0.001562  0.001613  -0.000215
58.398441  252.754632  -10.321872  0.005159  -0.002714  0.000118
213.969820  -19.427551  -7.076660  0.003153  -0.004045  -0.000231
-58.390576  446.232746  -31.164525  0.002706  0.000124  0.000032
97.316705  175.023816  -6.147269  0.003793  -0.003525  0.000076
-19.462582  369.046306  -20.982270  0.002768  -0.000549  0.000079
136.223304  97.224986  -4.292176  0.004598  -0.003196  -0.000097
19.468567  291.586037  -13.104621  0.003217  -0.001732  0.000136
-136.217567  561.202307  -51.478296  0.001139  0.001041  -0.000134
175.111583  19.432163  -4.757168  0.006449  -0.005173  -0.000316
-97.311224  484.622732  -37.633220  0.001688  0.001261  -0.000139
58.397760  213.930059  -7.539543  0.004478  -0.002386  0.000076
213.971880  -58.275139  -7.540093  0.005213  -0.007381  -0.000474
-58.390169  407.642278  -26.073733  0.003113  -0.000204  0.000082
97.316089  136.154904  -4.292037  0.003177  -0.003285  0.000042
-19.463418  330.340125  -16.812571  0.001932  -0.000669  0.000079
136.224467  58.336341  -3.364710  0.005761  -0.006098  -0.000132
-136.217199  522.846831  -45.015362  0.001507  0.001670  -0.000207
19.468551  252.791046  -9.859041  0.003201  -0.002241  0.000155
175.111629  -19.443073  -4.757235  0.006495  -0.005737  -0.000383
-97.312085  446.105807  -32.084139  0.000827  0.000079  0.000014
58.398592  175.072850  -5.220237  0.005310  -0.004277  0.000135
-58.390074  368.993590  -21.443414  0.003208  -0.000796  0.000148
97.315168  97.267474  -2.900401  0.002256  -0.002205  -0.000002
-19.462659  291.586044  -13.104586  0.002691  -0.001725  0.000171
-175.104256  560.883218  -53.306753  0.000878  0.001263  -0.000173
136.223658  19.443720  -2.900974  0.004952  -0.004681  -0.000179
-136.217163  484.415928  -39.010060  0.001543  0.001207  -0.000116
19.467712  213.961404  -7.076347  0.002362  -0.001460  0.000082
175.112592  -58.317903  -5.220927  0.007458  -0.008660  -0.000555
-97.311374  407.526603  -26.994817  0.001538  0.000041  0.000041
58.398291  136.192659  -3.364490  0.005009  -0.004260  0.000088
-58.390603  330.292716  -17.274294  0.002679  -0.001113  0.000162
97.316870  58.361840  -1.972522  0.003958  -0.005500  -0.000020
-175.104008  522.549402  -46.847470  0.001126  0.001728  -0.000220
-19.462673  252.791056  -9.859007  0.002677  -0.002231  0.000189
136.223698  -19.453604  -2.901034  0.004992  -0.005203  -0.000239
-136.217587  445.915502  -33.463348  0.001119  0.000092  0.000034
19.468689  175.098374  -4.756676  0.003339  -0.003648  0.000176
-97.311274  368.888987  -22.365819  0.001638  -0.000469  0.000103
58.397880  97.293506  -1.972470  0.004598  -0.003841  0.000032
-58.390127  291.544194  -13.566843  0.003155  -0.002119  0.000246
-213.966598  560.483220  -55.591666  0.000069  0.000317  -0.000051
97.315645  19.452917  -1.508580  0.002733  -0.003785  -0.000059
-175.104007  484.140257  -40.845568  0.001127  0.001157  -0.000112
-19.463405  213.961409  -7.076322  0.001945  -0.001455  0.000107
136.224577  -58.350534  -3.364968  0.005871  -0.008095  -0.000390
-136.217225  407.352605  -28.376184  0.001481  -0.000098  0.000075
19.468409  136.212724  -2.900664  0.003059  -0.003561  0.000131
-97.312111  330.199484  -18.197934  0.000801  -0.000420  0.000067
58.398722  58.377429  -1.044322  0.005440  -0.006513  0.000020
-58.390145  252.754661  -10.321725  0.003137  -0.002685  0.000265
-213.966262  522.177634  -49.137136  0.000405  0.001739  -0.000255
97.315667  -19.460926  -1.508628  0.002755  -0.004224  -0.000107
-175.104276  445.661788  -35.302017  0.000858  0.000093  0.000033
-19.462555  175.098390  -4.756641  0.002795  -0.003632  0.000211
136.223449  -97.233254  -4.292429  0.004743  -0.005072  -0.000350
-136.217195  368.731429  -23.749160  0.001511  -0.000651  0.000137
19.467876  97.308546  -1.508457  0.002526  -0.002636  0.000064
-97.311321  291.461800  -14.491497  0.001591  -0.001606  0.000192
-252.798084  560.005358  -58.333175  -0.000305  0.001194  -0.000233
58.398091  19.457016  -0.580283  0.004809  -0.005220  -0.000055
-213.966285  483.795818  -43.139507  0.000382  0.001170  -0.000150
-58.390592  213.930080  -7.539415  0.002690  -0.002365  0.000204
97.316932  -58.374654  -1.972753  0.004020  -0.007314  -0.000251
-175.104033  407.120748  -30.217739  0.001101  -0.000181  0.000083
-19.462799  136.212739  -2.900632  0.002551  -0.003546  0.000163
-136.217600  330.058171  -19.583021  0.001106  -0.000863  0.000134
19.468805  58.386579  -0.580148  0.003455  -0.005665  0.000080
-97.311364  252.683423  -11.247307  0.001548  -0.002047  0.000205
-252.797983  521.731698  -51.884033  -0.000204  0.001821  -0.000311
58.398125  -19.468022  -0.580349  0.004843  -0.005786  -0.000121
-213.966620  445.344637  -37.599895  0.000047  0.000018  0.000000
-58.390047  175.072896  -5.220087  0.003235  -0.004231  0.000285
97.315234  -97.273172  -2.900572  0.002322  -0.003493  -0.000173
-175.104030  368.521512  -25.593345  0.001104  -0.000768  0.000147
-19.463263  97.308558  -1.508430  0.002087  -0.002624  0.000091
-136.217206  291.337151  -15.878190  0.001500  -0.001911  0.000234
-252.798007  483.382475  -45.891498  -0.000228  0.001062  -0.000178
-97.312089  213.870643  -8.465845  0.000823  -0.000966  0.000088
58.398821  -58.392564  -1.044595  0.005539  -0.008622  -0.000253
-213.966283  406.831337  -32.519266  0.000384  0.000064  0.000018
-58.390247  136.192706  -3.364348  0.003035  -0.004213  0.000230
97.316212  -136.164831  -4.292455  0.003300  -0.006642  -0.000376
-175.104286  329.870161  -21.429565  0.000848  -0.001077  0.000155
-19.462457  58.386603  -0.580110  0.002893  -0.005641  0.000118
-136.217242  252.575285  -12.635385  0.001464  -0.002385  0.000247
-291.593754  521.211549  -55.087758  -0.000803  0.001867  -0.000376
-252.798091  444.964297  -40.356624  -0.000312  0.000071  -0.000034
-97.311236  175.023889  -6.147110  0.001676  -0.003452  0.000235
58.398037  -97.303464  -1.972770  0.004755  -0.006117  -0.000268
-0.000000  0.000000  0.000000  -0.000000  0.000000  0.000000
-213.966300  368.259662  -27.898172  0.000367  -0.000424  0.000073
-58.390517  97.293544  -1.972339  0.002765  -0.003803  0.000163
-175.104025  291.171184  -17.726848  0.001109  -0.002113  0.000250
-291.593756  482.900440  -49.101176  -0.000805  0.000986  -0.000221
-136.217590  213.778510  -9.855070  0.001116  -0.001857  0.000168
19.468868  -58.399781  -0.580384  0.003518  -0.007537  -0.000156
-252.797994  406.483633  -35.280317  -0.000215  -0.000143  0.000001
-97.311508  136.154968  -4.291903  0.001404  -0.003221  0.000176
58.398496  -136.205327  -3.365023  0.005214  -0.008408  -0.000445
-213.966612  329.636368  -23.737414  0.000055  -0.000175  0.000021
-58.389965  58.377498  -1.044167  0.003317  -0.006444  0.000175
-175.104066  252.431380  -14.485892  0.001068  -0.002579  0.000258
-291.593759  444.520641  -43.571826  -0.000808  0.000070  -0.000083
-136.217165  174.948782  -7.537367  0.001541  -0.003889  0.000273
19.467955  -97.315357  -1.508661  0.002605  -0.004175  -0.000140
-252.798012  367.944814  -30.663162  -0.000233  -0.000722  0.000064
-97.311926  97.267508  -2.900305  0.000986  -0.002171  0.000094
-213.966284  290.964515  -20.037276  0.000383  -0.001620  0.000170
-58.390380  19.457072  -0.580146  0.002902  -0.005164  0.000082
-330.347283  482.349792  -52.768011  -0.000618  0.000952  -0.000206
-175.104280  213.656442  -11.707143  0.000854  -0.002289  0.000196
-19.462406  -58.399750  -0.580345  0.002944  -0.007506  -0.000117
-291.593756  406.078342  -38.500587  -0.000805  -0.000147  -0.000054
-136.217312  136.096330  -5.682950  0.001394  -0.003771  0.000216
19.468556  -136.223458  -2.901114  0.003206  -0.007173  -0.000319
-252.798095  329.353964  -26.505892  -0.000316  -0.001019  0.000079
-97.311165  58.361950  -1.972354  0.001747  -0.005390  0.000148
-213.966329  252.252466  -16.798636  0.000338  -0.001893  0.000169
-58.390359  -19.467959  -0.580210  0.002923  -0.005723  0.000018
-330.346974  444.013915  -47.244956  -0.000309  0.000197  -0.000058
-175.104000  174.848940  -9.390773  0.001134  -0.004187  0.000286
-19.463200  -97.315338  -1.508632  0.002150  -0.004156  -0.000111
-291.593758  367.577946  -33.888034  -0.000807  -0.000727  0.000010
-136.217531  97.225062  -4.291937  0.001175  -0.003120  0.000142
19.468876  -175.111083  -4.757360  0.003526  -0.009061  -0.000508
-252.797999  290.715516  -22.808972  -0.000220  -0.002089  0.000170
-97.311704  19.452981  -1.508463  0.001208  -0.003721  0.000058
-369.055527  481.730408  -56.891705  -0.002114  0.000759  -0.000357
-213.966563  213.505986  -14.021916  0.000104  -0.000733  0.000055
-58.389904  -58.392472  -1.044434  0.003378  -0.008530  -0.000092
-330.347482  405.615525  -42.179560  -0.000817  0.000057  -0.000091
-175.104117  136.018606  -7.537416  0.001017  -0.004058  0.000224
-19.462682  -136.223425  -2.901077  0.002668  -0.007140  -0.000282
-291.593762  329.025548  -29.734900  -0.000811  -0.001050  0.000034
-136.217123  58.336486  -3.364406  0.001583  -0.005953  0.000172
-252.798026  252.036464  -19.573098  -0.000247  -0.002431  0.000169
-97.311694  -19.460854  -1.508509  0.001218  -0.004152  0.000012
-369.055473  443.443830  -51.375780  -0.002060  0.000093  -0.000249
-213.966276  174.725294  -11.707129  0.000391  -0.003430  0.000210
-58.390417  -97.303404  -1.972632  0.002865  -0.006057  -0.000130
-330.347315  367.159167  -37.572263  -0.000650  -0.000384  -0.000023
-19.462401  -175.111045  -4.757319  0.002949  -0.009023  -0.000467
-175.104247  97.169166  -6.147187  0.000887  -0.003695  0.000158
-291.593762  290.425616  -26.041674  -0.000811  -0.002127  0.000117
-136.217411  19.443842  -2.900714  0.001295  -0.004559  0.000081
-252.798096  213.322181  -16.798687  -0.000317  -0.002170  0.000118
-97.311136  -58.374513  -1.972578  0.001776  -0.007173  -0.000076
-369.055643  405.094602  -46.316838  -0.002230  -0.000177  -0.000233
-58.390120  -136.205234  -3.364869  0.003162  -0.008315  -0.000291
-213.966371  135.922899  -9.855094  0.000296  -0.002988  0.000144
-330.346953  328.651053  -33.423856  -0.000288  -0.000380  0.000009
-175.103973  58.302903  -5.220196  0.001161  -0.006340  0.000176
-291.593764  251.785198  -22.809029  -0.000813  -0.002400  0.000114
-136.217401  -19.453464  -2.900771  0.001305  -0.005063  0.000024
-407.710053  442.810868  -55.963377  -0.002361  0.000157  -0.000322
-97.311898  -97.273115  -2.900471  0.001014  -0.003436  -0.000072
-252.798001  174.575360  -14.485946  -0.000222  -0.004119  0.000204
-58.389869  -175.087422  -5.220864  0.003413  -0.010295  -0.000492
-369.055539  366.687473  -41.715447  -0.002126  -0.000755  -0.000157
-213.966495  97.101729  -8.465862  0.000172  -0.001996  0.000071
-330.347488  290.094872  -29.734864  -0.000823  -0.001718  0.000070
-175.104183  19.432324  -4.756771  0.000951  -0.005012  0.000081
-136.217094  -58.350344  -3.364652  0.001612  -0.007905  -0.000074
-291.593768  213.109427  -20.037374  -0.000817  -0.002228  0.000073
-97.311450  -136.164711  -4.292308  0.001462  -0.006522  -0.000229
-407.710286  404.516365  -50.911664  -0.002594  -0.000132  -0.000313
-252.798048  135.805934  -12.635492  -0.000269  -0.003851  0.000140
-58.390358  -213.939672  -7.540041  0.002924  -0.007227  -0.000422
-369.055462  328.228374  -37.572355  -0.002049  -0.001169  -0.000115
-213.966267  58.262457  -7.539498  0.000400  -0.005301  0.000121
-330.347306  251.498786  -26.505903  -0.000641  -0.001717  0.000068
-175.104176  -19.442890  -4.756834  0.000958  -0.005554  0.000018
-136.217489  -97.233133  -4.292176  0.001217  -0.004951  -0.000097
-291.593772  174.401250  -17.726948  -0.000821  -0.004163  0.000150
-97.311154  -175.035937  -6.147754  0.001758  -0.008596  -0.000409
-407.710085  366.164092  -46.316831  -0.002393  -0.000680  -0.000226
-252.798092  97.017254  -11.247431  -0.000313  -0.003530  0.000081
-369.055644  289.721953  -33.888098  -0.002231  -0.002240  -0.000054
-213.966426  19.420045  -7.076393  0.000241  -0.003461  0.000036
-175.103952  -58.317638  -5.220459  0.001182  -0.008395  -0.000087
-330.347001  212.867556  -23.737397  -0.000336  -0.001103  0.000038
-136.217251  -136.107616  -5.683419  0.001455  -0.007515  -0.000253
-446.306134  403.880735  -55.963355  -0.002129  0.000032  -0.000300
-291.593772  135.670557  -15.878338  -0.000821  -0.003818  0.000086
-97.312017  -213.874560  -8.466100  0.000895  -0.002951  -0.000167
-407.710016  327.759877  -42.179650  -0.002324  -0.001111  -0.000181
-252.798005  58.211784  -10.321897  -0.000226  -0.006204  0.000093
-213.966425  -19.427372  -7.076436  0.000242  -0.003866  -0.000007
-369.055543  251.175302  -30.663287  -0.002130  -0.002350  -0.000061
-175.104212  -97.178731  -6.147471  0.000922  -0.005870  -0.000126
-330.347509  174.203028  -21.429617  -0.000844  -0.003523  0.000103
-136.217079  -174.962247  -7.538086  0.001627  -0.009576  -0.000446
-446.305245  365.588950  -51.375668  -0.001240  -0.000307  -0.000137
-291.593778  96.920446  -14.491656  -0.000827  -0.003602  0.000033
-407.710285  289.308444  -38.500667  -0.002593  -0.002161  -0.000134
-252.798075  19.402114  -9.859190  -0.000296  -0.004802  0.000006
-213.966263  -58.274811  -7.539719  0.000404  -0.007053  -0.000100
-369.055476  212.592955  -27.898319  -0.002063  -0.002445  -0.000074
-175.104074  -136.030669  -7.537917  0.001060  -0.008005  -0.000277
-330.347263  135.516888  -19.583099  -0.000598  -0.002788  0.000056
-136.217488  -213.786033  -9.855560  0.001218  -0.005666  -0.000322
-446.305296  327.245107  -47.245003  -0.001291  -0.000726  -0.000106
-291.593788  58.153701  -13.567053  -0.000837  -0.006241  0.000036
-252.798077  -19.412241  -9.859251  -0.000298  -0.005325  -0.000055
-407.710100  250.816940  -35.280455  -0.002408  -0.002150  -0.000137
-213.966492  -97.106897  -8.466016  0.000175  -0.003172  -0.000083
-369.055664  173.978610  -25.593517  -0.002251  -0.004312  -0.000025
-175.103938  -174.863331  -9.391543  0.001196  -0.010204  -0.000484
-484.840721  364.960992  -56.891843  -0.003855  -0.000773  -0.000495
-330.347093  96.811285  -18.197977  -0.000428  -0.002248  0.000024
-136.217123  -252.587664  -12.636341  0.001583  -0.009994  -0.000709
-446.306137  288.854066  -43.571876  -0.002132  -0.001818  -0.000133
-291.593783  19.382739  -13.104803  -0.000832  -0.004827  -0.000046
-252.798013  -58.226210  -10.322155  -0.000234  -0.008222  -0.000165
-407.710024  212.289589  -32.519425  -0.002332  -0.002326  -0.000141
-213.966364  -135.931941  -9.855471  0.000303  -0.006054  -0.000233
-369.055541  135.341925  -23.749382  -0.002128  -0.003784  -0.000085
-175.104199  -213.665687  -11.707745  0.000935  -0.006956  -0.000406
-484.840857  326.682776  -52.768267  -0.003991  -0.001378  -0.000462
-330.347533  58.088279  -17.274448  -0.000868  -0.005347  0.000008
-291.593789  -19.392917  -13.104864  -0.000838  -0.005351  -0.000107
-446.305349  250.423442  -40.356665  -0.001344  -0.001426  -0.000075
-252.798101  -97.026375  -11.247704  -0.000322  -0.005591  -0.000192
-407.710305  173.730376  -30.217926  -0.002613  -0.004182  -0.000104
-213.966265  -174.737262  -11.707771  0.000402  -0.008538  -0.000432
-369.055510  96.685393  -22.366045  -0.002097  -0.003861  -0.000123
-175.103982  -252.444500  -14.486907  0.001152  -0.010541  -0.000757
-484.841173  288.357760  -49.101395  -0.004307  -0.002337  -0.000440
-330.347192  19.362040  -16.812683  -0.000527  -0.003420  -0.000033
-291.593806  -58.168210  -13.567314  -0.000855  -0.008268  -0.000225
-446.305236  211.956586  -37.599956  -0.001231  -0.001662  -0.000061
-252.798062  -135.817388  -12.635971  -0.000283  -0.007603  -0.000339
-407.710104  135.148973  -28.376416  -0.002412  -0.003527  -0.000157
-213.966558  -213.508978  -14.022112  0.000109  -0.002259  -0.000141
-369.055700  58.012651  -21.443707  -0.002287  -0.006400  -0.000145
-175.103925  -291.185079  -17.728089  0.001209  -0.011782  -0.000991
-484.840768  249.992882  -45.891740  -0.003902  -0.002160  -0.000420
-330.347197  -19.369279  -16.812727  -0.000532  -0.003819  -0.000077
-291.593803  -96.929746  -14.491935  -0.000852  -0.005698  -0.000246
-446.306149  173.457845  -35.302151  -0.002144  -0.003648  -0.000101
-252.798023  -174.589549  -14.486710  -0.000244  -0.010070  -0.000560
-407.710063  96.547563  -26.995047  -0.002371  -0.003664  -0.000189
-213.966315  -252.262606  -16.799422  0.000352  -0.008247  -0.000617
-523.305185  287.821107  -55.087899  -0.004389  -0.002204  -0.000518
-369.055547  19.335621  -20.982562  -0.002134  -0.004979  -0.000213
-330.347551  -58.100735  -17.274673  -0.000886  -0.007109  -0.000217
-484.840819  211.591660  -43.139769  -0.003953  -0.002786  -0.000412
-291.593808  -135.681896  -15.878815  -0.000857  -0.007521  -0.000391
-446.305363  134.937559  -33.463465  -0.001358  -0.002517  -0.000083
-252.798118  -213.330904  -16.799262  -0.000339  -0.006553  -0.000457
-407.710344  57.930019  -26.074038  -0.002652  -0.006209  -0.000223
-213.966267  -290.975918  -20.038297  0.000400  -0.009783  -0.000851
-523.304630  249.527792  -51.884200  -0.003834  -0.001882  -0.000478
-369.055562  -19.346114  -20.982626  -0.002149  -0.005514  -0.000277
-330.347104  -96.817101  -18.198152  -0.000439  -0.003568  -0.000151
-484.841202  173.159312  -40.845869  -0.004336  -0.004454  -0.000413
-291.593827  -174.415580  -17.727722  -0.000876  -0.010167  -0.000624
-446.305266  96.396799  -32.084247  -0.001261  -0.002675  -0.000094
-252.798054  -252.048834  -19.574061  -0.000275  -0.009939  -0.000794
-407.710106  19.308294  -25.613537  -0.002414  -0.004697  -0.000276
-369.055746  -58.027518  -21.443979  -0.002333  -0.008467  -0.000417
-523.304828  211.197807  -49.137356  -0.004032  -0.002754  -0.000475
-330.347292  -135.525310  -19.583454  -0.000627  -0.005634  -0.000299
-484.840817  134.704843  -39.010386  -0.003951  -0.003624  -0.000442
-291.593828  -213.118358  -20.037966  -0.000877  -0.006703  -0.000519
-446.306177  57.839705  -31.164759  -0.002172  -0.005462  -0.000202
-252.798033  -290.729387  -22.810219  -0.000254  -0.011782  -0.001077
-561.691691  249.027950  -58.333113  -0.001364  -0.000880  -0.000171
-407.710123  -19.318199  -25.613598  -0.002431  -0.005208  -0.000337
-369.055575  -96.695347  -22.366349  -0.002162  -0.006093  -0.000427
-523.305223  172.837157  -46.847741  -0.004427  -0.004263  -0.000491
-330.347561  -174.215297  -21.430281  -0.000896  -0.008746  -0.000561
-484.840841  96.229835  -37.633554  -0.003975  -0.004181  -0.000473
-291.593832  -251.797347  -22.809979  -0.000881  -0.009749  -0.000836
-446.305332  19.279191  -30.704889  -0.001327  -0.003445  -0.000162
-252.798128  -329.362739  -26.506787  -0.000349  -0.007756  -0.000816
-561.692817  210.774397  -55.591903  -0.002490  -0.002251  -0.000288
-407.710398  -57.944452  -26.074303  -0.002706  -0.008224  -0.000488
-369.055628  -135.353115  -23.749859  -0.002215  -0.007406  -0.000562
-523.304710  134.454458  -45.015655  -0.003914  -0.003248  -0.000500
-330.347020  -212.872067  -23.737695  -0.000355  -0.003408  -0.000260
-484.841258  57.739322  -36.715607  -0.004392  -0.006561  -0.000543
-291.593850  -290.439723  -26.042947  -0.000899  -0.011980  -0.001156
-446.305341  -19.286479  -30.704934  -0.001336  -0.003843  -0.000207
-407.710127  -96.556989  -26.995337  -0.002435  -0.005762  -0.000479
-561.693736  172.490783  -53.306977  -0.003409  -0.003717  -0.000397
-369.055802  -173.993407  -25.594328  -0.002389  -0.010485  -0.000836
-523.304804  96.050865  -43.641387  -0.004008  -0.004010  -0.000532
-330.347361  -251.507934  -26.506619  -0.000696  -0.007431  -0.000648
-291.593856  -329.034525  -29.735821  -0.000905  -0.007927  -0.000887
-484.840873  19.244457  -36.256594  -0.004007  -0.005083  -0.000571
-446.306215  -57.852419  -31.164992  -0.002210  -0.007252  -0.000435
-407.710200  -135.159414  -28.376864  -0.002508  -0.006914  -0.000605
-561.692073  134.185786  -51.478382  -0.001746  -0.002042  -0.000220
-369.055626  -212.602689  -27.898976  -0.002213  -0.007289  -0.000731
-523.305285  57.632076  -42.725163  -0.004489  -0.006312  -0.000616
-330.347571  -290.106895  -29.735950  -0.000906  -0.010305  -0.001016
-291.593857  -367.590452  -33.889466  -0.000906  -0.011779  -0.001422
-484.840899  -19.255164  -36.256662  -0.004033  -0.005624  -0.000639
-446.305295  -96.403711  -32.084457  -0.001290  -0.004237  -0.000304
-407.710467  -173.744777  -30.218720  -0.002775  -0.010219  -0.000898
-561.692574  95.858932  -50.106920  -0.002247  -0.003146  -0.000299
-369.055704  -251.186991  -30.664213  -0.002291  -0.009339  -0.000987
-330.346974  -328.654842  -33.424243  -0.000309  -0.003409  -0.000378
-523.304795  19.209002  -42.266982  -0.003999  -0.004705  -0.000621
-484.841343  -57.754550  -36.715892  -0.004477  -0.008667  -0.000828
-446.305413  -134.945138  -33.463788  -0.001408  -0.005062  -0.000406
-600.005552  133.895441  -58.398942  -0.005552  -0.003432  -0.000896
-407.710177  -212.298817  -32.520050  -0.002485  -0.006902  -0.000766
-561.693797  57.517113  -49.192658  -0.003470  -0.005586  -0.000506
-369.055870  -289.736691  -33.889446  -0.002457  -0.012498  -0.001402
-330.347393  -367.168467  -37.573329  -0.000728  -0.008916  -0.001089
-523.304823  -19.218922  -42.267046  -0.004027  -0.005215  -0.000685
-484.840949  -96.240580  -37.633890  -0.004083  -0.006564  -0.000809
-446.306260  -173.470509  -35.302846  -0.002255  -0.009016  -0.000796
-600.005814  95.651075  -57.030409  -0.005814  -0.004577  -0.000951
-407.710277  -250.827652  -35.281310  -0.002585  -0.008562  -0.000992
-369.055698  -328.238226  -37.573384  -0.002285  -0.008683  -0.001144
-561.692354  19.171739  -48.735219  -0.002027  -0.003403  -0.000334
-523.305373  -57.646739  -42.725440  -0.004577  -0.008351  -0.000893
-484.840978  -134.715541  -39.010857  -0.004112  -0.007074  -0.000913
-446.305297  -211.963348  -37.600409  -0.001292  -0.005100  -0.000514
-600.006364  57.392156  -56.118029  -0.006364  -0.006676  -0.001071
-407.710552  -289.322833  -38.501991  -0.002860  -0.012228  -0.001458
-369.055767  -366.699204  -41.716808  -0.002354  -0.010976  -0.001518
-561.692365  -19.178935  -48.735264  -0.002038  -0.003793  -0.000379
-523.304906  -96.061143  -43.641710  -0.004110  -0.006268  -0.000855
-484.841454  -173.174542  -40.846725  -0.004588  -0.010776  -0.001269
-446.305434  -250.430951  -40.357260  -0.001429  -0.006083  -0.000670
-600.005720  19.128756  -55.661715  -0.005720  -0.005095  -0.001039
-407.710253  -327.769274  -42.180636  -0.002561  -0.008286  -0.001167
-369.055954  -405.109390  -46.318735  -0.002541  -0.014611  -0.002130
-561.693852  -57.530103  -49.192900  -0.003525  -0.007404  -0.000748
-523.304871  -134.464057  -45.016082  -0.004075  -0.006351  -0.000927
-484.841058  -211.602632  -43.140525  -0.004192  -0.008186  -0.001168
-446.306313  -288.866650  -43.573028  -0.002308  -0.010766  -0.001285
-407.710333  -366.174613  -46.318059  -0.002641  -0.009841  -0.001454
-600.005756  -19.139482  -55.661786  -0.005756  -0.005631  -0.001110
-561.692619  -95.867043  -50.107170  -0.002292  -0.004965  -0.000549
-523.305487  -172.851795  -46.848570  -0.004691  -0.010375  -0.001320
-484.841072  -250.003469  -45.892608  -0.004206  -0.008427  -0.001288
-446.305393  -327.252243  -47.245742  -0.001388  -0.006410  -0.000845
-407.710653  -404.530796  -50.913527  -0.002961  -0.014299  -0.002176
-600.006484  -57.407640  -56.118328  -0.006484  -0.008808  -0.001370
-561.692121  -134.191907  -51.478646  -0.001794  -0.004079  -0.000484
-523.305067  -211.208660  -49.138108  -0.004271  -0.008099  -0.001227
