# COL 1-2: True indices
# COL 3-5: True X/Y/Z plate [mm]
# COL 6-7: True X/Y position [pix]
# COL 8-9: Estimated X/Y centroid [pix]
# COL 10: Centroid error [pix]
1  698  407.707692  404.516497  -50.795302  9.851395  1348.111206  9.856629  1348.106982  0.006726
2  558  523.300796  211.200561  -49.020832  14.437556  1829.142646  14.435912  1829.137425  0.005473
3  646  446.304005  327.245833  -47.128849  24.364422  1534.826343  24.361114  1534.831831  0.006408
4  496  561.690327  134.187828  -51.362113  31.792419  2008.088375  31.797848  2008.084813  0.006494
5  722  369.053413  443.443737  -51.259482  37.699147  1233.403733  37.699755  1233.401202  0.002603
6  589  484.836866  249.995042  -45.775271  40.023615  1719.188903  40.022316  1719.183956  0.005115
7  673  407.707692  366.164772  -46.200556  51.399644  1421.537978  51.398928  1421.537522  0.000849
8  528  523.300796  172.841420  -46.731201  56.687968  1900.561506  56.693005  1900.564865  0.006054
9  744  330.346665  482.348840  -52.651756  66.249019  1117.851809  66.247561  1117.856543  0.004953
10  619  446.304005  288.855884  -43.455694  66.295725  1607.721728  66.292643  1607.724948  0.004457
11  699  369.053413  405.094779  -46.200556  79.128676  1307.141865  79.125727  1307.137640  0.005153
12  559  484.836866  211.594446  -43.023308  82.251082  1791.296362  82.246622  1791.294968  0.004673
13  647  407.707692  327.760988  -42.063420  93.249415  1494.895537  93.247260  1494.899811  0.004787
14  763  291.592951  521.209682  -54.971333  95.488044  1001.632373  95.486846  1001.634932  0.002826
15  497  523.300796  134.457706  -44.899106  99.123312  1971.636168  99.117250  1971.640869  0.007671
16  723  330.346665  444.013718  -47.128849  107.541656  1191.808201  107.539461  1191.812201  0.004562
17  590  446.304005  250.424868  -40.240541  108.480017  1680.435879  108.476969  1680.434312  0.003427
18  674  369.053413  366.688228  -41.599241  120.877799  1380.871794  120.881876  1380.877490  0.007004
19  529  484.836866  173.163766  -40.729407  124.682300  1863.114169  124.687639  1863.109717  0.006951
20  779  252.797779  560.004164  -58.216893  125.400830  884.926087  125.400039  884.929935  0.003928
21  620  407.707692  289.310605  -38.384484  135.370698  1568.131018  135.369016  1568.126174  0.005127
22  745  291.592951  482.899454  -48.984906  136.626284  1075.712267  136.629411  1075.717388  0.006000
23  465  523.300796  96.054875  -43.524807  141.712958  2042.317601  141.718096  2042.311491  0.007983
24  700  330.346665  405.615468  -42.063420  149.171579  1265.818292  149.166655  1265.821429  0.005838
25  560  446.304005  211.958248  -37.483846  150.886799  1752.916931  150.889884  1752.920628  0.004815
26  648  369.053413  328.229543  -37.456191  162.916695  1454.540157  162.919967  1454.540141  0.003272
27  764  252.797779  521.729877  -51.767673  166.367874  959.033561  166.364652  959.031957  0.003599
28  498  484.836866  134.708467  -38.893895  167.286538  1934.592025  167.281906  1934.593416  0.004837
29  591  407.707692  250.819090  -35.164269  177.733069  1641.191733  177.737388  1641.188611  0.005329
30  724  291.592951  444.520571  -43.455694  178.119071  1149.908369  178.116393  1149.910585  0.003476
31  675  330.346665  367.159551  -37.456191  191.109220  1339.828417  191.105200  1339.831732  0.005211
32  530  446.304005  173.461493  -35.186001  193.485295  1825.113465  193.484017  1825.109571  0.004098
33  780  213.966667  560.482903  -55.475566  196.749428  841.954872  196.755170  841.957315  0.006240
34  621  369.053413  289.724193  -33.771995  205.215075  1528.093625  205.211039  1528.089598  0.005701
35  746  252.797779  483.381413  -45.775271  207.706245  1033.320057  207.708279  1033.316149  0.004406
36  466  484.836866  96.234016  -37.517032  210.032923  2005.680328  210.030061  2005.685687  0.006075
37  701  291.592951  406.078489  -38.384484  219.937146  1224.166906  219.940167  1224.165119  0.003510
38  561  407.707692  212.291915  -32.403235  220.305767  1714.025306  220.304524  1714.023770  0.001976
39  649  330.346665  328.651433  -33.307816  233.324482  1413.784794  233.318941  1413.789672  0.007382
40  499  446.304005  134.940076  -33.347333  236.244532  1896.974635  236.238862  1896.977429  0.006321
41  765  213.966667  522.175895  -49.020832  237.916790  916.235182  237.919866  916.230963  0.005221
42  592  369.053413  251.177652  -30.547177  247.742254  1601.479041  247.747057  1601.478076  0.004899
43  725  252.797779  444.964226  -40.240541  249.387045  1107.731896  249.384150  1107.737003  0.005870
44  676  291.592951  367.578673  -33.771995  262.050662  1298.433840  262.048189  1298.435540  0.003001
45  531  407.707692  173.734558  -30.101773  263.057774  1786.579804  263.054447  1786.582609  0.004352
46  781  175.105134  560.881955  -53.190531  268.732200  798.838411  268.735674  798.843478  0.006143
47  622  330.346665  290.096590  -29.618885  275.786813  1487.633666  275.790564  1487.636372  0.004625
48  467  446.304005  96.399474  -31.968104  279.133412  1968.450292  279.127837  1968.446698  0.006633
49  747  213.966667  483.794648  -43.023308  279.443245  990.703945  279.443624  990.708220  0.004292
50  562  369.053413  212.595400  -27.782196  290.467228  1674.643546  290.467390  1674.650169  0.006625
51  702  252.797779  406.483776  -35.164269  291.380736  1182.214983  291.377472  1182.209227  0.006617
52  793  136.218706  599.477583  -58.281997  300.131878  681.316271  300.126674  681.308938  0.008992
53  650  291.592951  329.026598  -29.618885  304.429261  1372.655004  304.426880  1372.658422  0.004165
54  500  407.707692  135.152500  -28.260210  305.957891  1858.803859  305.961125  1858.808243  0.005448
55  766  175.105134  522.547674  -46.731201  310.087912  873.266963  310.085047  873.263788  0.004276
56  593  330.346665  251.500503  -26.389922  318.465284  1561.321431  318.463672  1561.318081  0.003718
57  726  213.966667  445.344619  -37.483846  321.299619  1065.307213  321.294041  1065.302805  0.007110
58  435  446.304005  57.845167  -31.048508  322.120795  2039.491104  322.115686  2039.490297  0.005172
59  532  369.053413  173.982922  -25.477444  333.358754  1747.534718  333.352561  1747.532944  0.006442
60  677  252.797779  367.945536  -30.547177  333.657210  1256.714942  333.660586  1256.722128  0.007940
61  782  136.218706  561.201266  -51.362113  341.301142  755.607242  341.299365  755.610207  0.003457
62  623  291.592951  290.427743  -25.925742  347.042148  1446.776244  347.041326  1446.779654  0.003508
63  468  407.707692  96.551227  -26.878809  348.974815  1930.646800  348.974308  1930.649138  0.002393
64  748  175.105134  484.139100  -40.729407  351.790096  947.893374  351.794741  947.897931  0.006507
65  563  330.346665  212.868659  -23.621386  361.328668  1634.794782  361.325423  1634.799334  0.005591
66  703  213.966667  406.831273  -32.403235  363.456109  1139.990603  363.453739  1139.992498  0.003035
67  794  97.312912  599.733442  -56.913409  373.061083  637.912453  373.058279  637.916002  0.004523
68  651  252.797779  329.354983  -26.389922  376.185865  1331.177257  376.182329  1331.173548  0.005125
69  501  369.053413  135.345709  -23.633248  376.385427  1820.100699  376.383381  1820.095797  0.005311
70  767  136.218706  522.845161  -44.899106  382.832916  830.159211  382.837204  830.155275  0.005821
71  594  291.592951  251.787598  -22.693093  389.858167  1520.743546  389.864161  1520.748209  0.007594
72  436  407.707692  57.936228  -25.957766  392.077224  2002.058774  392.075892  2002.057062  0.002170
73  727  175.105134  445.661695  -35.186001  393.809314  1022.663461  393.812102  1022.666859  0.004395
74  533  330.346665  174.206551  -21.313672  404.345514  1708.000838  404.345227  1708.000627  0.000356
75  678  213.966667  368.260086  -27.782196  405.882364  1214.699439  405.886714  1214.702953  0.005592
76  783  97.312912  561.440788  -49.990572  414.406895  712.292375  414.406351  712.288258  0.004152
77  624  252.797779  290.717605  -22.693093  418.935679  1405.547405  418.939367  1405.546882  0.003724
78  469  369.053413  96.689254  -22.249873  419.515762  1892.290322  419.515964  1892.285340  0.004986
79  749  136.218706  484.414721  -38.893895  424.698174  904.918402  424.704964  904.923626  0.008567
80  564  291.592951  213.111655  -19.921398  432.845887  1594.503186  432.847471  1594.502502  0.001725
81  704  175.105134  407.120929  -30.101773  436.115520  1097.522592  436.110678  1097.523476  0.004922
82  795  58.393282  599.904034  -56.000910  446.489049  594.481410  446.489333  594.483685  0.002293
83  502  330.346665  135.519676  -19.467106  447.484236  1780.887276  447.483410  1780.893078  0.005860
84  652  213.966667  329.636543  -23.621386  448.547554  1289.378885  448.546532  1289.374379  0.004620
85  768  97.312912  523.068312  -43.524807  456.102133  786.942742  456.099178  786.945413  0.003983
86  595  252.797779  252.038895  -19.457218  461.875293  1479.770998  461.881624  1479.775303  0.007656
87  437  369.053413  58.019051  -21.327513  462.718272  1964.053236  462.720627  1964.052567  0.002449
88  728  136.218706  445.915410  -33.347333  466.867233  979.830432  466.871139  979.832569  0.004453
89  534  291.592951  174.405413  -17.611049  475.973673  1668.001854  475.975512  1668.002512  0.001953
90  679  175.105134  368.522280  -25.477444  478.678134  1172.415820  478.682845  1172.416860  0.004825
91  784  58.393282  561.600489  -49.076103  487.998853  668.925222  488.000000  668.926024  0.001399
92  470  330.346665  96.813533  -18.081952  490.713186  1853.402463  490.718995  1853.397695  0.007515
93  625  213.966667  290.966135  -19.921398  491.420454  1363.974089  491.417385  1363.974339  0.003079
94  750  97.312912  484.621471  -37.517032  498.117527  861.809629  498.112652  861.813042  0.005951
95  565  252.797779  213.324351  -16.682756  504.973088  1553.793924  504.974250  1553.799066  0.005271
96  407  369.053413  19.340600  -20.866300  505.961549  2035.340023  505.961775  2035.335822  0.004207
97  705  136.218706  407.352703  -28.260210  509.309818  1054.840453  509.305142  1054.843600  0.005636
98  503  291.592951  135.674375  -15.762375  519.209775  1741.186793  519.204020  1741.181469  0.007841
99  796  19.465350  599.989337  -55.544627  520.364349  551.054979  520.360502  551.055172  0.003852
100  653  175.105134  329.871238  -21.313672  521.466120  1247.288030  521.463379  1247.283459  0.005330
101  769  58.393282  523.217098  -42.608498  529.844666  743.648807  529.849590  743.651761  0.005742
102  438  330.346665  58.093626  -17.158407  534.000735  1925.495575  534.001250  1925.494999  0.000773
103  596  213.966667  252.254359  -16.682756  534.469516  1438.430319  534.468767  1438.430456  0.000762
104  729  97.312912  446.105728  -31.968104  540.423161  936.838493  540.419656  936.841942  0.004917
105  535  252.797779  174.579479  -14.370101  548.197268  1627.562476  548.193818  1627.563815  0.003700
106  680  136.218706  368.732080  -23.633248  551.995141  1129.893289  551.991839  1129.898354  0.006046
107  785  19.465350  561.680344  -48.618836  562.025285  625.537516  562.025645  625.538467  0.001017
108  471  291.592951  96.924048  -14.375640  562.522403  1814.005930  562.523782  1814.005633  0.001411
109  626  175.105134  291.173297  -17.611049  564.448066  1322.084072  564.446719  1322.078156  0.006067
110  751  58.393282  484.759320  -36.599015  571.996985  818.598129  571.999374  818.603894  0.006241
111  408  330.346665  19.365460  -16.696601  577.315356  1997.116725  577.310906  1997.111529  0.006841
112  566  213.966667  213.506719  -13.905922  577.662960  1512.693108  577.668191  1512.695753  0.005862
113  706  97.312912  407.526562  -26.878809  582.988554  1011.974306  582.989326  1011.974884  0.000965
114  504  252.797779  135.809785  -12.519583  591.515939  1701.023495  591.517523  1701.020652  0.003254
115  797  -19.465350  599.989337  -55.544627  594.634535  507.665204  594.636541  507.669285  0.004547
116  654  136.218706  330.059034  -19.467106  594.891981  1204.933577  594.895797  1204.934108  0.003853
117  770  19.465350  523.291496  -42.150312  604.008501  700.309015  604.008151  700.306576  0.002464
118  439  291.592951  58.159942  -13.451040  605.879811  1886.408000  605.885407  1886.406306  0.005847
119  597  175.105134  252.433959  -14.370101  607.592261  1396.748908  607.592962  1396.752849  0.004003
120  730  58.393282  446.232622  -31.048508  614.425687  893.718520  614.426712  893.722001  0.003629
121  536  213.966667  174.728724  -11.591290  620.968844  1586.708389  620.967396  1586.709106  0.001616
122  681  97.312912  368.889456  -22.249873  625.782729  1087.161697  625.790698  1087.155366  0.010178
123  472  252.797779  97.020784  -11.131463  634.897193  1774.124499  634.900613  1774.121333  0.004660
124  786  -19.465350  561.680344  -48.618836  636.433452  582.161234  636.431183  582.158159  0.003821
125  627  136.218706  291.339062  -15.762375  637.968757  1279.905909  637.970530  1279.907261  0.002229
126  752  19.465350  484.828250  -36.139974  646.284284  775.315370  646.278116  775.311960  0.007047
127  409  291.592951  19.387566  -12.988708  649.250374  1958.342672  649.248576  1958.340887  0.002534
128  567  175.105134  213.658731  -11.591290  650.866777  1471.227750  650.870341  1471.225951  0.003992
129  707  58.393282  407.642482  -25.957766  657.100098  968.954811  657.095228  968.954928  0.004871
130  505  213.966667  135.925887  -9.739189  664.355156  1660.422628  664.352007  1660.419103  0.004727
131  655  97.312912  330.199904  -18.081952  668.774295  1162.345096  668.777900  1162.341923  0.004802
132  798  -58.393282  599.904034  -56.000910  669.246267  464.344256  669.244814  464.342768  0.002080
133  440  252.797779  58.217988  -10.205941  678.309186  1846.813808  678.306009  1846.814991  0.003391
134  771  -19.465350  523.291496  -42.150312  678.540639  656.955260  678.540390  656.958045  0.002796
135  598  136.218706  252.577670  -12.519583  681.193615  1354.754973  681.188106  1354.759183  0.006933
136  731  19.465350  446.296074  -30.588678  688.822318  850.501823  688.828186  850.500938  0.005935
137  379  291.592951  -19.387566  -12.988708  692.602669  2029.760663  692.604604  2029.766476  0.006126
138  537  175.105134  174.853127  -9.275010  694.239556  1545.466200  694.233234  1545.468091  0.006599
139  682  58.393282  368.994386  -21.327513  699.989073  1044.251475  699.987468  1044.247476  0.004309
140  473  213.966667  97.103725  -8.349884  707.789889  1733.782967  707.792718  1733.787077  0.004990
141  787  -58.393282  561.600489  -49.076103  711.169741  538.828517  711.165522  538.831340  0.005076
142  628  97.312912  291.463406  -14.375640  711.931528  1237.468869  711.935578  1237.466538  0.004673
143  753  -19.465350  484.828250  -36.139974  720.926187  731.993140  720.927999  731.994360  0.002185
144  410  252.797779  19.406916  -9.743147  721.720220  1919.040676  721.723527  1919.040128  0.003352
145  568  136.218706  213.780367  -9.739189  724.534505  1429.425697  724.533418  1429.421897  0.003953
146  708  19.465350  407.700446  -25.497212  731.591757  925.813101  731.594582  925.818465  0.006062
147  506  175.105134  136.022664  -7.421591  737.678484  1619.410389  737.680340  1619.410597  0.001868
148  656  58.393282  330.293829  -17.158407  743.061075  1119.552767  743.056291  1119.553477  0.004836
149  799  -97.312912  599.733442  -56.913409  744.145439  421.124348  744.143098  421.118047  0.006721
150  441  213.966667  58.267758  -7.423570  751.241126  1806.737342  751.235646  1806.744286  0.008846
151  772  -58.393282  523.217098  -42.608498  753.387217  613.619634  753.387564  613.624443  0.004822
152  599  97.312912  252.685470  -11.131463  755.222449  1312.477471  755.219470  1312.476851  0.003043
153  732  -19.465350  446.296074  -30.588678  763.559606  807.220067  763.563115  807.217321  0.004456
154  380  252.797779  -19.406916  -9.743147  765.098822  1990.755403  765.095801  1990.759009  0.004704
155  538  136.218706  174.952671  -7.421591  767.959268  1503.863388  767.959345  1503.867864  0.004476
156  683  19.465350  369.046855  -20.866300  774.561309  1001.193558  774.561936  1001.189440  0.004165
157  474  175.105134  97.172861  -6.031296  781.151481  1693.007110  781.149264  1693.007529  0.002256
158  788  -97.312912  561.440788  -49.990572  786.179791  495.571587  786.175565  495.570340  0.004406
159  629  58.393282  291.546313  -13.451040  786.284253  1194.802871  786.280623  1194.807120  0.005589
160  411  213.966667  19.423506  -6.960380  794.677118  1879.234620  794.682737  1879.231166  0.006596
161  754  -58.393282  484.759320  -36.599015  795.868612  688.663468  795.874133  688.666406  0.006254
162  569  97.312912  213.871609  -8.349884  798.614909  1387.315579  798.616719  1387.312339  0.003712
163  709  -19.465350  407.700446  -25.497212  806.409903  882.580701  806.405830  882.582258  0.004361
164  507  136.218706  136.100101  -5.567117  811.435716  1578.013872  811.432679  1578.012525  0.003322
165  657  19.465350  330.340794  -16.696601  817.699310  1076.587317  817.701889  1076.587634  0.002598
166  800  -136.218706  599.477583  -58.281997  819.277322  378.037657  819.274233  378.035697  0.003659
167  442  175.105134  58.309243  -5.104323  824.626577  1766.203948  824.629502  1766.200701  0.004370
168  773  -97.312912  523.068312  -43.524807  828.493649  570.334351  828.493110  570.331234  0.003163
169  600  58.393282  252.757346  -10.205941  829.626529  1269.946039  829.626809  1269.950529  0.004499
170  381  213.966667  -19.423506  -6.960380  838.066364  1951.224712  838.063830  1951.220931  0.004552
171  733  -58.393282  446.232622  -31.048508  838.583283  763.905196  838.584042  763.908588  0.003476
172  539  97.312912  175.027341  -6.031296  842.076671  1461.928241  842.075216  1461.930430  0.002629
173  684  -19.465350  369.046855  -20.866300  849.445657  958.019315  849.441099  958.019425  0.004560
174  475  136.218706  97.228182  -4.176030  854.931716  1651.823628  854.935726  1651.825997  0.004657
175  630  19.465350  291.587769  -12.988708  860.973807  1151.938410  860.974903  1151.940456  0.002321
176  789  -136.218706  561.201266  -51.362113  861.408634  452.422668  861.405830  452.420876  0.003328
177  412  175.105134  19.437336  -4.640803  868.071996  1838.949413  868.069615  1838.949843  0.002419
178  755  -97.312912  484.621471  -37.517032  871.056772  645.358538  871.055733  645.356283  0.002483
179  570  58.393282  213.932445  -7.423570  873.055673  1344.926739  873.055179  1344.927874  0.001238
180  349  213.966667  -58.267758  -7.423570  881.377687  2022.658693  881.375136  2022.663850  0.005754
181  710  -58.393282  407.642482  -25.957766  881.500105  839.289452  881.500000  839.283913  0.005540
182  508  97.312912  136.158189  -4.176030  885.575494  1536.261012  885.576152  1536.258741  0.002364
183  658  -19.465350  330.340794  -16.696601  892.635097  1033.479935  892.638469  1033.480884  0.003503
184  443  136.218706  58.342439  -3.248529  898.415268  1725.239924  898.412308  1725.234777  0.005937
185  774  -136.218706  522.845161  -44.899106  903.804754  527.131662  903.809398  527.127612  0.006162
186  601  19.465350  252.793287  -9.743147  904.352640  1227.190929  904.350031  1227.186647  0.005015
187  382  175.105134  -19.437336  -4.640803  911.456232  1911.193054  911.457119  1911.187681  0.005446
188  734  -97.312912  446.105728  -31.968104  913.838388  720.589350  913.842161  720.590557  0.003962
189  540  58.393282  175.077127  -5.104323  916.539395  1419.689793  916.540088  1419.695069  0.005322
190  685  -58.393282  368.994386  -21.327513  924.587551  914.760465  924.591084  914.765369  0.006044
191  476  97.312912  97.269679  -2.784350  929.079213  1610.260094  929.075532  1610.255926  0.005561
192  631  -19.465350  291.587769  -12.988708  935.946190  1108.906484  935.948518  1108.909557  0.003855
193  790  -175.105134  560.881955  -53.190531  936.800831  409.413898  936.805433  409.409542  0.006337
194  413  136.218706  19.448401  -2.784746  941.854591  1798.210940  941.859414  1798.205659  0.007152
195  756  -136.218706  484.414721  -38.893895  946.435309  602.110611  946.433957  602.107552  0.003345
196  571  19.465350  213.962864  -6.960380  947.803524  1302.289168  947.807873  1302.287962  0.004513
197  350  175.105134  -58.309243  -5.104323  954.748128  1982.885585  954.752895  1982.890477  0.006830
198  711  -97.312912  407.526562  -26.878809  956.807262  795.971429  956.812047  795.973886  0.005379
199  509  58.393282  136.196919  -3.248529  960.045421  1494.180524  960.043555  1494.178281  0.002918
200  659  -58.393282  330.293829  -17.158407  967.813767  990.262204  967.817661  990.256968  0.006525
201  444  97.312912  58.367340  -1.856453  972.555825  1683.872465  972.557903  1683.878046  0.005956
202  775  -175.105134  522.547674  -46.731201  979.264906  484.043771  979.257780  484.041935  0.007359
203  602  -19.465350  252.793287  -9.743147  979.346717  1184.242931  979.344240  1184.243087  0.002482
204  383  136.218706  -19.448401  -2.784746  985.218200  1870.685896  985.212565  1870.688981  0.006424
205  735  -136.218706  445.915410  -33.347333  989.269414  677.304780  989.266208  677.301306  0.004727
206  541  19.465350  175.102022  -4.640803  991.294136  1377.177762  991.291225  1377.172255  0.006229
207  686  -97.312912  368.889456  -22.249873  999.931780  871.449001  999.935502  871.447713  0.003939
208  477  58.393282  97.297347  -1.856453  1003.541582  1568.344886  1003.542305  1568.342723  0.002281
209  632  -58.393282  291.546313  -13.451040  1011.146660  1065.738521  1011.142203  1065.744286  0.007287
210  791  -213.966667  560.482903  -55.475566  1012.300616  366.577248  1012.295787  366.578592  0.005013
211  414  97.312912  19.456702  -1.392472  1015.973566  1757.046011  1015.975545  1757.044456  0.002517
212  757  -175.105134  484.139100  -40.729407  1021.948436  558.951942  1021.951131  558.952386  0.002731
213  572  -19.465350  213.962864  -6.960380  1022.804360  1259.433431  1022.808058  1259.431806  0.004040
214  351  136.218706  -58.342439  -3.248529  1028.474978  1942.615171  1028.475993  1942.618258  0.003249
215  712  -136.218706  407.352703  -28.260210  1032.275745  752.658859  1032.270978  752.659959  0.004892
216  510  19.465350  136.216285  -2.784746  1034.792195  1451.801833  1034.797995  1451.808012  0.008475
217  660  -97.312912  330.199904  -18.081952  1043.180028  946.966017  1043.179055  946.970143  0.004239
218  445  58.393282  58.383942  -0.928293  1046.995889  1642.129605  1046.996236  1642.127933  0.001708
219  603  -58.393282  252.757346  -10.205941  1054.553975  1141.133300  1054.556718  1141.125874  0.007917
220  776  -213.966667  522.175895  -49.020832  1054.818171  441.102753  1054.821353  441.097874  0.005824
221  384  97.312912  -19.456702  -1.392472  1059.300990  1829.729655  1059.298987  1829.733623  0.004445
222  736  -175.105134  445.661695  -35.186001  1064.820444  634.083772  1064.822955  634.079496  0.004959
223  542  -19.465350  175.102022  -4.640803  1066.286787  1334.422471  1066.283637  1334.423580  0.003340
224  319  136.218706  -97.228182  -4.176030  1071.594258  2013.950412  1071.594615  2013.951126  0.000798
225  687  -136.218706  368.732080  -23.633248  1075.422626  828.117108  1075.422330  828.113887  0.003234
226  478  19.465350  97.311182  -1.392472  1078.265546  1526.107128  1078.261403  1526.101167  0.007259
227  633  -97.312912  291.463406  -14.375640  1086.519874  1022.466297  1086.521687  1022.464484  0.002563
228  792  -252.797779  560.004164  -58.216893  1087.852040  323.944438  1087.856187  323.946429  0.004600
229  415  58.393282  19.462236  -0.464179  1090.376620  1715.482306  1090.373667  1715.484322  0.003575
230  758  -213.966667  483.794648  -43.023308  1097.540080  515.914690  1097.540478  515.919289  0.004617
231  573  -58.393282  213.932445  -7.423570  1098.003384  1216.390596  1098.005013  1216.388463  0.002684
232  352  97.312912  -58.367340  -1.856453  1102.507049  1901.873467  1102.505315  1901.878206  0.005046
233  713  -175.105134  407.120929  -30.101773  1107.849540  709.384041  1107.853005  709.380755  0.004775
234  511  -19.465350  136.216285  -2.784746  1109.761729  1409.155011  1109.764656  1409.149528  0.006216
235  661  -136.218706  330.059034  -19.467106  1118.678101  903.623499  1118.683901  903.626119  0.006365
236  446  19.465350  58.392244  -0.464179  1121.682240  1600.040154  1121.686939  1600.036323  0.006063
237  604  -97.312912  252.685470  -11.131463  1129.919050  1097.893676  1129.922404  1097.896650  0.004483
238  777  -252.797779  521.729877  -51.767673  1130.408452  398.340471  1130.408092  398.337818  0.002677
239  385  58.393282  -19.462236  -0.464179  1133.652393  1788.351641  1133.655468  1788.349537  0.003725
240  737  -213.966667  445.344619  -37.483846  1140.435297  590.958558  1140.434640  590.961222  0.002744
241  543  -58.393282  175.077127  -5.104323  1141.462565  1291.454784  1141.461572  1291.451529  0.003403
242  320  97.312912  -97.269679  -2.784350  1145.561164  1973.428786  1145.564791  1973.426422  0.004329
243  688  -175.105134  368.522280  -25.477444  1151.004004  784.797079  1151.006030  784.803386  0.006625
244  479  -19.465350  97.311182  -1.392472  1153.197071  1483.576624  1153.194935  1483.577135  0.002196
245  634  -136.218706  291.339062  -15.762375  1162.010023  979.121856  1162.011300  979.118596  0.003501
246  759  -252.797779  483.381413  -45.775271  1173.154028  473.030845  1173.151962  473.030151  0.002180
247  574  -97.312912  213.871609  -8.349884  1173.345239  1173.192151  1173.339201  1173.188766  0.006922
248  353  58.393282  -58.383942  -0.928293  1176.792248  1860.687407  1176.797823  1860.692972  0.007877
249  714  -213.966667  406.831273  -32.403235  1183.472387  666.179257  1183.470266  666.176414  0.003547
250  512  -58.393282  136.196919  -3.248529  1184.899288  1366.270700  1184.903714  1366.266763  0.005924
251  288  97.312912  -136.158189  -4.176030  1188.433295  2044.348321  1188.432650  2044.343994  0.004375
252  662  -175.105134  329.871238  -21.313672  1194.251865  860.266918  1194.247717  860.262115  0.006347
253  447  -19.465350  58.392244  -0.464179  1196.560926  1557.633631  1196.558516  1557.637711  0.004738
254  605  -136.218706  252.577670  -12.519583  1205.386135  1054.556009  1205.382761  1054.558163  0.004003
255  778  -291.592951  521.209682  -54.971333  1205.979633  355.788493  1205.980585  355.793178  0.004781
256  738  -252.797779  444.964226  -40.240541  1216.057674  547.961232  1216.055806  547.964279  0.003574
257  544  -97.312912  175.027341  -6.031296  1216.766155  1248.306022  1216.768114  1248.303377  0.003292
258  321  58.393282  -97.297347  -1.856453  1219.765716  1932.440662  1219.768837  1932.442026  0.003406
259  801  0.000000  0.000000  0.000000  1224.000000  1689.010817  1224.000000  1689.011924  0.001107
260  689  -213.966667  368.260086  -27.782196  1226.619611  741.521233  1226.622488  741.520839  0.002904
261  480  -58.393282  97.297347  -1.856453  1228.281498  1440.783779  1228.281877  1440.788945  0.005180
262  635  -175.105134  291.173297  -17.611049  1237.560982  935.737429  1237.562290  935.743457  0.006169
263  760  -291.592951  482.899454  -48.984906  1248.734069  430.332136  1248.737003  430.330224  0.003502
264  575  -136.218706  213.780367  -9.739189  1248.774152  1129.869932  1248.776556  1129.875982  0.006511
265  354  19.465350  -58.392244  -0.464179  1251.277697  1819.084790  1251.273476  1819.082427  0.004837
266  715  -252.797779  406.483776  -35.164269  1259.087933  623.076695  1259.085934  623.073380  0.003872
267  513  -97.312912  136.158189  -4.176030  1260.149627  1323.180037  1260.142288  1323.175292  0.008740
268  289  58.393282  -136.196919  -3.248529  1262.542892  2003.563831  1262.542194  2003.566046  0.002322
269  663  -213.966667  329.636543  -23.621386  1269.845000  816.928611  1269.849198  816.931341  0.005008
270  448  -58.393282  58.383942  -0.928293  1271.577395  1514.940195  1271.578588  1514.944895  0.004849
271  606  -175.105134  252.433959  -14.370101  1280.899128  1011.152471  1280.904375  1011.145787  0.008497
272  739  -291.592951  444.520571  -43.455694  1291.631302  505.123670  1291.634507  505.117495  0.006957
273  545  -136.218706  174.952671  -7.421591  1292.141846  1205.007889  1292.140480  1205.006901  0.001685
274  322  19.465350  -97.311182  -1.392472  1294.155209  1891.013481  1294.153371  1891.011899  0.002425
275  690  -252.797779  367.945536  -30.547177  1302.213068  698.321827  1302.208314  698.316858  0.006877
276  481  -97.312912  97.269679  -2.784350  1303.463683  1397.759533  1303.464337  1397.764889  0.005396
277  636  -213.966667  290.966135  -19.921398  1313.116445  892.345350  1313.110751  892.340895  0.007229
278  416  -58.393282  19.462236  -0.464179  1314.755512  1588.686991  1314.761155  1588.693210  0.008398
279  761  -330.346665  482.348840  -52.651756  1324.224146  387.849954  1324.220737  387.854564  0.005734
280  576  -175.105134  213.658731  -11.591290  1324.234075  1086.456036  1324.231694  1086.456255  0.002391
281  355  -19.465350  -58.392244  -0.464179  1325.909861  1777.094212  1325.913956  1777.089815  0.006008
282  716  -291.592951  406.078489  -38.384484  1334.639873  580.108358  1334.644077  580.102604  0.007126
283  514  -136.218706  136.100101  -5.567117  1335.457127  1279.914580  1335.458269  1279.919289  0.004846
284  290  19.465350  -136.216285  -2.784746  1336.822174  1962.318243  1336.828435  1962.312244  0.008671
285  664  -252.797779  329.354983  -26.389922  1345.401136  773.640893  1345.397446  773.643394  0.004458
286  449  -97.312912  58.367340  -1.856453  1346.676630  1471.990569  1346.679630  1471.991222  0.003070
287  607  -213.966667  252.254359  -16.682756  1356.401771  967.715377  1356.397317  967.720073  0.006472
288  386  -58.393282  -19.462236  -0.464179  1357.784795  1661.972206  1357.787038  1661.973699  0.002695
289  740  -330.346665  444.013718  -47.128849  1367.100081  462.477447  1367.095718  462.476823  0.004407
290  546  -175.105134  174.853127  -9.275010  1367.533675  1161.592391  1367.532455  1161.594665  0.002581
291  323  -19.465350  -97.311182  -1.392472  1368.676304  1849.175509  1368.681907  1849.170421  0.007568
292  691  -291.592951  367.578673  -33.771995  1377.728068  655.230980  1377.732253  655.227055  0.005738
293  482  -136.218706  97.228182  -4.176030  1378.688131  1354.535277  1378.691937  1354.535077  0.003812
294  259  19.465350  -175.102022  -4.640803  1379.249497  2032.952712  1379.243707  2032.955114  0.006268
295  637  -252.797779  290.717605  -22.693093  1388.620080  848.977972  1388.622189  848.979322  0.002504
296  417  -97.312912  19.456702  -1.392472  1389.757131  1545.820063  1389.761372  1545.824048  0.005819
297  762  -369.053413  481.729649  -56.775299  1399.568491  345.615270  1399.570077  345.619120  0.004164
298  577  -213.966667  213.506719  -13.905922  1399.668829  1042.982741  1399.673161  1042.984970  0.004872
299  356  -58.393282  -58.383942  -0.928293  1400.634681  1734.745002  1400.638024  1734.749701  0.005767
300  717  -330.346665  405.615468  -42.063420  1410.072096  537.305989  1410.069348  537.299465  0.007079
301  515  -175.105134  136.022664  -7.421591  1410.765944  1236.506223  1410.771145  1236.509385  0.006087
302  291  -19.465350  -136.216285  -2.784746  1411.218028  1920.639484  1411.213058  1920.645364  0.007699
303  665  -291.592951  329.026598  -29.618885  1420.863996  730.435975  1420.871161  730.433959  0.007443
304  450  -136.218706  58.342439  -3.248529  1421.803290  1428.815965  1421.806508  1428.820925  0.005913
305  608  -252.797779  252.038895  -19.457218  1431.837801  924.277101  1431.843179  924.274063  0.006176
306  387  -97.312912  -19.456702  -1.392472  1432.674287  1619.195921  1432.677718  1619.192896  0.004574
307  741  -369.053413  443.443737  -51.259482  1442.408228  420.053754  1442.406638  420.052007  0.002362
308  547  -213.966667  174.728724  -11.591290  1442.885573  1118.091750  1442.889881  1118.090042  0.004634
309  324  -58.393282  -97.297347  -1.856453  1443.275162  1806.955775  1443.272532  1806.959269  0.004373
310  692  -330.346665  367.159551  -37.456191  1453.108524  612.280584  1453.102979  612.276260  0.007032
311  260  -19.465350  -175.102022  -4.640803  1453.506135  1991.439537  1453.505021  1991.436901  0.002862
312  483  -175.105134  97.172861  -6.031296  1453.899141  1311.142781  1453.904438  1311.140054  0.005958
313  638  -291.592951  290.427743  -25.925742  1464.015671  805.667583  1464.013770  805.670869  0.003796
314  418  -136.218706  19.448401  -2.784746  1464.771423  1502.703472  1464.778290  1502.706842  0.007650
315  578  -252.797779  213.324351  -16.682756  1475.022250  999.482423  1475.020051  999.479949  0.003310
316  357  -97.312912  -58.367340  -1.856453  1475.397706  1692.067153  1475.397031  1692.063721  0.003498
317  718  -369.053413  405.094779  -46.200556  1485.328834  494.700983  1485.323242  494.703709  0.006221
318  292  -58.393282  -136.196919  -3.248529  1485.676863  1878.556270  1485.681093  1878.556093  0.004234
319  516  -213.966667  135.925887  -9.739189  1486.020144  1192.987119  1486.020081  1192.989960  0.002841
320  666  -330.346665  328.651433  -33.307816  1496.177543  687.345882  1496.173736  687.339828  0.007152
321  451  -175.105134  58.309243  -5.104323  1496.901853  1385.448009  1496.903716  1385.445851  0.002851
322  609  -291.592951  251.787598  -22.693093  1507.151094  880.869990  1507.145792  880.875524  0.007664
323  388  -136.218706  -19.448401  -2.784746  1507.561801  1576.145601  1507.563261  1576.142077  0.003815
324  742  -407.707692  442.810711  -55.847006  1517.500420  377.883322  1517.502817  377.889322  0.006461
325  325  -97.312912  -97.269679  -2.784350  1517.897579  1764.384001  1517.901838  1764.381998  0.004706
326  548  -252.797779  174.579479  -14.370101  1518.141505  1074.538327  1518.134924  1074.538453  0.006582
327  261  -58.393282  -175.077127  -5.104323  1527.811101  1949.499681  1527.814939  1949.500000  0.003852
328  693  -369.053413  366.688228  -41.599241  1528.298708  569.502221  1528.294912  569.503758  0.004096
329  484  -213.966667  97.103725  -8.349884  1529.040951  1267.614107  1529.038803  1267.619537  0.005840
330  639  -330.346665  290.096590  -29.618885  1539.247264  762.446325  1539.242120  762.446348  0.005144
331  419  -175.105134  19.437336  -4.640803  1539.743068  1459.368682  1539.747980  1459.363626  0.007049
332  358  -136.218706  -58.342439  -3.248529  1550.144230  1649.091249  1550.140771  1649.089982  0.003684
333  579  -291.592951  213.111655  -19.921398  1550.238336  955.987471  1550.234630  955.989335  0.004148
334  293  -97.312912  -136.158189  -4.176030  1560.144747  1836.098040  1560.141217  1836.093620  0.005657
335  719  -407.707692  404.516497  -50.795302  1560.354797  452.324311  1560.349478  452.320456  0.006569
336  517  -252.797779  135.809785  -12.519583  1561.163855  1149.389592  1561.158261  1149.387011  0.006161
337  231  -58.393282  -213.932445  -7.423570  1569.649950  2019.740751  1569.652033  2019.745475  0.005163
338  667  -369.053413  328.229543  -37.456191  1571.286125  644.402370  1571.281005  644.397694  0.006934
339  452  -213.966667  58.267758  -7.423570  1571.916752  1341.918656  1571.919562  1341.921448  0.003961
340  610  -330.346665  251.500503  -26.389922  1582.285807  837.526284  1582.285065  837.526638  0.000822
341  389  -175.105134  -19.437336  -4.640803  1582.392255  1532.852535  1582.390145  1532.855508  0.003646
342  326  -136.218706  -97.228182  -4.176030  1592.489117  1721.490531  1592.488078  1721.489960  0.001186
343  549  -291.592951  174.405413  -17.611049  1593.245621  1030.964534  1593.240267  1030.965494  0.005439
344  262  -97.312912  -175.027341  -6.031296  1602.110763  1907.162288  1602.107125  1907.156118  0.007162
345  694  -407.707692  366.164772  -46.200556  1603.243400  526.927089  1603.238376  526.931363  0.006596
346  485  -252.797779  97.020784  -11.131463  1604.057878  1223.981528  1604.055780  1223.984942  0.004007
347  640  -369.053413  289.724193  -33.771995  1614.259310  719.346107  1614.253273  719.345464  0.006071
348  420  -213.966667  19.423506  -6.960380  1614.616730  1415.847524  1614.620743  1415.850599  0.005056
349  359  -175.105134  -58.309243  -5.104323  1624.819433  1605.848385  1624.823851  1605.853132  0.006485
350  580  -330.346665  212.868659  -23.621386  1625.261387  912.530204  1625.256384  912.531283  0.005118
351  294  -136.218706  -136.100101  -5.567117  1634.567538  1793.294885  1634.568275  1793.290524  0.004423
352  720  -446.304005  403.880703  -55.847006  1635.095322  410.206442  1635.091412  410.202124  0.005825
353  518  -291.592951  135.674375  -15.762375  1636.141407  1105.746061  1636.135212  1105.750090  0.007390
354  232  -97.312912  -213.871609  -8.349884  1643.767959  1977.531300  1643.772397  1977.531283  0.004438
355  668  -407.707692  327.760988  -42.063420  1646.134615  601.636844  1646.129465  601.639907  0.005991
356  453  -252.797779  58.217988  -10.205941  1646.792525  1298.260110  1646.796108  1298.255226  0.006057
357  390  -213.966667  -19.423506  -6.960380  1657.110565  1489.348414  1657.103792  1489.345684  0.007303
358  611  -369.053413  251.177652  -30.547177  1657.186526  794.278028  1657.180729  794.275885  0.006180
359  327  -175.105134  -97.172861  -6.031296  1666.995245  1678.306254  1666.994987  1678.302618  0.003645
360  550  -330.346665  174.206551  -21.313672  1668.142395  987.402752  1668.140113  987.401416  0.002645
361  263  -136.218706  -174.952671  -7.421591  1676.351302  1864.457181  1676.346803  1864.454720  0.005129
362  695  -446.304005  365.589257  -51.259482  1677.888021  484.585917  1677.894882  484.588945  0.007499
363  486  -291.592951  96.924048  -14.375640  1678.894464  1180.277448  1678.899460  1180.273931  0.006109
364  641  -407.707692  289.310605  -38.384484  1688.996810  676.398527  1688.998748  676.395105  0.003933
365  421  -252.797779  19.406916  -9.743147  1689.337192  1372.172116  1689.333989  1372.168318  0.004968
366  360  -213.966667  -58.267758  -7.423570  1699.368514  1562.370097  1699.365631  1562.366257  0.004802
367  581  -369.053413  212.595400  -27.782196  1700.036154  869.142787  1700.032016  869.139940  0.005023
368  295  -175.105134  -136.022664  -7.421591  1708.891022  1750.177474  1708.894173  1750.172656  0.005757
369  519  -330.346665  135.519676  -19.467106  1710.897477  1062.088949  1710.899920  1062.084395  0.005167
370  233  -136.218706  -213.780367  -9.739189  1717.813014  1934.931817  1717.817203  1934.934260  0.004849
371  669  -446.304005  327.245833  -47.128849  1720.668556  559.080279  1720.669460  559.077579  0.002848
372  454  -291.592951  58.159942  -13.451040  1721.473953  1254.504744  1721.477056  1254.505343  0.003161
373  391  -252.797779  -19.406916  -9.743147  1731.661794  1445.665250  1731.667356  1445.669864  0.007227
374  612  -407.707692  250.819090  -35.164269  1731.798408  751.156994  1731.803109  751.151711  0.007071
375  328  -213.966667  -97.103725  -8.349884  1741.361474  1634.862532  1741.357422  1634.866606  0.005746
376  551  -369.053413  173.982922  -25.477444  1742.776770  943.885245  1742.782691  943.890962  0.008231
377  264  -175.105134  -174.853127  -9.275010  1750.478847  1821.414796  1750.478832  1821.412232  0.002564
378  696  -484.836866  364.961765  -56.775299  1752.178778  442.508893  1752.174204  442.506874  0.005000
379  487  -330.346665  96.813533  -18.081952  1753.495615  1136.534316  1753.495602  1136.538322  0.004006
380  203  -136.218706  -252.577670  -12.519583  1758.926126  2004.674805  1758.927918  2004.676982  0.002819
381  642  -446.304005  288.855884  -43.455694  1763.405451  633.634789  1763.404215  633.637938  0.003383
382  422  -291.592951  19.387566  -12.988708  1763.849503  1328.374778  1763.854259  1328.373239  0.004999
383  361  -252.797779  -58.217988  -10.205941  1773.736840  1518.688273  1773.741939  1518.691800  0.006200
384  582  -407.707692  212.291915  -32.403235  1774.507976  825.857149  1774.506890  825.864187  0.007121
385  296  -213.966667  -135.925887  -9.739189  1783.061048  1706.776979  1783.057555  1706.780326  0.004838
386  520  -369.053413  135.345709  -23.633248  1785.377230  1018.450602  1785.370391  1018.450680  0.006840
387  234  -175.105134  -213.658731  -11.591290  1791.731615  1891.972486  1791.733827  1891.973008  0.002273
388  670  -484.836866  326.684154  -52.651756  1794.834289  516.763144  1794.838249  516.766086  0.004933
389  455  -330.346665  58.093626  -17.158407  1795.906202  1210.685010  1795.911039  1210.687847  0.005607
390  392  -291.592951  -19.387566  -12.988708  1805.991284  1401.835297  1805.993095  1401.836833  0.002374
391  613  -446.304005  250.424868  -40.240541  1806.067315  708.194600  1806.064491  708.192211  0.003699
392  329  -252.797779  -97.020784  -11.131463  1815.533500  1591.191117  1815.535368  1591.185804  0.005632
393  552  -407.707692  173.734558  -30.101773  1817.094298  900.444081  1817.088086  900.439939  0.007466
394  265  -213.966667  -174.728724  -11.591290  1824.439611  1778.066099  1824.440476  1778.061403  0.004775
395  488  -369.053413  96.689254  -22.249873  1827.806747  1092.784541  1827.813281  1092.788194  0.007486
396  204  -175.105134  -252.433959  -14.370101  1832.623085  1961.806417  1832.624497  1961.809934  0.003790
397  643  -484.836866  288.360097  -48.984906  1837.431742  591.085627  1837.431892  591.083321  0.002311
398  423  -330.346665  19.365460  -16.696601  1838.099118  1284.487954  1838.095654  1284.487792  0.003468
399  362  -291.592951  -58.159942  -13.451040  1847.870076  1474.835082  1847.873890  1474.840719  0.006806
400  583  -446.304005  211.958248  -37.483846  1848.622919  782.704901  1848.625102  782.711029  0.006505
401  297  -252.797779  -135.809785  -12.519583  1857.023669  1663.124995  1857.021999  1663.121888  0.003528
402  521  -407.707692  135.152500  -28.260210  1859.526459  974.863209  1859.527889  974.869112  0.006074
403  235  -213.966667  -213.506719  -13.905922  1865.470362  1848.684056  1865.470858  1848.689245  0.005212
404  456  -369.053413  58.019051  -21.327513  1870.034964  1166.833364  1870.032946  1166.834952  0.002568
405  175  -175.105134  -291.173297  -17.611049  1873.127932  2030.874147  1873.123299  2030.876701  0.005290
406  614  -484.836866  249.995042  -45.775271  1879.939951  665.421830  1879.943709  665.417752  0.005545
407  393  -330.346665  -19.365460  -16.696601  1880.044804  1357.890965  1880.043221  1357.893420  0.002921
408  330  -291.592951  -96.924048  -14.375640  1889.457338  1547.324069  1889.458612  1547.320353  0.003929
409  553  -446.304005  173.461493  -35.186001  1891.041276  857.111049  1891.038803  857.109648  0.002843
410  266  -252.797779  -174.579479  -14.370101  1898.180025  1734.442513  1898.175564  1734.442788  0.004470
411  489  -407.707692  96.551227  -26.878809  1901.773920  1049.060412  1901.778728  1049.058723  0.005096
412  205  -213.966667  -252.254359  -16.682756  1906.127385  1918.586609  1906.122663  1918.588938  0.005265
413  644  -523.300796  287.823311  -54.971333  1911.023148  548.781232  1911.023164  548.785156  0.003924
414  424  -369.053413  19.340600  -20.866300  1912.032032  1240.544120  1912.031879  1240.545006  0.000899
415  363  -330.346665  -58.093626  -17.158407  1921.714329  1430.842881  1921.718321  1430.847160  0.005853
416  584  -484.836866  211.594446  -43.023308  1922.327910  739.717259  1922.324699  739.722962  0.006545
417  298  -291.592951  -135.674375  -15.762375  1930.725271  1619.253462  1930.727524  1619.249913  0.004204
418  522  -446.304005  134.940076  -33.347333  1933.291718  931.358715  1933.286556  931.354501  0.006664
419  236  -252.797779  -213.324351  -16.682756  1938.976094  1805.097761  1938.975516  1805.096623  0.001276
420  457  -407.707692  57.936228  -25.957766  1943.806594  1122.982175  1943.810403  1122.982069  0.003811
421  176  -213.966667  -290.966135  -19.921398  1946.385690  1987.731188  1946.384535  1987.735915  0.004866
422  615  -523.300796  249.529674  -51.767673  1953.363993  622.869156  1953.359764  622.876471  0.008450
423  394  -369.053413  -19.340600  -20.866300  1953.768679  1313.864736  1953.772023  1313.868375  0.004942
424  331  -330.346665  -96.813533  -18.081952  1963.079460  1503.293679  1963.075170  1503.290839  0.005145
425  554  -484.836866  173.163766  -40.729407  1964.564880  813.917578  1964.565170  813.919967  0.002406
426  267  -291.592951  -174.405413  -17.611049  1971.646878  1690.575838  1971.654451  1690.577866  0.007839
427  490  -446.304005  96.399474  -31.968104  1975.343974  1005.394014  1975.340738  1005.392815  0.003451
428  206  -252.797779  -252.038895  -19.457218  1979.386292  1875.046411  1979.381958  1875.045088  0.004532
429  425  -407.707692  19.312991  -25.497212  1985.594920  1196.575709  1985.597681  1196.574471  0.003026
430  364  -369.053413  -58.019051  -21.327513  1995.216282  1386.744142  1995.213069  1386.749303  0.006080
431  585  -523.300796  211.200561  -49.020832  1995.570866  696.924964  1995.570802  696.928101  0.003138
432  299  -330.346665  -135.519676  -19.467106  2004.112717  1575.194583  2004.106529  1575.191591  0.006874
433  523  -484.836866  134.708467  -38.893895  2006.620459  887.968744  2006.625174  887.971210  0.005321
434  237  -291.592951  -213.111655  -19.921398  2012.196017  1761.245246  2012.189361  1761.239562  0.008753
435  458  -446.304005  57.845167  -31.048508  2017.168244  1079.163648  2017.164049  1079.157155  0.007730
436  177  -252.797779  -290.717605  -22.693093  2019.385982  1944.245792  2019.383185  1944.241694  0.004961
437  616  -561.690327  249.028830  -58.216893  2026.288216  580.566471  2026.283462  580.567924  0.004971
438  395  -407.707692  -19.312991  -25.497212  2027.109932  1269.789087  2027.106600  1269.791966  0.004404
439  332  -369.053413  -96.689254  -22.249873  2036.346926  1459.132385  2036.342595  1459.128461  0.005844
440  555  -523.300796  172.841420  -46.731201  2037.613293  770.894659  2037.614872  770.900586  0.006134
441  268  -330.346665  -174.206551  -21.313672  2044.787441  1646.498174  2044.790541  1646.496246  0.003650
442  491  -484.836866  96.234016  -37.517032  2048.464661  961.817148  2048.465551  961.822221  0.005151
443  207  -291.592951  -251.787598  -22.693093  2052.347459  1831.217294  2052.344838  1831.212565  0.005407
444  426  -446.304005  19.282636  -30.588678  2058.735270  1152.615026  2058.739048  1152.617971  0.004790
445  150  -252.797779  -329.354983  -26.389922  2058.951513  2012.654970  2058.954284  2012.658752  0.004689
446  586  -561.690327  210.776648  -55.475566  2068.300819  654.358211  2068.294349  654.350916  0.009751
447  365  -407.707692  -57.936228  -25.957766  2068.323325  1342.571362  2068.318406  1342.573120  0.005224
448  300  -369.053413  -135.345709  -23.633248  2077.133472  1530.980743  2077.131233  1530.979271  0.002679
449  524  -523.300796  134.457706  -44.899106  2079.461155  844.724522  2079.458031  844.726386  0.003637
450  238  -330.346665  -212.868659  -23.621386  2085.077843  1717.158484  2085.075612  1717.153409  0.005544
451  459  -484.836866  57.745883  -36.599015  2090.067990  1035.409739  2090.064430  1035.409431  0.003573
452  178  -291.592951  -290.427743  -25.925742  2092.076927  1900.449239  2092.073823  1900.449504  0.003115
453  396  -446.304005  -19.282636  -30.588678  2100.016408  1225.696400  2100.016291  1225.699882  0.003484
454  333  -407.707692  -96.551227  -26.878809  2109.207524  1414.872687  2109.202128  1414.875986  0.006325
455  556  -561.690327  172.494500  -53.190531  2110.135827  728.072772  2110.131448  728.068706  0.005975
456  269  -369.053413  -173.982922  -25.477444  2117.549609  1602.241831  2117.551021  1602.236510  0.005506
457  492  -523.300796  96.054875  -43.524807  2121.084770  918.361249  2121.081388  918.356438  0.005881
458  208  -330.346665  -251.500503  -26.389922  2124.959053  1787.131092  2124.961851  1787.128377  0.003899
459  151  -291.592951  -329.026598  -29.618885  2131.361144  1968.900056  2131.356890  1968.904082  0.005857
460  427  -484.836866  19.249540  -36.139974  2131.401508  1108.694164  2131.399825  1108.696246  0.002677
461  366  -446.304005  -57.845167  -31.048508  2140.983689  1298.356984  2140.984372  1298.353719  0.003335
462  301  -407.707692  -135.152500  -28.260210  2149.735738  1486.644426  2149.740627  1486.647870  0.005981
463  525  -561.690327  134.187828  -51.362113  2151.763426  801.656794  2151.769565  801.658727  0.006436
464  239  -369.053413  -212.595400  -27.782196  2157.569911  1672.869698  2157.570066  1672.876871  0.007175
465  460  -523.300796  57.638388  -42.608498  2162.454960  991.752080  2162.451711  991.756777  0.005711
466  179  -330.346665  -290.096590  -29.618885  2164.407170  1856.373204  2164.405469  1856.367709  0.005752
467  125  -291.592951  -367.578673  -33.771995  2170.177866  2036.530506  2170.175677  2036.531906  0.002599
468  397  -484.836866  -19.249540  -36.139974  2172.436906  1181.618887  2172.434041  1181.623114  0.005107
469  334  -446.304005  -96.399474  -31.968104  2181.609888  1370.547067  2181.614103  1370.548131  0.004348
470  270  -407.707692  -173.734558  -30.101773  2189.882020  1557.839258  2189.885487  1557.843453  0.005442
471  493  -561.690327  95.862078  -49.990572  2193.154248  875.057315  2193.148919  875.056113  0.005463
472  209  -369.053413  -251.177652  -30.547177  2197.169883  1742.819917  2197.167288  1742.823305  0.004268
473  152  -330.346665  -328.651433  -33.307816  2203.399300  1924.843731  2203.396656  1924.849152  0.006031
474  428  -523.300796  19.213707  -42.150312  2203.543123  1064.844927  2203.541867  1064.848291  0.003591
475  367  -484.836866  -57.745883  -36.599015  2213.146567  1254.133313  2213.143543  1254.126654  0.007313
476  302  -446.304005  -134.940076  -33.347333  2221.868577  1442.218131  2221.870883  1442.214178  0.004576
477  526  -600.000000  133.898873  -58.281997  2223.478150  758.795760  2223.480605  758.797423  0.002965
478  240  -407.707692  -212.291915  -32.403235  2229.621319  1628.411277  2229.626815  1628.408490  0.006162
479  461  -561.690327  57.522699  -49.076103  2234.279454  948.221895  2234.276762  948.217744  0.004948
480  180  -369.053413  -289.724193  -33.771995  2236.326008  1812.049673  2236.326845  1812.046342  0.003435
481  126  -330.346665  -367.159551  -37.456191  2241.913592  1992.503350  2241.914989  1992.505321  0.002416
482  398  -523.300796  -19.213707  -42.150312  2244.321301  1137.588503  2244.319660  1137.589403  0.001872
483  335  -484.836866  -96.234016  -37.517032  2253.503628  1326.187906  2253.503439  1326.183693  0.004217
484  271  -446.304005  -173.461493  -35.186001  2261.734186  1513.322952  2261.741066  1513.319349  0.007766
485  494  -600.000000  95.655652  -56.913409  2264.624318  831.935828  2264.627747  831.939992  0.005394
486  210  -407.707692  -250.819090  -35.164269  2268.929526  1698.316083  2268.932221  1698.312132  0.004783
487  153  -369.053413  -328.229543  -37.456191  2275.015786  1880.517835  2275.014403  1880.519726  0.002343
488  429  -561.690327  19.175142  -48.618836  2275.110789  1021.098751  2275.108095  1021.094309  0.005195
489  368  -523.300796  -57.638388  -42.608498  2284.762238  1209.932440  2284.765902  1209.934284  0.004102
490  303  -484.836866  -134.708467  -38.893895  2293.482037  1397.734294  2293.483411  1397.735947  0.002149
491  241  -446.304005  -211.958248  -37.483846  2301.182047  1583.815699  2301.176846  1583.820652  0.007182
492  462  -600.000000  57.398832  -56.000910  2305.493054  904.849933  2305.493118  904.853727  0.003795
493  181  -407.707692  -289.310605  -38.384484  2307.783516  1767.510863  2307.785893  1767.511902  0.002594
494  127  -369.053413  -366.688228  -41.599241  2313.217767  1948.185023  2313.215573  1948.181707  0.003976
495  399  -561.690327  -19.175142  -48.618836  2315.620657  1093.636875  2315.622745  1093.639192  0.003119
496  336  -523.300796  -96.054875  -43.524807  2324.839448  1281.827404  2324.844202  1281.829796  0.005322
497  272  -484.836866  -173.163766  -40.729407  2333.056609  1468.725382  2333.055036  1468.728323  0.003335
498  211  -446.304005  -250.424868  -40.240541  2340.188447  1653.652023  2340.187514  1653.654536  0.002681
499  430  -600.000000  19.133851  -55.544627  2346.056469  977.486627  2346.053821  977.488735  0.003385
500  154  -407.707692  -327.760988  -42.063420  2346.161192  1835.954472  2346.159056  1835.957013  0.003319
501  102  -369.053413  -405.094779  -46.200556  2350.911582  2015.013670  2350.915519  2015.011899  0.004317
502  369  -561.690327  -57.522699  -49.076103  2355.782181  1165.786157  2355.788194  1165.790703  0.007538
503  304  -523.300796  -134.457706  -44.899106  2364.527266  1353.225205  2364.527824  1353.222459  0.002802
504  242  -484.836866  -211.594446  -43.023308  2372.203072  1539.115442  2372.198491  1539.111547  0.006013
505  182  -446.304005  -288.855884  -43.455694  2378.730663  1722.789144  2378.738640  1722.793825  0.009249
506  128  -407.707692  -366.164772  -46.200556  2384.041511  1903.607494  2384.039475  1903.613412  0.006259
507  400  -600.000000  -19.133851  -55.544627  2386.287344  1049.795216  2386.285637  1049.798346  0.003565
508  337  -561.690327  -95.862078  -49.990572  2395.569260  1237.497500  2395.573043  1237.497492  0.003783
509  273  -523.300796  -172.841420  -46.731201  2403.800900  1424.078905  2403.806029  1424.073227  0.007651
510  212  -484.836866  -249.995042  -45.775271  2410.898116  1608.860207  2410.902232  1608.863894  0.005526
511  155  -446.304005  -327.245833  -47.128849  2416.787007  1791.185927  2416.791818  1791.181826  0.006321
512  103  -407.707692  -404.516497  -50.795302  2421.404519  1970.432307  2421.400318  1970.430550  0.004553
513  370  -600.000000  -57.398832  -56.000910  2426.159186  1121.725883  2426.154221  1121.732201  0.008035
514  305  -561.690327  -134.187828  -51.362113  2434.956625  1308.722927  2434.959269  1308.727468  0.005254
515  243  -523.300796  -211.200561  -49.020832  2442.636486  1494.342910  2442.638189  1494.336847  0.006298
