# COL 1-2: True indices
# COL 3-5: True X/Y/Z plate [mm]
# COL 6-7: True X/Y position [pix]
# COL 8-9: Estimated X/Y centroid [pix]
# COL 10: Centroid error [pix]
1  17  -58.393282  -561.600489  -49.076103  7.217100  1786.124983  7.217013  1786.121976  0.003008
2  18  -97.312912  -561.440788  -49.990572  10.249609  1867.694026  10.248126  1867.694247  0.001500
3  19  -136.218706  -561.201266  -51.362113  13.662782  1948.582899  13.662209  1948.581753  0.001281
4  20  -175.105134  -560.881955  -53.190531  17.450767  2028.741333  17.449418  2028.739575  0.002216
5  23  291.592951  -521.209682  -54.971333  78.497003  1032.162705  78.497650  1032.165413  0.002784
6  24  252.797779  -521.729877  -51.767673  77.960727  1117.593618  77.960687  1117.592296  0.001323
7  25  213.966667  -522.175895  -49.020832  77.808893  1202.854266  77.809354  1202.857094  0.002865
8  26  175.105134  -522.547674  -46.731201  78.040528  1287.883712  78.040109  1287.883377  0.000537
9  27  136.218706  -522.845161  -44.899106  78.654110  1372.621630  78.653937  1372.620796  0.000852
10  28  97.312912  -523.068312  -43.524807  79.647569  1457.008450  79.647938  1457.008462  0.000369
11  29  58.393282  -523.217098  -42.608498  81.018304  1540.985500  81.016775  1540.984776  0.001692
12  30  19.465350  -523.291496  -42.150312  82.763189  1624.495145  82.762206  1624.494667  0.001093
13  31  -19.465350  -523.291496  -42.150312  84.878591  1707.480919  84.878263  1707.481127  0.000388
14  32  -58.393282  -523.217098  -42.608498  87.360379  1789.887648  87.360583  1789.888431  0.000809
15  33  -97.312912  -523.068312  -43.524807  90.203945  1871.661573  90.202614  1871.661872  0.001364
16  34  -136.218706  -522.845161  -44.899106  93.404224  1952.750459  93.401315  1952.751195  0.003000
17  35  -175.105134  -522.547674  -46.731201  96.955707  2033.103700  96.955721  2033.102836  0.000864
18  39  369.053413  -481.729649  -56.775299  162.094796  862.249699  162.096597  862.250540  0.001988
19  40  330.346665  -482.348840  -52.651756  160.879134  948.053463  160.877824  948.052608  0.001564
20  41  291.592951  -482.899454  -48.984906  160.021938  1033.809831  160.021457  1033.810900  0.001172
21  42  252.797779  -483.381413  -45.775271  159.523349  1119.456670  159.521228  1119.457736  0.002374
22  43  213.966667  -483.794648  -43.023308  159.382979  1204.932152  159.382276  1204.933265  0.001316
23  44  175.105134  -484.139100  -40.729407  159.599921  1290.174917  159.599149  1290.178672  0.003834
24  45  136.218706  -484.414721  -38.893895  160.172752  1375.124219  160.172860  1375.123689  0.000541
25  46  97.312912  -484.621471  -37.517032  161.099539  1459.720077  161.098925  1459.718989  0.001249
26  47  58.393282  -484.759320  -36.599015  162.377849  1543.903418  162.375319  1543.899964  0.004281
27  48  19.465350  -484.828250  -36.139974  164.004760  1627.616214  164.005727  1627.617037  0.001269
28  49  -19.465350  -484.828250  -36.139974  165.976871  1710.801621  165.977916  1710.801064  0.001184
29  50  -58.393282  -484.759320  -36.599015  168.290320  1793.404100  168.290445  1793.403482  0.000630
30  51  -97.312912  -484.621471  -37.517032  170.940797  1875.369542  170.941177  1875.367882  0.001703
31  52  -136.218706  -484.414721  -38.893895  173.923561  1956.645377  173.923652  1956.645469  0.000130
32  53  -175.105134  -484.139100  -40.729407  177.233459  2037.180685  177.232372  2037.181146  0.001181
33  59  407.707692  -442.810711  -55.847006  245.668297  777.385600  245.667679  777.386179  0.000847
34  60  369.053413  -443.443737  -51.259482  244.213177  863.375738  244.214835  863.374965  0.001830
35  61  330.346665  -444.013718  -47.128849  243.089156  949.380959  243.090399  949.381706  0.001450
36  62  291.592951  -444.520571  -43.455694  242.296857  1035.338571  242.297243  1035.339639  0.001136
37  63  252.797779  -444.964226  -40.240541  241.836408  1121.186036  241.836804  1121.185220  0.000907
38  64  213.966667  -445.344619  -37.483846  241.707455  1206.861128  241.708109  1206.860999  0.000667
39  65  175.105134  -445.661695  -35.186001  241.909157  1292.302092  241.907990  1292.302064  0.001167
40  66  136.218706  -445.915410  -33.347333  242.440192  1377.447789  242.441160  1377.448857  0.001441
41  67  97.312912  -446.105728  -31.968104  243.298769  1462.237856  243.297695  1462.236882  0.001450
42  68  58.393282  -446.232622  -31.048508  244.482628  1546.612845  244.482421  1546.612170  0.000706
43  69  19.465350  -446.296074  -30.588678  245.989055  1630.514364  245.990152  1630.514522  0.001108
44  70  -19.465350  -446.296074  -30.588678  247.814892  1713.885215  247.814996  1713.884874  0.000356
45  71  -58.393282  -446.232622  -31.048508  249.956554  1796.669519  249.954803  1796.670120  0.001852
46  72  -97.312912  -446.105728  -31.968104  252.410035  1878.812840  252.408489  1878.811506  0.002041
47  73  -136.218706  -445.915410  -33.347333  255.170933  1960.262300  255.170474  1960.260893  0.001480
48  74  -175.105134  -445.661695  -35.186001  258.234463  2040.966681  258.233237  2040.968946  0.002576
49  81  446.304005  -403.880703  -55.847006  329.999087  692.139582  330.000000  692.138034  0.001797
50  82  407.707692  -404.516497  -50.795302  328.361232  778.237021  328.361610  778.238201  0.001239
51  83  369.053413  -405.094779  -46.200556  327.026285  864.412776  327.026737  864.412018  0.000883
52  84  330.346665  -405.615468  -42.063420  325.995270  950.603788  325.996910  950.604258  0.001706
53  85  291.592951  -406.078489  -38.384484  325.268759  1036.746993  325.266973  1036.746095  0.002000
54  86  252.797779  -406.483776  -35.164269  324.846877  1122.779482  324.847841  1122.781449  0.002191
55  87  213.966667  -406.831273  -32.403235  324.729296  1208.638658  324.728658  1208.640870  0.002302
56  88  175.105134  -407.120929  -30.101773  324.915245  1294.262400  324.915318  1294.262049  0.000358
57  89  136.218706  -407.352703  -28.260210  325.403509  1379.589208  325.403359  1379.588142  0.001077
58  90  97.312912  -407.526562  -26.878809  326.192437  1464.558365  326.191508  1464.557667  0.001162
59  91  58.393282  -407.642482  -25.957766  327.279950  1549.110075  327.279335  1549.108418  0.001768
60  92  19.465350  -407.700446  -25.497212  328.663548  1633.185609  328.663152  1633.185473  0.000419
61  93  -19.465350  -407.700446  -25.497212  330.340325  1716.727443  330.339639  1716.727535  0.000692
62  94  -58.393282  -407.642482  -25.957766  332.306975  1799.679384  332.307915  1799.681035  0.001899
63  95  -97.312912  -407.526562  -26.878809  334.559812  1881.986694  334.560232  1881.986772  0.000428
64  96  -136.218706  -407.352703  -28.260210  337.094780  1963.596206  337.094938  1963.597276  0.001082
65  97  -175.105134  -407.120929  -30.101773  339.907471  2044.456433  339.907298  2044.457726  0.001305
66  105  484.836866  -364.961765  -56.775299  414.943698  606.622963  414.945338  606.623039  0.001642
67  106  446.304005  -365.589257  -51.259482  413.181171  692.747533  413.181428  692.749770  0.002252
68  107  407.707692  -366.164772  -46.200556  411.692695  779.014150  411.695045  779.014649  0.002402
69  108  369.053413  -366.688228  -41.599241  410.479615  865.359585  410.478142  865.361133  0.002136
70  109  330.346665  -367.159551  -37.456191  409.542865  951.720437  409.541373  951.718398  0.002527
71  110  291.592951  -367.578673  -33.771995  408.882971  1038.033302  408.882505  1038.033162  0.000487
72  111  252.797779  -367.945536  -30.547177  408.500047  1124.234928  408.500000  1124.238163  0.003236
73  112  213.966667  -368.260086  -27.782196  408.393797  1210.262381  408.391104  1210.263690  0.002994
74  113  175.105134  -368.522280  -25.477444  408.563519  1296.053202  408.563212  1296.053081  0.000330
75  114  136.218706  -368.732080  -23.633248  409.008106  1381.545563  409.008457  1381.547468  0.001937
76  115  97.312912  -368.889456  -22.249873  409.726053  1466.678419  409.727536  1466.679166  0.001660
77  116  58.393282  -368.994386  -21.327513  410.715465  1551.391657  410.713385  1551.390310  0.002478
78  117  19.465350  -369.046855  -20.866300  411.974064  1635.626241  411.974293  1635.627373  0.001155
79  118  -19.465350  -369.046855  -20.866300  413.499197  1719.324345  413.500000  1719.326160  0.001985
80  119  -58.393282  -368.994386  -21.327513  415.287851  1802.429489  415.288953  1802.429933  0.001188
81  120  -97.312912  -368.889456  -22.249873  417.336665  1884.886659  417.335254  1884.885791  0.001656
82  121  -136.218706  -368.732080  -23.633248  419.641938  1966.642426  419.641543  1966.641543  0.000967
83  131  484.836866  -326.684154  -52.651756  498.527347  607.019639  498.525390  607.017875  0.002634
84  132  446.304005  -327.245833  -47.128849  496.943919  693.296474  496.944678  693.295007  0.001652
85  133  407.707692  -327.760988  -42.063420  495.606767  779.716118  495.608119  779.713373  0.003060
86  134  369.053413  -328.229543  -37.456191  494.517104  866.215034  494.516937  866.215301  0.000315
87  135  330.346665  -328.651433  -33.307816  493.675775  952.729513  493.676575  952.730654  0.001394
88  136  291.592951  -329.026598  -29.618885  493.083255  1039.195841  493.081613  1039.193591  0.002786
89  137  252.797779  -329.354983  -26.389922  492.739648  1125.550457  492.736602  1125.550667  0.003053
90  138  213.966667  -329.636543  -23.621386  492.644691  1211.730121  492.645009  1211.731648  0.001560
91  139  175.105134  -329.871238  -21.313672  492.797751  1297.672067  492.798337  1297.672784  0.000926
92  140  136.218706  -330.059034  -19.467106  493.197830  1383.314168  493.197175  1383.313493  0.000941
93  141  97.312912  -330.199904  -18.081952  493.843576  1468.595084  493.841954  1468.594383  0.001767
94  142  58.393282  -330.293829  -17.158407  494.733278  1553.454415  494.730353  1553.453566  0.003046
95  143  19.465350  -330.340794  -16.696601  495.864886  1637.832843  495.867135  1637.832346  0.002303
96  144  -19.465350  -330.340794  -16.696601  497.236008  1721.672272  497.235868  1721.674472  0.002205
97  145  -58.393282  -330.293829  -17.158407  498.843931  1804.915961  498.841115  1804.917860  0.003397
98  146  -97.312912  -330.199904  -18.081952  500.685624  1887.508645  500.684308  1887.507672  0.001636
99  147  -136.218706  -330.059034  -19.467106  502.757753  1969.396656  502.755759  1969.397541  0.002181
100  157  523.300796  -287.823311  -54.971333  584.251354  521.167236  584.251155  521.167320  0.000216
101  158  484.836866  -288.360097  -48.984906  582.632387  607.373062  582.631685  607.373709  0.000955
102  159  446.304005  -288.855884  -43.455694  581.230168  693.785853  581.229547  693.788059  0.002291
103  160  407.707692  -289.310605  -38.384484  580.046099  780.342134  580.046772  780.341051  0.001275
104  161  369.053413  -289.724193  -33.771995  579.081256  866.978093  579.082906  866.980116  0.002610
105  162  330.346665  -290.096590  -29.618885  578.336393  953.629747  578.335515  953.629330  0.000972
106  163  291.592951  -290.427743  -25.925742  577.811933  1040.233103  577.812444  1040.231105  0.002062
107  164  252.797779  -290.717605  -22.693093  577.507970  1126.724325  577.506940  1126.723764  0.001173
108  165  213.966667  -290.966135  -19.921398  577.424270  1213.039895  577.425131  1213.040318  0.000959
109  166  175.105134  -291.173297  -17.611049  577.560273  1299.116778  577.560135  1299.118882  0.002109
110  167  136.218706  -291.339062  -15.762375  577.915094  1384.892576  577.916171  1384.891576  0.001469
111  168  97.312912  -291.463406  -14.375640  578.487531  1470.305687  578.487374  1470.307446  0.001766
112  169  58.393282  -291.546313  -13.451040  579.276068  1555.295451  579.277365  1555.295563  0.001301
113  170  19.465350  -291.587769  -12.988708  580.278882  1639.802302  580.275453  1639.802133  0.003433
114  171  -19.465350  -291.587769  -12.988708  581.493852  1723.767900  581.492241  1723.767866  0.001611
115  172  -58.393282  -291.546313  -13.451040  582.918566  1807.135269  582.918511  1807.134623  0.000648
116  173  -97.312912  -291.463406  -14.375640  584.550334  1889.848922  584.550113  1889.846517  0.002415
117  174  -136.218706  -291.339062  -15.762375  586.386196  1971.854976  586.387500  1971.853184  0.002216
118  185  561.690327  -249.028830  -58.216893  670.202805  435.305119  670.201236  435.306204  0.001907
119  186  523.300796  -249.529674  -51.767673  668.608207  521.358525  668.605900  521.360395  0.002970
120  187  484.836866  -249.995042  -45.775271  667.200593  607.682946  667.199586  607.684035  0.001484
121  188  446.304005  -250.424868  -40.240541  665.981465  694.215170  665.980561  694.212980  0.002370
122  189  407.707692  -250.819090  -35.164269  664.952045  780.891485  664.953048  780.892617  0.001513
123  190  369.053413  -251.177652  -30.547177  664.113275  867.647836  664.111892  867.647975  0.001390
124  191  330.346665  -251.500503  -26.389922  663.465810  954.419997  663.465777  954.420337  0.000342
125  192  291.592951  -251.787598  -22.693093  663.010021  1041.143732  663.011086  1041.144806  0.001513
126  193  252.797779  -252.038895  -19.457218  662.745991  1127.754960  662.748516  1127.754688  0.002539
127  194  213.966667  -252.254359  -16.682756  662.673516  1214.189923  662.674448  1214.191220  0.001597
128  195  175.105134  -252.433959  -14.370101  662.792110  1300.385344  662.790840  1300.383453  0.002278
129  196  136.218706  -252.577670  -12.519583  663.101003  1386.278590  663.102172  1386.279825  0.001700
130  197  97.312912  -252.685470  -11.131463  663.599145  1471.807825  663.600460  1471.805394  0.002763
131  198  58.393282  -252.757346  -10.205941  664.285218  1556.912165  664.285426  1556.913611  0.001461
132  199  19.465350  -252.793287  -9.743147  665.157632  1641.531821  665.159335  1641.534822  0.003450
133  200  -19.465350  -252.793287  -9.743147  666.214538  1725.608240  666.215531  1725.608487  0.001023
134  201  -58.393282  -252.757346  -10.205941  667.453836  1809.084241  667.452556  1809.082370  0.002267
135  202  -97.312912  -252.685470  -11.131463  668.873180  1891.904139  668.872962  1891.904198  0.000225
136  203  -136.218706  -252.577670  -12.519583  670.469990  1974.013864  670.470505  1974.014649  0.000939
137  215  561.690327  -210.776648  -55.475566  754.719954  435.368131  754.717005  435.368922  0.003053
138  216  523.300796  -211.200561  -49.020832  753.366935  521.522614  753.366579  521.523321  0.000792
139  217  484.836866  -211.594446  -43.023308  752.172591  607.949037  752.173632  607.949204  0.001054
140  218  446.304005  -211.958248  -37.483846  751.138199  694.583987  751.141069  694.582355  0.003302
141  219  407.707692  -212.291915  -32.403235  750.264800  781.363543  750.267392  781.363487  0.002592
142  220  369.053413  -212.595400  -27.782196  749.553195  868.223445  749.553165  868.224441  0.000997
143  221  330.346665  -212.868659  -23.621386  749.003943  955.099256  749.002622  955.098282  0.001641
144  222  291.592951  -213.111655  -19.921398  748.617359  1041.926530  748.618421  1041.928038  0.001844
145  223  252.797779  -213.324351  -16.682756  748.393515  1128.640978  748.394746  1128.640532  0.001309
146  224  213.966667  -213.506719  -13.905922  748.332239  1215.178631  748.332295  1215.180285  0.001655
147  225  175.105134  -213.658731  -11.591290  748.433116  1301.476006  748.433675  1301.476466  0.000724
148  226  136.218706  -213.780367  -9.739189  748.695493  1387.470266  748.694581  1387.468975  0.001581
149  227  97.312912  -213.871609  -8.349884  749.118479  1473.099377  749.116830  1473.098150  0.002056
150  228  58.393282  -213.932445  -7.423570  749.700951  1558.302257  749.700915  1558.300055  0.002203
151  229  19.465350  -213.962864  -6.960380  750.441559  1643.018927  750.440523  1643.019854  0.001390
152  230  -19.465350  -213.962864  -6.960380  751.338731  1727.190653  751.339627  1727.191141  0.001020
153  231  -58.393282  -213.932445  -7.423570  752.390681  1810.760074  752.389577  1810.760088  0.001104
154  232  -97.312912  -213.871609  -8.349884  753.595415  1893.671336  753.593532  1893.670581  0.002028
155  233  -136.218706  -213.780367  -9.739189  754.950738  1975.870208  754.950920  1975.870846  0.000663
156  245  561.690327  -172.494500  -53.190531  839.577017  435.420487  839.577369  435.423102  0.002638
157  246  523.300796  -172.841420  -46.731201  838.467439  521.659446  838.468782  521.656788  0.002978
158  247  484.836866  -173.163766  -40.729407  837.487998  608.171118  837.487505  608.171409  0.000572
159  248  446.304005  -173.461493  -35.186001  836.639746  694.891922  836.640343  694.892567  0.000879
160  249  407.707692  -173.734558  -30.101773  835.923537  781.757765  835.924304  781.758647  0.001169
161  250  369.053413  -173.982922  -25.477444  835.340030  868.704212  835.340603  868.703734  0.000747
162  251  330.346665  -174.206551  -21.313672  834.889685  955.666652  834.888464  955.665692  0.001553
163  252  291.592951  -174.405413  -17.611049  834.572762  1042.580463  834.571054  1042.579212  0.002117
164  253  252.797779  -174.579479  -14.370101  834.389320  1129.381179  834.389895  1129.380486  0.000900
165  254  213.966667  -174.728724  -11.591290  834.339218  1216.004657  834.338476  1216.004174  0.000885
166  255  175.105134  -174.853127  -9.275010  834.422116  1302.387242  834.424503  1302.389365  0.003195
167  256  136.218706  -174.952671  -7.421591  834.637477  1388.465926  834.637380  1388.465598  0.000342
168  257  97.312912  -175.027341  -6.031296  834.984570  1474.178506  834.983812  1474.177714  0.001096
169  258  58.393282  -175.077127  -5.104323  835.462473  1559.463738  835.462232  1559.464696  0.000988
170  259  19.465350  -175.102022  -4.640803  836.070076  1644.261485  836.069562  1644.259935  0.001633
171  260  -19.465350  -175.102022  -4.640803  836.806089  1728.512857  836.804452  1728.511833  0.001931
172  261  -58.393282  -175.077127  -5.104323  837.669044  1812.160346  837.669316  1812.160678  0.000429
173  262  -97.312912  -175.027341  -6.031296  838.657303  1895.147955  838.657554  1895.146448  0.001527
174  263  -136.218706  -174.952671  -7.421591  839.769064  1977.421319  839.768494  1977.420250  0.001211
175  275  600.000000  -133.898873  -58.281997  925.678419  349.491956  925.678264  349.491413  0.000564
176  276  561.690327  -134.187828  -51.362113  924.713368  435.462272  924.712214  435.463424  0.001631
177  277  523.300796  -134.457706  -44.899106  923.848762  521.768970  923.850169  521.769921  0.001699
178  278  484.836866  -134.708467  -38.893895  923.085570  608.349005  923.084946  608.347737  0.001413
179  279  446.304005  -134.940076  -33.347333  922.424612  695.138656  922.421288  695.139537  0.003438
180  280  407.707692  -135.152500  -28.260210  921.866555  782.073694  921.865942  782.072668  0.001195
181  281  369.053413  -135.345709  -23.633248  921.411914  869.089545  921.410975  869.089205  0.000999
182  282  330.346665  -135.519676  -19.467106  921.061049  956.121455  921.059904  956.120560  0.001453
183  283  291.592951  -135.674375  -15.762375  920.814162  1043.104661  920.813234  1043.102615  0.002247
184  284  252.797779  -135.809785  -12.519583  920.671299  1129.974557  920.674131  1129.974918  0.002855
185  285  213.966667  -135.925887  -9.739189  920.632351  1216.666860  920.630248  1216.665200  0.002679
186  286  175.105134  -136.022664  -7.421591  920.697054  1303.117776  920.697131  1303.119141  0.001367
187  287  136.218706  -136.100101  -5.567117  920.864987  1389.264159  920.865425  1389.263257  0.001002
188  288  97.312912  -136.158189  -4.176030  921.135581  1475.043673  921.134652  1475.042111  0.001818
189  289  58.393282  -136.196919  -3.248529  921.508117  1560.394943  921.508384  1560.396089  0.001177
190  290  19.465350  -136.216285  -2.784746  921.981729  1645.257702  921.981668  1645.257321  0.000386
191  291  -19.465350  -136.216285  -2.784746  922.555409  1729.572938  922.554639  1729.571421  0.001701
192  292  -58.393282  -136.196919  -3.248529  923.228013  1813.283024  923.228359  1813.282653  0.000507
193  293  -97.312912  -136.158189  -4.176030  923.998262  1896.331849  923.997373  1896.329058  0.002929
194  294  -136.218706  -136.100101  -5.567117  924.864751  1978.664939  924.865804  1978.663767  0.001575
195  307  600.000000  -95.655652  -56.913409  1010.757961  349.472903  1010.757414  349.472135  0.000943
196  308  561.690327  -95.862078  -49.990572  1010.067676  435.493551  1010.067043  435.495014  0.001594
197  309  523.300796  -96.054875  -43.524807  1009.449241  521.851149  1009.448800  521.849456  0.001749
198  310  484.836866  -96.234016  -37.517032  1008.903349  608.482550  1008.902230  608.479546  0.003206
199  311  446.304005  -96.399474  -31.968104  1008.430588  695.323933  1008.430796  695.324091  0.000261
200  312  407.707692  -96.551227  -26.878809  1008.031436  782.310965  1008.032569  782.310828  0.001141
201  313  369.053413  -96.689254  -22.249873  1007.706262  869.378965  1007.705123  869.377088  0.002195
202  314  330.346665  -96.813533  -18.081952  1007.455323  956.463074  1007.454702  956.464792  0.001827
203  315  291.592951  -96.924048  -14.375640  1007.278764  1043.498425  1007.281129  1043.499216  0.002494
204  316  252.797779  -97.020784  -11.131463  1007.176620  1130.420303  1007.178325  1130.419240  0.002009
205  317  213.966667  -97.103725  -8.349884  1007.148811  1217.164321  1007.148517  1217.163190  0.001168
206  318  175.105134  -97.172861  -6.031296  1007.195149  1303.666580  1007.197182  1303.668815  0.003021
207  319  136.218706  -97.228182  -4.176030  1007.315333  1389.863832  1007.315189  1389.863249  0.000600
208  320  97.312912  -97.269679  -2.784350  1007.508954  1475.693639  1007.507558  1475.692040  0.002123
209  321  58.393282  -97.297347  -1.856453  1007.775499  1561.094527  1007.776943  1561.095100  0.001553
210  322  19.465350  -97.311182  -1.392472  1008.114347  1646.006134  1008.113194  1646.005248  0.001454
211  323  -19.465350  -97.311182  -1.392472  1008.524777  1730.369355  1008.523597  1730.370720  0.001804
212  324  -58.393282  -97.297347  -1.856453  1009.005970  1814.126472  1009.006325  1814.126053  0.000549
213  325  -97.312912  -97.269679  -2.784350  1009.557009  1897.221290  1009.559087  1897.224047  0.003452
214  326  -136.218706  -97.228182  -4.176030  1010.176889  1979.599252  1010.178978  1979.598222  0.002329
215  339  600.000000  -57.398832  -56.000910  1095.992620  349.460130  1095.991529  349.458144  0.002266
216  340  561.690327  -57.522699  -49.076103  1095.578063  435.514376  1095.579010  435.514042  0.001004
217  341  523.300796  -57.638388  -42.608498  1095.206657  521.905951  1095.205049  521.908098  0.002682
218  342  484.836866  -57.745883  -36.599015  1094.878820  608.571642  1094.879326  608.571660  0.000506
219  343  446.304005  -57.845167  -31.048508  1094.594904  695.447559  1094.595213  695.447729  0.000353
220  344  407.707692  -57.936228  -25.957766  1094.355196  782.469299  1094.356393  782.467983  0.001779
221  345  369.053413  -58.019051  -21.327513  1094.159919  869.572112  1094.160643  869.571839  0.000774
222  346  330.346665  -58.093626  -17.158407  1094.009227  956.691068  1094.008960  956.689866  0.001231
223  347  291.592951  -58.159942  -13.451040  1093.903208  1043.761228  1093.903799  1043.760582  0.000875
224  348  252.797779  -58.217988  -10.205941  1093.841881  1130.717807  1093.842375  1130.718536  0.000881
225  349  213.966667  -58.267758  -7.423570  1093.825200  1217.496348  1093.823761  1217.497449  0.001812
226  350  175.105134  -58.309243  -5.104323  1093.853052  1304.032881  1093.853632  1304.033610  0.000932
227  351  136.218706  -58.342439  -3.248529  1093.925254  1390.264091  1093.924435  1390.264059  0.000819
228  352  97.312912  -58.367340  -1.856453  1094.041564  1476.127470  1094.041169  1476.125083  0.002420
229  353  58.393282  -58.383942  -0.928293  1094.201670  1561.561481  1094.202429  1561.564805  0.003409
230  354  19.465350  -58.392244  -0.464179  1094.405201  1646.505695  1094.407205  1646.504100  0.002561
231  355  -19.465350  -58.392244  -0.464179  1094.651723  1730.900946  1094.653227  1730.899869  0.001850
232  356  -58.393282  -58.383942  -0.928293  1094.940743  1814.689458  1094.941715  1814.690157  0.001198
233  357  -97.312912  -58.367340  -1.856453  1095.271712  1897.814977  1095.269894  1897.815620  0.001928
234  358  -136.218706  -58.342439  -3.248529  1095.644024  1980.222891  1095.644415  1980.224270  0.001433
235  371  600.000000  -19.133851  -55.544627  1181.320506  349.453721  1181.322138  349.452235  0.002207
236  372  561.690327  -19.175142  -48.618836  1181.182256  435.524780  1181.184023  435.523115  0.002428
237  373  523.300796  -19.213707  -42.150312  1181.058397  521.933357  1181.056358  521.931284  0.002907
238  374  484.836866  -19.249540  -36.139974  1180.949067  608.616207  1180.950139  608.616339  0.001080
239  375  446.304005  -19.282636  -30.588678  1180.854385  695.509405  1180.852523  695.510751  0.002298
240  376  407.707692  -19.312991  -25.497212  1180.774446  782.548513  1180.772258  782.547160  0.002572
241  377  369.053413  -19.340600  -20.866300  1180.709325  869.668746  1180.709250  869.668495  0.000262
242  378  330.346665  -19.365460  -16.696601  1180.659073  956.805139  1180.659238  956.804465  0.000694
243  379  291.592951  -19.387566  -12.988708  1180.623719  1043.892717  1180.624438  1043.890421  0.002406
244  380  252.797779  -19.406916  -9.743147  1180.603270  1130.866661  1180.604411  1130.866669  0.001141
245  381  213.966667  -19.423506  -6.960380  1180.597711  1217.662477  1180.597566  1217.661203  0.001282
246  382  175.105134  -19.437336  -4.640803  1180.607003  1304.216162  1180.605248  1304.216190  0.001755
247  383  136.218706  -19.448401  -2.784746  1180.631086  1390.464363  1180.630449  1390.462834  0.001656
248  384  97.312912  -19.456702  -1.392472  1180.669878  1476.344542  1180.671094  1476.345155  0.001362
249  385  58.393282  -19.462236  -0.464179  1180.723277  1561.795127  1180.725824  1561.795251  0.002550
250  386  -58.393282  -19.462236  -0.464179  1180.969767  1814.971157  1180.969686  1814.971206  0.000095
251  387  -97.312912  -19.456702  -1.392472  1181.080147  1898.112038  1181.079269  1898.112504  0.000994
252  388  -136.218706  -19.448401  -2.784746  1181.204316  1980.534939  1181.205801  1980.535445  0.001568
253  401  600.000000  19.133851  -55.544627  1266.679494  349.453721  1266.677862  349.452235  0.002207
254  402  561.690327  19.175142  -48.618836  1266.817744  435.524780  1266.815977  435.523115  0.002428
255  403  523.300796  19.213707  -42.150312  1266.941603  521.933357  1266.943642  521.931284  0.002907
256  404  484.836866  19.249540  -36.139974  1267.050933  608.616207  1267.049861  608.616339  0.001080
257  405  446.304005  19.282636  -30.588678  1267.145615  695.509405  1267.147477  695.510751  0.002298
258  406  407.707692  19.312991  -25.497212  1267.225554  782.548513  1267.227742  782.547160  0.002572
259  407  369.053413  19.340600  -20.866300  1267.290675  869.668746  1267.290750  869.668495  0.000262
260  408  330.346665  19.365460  -16.696601  1267.340927  956.805139  1267.340762  956.804465  0.000694
261  409  291.592951  19.387566  -12.988708  1267.376281  1043.892717  1267.375562  1043.890421  0.002406
262  410  252.797779  19.406916  -9.743147  1267.396730  1130.866661  1267.395589  1130.866669  0.001141
263  411  213.966667  19.423506  -6.960380  1267.402289  1217.662477  1267.402434  1217.661203  0.001282
264  412  175.105134  19.437336  -4.640803  1267.392997  1304.216162  1267.394752  1304.216190  0.001755
265  413  136.218706  19.448401  -2.784746  1267.368914  1390.464363  1267.369551  1390.462834  0.001656
266  414  97.312912  19.456702  -1.392472  1267.330122  1476.344542  1267.328906  1476.345155  0.001362
267  415  58.393282  19.462236  -0.464179  1267.276723  1561.795127  1267.274176  1561.795251  0.002550
268  416  -58.393282  19.462236  -0.464179  1267.030233  1814.971157  1267.030314  1814.971206  0.000095
269  417  -97.312912  19.456702  -1.392472  1266.919853  1898.112038  1266.920731  1898.112504  0.000994
270  418  -136.218706  19.448401  -2.784746  1266.795684  1980.534939  1266.794199  1980.535445  0.001568
271  431  600.000000  57.398832  -56.000910  1352.007380  349.460130  1352.008471  349.458144  0.002266
272  432  561.690327  57.522699  -49.076103  1352.421937  435.514376  1352.420990  435.514042  0.001004
273  433  523.300796  57.638388  -42.608498  1352.793343  521.905951  1352.794951  521.908098  0.002682
274  434  484.836866  57.745883  -36.599015  1353.121180  608.571642  1353.120674  608.571660  0.000506
275  435  446.304005  57.845167  -31.048508  1353.405096  695.447559  1353.404787  695.447729  0.000353
276  436  407.707692  57.936228  -25.957766  1353.644804  782.469299  1353.643607  782.467983  0.001779
277  437  369.053413  58.019051  -21.327513  1353.840081  869.572112  1353.839357  869.571839  0.000774
278  438  330.346665  58.093626  -17.158407  1353.990773  956.691068  1353.991040  956.689866  0.001231
279  439  291.592951  58.159942  -13.451040  1354.096792  1043.761228  1354.096201  1043.760582  0.000875
280  440  252.797779  58.217988  -10.205941  1354.158119  1130.717807  1354.157625  1130.718536  0.000881
281  441  213.966667  58.267758  -7.423570  1354.174800  1217.496348  1354.176239  1217.497449  0.001812
282  442  175.105134  58.309243  -5.104323  1354.146948  1304.032881  1354.146368  1304.033610  0.000932
283  443  136.218706  58.342439  -3.248529  1354.074746  1390.264091  1354.075565  1390.264059  0.000819
284  444  97.312912  58.367340  -1.856453  1353.958436  1476.127470  1353.958831  1476.125083  0.002420
285  445  58.393282  58.383942  -0.928293  1353.798330  1561.561481  1353.797571  1561.564805  0.003409
286  446  19.465350  58.392244  -0.464179  1353.594799  1646.505695  1353.592795  1646.504100  0.002561
287  447  -19.465350  58.392244  -0.464179  1353.348277  1730.900946  1353.346773  1730.899869  0.001850
288  448  -58.393282  58.383942  -0.928293  1353.059257  1814.689458  1353.058285  1814.690157  0.001198
289  449  -97.312912  58.367340  -1.856453  1352.728288  1897.814977  1352.730106  1897.815620  0.001928
290  450  -136.218706  58.342439  -3.248529  1352.355976  1980.222891  1352.355585  1980.224270  0.001433
291  463  600.000000  95.655652  -56.913409  1437.242039  349.472903  1437.242586  349.472135  0.000943
292  464  561.690327  95.862078  -49.990572  1437.932324  435.493551  1437.932957  435.495014  0.001594
293  465  523.300796  96.054875  -43.524807  1438.550759  521.851149  1438.551200  521.849456  0.001749
294  466  484.836866  96.234016  -37.517032  1439.096651  608.482550  1439.097770  608.479546  0.003206
295  467  446.304005  96.399474  -31.968104  1439.569412  695.323933  1439.569204  695.324091  0.000261
296  468  407.707692  96.551227  -26.878809  1439.968564  782.310965  1439.967431  782.310828  0.001141
297  469  369.053413  96.689254  -22.249873  1440.293738  869.378965  1440.294877  869.377088  0.002195
298  470  330.346665  96.813533  -18.081952  1440.544677  956.463074  1440.545298  956.464792  0.001827
299  471  291.592951  96.924048  -14.375640  1440.721236  1043.498425  1440.718871  1043.499216  0.002494
300  472  252.797779  97.020784  -11.131463  1440.823380  1130.420303  1440.821675  1130.419240  0.002009
301  473  213.966667  97.103725  -8.349884  1440.851189  1217.164321  1440.851483  1217.163190  0.001168
302  474  175.105134  97.172861  -6.031296  1440.804851  1303.666580  1440.802818  1303.668815  0.003021
303  475  136.218706  97.228182  -4.176030  1440.684667  1389.863832  1440.684811  1389.863249  0.000600
304  476  97.312912  97.269679  -2.784350  1440.491046  1475.693639  1440.492442  1475.692040  0.002123
305  477  58.393282  97.297347  -1.856453  1440.224501  1561.094527  1440.223057  1561.095100  0.001553
306  478  19.465350  97.311182  -1.392472  1439.885653  1646.006134  1439.886806  1646.005248  0.001454
307  479  -19.465350  97.311182  -1.392472  1439.475223  1730.369355  1439.476403  1730.370720  0.001804
308  480  -58.393282  97.297347  -1.856453  1438.994030  1814.126472  1438.993675  1814.126053  0.000549
309  481  -97.312912  97.269679  -2.784350  1438.442991  1897.221290  1438.440913  1897.224047  0.003452
310  482  -136.218706  97.228182  -4.176030  1437.823111  1979.599252  1437.821022  1979.598222  0.002329
311  495  600.000000  133.898873  -58.281997  1522.321581  349.491956  1522.321736  349.491413  0.000564
312  496  561.690327  134.187828  -51.362113  1523.286632  435.462272  1523.287786  435.463424  0.001631
313  497  523.300796  134.457706  -44.899106  1524.151238  521.768970  1524.149831  521.769921  0.001699
314  498  484.836866  134.708467  -38.893895  1524.914430  608.349005  1524.915054  608.347737  0.001413
315  499  446.304005  134.940076  -33.347333  1525.575388  695.138656  1525.578712  695.139537  0.003438
316  500  407.707692  135.152500  -28.260210  1526.133445  782.073694  1526.134058  782.072668  0.001195
317  501  369.053413  135.345709  -23.633248  1526.588086  869.089545  1526.589025  869.089205  0.000999
318  502  330.346665  135.519676  -19.467106  1526.938951  956.121455  1526.940096  956.120560  0.001453
319  503  291.592951  135.674375  -15.762375  1527.185838  1043.104661  1527.186766  1043.102615  0.002247
320  504  252.797779  135.809785  -12.519583  1527.328701  1129.974557  1527.325869  1129.974918  0.002855
321  505  213.966667  135.925887  -9.739189  1527.367649  1216.666860  1527.369752  1216.665200  0.002679
322  506  175.105134  136.022664  -7.421591  1527.302946  1303.117776  1527.302869  1303.119141  0.001367
323  507  136.218706  136.100101  -5.567117  1527.135013  1389.264159  1527.134575  1389.263257  0.001002
324  508  97.312912  136.158189  -4.176030  1526.864419  1475.043673  1526.865348  1475.042111  0.001818
325  509  58.393282  136.196919  -3.248529  1526.491883  1560.394943  1526.491616  1560.396089  0.001177
326  510  19.465350  136.216285  -2.784746  1526.018271  1645.257702  1526.018332  1645.257321  0.000386
327  511  -19.465350  136.216285  -2.784746  1525.444591  1729.572938  1525.445361  1729.571421  0.001701
328  512  -58.393282  136.196919  -3.248529  1524.771987  1813.283024  1524.771641  1813.282653  0.000507
329  513  -97.312912  136.158189  -4.176030  1524.001738  1896.331849  1524.002627  1896.329058  0.002929
330  514  -136.218706  136.100101  -5.567117  1523.135249  1978.664939  1523.134196  1978.663767  0.001575
331  527  561.690327  172.494500  -53.190531  1608.422983  435.420487  1608.422631  435.423102  0.002638
332  528  523.300796  172.841420  -46.731201  1609.532561  521.659446  1609.531218  521.656788  0.002978
333  529  484.836866  173.163766  -40.729407  1610.512002  608.171118  1610.512495  608.171409  0.000572
334  530  446.304005  173.461493  -35.186001  1611.360254  694.891922  1611.359657  694.892567  0.000879
335  531  407.707692  173.734558  -30.101773  1612.076463  781.757765  1612.075696  781.758647  0.001169
336  532  369.053413  173.982922  -25.477444  1612.659970  868.704212  1612.659397  868.703734  0.000747
337  533  330.346665  174.206551  -21.313672  1613.110315  955.666652  1613.111536  955.665692  0.001553
338  534  291.592951  174.405413  -17.611049  1613.427238  1042.580463  1613.428946  1042.579212  0.002117
339  535  252.797779  174.579479  -14.370101  1613.610680  1129.381179  1613.610105  1129.380486  0.000900
340  536  213.966667  174.728724  -11.591290  1613.660782  1216.004657  1613.661524  1216.004174  0.000885
341  537  175.105134  174.853127  -9.275010  1613.577884  1302.387242  1613.575497  1302.389365  0.003195
342  538  136.218706  174.952671  -7.421591  1613.362523  1388.465926  1613.362620  1388.465598  0.000342
343  539  97.312912  175.027341  -6.031296  1613.015430  1474.178506  1613.016188  1474.177714  0.001096
344  540  58.393282  175.077127  -5.104323  1612.537527  1559.463738  1612.537768  1559.464696  0.000988
345  541  19.465350  175.102022  -4.640803  1611.929924  1644.261485  1611.930438  1644.259935  0.001633
346  542  -19.465350  175.102022  -4.640803  1611.193911  1728.512857  1611.195548  1728.511833  0.001931
347  543  -58.393282  175.077127  -5.104323  1610.330956  1812.160346  1610.330684  1812.160678  0.000429
348  544  -97.312912  175.027341  -6.031296  1609.342697  1895.147955  1609.342446  1895.146448  0.001527
349  545  -136.218706  174.952671  -7.421591  1608.230936  1977.421319  1608.231506  1977.420250  0.001211
350  557  561.690327  210.776648  -55.475566  1693.280046  435.368131  1693.282995  435.368922  0.003053
351  558  523.300796  211.200561  -49.020832  1694.633065  521.522614  1694.633421  521.523321  0.000792
352  559  484.836866  211.594446  -43.023308  1695.827409  607.949037  1695.826368  607.949204  0.001054
353  560  446.304005  211.958248  -37.483846  1696.861801  694.583987  1696.858931  694.582355  0.003302
354  561  407.707692  212.291915  -32.403235  1697.735200  781.363543  1697.732609  781.363487  0.002592
355  562  369.053413  212.595400  -27.782196  1698.446805  868.223445  1698.446835  868.224441  0.000997
356  563  330.346665  212.868659  -23.621386  1698.996057  955.099256  1698.997378  955.098282  0.001641
357  564  291.592951  213.111655  -19.921398  1699.382641  1041.926530  1699.381579  1041.928038  0.001844
358  565  252.797779  213.324351  -16.682756  1699.606485  1128.640978  1699.605254  1128.640532  0.001309
359  566  213.966667  213.506719  -13.905922  1699.667761  1215.178631  1699.667705  1215.180285  0.001655
360  567  175.105134  213.658731  -11.591290  1699.566884  1301.476006  1699.566325  1301.476466  0.000724
361  568  136.218706  213.780367  -9.739189  1699.304507  1387.470266  1699.305419  1387.468975  0.001581
362  569  97.312912  213.871609  -8.349884  1698.881521  1473.099377  1698.883170  1473.098150  0.002056
363  570  58.393282  213.932445  -7.423570  1698.299049  1558.302257  1698.299085  1558.300055  0.002203
364  571  19.465350  213.962864  -6.960380  1697.558441  1643.018927  1697.559477  1643.019854  0.001390
365  572  -19.465350  213.962864  -6.960380  1696.661269  1727.190653  1696.660373  1727.191141  0.001020
366  573  -58.393282  213.932445  -7.423570  1695.609319  1810.760074  1695.610423  1810.760088  0.001104
367  574  -97.312912  213.871609  -8.349884  1694.404585  1893.671336  1694.406468  1893.670581  0.002028
368  575  -136.218706  213.780367  -9.739189  1693.049262  1975.870208  1693.049080  1975.870846  0.000663
369  587  561.690327  249.028830  -58.216893  1777.797195  435.305119  1777.798764  435.306204  0.001907
370  588  523.300796  249.529674  -51.767673  1779.391793  521.358525  1779.394100  521.360395  0.002970
371  589  484.836866  249.995042  -45.775271  1780.799407  607.682946  1780.800414  607.684035  0.001484
372  590  446.304005  250.424868  -40.240541  1782.018535  694.215170  1782.019439  694.212980  0.002370
373  591  407.707692  250.819090  -35.164269  1783.047955  780.891485  1783.046952  780.892617  0.001513
374  592  369.053413  251.177652  -30.547177  1783.886725  867.647836  1783.888108  867.647975  0.001390
375  593  330.346665  251.500503  -26.389922  1784.534190  954.419997  1784.534223  954.420337  0.000342
376  594  291.592951  251.787598  -22.693093  1784.989979  1041.143732  1784.988914  1041.144806  0.001513
377  595  252.797779  252.038895  -19.457218  1785.254009  1127.754960  1785.251484  1127.754688  0.002539
378  596  213.966667  252.254359  -16.682756  1785.326484  1214.189923  1785.325552  1214.191220  0.001597
379  597  175.105134  252.433959  -14.370101  1785.207890  1300.385344  1785.209160  1300.383453  0.002278
380  598  136.218706  252.577670  -12.519583  1784.898997  1386.278590  1784.897828  1386.279825  0.001700
381  599  97.312912  252.685470  -11.131463  1784.400855  1471.807825  1784.399540  1471.805394  0.002763
382  600  58.393282  252.757346  -10.205941  1783.714782  1556.912165  1783.714574  1556.913611  0.001461
383  601  19.465350  252.793287  -9.743147  1782.842368  1641.531821  1782.840665  1641.534822  0.003450
384  602  -19.465350  252.793287  -9.743147  1781.785462  1725.608240  1781.784469  1725.608487  0.001023
385  603  -58.393282  252.757346  -10.205941  1780.546164  1809.084241  1780.547444  1809.082370  0.002267
386  604  -97.312912  252.685470  -11.131463  1779.126820  1891.904139  1779.127038  1891.904198  0.000225
387  605  -136.218706  252.577670  -12.519583  1777.530010  1974.013864  1777.529495  1974.014649  0.000939
388  617  523.300796  287.823311  -54.971333  1863.748646  521.167236  1863.748845  521.167320  0.000216
389  618  484.836866  288.360097  -48.984906  1865.367613  607.373062  1865.368315  607.373709  0.000955
390  619  446.304005  288.855884  -43.455694  1866.769832  693.785853  1866.770453  693.788059  0.002291
391  620  407.707692  289.310605  -38.384484  1867.953901  780.342134  1867.953228  780.341051  0.001275
392  621  369.053413  289.724193  -33.771995  1868.918744  866.978093  1868.917094  866.980116  0.002610
393  622  330.346665  290.096590  -29.618885  1869.663607  953.629747  1869.664485  953.629330  0.000972
394  623  291.592951  290.427743  -25.925742  1870.188067  1040.233103  1870.187556  1040.231105  0.002062
395  624  252.797779  290.717605  -22.693093  1870.492030  1126.724325  1870.493060  1126.723764  0.001173
396  625  213.966667  290.966135  -19.921398  1870.575730  1213.039895  1870.574869  1213.040318  0.000959
397  626  175.105134  291.173297  -17.611049  1870.439727  1299.116778  1870.439865  1299.118882  0.002109
398  627  136.218706  291.339062  -15.762375  1870.084906  1384.892576  1870.083829  1384.891576  0.001469
399  628  97.312912  291.463406  -14.375640  1869.512469  1470.305687  1869.512626  1470.307446  0.001766
400  629  58.393282  291.546313  -13.451040  1868.723932  1555.295451  1868.722635  1555.295563  0.001301
401  630  19.465350  291.587769  -12.988708  1867.721118  1639.802302  1867.724547  1639.802133  0.003433
402  631  -19.465350  291.587769  -12.988708  1866.506148  1723.767900  1866.507759  1723.767866  0.001611
403  632  -58.393282  291.546313  -13.451040  1865.081434  1807.135269  1865.081489  1807.134623  0.000648
404  633  -97.312912  291.463406  -14.375640  1863.449666  1889.848922  1863.449887  1889.846517  0.002415
405  634  -136.218706  291.339062  -15.762375  1861.613804  1971.854976  1861.612500  1971.853184  0.002216
406  645  484.836866  326.684154  -52.651756  1949.472653  607.019639  1949.474610  607.017875  0.002634
407  646  446.304005  327.245833  -47.128849  1951.056081  693.296474  1951.055322  693.295007  0.001652
408  647  407.707692  327.760988  -42.063420  1952.393233  779.716118  1952.391881  779.713373  0.003060
409  648  369.053413  328.229543  -37.456191  1953.482896  866.215034  1953.483063  866.215301  0.000315
410  649  330.346665  328.651433  -33.307816  1954.324225  952.729513  1954.323425  952.730654  0.001394
411  650  291.592951  329.026598  -29.618885  1954.916745  1039.195841  1954.918387  1039.193591  0.002786
412  651  252.797779  329.354983  -26.389922  1955.260352  1125.550457  1955.263398  1125.550667  0.003053
413  652  213.966667  329.636543  -23.621386  1955.355309  1211.730121  1955.354991  1211.731648  0.001560
414  653  175.105134  329.871238  -21.313672  1955.202249  1297.672067  1955.201663  1297.672784  0.000926
415  654  136.218706  330.059034  -19.467106  1954.802170  1383.314168  1954.802825  1383.313493  0.000941
416  655  97.312912  330.199904  -18.081952  1954.156424  1468.595084  1954.158046  1468.594383  0.001767
417  656  58.393282  330.293829  -17.158407  1953.266722  1553.454415  1953.269647  1553.453566  0.003046
418  657  19.465350  330.340794  -16.696601  1952.135114  1637.832843  1952.132865  1637.832346  0.002303
419  658  -19.465350  330.340794  -16.696601  1950.763992  1721.672272  1950.764132  1721.674472  0.002205
420  659  -58.393282  330.293829  -17.158407  1949.156069  1804.915961  1949.158885  1804.917860  0.003397
421  660  -97.312912  330.199904  -18.081952  1947.314376  1887.508645  1947.315692  1887.507672  0.001636
422  661  -136.218706  330.059034  -19.467106  1945.242247  1969.396656  1945.244241  1969.397541  0.002181
423  671  484.836866  364.961765  -56.775299  2033.056302  606.622963  2033.054662  606.623039  0.001642
424  672  446.304005  365.589257  -51.259482  2034.818829  692.747533  2034.818572  692.749770  0.002252
425  673  407.707692  366.164772  -46.200556  2036.307305  779.014150  2036.304955  779.014649  0.002402
426  674  369.053413  366.688228  -41.599241  2037.520385  865.359585  2037.521858  865.361133  0.002136
427  675  330.346665  367.159551  -37.456191  2038.457135  951.720437  2038.458627  951.718398  0.002527
428  676  291.592951  367.578673  -33.771995  2039.117029  1038.033302  2039.117495  1038.033162  0.000487
429  677  252.797779  367.945536  -30.547177  2039.499953  1124.234928  2039.500000  1124.238163  0.003236
430  678  213.966667  368.260086  -27.782196  2039.606203  1210.262381  2039.608896  1210.263690  0.002994
431  679  175.105134  368.522280  -25.477444  2039.436481  1296.053202  2039.436788  1296.053081  0.000330
432  680  136.218706  368.732080  -23.633248  2038.991894  1381.545563  2038.991543  1381.547468  0.001937
433  681  97.312912  368.889456  -22.249873  2038.273947  1466.678419  2038.272464  1466.679166  0.001660
434  682  58.393282  368.994386  -21.327513  2037.284535  1551.391657  2037.286615  1551.390310  0.002478
435  683  19.465350  369.046855  -20.866300  2036.025936  1635.626241  2036.025707  1635.627373  0.001155
436  684  -19.465350  369.046855  -20.866300  2034.500803  1719.324345  2034.500000  1719.326160  0.001985
437  685  -58.393282  368.994386  -21.327513  2032.712149  1802.429489  2032.711047  1802.429933  0.001188
438  686  -97.312912  368.889456  -22.249873  2030.663335  1884.886659  2030.664746  1884.885791  0.001656
439  687  -136.218706  368.732080  -23.633248  2028.358062  1966.642426  2028.358457  1966.641543  0.000967
440  697  446.304005  403.880703  -55.847006  2118.000913  692.139582  2118.000000  692.138034  0.001797
441  698  407.707692  404.516497  -50.795302  2119.638768  778.237021  2119.638390  778.238201  0.001239
442  699  369.053413  405.094779  -46.200556  2120.973715  864.412776  2120.973263  864.412018  0.000883
443  700  330.346665  405.615468  -42.063420  2122.004730  950.603788  2122.003090  950.604258  0.001706
444  701  291.592951  406.078489  -38.384484  2122.731241  1036.746993  2122.733027  1036.746095  0.002000
445  702  252.797779  406.483776  -35.164269  2123.153123  1122.779482  2123.152159  1122.781449  0.002191
446  703  213.966667  406.831273  -32.403235  2123.270704  1208.638658  2123.271342  1208.640870  0.002302
447  704  175.105134  407.120929  -30.101773  2123.084755  1294.262400  2123.084682  1294.262049  0.000358
448  705  136.218706  407.352703  -28.260210  2122.596491  1379.589208  2122.596641  1379.588142  0.001077
449  706  97.312912  407.526562  -26.878809  2121.807563  1464.558365  2121.808492  1464.557667  0.001162
450  707  58.393282  407.642482  -25.957766  2120.720050  1549.110075  2120.720665  1549.108418  0.001768
451  708  19.465350  407.700446  -25.497212  2119.336452  1633.185609  2119.336848  1633.185473  0.000419
452  709  -19.465350  407.700446  -25.497212  2117.659675  1716.727443  2117.660361  1716.727535  0.000692
453  710  -58.393282  407.642482  -25.957766  2115.693025  1799.679384  2115.692085  1799.681035  0.001899
454  711  -97.312912  407.526562  -26.878809  2113.440188  1881.986694  2113.439768  1881.986772  0.000428
455  712  -136.218706  407.352703  -28.260210  2110.905220  1963.596206  2110.905062  1963.597276  0.001082
456  713  -175.105134  407.120929  -30.101773  2108.092529  2044.456433  2108.092702  2044.457726  0.001305
457  721  407.707692  442.810711  -55.847006  2202.331703  777.385600  2202.332321  777.386179  0.000847
458  722  369.053413  443.443737  -51.259482  2203.786823  863.375738  2203.785165  863.374965  0.001830
459  723  330.346665  444.013718  -47.128849  2204.910844  949.380959  2204.909601  949.381706  0.001450
460  724  291.592951  444.520571  -43.455694  2205.703143  1035.338571  2205.702757  1035.339639  0.001136
461  725  252.797779  444.964226  -40.240541  2206.163592  1121.186036  2206.163196  1121.185220  0.000907
462  726  213.966667  445.344619  -37.483846  2206.292545  1206.861128  2206.291891  1206.860999  0.000667
463  727  175.105134  445.661695  -35.186001  2206.090843  1292.302092  2206.092010  1292.302064  0.001167
464  728  136.218706  445.915410  -33.347333  2205.559808  1377.447789  2205.558840  1377.448857  0.001441
465  729  97.312912  446.105728  -31.968104  2204.701231  1462.237856  2204.702305  1462.236882  0.001450
466  730  58.393282  446.232622  -31.048508  2203.517372  1546.612845  2203.517579  1546.612170  0.000706
467  731  19.465350  446.296074  -30.588678  2202.010945  1630.514364  2202.009848  1630.514522  0.001108
468  732  -19.465350  446.296074  -30.588678  2200.185108  1713.885215  2200.185004  1713.884874  0.000356
469  733  -58.393282  446.232622  -31.048508  2198.043446  1796.669519  2198.045197  1796.670120  0.001852
470  734  -97.312912  446.105728  -31.968104  2195.589965  1878.812840  2195.591511  1878.811506  0.002041
471  735  -136.218706  445.915410  -33.347333  2192.829067  1960.262300  2192.829526  1960.260893  0.001480
472  736  -175.105134  445.661695  -35.186001  2189.765537  2040.966681  2189.766763  2040.968946  0.002576
473  743  369.053413  481.729649  -56.775299  2285.905204  862.249699  2285.903403  862.250540  0.001988
474  744  330.346665  482.348840  -52.651756  2287.120866  948.053463  2287.122176  948.052608  0.001564
475  745  291.592951  482.899454  -48.984906  2287.978062  1033.809831  2287.978543  1033.810900  0.001172
476  746  252.797779  483.381413  -45.775271  2288.476651  1119.456670  2288.478772  1119.457736  0.002374
477  747  213.966667  483.794648  -43.023308  2288.617021  1204.932152  2288.617724  1204.933265  0.001316
478  748  175.105134  484.139100  -40.729407  2288.400079  1290.174917  2288.400851  1290.178672  0.003834
479  749  136.218706  484.414721  -38.893895  2287.827248  1375.124219  2287.827140  1375.123689  0.000541
480  750  97.312912  484.621471  -37.517032  2286.900461  1459.720077  2286.901075  1459.718989  0.001249
481  751  58.393282  484.759320  -36.599015  2285.622151  1543.903418  2285.624681  1543.899964  0.004281
482  752  19.465350  484.828250  -36.139974  2283.995240  1627.616214  2283.994273  1627.617037  0.001269
483  753  -19.465350  484.828250  -36.139974  2282.023129  1710.801621  2282.022084  1710.801064  0.001184
484  754  -58.393282  484.759320  -36.599015  2279.709680  1793.404100  2279.709555  1793.403482  0.000630
485  755  -97.312912  484.621471  -37.517032  2277.059203  1875.369542  2277.058823  1875.367882  0.001703
486  756  -136.218706  484.414721  -38.893895  2274.076439  1956.645377  2274.076347  1956.645469  0.000130
487  757  -175.105134  484.139100  -40.729407  2270.766541  2037.180685  2270.767628  2037.181146  0.001181
488  763  291.592951  521.209682  -54.971333  2369.502997  1032.162705  2369.502350  1032.165413  0.002784
489  764  252.797779  521.729877  -51.767673  2370.039273  1117.593618  2370.039313  1117.592296  0.001323
490  765  213.966667  522.175895  -49.020832  2370.191107  1202.854266  2370.190646  1202.857094  0.002865
491  766  175.105134  522.547674  -46.731201  2369.959472  1287.883712  2369.959891  1287.883377  0.000537
492  767  136.218706  522.845161  -44.899106  2369.345890  1372.621630  2369.346062  1372.620796  0.000852
493  768  97.312912  523.068312  -43.524807  2368.352431  1457.008450  2368.352062  1457.008462  0.000369
494  769  58.393282  523.217098  -42.608498  2366.981696  1540.985500  2366.983225  1540.984776  0.001692
495  770  19.465350  523.291496  -42.150312  2365.236811  1624.495145  2365.237794  1624.494667  0.001093
496  771  -19.465350  523.291496  -42.150312  2363.121409  1707.480919  2363.121737  1707.481127  0.000388
497  772  -58.393282  523.217098  -42.608498  2360.639621  1789.887648  2360.639417  1789.888431  0.000809
498  773  -97.312912  523.068312  -43.524807  2357.796055  1871.661573  2357.797386  1871.661872  0.001364
499  774  -136.218706  522.845161  -44.899106  2354.595776  1952.750459  2354.598685  1952.751195  0.003000
500  775  -175.105134  522.547674  -46.731201  2351.044293  2033.103700  2351.044279  2033.102836  0.000864
501  787  -58.393282  561.600489  -49.076103  2440.782900  1786.124983  2440.782777  1786.121560  0.003426
502  788  -97.312912  561.440788  -49.990572  2437.750391  1867.694026  2437.751874  1867.694247  0.001500
503  789  -136.218706  561.201266  -51.362113  2434.337218  1948.582899  2434.337791  1948.581753  0.001281
504  790  -175.105134  560.881955  -53.190531  2430.549233  2028.741333  2430.550582  2028.739575  0.002216
505  801  0.000000  0.000000  0.000000  1224.000000  1689.010817  1224.000000  1689.010321  0.000496
