# COL 1-2: True indices
# COL 3-5: True X/Y/Z plate [mm]
# COL 6-7: True X/Y position [pix]
# COL 8-9: Estimated X/Y centroid [pix]
# COL 10: Centroid error [pix]
1  17  -58.393282  -561.600489  -49.076103  7.217100  1786.124983  7.218131  1786.122061  0.003099
2  18  -97.312912  -561.440788  -49.990572  10.249609  1867.694026  10.248327  1867.693996  0.001282
3  19  -136.218706  -561.201266  -51.362113  13.662782  1948.582899  13.663668  1948.582314  0.001062
4  20  -175.105134  -560.881955  -53.190531  17.450767  2028.741333  17.449814  2028.741767  0.001047
5  23  291.592951  -521.209682  -54.971333  78.497003  1032.162705  78.497752  1032.163821  0.001344
6  24  252.797779  -521.729877  -51.767673  77.960727  1117.593618  77.961146  1117.591639  0.002022
7  25  213.966667  -522.175895  -49.020832  77.808893  1202.854266  77.808861  1202.856265  0.002000
8  26  175.105134  -522.547674  -46.731201  78.040528  1287.883712  78.041141  1287.883817  0.000621
9  27  136.218706  -522.845161  -44.899106  78.654110  1372.621630  78.655545  1372.620921  0.001600
10  28  97.312912  -523.068312  -43.524807  79.647569  1457.008450  79.647219  1457.008359  0.000362
11  29  58.393282  -523.217098  -42.608498  81.018304  1540.985500  81.017045  1540.984505  0.001604
12  30  19.465350  -523.291496  -42.150312  82.763189  1624.495145  82.764641  1624.494671  0.001528
13  31  -19.465350  -523.291496  -42.150312  84.878591  1707.480919  84.879395  1707.481284  0.000883
14  32  -58.393282  -523.217098  -42.608498  87.360379  1789.887648  87.361389  1789.889244  0.001889
15  33  -97.312912  -523.068312  -43.524807  90.203945  1871.661573  90.202313  1871.660956  0.001745
16  34  -136.218706  -522.845161  -44.899106  93.404224  1952.750459  93.401943  1952.753250  0.003605
17  35  -175.105134  -522.547674  -46.731201  96.955707  2033.103700  96.954721  2033.102584  0.001490
18  39  369.053413  -481.729649  -56.775299  162.094796  862.249699  162.097237  862.250803  0.002679
19  40  330.346665  -482.348840  -52.651756  160.879134  948.053463  160.878753  948.053569  0.000395
20  41  291.592951  -482.899454  -48.984906  160.021938  1033.809831  160.021698  1033.810647  0.000851
21  42  252.797779  -483.381413  -45.775271  159.523349  1119.456670  159.522713  1119.457102  0.000769
22  43  213.966667  -483.794648  -43.023308  159.382979  1204.932152  159.382634  1204.934081  0.001960
23  44  175.105134  -484.139100  -40.729407  159.599921  1290.174917  159.598606  1290.177288  0.002711
24  45  136.218706  -484.414721  -38.893895  160.172752  1375.124219  160.173648  1375.124650  0.000995
25  46  97.312912  -484.621471  -37.517032  161.099539  1459.720077  161.099509  1459.718578  0.001499
26  47  58.393282  -484.759320  -36.599015  162.377849  1543.903418  162.375786  1543.901335  0.002932
27  48  19.465350  -484.828250  -36.139974  164.004760  1627.616214  164.005736  1627.616661  0.001073
28  49  -19.465350  -484.828250  -36.139974  165.976871  1710.801621  165.976679  1710.800811  0.000833
29  50  -58.393282  -484.759320  -36.599015  168.290320  1793.404100  168.288642  1793.404080  0.001678
30  51  -97.312912  -484.621471  -37.517032  170.940797  1875.369542  170.941949  1875.368996  0.001275
31  52  -136.218706  -484.414721  -38.893895  173.923561  1956.645377  173.924671  1956.644803  0.001249
32  53  -175.105134  -484.139100  -40.729407  177.233459  2037.180685  177.233416  2037.182364  0.001679
33  59  407.707692  -442.810711  -55.847006  245.668297  777.385600  245.669090  777.386072  0.000923
34  60  369.053413  -443.443737  -51.259482  244.213177  863.375738  244.212933  863.375861  0.000273
35  61  330.346665  -444.013718  -47.128849  243.089156  949.380959  243.089159  949.382133  0.001174
36  62  291.592951  -444.520571  -43.455694  242.296857  1035.338571  242.296109  1035.339738  0.001386
37  63  252.797779  -444.964226  -40.240541  241.836408  1121.186036  241.836125  1121.186803  0.000818
38  64  213.966667  -445.344619  -37.483846  241.707455  1206.861128  241.707450  1206.860713  0.000415
39  65  175.105134  -445.661695  -35.186001  241.909157  1292.302092  241.907828  1292.302915  0.001563
40  66  136.218706  -445.915410  -33.347333  242.440192  1377.447789  242.439865  1377.447494  0.000441
41  67  97.312912  -446.105728  -31.968104  243.298769  1462.237856  243.298054  1462.237246  0.000940
42  68  58.393282  -446.232622  -31.048508  244.482628  1546.612845  244.482367  1546.613927  0.001113
43  69  19.465350  -446.296074  -30.588678  245.989055  1630.514364  245.990260  1630.514394  0.001205
44  70  -19.465350  -446.296074  -30.588678  247.814892  1713.885215  247.814380  1713.883790  0.001514
45  71  -58.393282  -446.232622  -31.048508  249.956554  1796.669519  249.955397  1796.668623  0.001464
46  72  -97.312912  -446.105728  -31.968104  252.410035  1878.812840  252.408979  1878.812831  0.001056
47  73  -136.218706  -445.915410  -33.347333  255.170933  1960.262300  255.171295  1960.261853  0.000575
48  74  -175.105134  -445.661695  -35.186001  258.234463  2040.966681  258.233207  2040.968891  0.002542
49  81  446.304005  -403.880703  -55.847006  329.999087  692.139582  330.000000  692.138481  0.001430
50  82  407.707692  -404.516497  -50.795302  328.361232  778.237021  328.362211  778.237408  0.001053
51  83  369.053413  -405.094779  -46.200556  327.026285  864.412776  327.026431  864.412057  0.000733
52  84  330.346665  -405.615468  -42.063420  325.995270  950.603788  325.996862  950.603993  0.001605
53  85  291.592951  -406.078489  -38.384484  325.268759  1036.746993  325.267496  1036.745483  0.001969
54  86  252.797779  -406.483776  -35.164269  324.846877  1122.779482  324.847017  1122.780350  0.000879
55  87  213.966667  -406.831273  -32.403235  324.729296  1208.638658  324.729477  1208.641077  0.002426
56  88  175.105134  -407.120929  -30.101773  324.915245  1294.262400  324.914556  1294.263068  0.000960
57  89  136.218706  -407.352703  -28.260210  325.403509  1379.589208  325.402308  1379.588537  0.001376
58  90  97.312912  -407.526562  -26.878809  326.192437  1464.558365  326.189558  1464.557312  0.003066
59  91  58.393282  -407.642482  -25.957766  327.279950  1549.110075  327.279328  1549.108916  0.001316
60  92  19.465350  -407.700446  -25.497212  328.663548  1633.185609  328.662229  1633.185384  0.001338
61  93  -19.465350  -407.700446  -25.497212  330.340325  1716.727443  330.339738  1716.728356  0.001085
62  94  -58.393282  -407.642482  -25.957766  332.306975  1799.679384  332.308206  1799.681120  0.002129
63  95  -97.312912  -407.526562  -26.878809  334.559812  1881.986694  334.560530  1881.986974  0.000771
64  96  -136.218706  -407.352703  -28.260210  337.094780  1963.596206  337.093861  1963.597023  0.001229
65  97  -175.105134  -407.120929  -30.101773  339.907471  2044.456433  339.908659  2044.458215  0.002142
66  105  484.836866  -364.961765  -56.775299  414.943698  606.622963  414.946059  606.622012  0.002545
67  106  446.304005  -365.589257  -51.259482  413.181171  692.747533  413.182686  692.748953  0.002076
68  107  407.707692  -366.164772  -46.200556  411.692695  779.014150  411.694727  779.014442  0.002052
69  108  369.053413  -366.688228  -41.599241  410.479615  865.359585  410.478319  865.358808  0.001511
70  109  330.346665  -367.159551  -37.456191  409.542865  951.720437  409.541092  951.720787  0.001807
71  110  291.592951  -367.578673  -33.771995  408.882971  1038.033302  408.882719  1038.033209  0.000269
72  111  252.797779  -367.945536  -30.547177  408.500047  1124.234928  408.500000  1124.235733  0.000806
73  112  213.966667  -368.260086  -27.782196  408.393797  1210.262381  408.391656  1210.262120  0.002157
74  113  175.105134  -368.522280  -25.477444  408.563519  1296.053202  408.562684  1296.052559  0.001054
75  114  136.218706  -368.732080  -23.633248  409.008106  1381.545563  409.008289  1381.547072  0.001520
76  115  97.312912  -368.889456  -22.249873  409.726053  1466.678419  409.727649  1466.679120  0.001743
77  116  58.393282  -368.994386  -21.327513  410.715465  1551.391657  410.714438  1551.391038  0.001199
78  117  19.465350  -369.046855  -20.866300  411.974064  1635.626241  411.974637  1635.626954  0.000914
79  118  -19.465350  -369.046855  -20.866300  413.499197  1719.324345  413.500000  1719.323913  0.000912
80  119  -58.393282  -368.994386  -21.327513  415.287851  1802.429489  415.286442  1802.430527  0.001751
81  120  -97.312912  -368.889456  -22.249873  417.336665  1884.886659  417.336390  1884.886706  0.000279
82  121  -136.218706  -368.732080  -23.633248  419.641938  1966.642426  419.641758  1966.641758  0.000692
83  131  484.836866  -326.684154  -52.651756  498.527347  607.019639  498.525937  607.017843  0.002283
84  132  446.304005  -327.245833  -47.128849  496.943919  693.296474  496.944853  693.296032  0.001033
85  133  407.707692  -327.760988  -42.063420  495.606767  779.716118  495.607423  779.714398  0.001840
86  134  369.053413  -328.229543  -37.456191  494.517104  866.215034  494.517099  866.213041  0.001993
87  135  330.346665  -328.651433  -33.307816  493.675775  952.729513  493.676581  952.730716  0.001448
88  136  291.592951  -329.026598  -29.618885  493.083255  1039.195841  493.082341  1039.194027  0.002031
89  137  252.797779  -329.354983  -26.389922  492.739648  1125.550457  492.738765  1125.550314  0.000895
90  138  213.966667  -329.636543  -23.621386  492.644691  1211.730121  492.645126  1211.732380  0.002301
91  139  175.105134  -329.871238  -21.313672  492.797751  1297.672067  492.798685  1297.671660  0.001019
92  140  136.218706  -330.059034  -19.467106  493.197830  1383.314168  493.196937  1383.314701  0.001040
93  141  97.312912  -330.199904  -18.081952  493.843576  1468.595084  493.843198  1468.594162  0.000997
94  142  58.393282  -330.293829  -17.158407  494.733278  1553.454415  494.732609  1553.453895  0.000847
95  143  19.465350  -330.340794  -16.696601  495.864886  1637.832843  495.866114  1637.831588  0.001756
96  144  -19.465350  -330.340794  -16.696601  497.236008  1721.672272  497.235147  1721.673408  0.001426
97  145  -58.393282  -330.293829  -17.158407  498.843931  1804.915961  498.840691  1804.917796  0.003723
98  146  -97.312912  -330.199904  -18.081952  500.685624  1887.508645  500.686434  1887.507571  0.001345
99  147  -136.218706  -330.059034  -19.467106  502.757753  1969.396656  502.757739  1969.398204  0.001549
100  157  523.300796  -287.823311  -54.971333  584.251354  521.167236  584.252199  521.168207  0.001287
101  158  484.836866  -288.360097  -48.984906  582.632387  607.373062  582.632976  607.373449  0.000704
102  159  446.304005  -288.855884  -43.455694  581.230168  693.785853  581.230367  693.787078  0.001241
103  160  407.707692  -289.310605  -38.384484  580.046099  780.342134  580.046165  780.342381  0.000256
104  161  369.053413  -289.724193  -33.771995  579.081256  866.978093  579.082586  866.980320  0.002594
105  162  330.346665  -290.096590  -29.618885  578.336393  953.629747  578.334096  953.629331  0.002334
106  163  291.592951  -290.427743  -25.925742  577.811933  1040.233103  577.811297  1040.232128  0.001164
107  164  252.797779  -290.717605  -22.693093  577.507970  1126.724325  577.506914  1126.725446  0.001540
108  165  213.966667  -290.966135  -19.921398  577.424270  1213.039895  577.425602  1213.039830  0.001333
109  166  175.105134  -291.173297  -17.611049  577.560273  1299.116778  577.559533  1299.117522  0.001049
110  167  136.218706  -291.339062  -15.762375  577.915094  1384.892576  577.915156  1384.890924  0.001654
111  168  97.312912  -291.463406  -14.375640  578.487531  1470.305687  578.487517  1470.305462  0.000226
112  169  58.393282  -291.546313  -13.451040  579.276068  1555.295451  579.277775  1555.295701  0.001725
113  170  19.465350  -291.587769  -12.988708  580.278882  1639.802302  580.277067  1639.801339  0.002055
114  171  -19.465350  -291.587769  -12.988708  581.493852  1723.767900  581.492310  1723.770306  0.002858
115  172  -58.393282  -291.546313  -13.451040  582.918566  1807.135269  582.918394  1807.135377  0.000203
116  173  -97.312912  -291.463406  -14.375640  584.550334  1889.848922  584.550086  1889.848024  0.000932
117  174  -136.218706  -291.339062  -15.762375  586.386196  1971.854976  586.387967  1971.854251  0.001914
118  185  561.690327  -249.028830  -58.216893  670.202805  435.305119  670.200931  435.307551  0.003070
119  186  523.300796  -249.529674  -51.767673  668.608207  521.358525  668.606155  521.358658  0.002056
120  187  484.836866  -249.995042  -45.775271  667.200593  607.682946  667.199276  607.682901  0.001317
121  188  446.304005  -250.424868  -40.240541  665.981465  694.215170  665.979290  694.213007  0.003068
122  189  407.707692  -250.819090  -35.164269  664.952045  780.891485  664.952058  780.893310  0.001825
123  190  369.053413  -251.177652  -30.547177  664.113275  867.647836  664.111031  867.647041  0.002380
124  191  330.346665  -251.500503  -26.389922  663.465810  954.419997  663.465774  954.418982  0.001015
125  192  291.592951  -251.787598  -22.693093  663.010021  1041.143732  663.010903  1041.145189  0.001704
126  193  252.797779  -252.038895  -19.457218  662.745991  1127.754960  662.747848  1127.753926  0.002126
127  194  213.966667  -252.254359  -16.682756  662.673516  1214.189923  662.673308  1214.191037  0.001133
128  195  175.105134  -252.433959  -14.370101  662.792110  1300.385344  662.792413  1300.384295  0.001092
129  196  136.218706  -252.577670  -12.519583  663.101003  1386.278590  663.102741  1386.280228  0.002388
130  197  97.312912  -252.685470  -11.131463  663.599145  1471.807825  663.599787  1471.806764  0.001240
131  198  58.393282  -252.757346  -10.205941  664.285218  1556.912165  664.286484  1556.913398  0.001767
132  199  19.465350  -252.793287  -9.743147  665.157632  1641.531821  665.157768  1641.534381  0.002563
133  200  -19.465350  -252.793287  -9.743147  666.214538  1725.608240  666.213902  1725.607730  0.000815
134  201  -58.393282  -252.757346  -10.205941  667.453836  1809.084241  667.452188  1809.081508  0.003191
135  202  -97.312912  -252.685470  -11.131463  668.873180  1891.904139  668.872255  1891.903310  0.001243
136  203  -136.218706  -252.577670  -12.519583  670.469990  1974.013864  670.470789  1974.014646  0.001118
137  215  561.690327  -210.776648  -55.475566  754.719954  435.368131  754.717999  435.368678  0.002030
138  216  523.300796  -211.200561  -49.020832  753.366935  521.522614  753.364212  521.523034  0.002755
139  217  484.836866  -211.594446  -43.023308  752.172591  607.949037  752.173727  607.949319  0.001171
140  218  446.304005  -211.958248  -37.483846  751.138199  694.583987  751.139399  694.581579  0.002691
141  219  407.707692  -212.291915  -32.403235  750.264800  781.363543  750.266491  781.364109  0.001783
142  220  369.053413  -212.595400  -27.782196  749.553195  868.223445  749.553083  868.222661  0.000792
143  221  330.346665  -212.868659  -23.621386  749.003943  955.099256  749.002594  955.098253  0.001681
144  222  291.592951  -213.111655  -19.921398  748.617359  1041.926530  748.618037  1041.928931  0.002495
145  223  252.797779  -213.324351  -16.682756  748.393515  1128.640978  748.394461  1128.642231  0.001570
146  224  213.966667  -213.506719  -13.905922  748.332239  1215.178631  748.333294  1215.180244  0.001927
147  225  175.105134  -213.658731  -11.591290  748.433116  1301.476006  748.432311  1301.475494  0.000954
148  226  136.218706  -213.780367  -9.739189  748.695493  1387.470266  748.696559  1387.469343  0.001410
149  227  97.312912  -213.871609  -8.349884  749.118479  1473.099377  749.117599  1473.099112  0.000919
150  228  58.393282  -213.932445  -7.423570  749.700951  1558.302257  749.700817  1558.300196  0.002065
151  229  19.465350  -213.962864  -6.960380  750.441559  1643.018927  750.440148  1643.019638  0.001581
152  230  -19.465350  -213.962864  -6.960380  751.338731  1727.190653  751.340567  1727.190959  0.001861
153  231  -58.393282  -213.932445  -7.423570  752.390681  1810.760074  752.390305  1810.762038  0.002000
154  232  -97.312912  -213.871609  -8.349884  753.595415  1893.671336  753.593895  1893.672028  0.001671
155  233  -136.218706  -213.780367  -9.739189  754.950738  1975.870208  754.951085  1975.871321  0.001166
156  245  561.690327  -172.494500  -53.190531  839.577017  435.420487  839.578467  435.421944  0.002056
157  246  523.300796  -172.841420  -46.731201  838.467439  521.659446  838.468201  521.659040  0.000863
158  247  484.836866  -173.163766  -40.729407  837.487998  608.171118  837.487690  608.169709  0.001442
159  248  446.304005  -173.461493  -35.186001  836.639746  694.891922  836.639132  694.893354  0.001558
160  249  407.707692  -173.734558  -30.101773  835.923537  781.757765  835.924175  781.757477  0.000700
161  250  369.053413  -173.982922  -25.477444  835.340030  868.704212  835.340693  868.704829  0.000906
162  251  330.346665  -174.206551  -21.313672  834.889685  955.666652  834.889425  955.665432  0.001247
163  252  291.592951  -174.405413  -17.611049  834.572762  1042.580463  834.571600  1042.580495  0.001163
164  253  252.797779  -174.579479  -14.370101  834.389320  1129.381179  834.389495  1129.379104  0.002082
165  254  213.966667  -174.728724  -11.591290  834.339218  1216.004657  834.338430  1216.004125  0.000951
166  255  175.105134  -174.853127  -9.275010  834.422116  1302.387242  834.424832  1302.388213  0.002885
167  256  136.218706  -174.952671  -7.421591  834.637477  1388.465926  834.638909  1388.465726  0.001446
168  257  97.312912  -175.027341  -6.031296  834.984570  1474.178506  834.983983  1474.177693  0.001003
169  258  58.393282  -175.077127  -5.104323  835.462473  1559.463738  835.460804  1559.463228  0.001745
170  259  19.465350  -175.102022  -4.640803  836.070076  1644.261485  836.070566  1644.260962  0.000716
171  260  -19.465350  -175.102022  -4.640803  836.806089  1728.512857  836.806514  1728.511663  0.001268
172  261  -58.393282  -175.077127  -5.104323  837.669044  1812.160346  837.668967  1812.160755  0.000416
173  262  -97.312912  -175.027341  -6.031296  838.657303  1895.147955  838.657014  1895.145407  0.002564
174  263  -136.218706  -174.952671  -7.421591  839.769064  1977.421319  839.770334  1977.420638  0.001441
175  275  600.000000  -133.898873  -58.281997  925.678419  349.491956  925.680444  349.491468  0.002083
176  276  561.690327  -134.187828  -51.362113  924.713368  435.462272  924.714710  435.463575  0.001871
177  277  523.300796  -134.457706  -44.899106  923.848762  521.768970  923.848582  521.768882  0.000201
178  278  484.836866  -134.708467  -38.893895  923.085570  608.349005  923.084410  608.348189  0.001418
179  279  446.304005  -134.940076  -33.347333  922.424612  695.138656  922.422057  695.137927  0.002657
180  280  407.707692  -135.152500  -28.260210  921.866555  782.073694  921.865438  782.072776  0.001446
181  281  369.053413  -135.345709  -23.633248  921.411914  869.089545  921.411050  869.088247  0.001559
182  282  330.346665  -135.519676  -19.467106  921.061049  956.121455  921.060744  956.119631  0.001849
183  283  291.592951  -135.674375  -15.762375  920.814162  1043.104661  920.813032  1043.103503  0.001617
184  284  252.797779  -135.809785  -12.519583  920.671299  1129.974557  920.673162  1129.975208  0.001973
185  285  213.966667  -135.925887  -9.739189  920.632351  1216.666860  920.630211  1216.666635  0.002151
186  286  175.105134  -136.022664  -7.421591  920.697054  1303.117776  920.697335  1303.119502  0.001749
187  287  136.218706  -136.100101  -5.567117  920.864987  1389.264159  920.864098  1389.264165  0.000889
188  288  97.312912  -136.158189  -4.176030  921.135581  1475.043673  921.134149  1475.042094  0.002132
189  289  58.393282  -136.196919  -3.248529  921.508117  1560.394943  921.508322  1560.393429  0.001528
190  290  19.465350  -136.216285  -2.784746  921.981729  1645.257702  921.981919  1645.257337  0.000412
191  291  -19.465350  -136.216285  -2.784746  922.555409  1729.572938  922.555314  1729.572737  0.000222
192  292  -58.393282  -136.196919  -3.248529  923.228013  1813.283024  923.228772  1813.283202  0.000780
193  293  -97.312912  -136.158189  -4.176030  923.998262  1896.331849  923.997412  1896.329063  0.002913
194  294  -136.218706  -136.100101  -5.567117  924.864751  1978.664939  924.866787  1978.663250  0.002646
195  307  600.000000  -95.655652  -56.913409  1010.757961  349.472903  1010.759324  349.472211  0.001529
196  308  561.690327  -95.862078  -49.990572  1010.067676  435.493551  1010.066579  435.495051  0.001859
197  309  523.300796  -96.054875  -43.524807  1009.449241  521.851149  1009.448853  521.850912  0.000455
198  310  484.836866  -96.234016  -37.517032  1008.903349  608.482550  1008.903033  608.479769  0.002799
199  311  446.304005  -96.399474  -31.968104  1008.430588  695.323933  1008.430212  695.322051  0.001919
200  312  407.707692  -96.551227  -26.878809  1008.031436  782.310965  1008.032646  782.311704  0.001417
201  313  369.053413  -96.689254  -22.249873  1007.706262  869.378965  1007.706161  869.377056  0.001911
202  314  330.346665  -96.813533  -18.081952  1007.455323  956.463074  1007.453291  956.463277  0.002042
203  315  291.592951  -96.924048  -14.375640  1007.278764  1043.498425  1007.279453  1043.499251  0.001076
204  316  252.797779  -97.020784  -11.131463  1007.176620  1130.420303  1007.177167  1130.419594  0.000896
205  317  213.966667  -97.103725  -8.349884  1007.148811  1217.164321  1007.149272  1217.163973  0.000577
206  318  175.105134  -97.172861  -6.031296  1007.195149  1303.666580  1007.196960  1303.667767  0.002165
207  319  136.218706  -97.228182  -4.176030  1007.315333  1389.863832  1007.315597  1389.862938  0.000932
208  320  97.312912  -97.269679  -2.784350  1007.508954  1475.693639  1007.507476  1475.694048  0.001533
209  321  58.393282  -97.297347  -1.856453  1007.775499  1561.094527  1007.776483  1561.096045  0.001809
210  322  19.465350  -97.311182  -1.392472  1008.114347  1646.006134  1008.113838  1646.005185  0.001077
211  323  -19.465350  -97.311182  -1.392472  1008.524777  1730.369355  1008.523375  1730.368306  0.001751
212  324  -58.393282  -97.297347  -1.856453  1009.005970  1814.126472  1009.006234  1814.126521  0.000268
213  325  -97.312912  -97.269679  -2.784350  1009.557009  1897.221290  1009.558935  1897.222295  0.002173
214  326  -136.218706  -97.228182  -4.176030  1010.176889  1979.599252  1010.177580  1979.597685  0.001713
215  339  600.000000  -57.398832  -56.000910  1095.992620  349.460130  1095.991696  349.458546  0.001834
216  340  561.690327  -57.522699  -49.076103  1095.578063  435.514376  1095.581090  435.514079  0.003041
217  341  523.300796  -57.638388  -42.608498  1095.206657  521.905951  1095.205727  521.907062  0.001450
218  342  484.836866  -57.745883  -36.599015  1094.878820  608.571642  1094.880635  608.571192  0.001870
219  343  446.304005  -57.845167  -31.048508  1094.594904  695.447559  1094.596447  695.447890  0.001578
220  344  407.707692  -57.936228  -25.957766  1094.355196  782.469299  1094.353953  782.467442  0.002235
221  345  369.053413  -58.019051  -21.327513  1094.159919  869.572112  1094.159127  869.570919  0.001432
222  346  330.346665  -58.093626  -17.158407  1094.009227  956.691068  1094.008811  956.689643  0.001484
223  347  291.592951  -58.159942  -13.451040  1093.903208  1043.761228  1093.902883  1043.760307  0.000976
224  348  252.797779  -58.217988  -10.205941  1093.841881  1130.717807  1093.842333  1130.717775  0.000453
225  349  213.966667  -58.267758  -7.423570  1093.825200  1217.496348  1093.825515  1217.497436  0.001133
226  350  175.105134  -58.309243  -5.104323  1093.853052  1304.032881  1093.853287  1304.033162  0.000366
227  351  136.218706  -58.342439  -3.248529  1093.925254  1390.264091  1093.923558  1390.265026  0.001937
228  352  97.312912  -58.367340  -1.856453  1094.041564  1476.127470  1094.041101  1476.124741  0.002768
229  353  58.393282  -58.383942  -0.928293  1094.201670  1561.561481  1094.200956  1561.564549  0.003150
230  354  19.465350  -58.392244  -0.464179  1094.405201  1646.505695  1094.405238  1646.504265  0.001431
231  355  -19.465350  -58.392244  -0.464179  1094.651723  1730.900946  1094.652766  1730.900645  0.001086
232  356  -58.393282  -58.383942  -0.928293  1094.940743  1814.689458  1094.941833  1814.689268  0.001106
233  357  -97.312912  -58.367340  -1.856453  1095.271712  1897.814977  1095.270749  1897.814939  0.000964
234  358  -136.218706  -58.342439  -3.248529  1095.644024  1980.222891  1095.643678  1980.223668  0.000850
235  371  600.000000  -19.133851  -55.544627  1181.320506  349.453721  1181.320007  349.452792  0.001054
236  372  561.690327  -19.175142  -48.618836  1181.182256  435.524780  1181.182165  435.522869  0.001914
237  373  523.300796  -19.213707  -42.150312  1181.058397  521.933357  1181.056118  521.931633  0.002858
238  374  484.836866  -19.249540  -36.139974  1180.949067  608.616207  1180.950759  608.615385  0.001881
239  375  446.304005  -19.282636  -30.588678  1180.854385  695.509405  1180.854034  695.510631  0.001275
240  376  407.707692  -19.312991  -25.497212  1180.774446  782.548513  1180.774005  782.547139  0.001443
241  377  369.053413  -19.340600  -20.866300  1180.709325  869.668746  1180.709305  869.668462  0.000285
242  378  330.346665  -19.365460  -16.696601  1180.659073  956.805139  1180.658350  956.804691  0.000850
243  379  291.592951  -19.387566  -12.988708  1180.623719  1043.892717  1180.623154  1043.891798  0.001079
244  380  252.797779  -19.406916  -9.743147  1180.603270  1130.866661  1180.603356  1130.868169  0.001510
245  381  213.966667  -19.423506  -6.960380  1180.597711  1217.662477  1180.597925  1217.662738  0.000338
246  382  175.105134  -19.437336  -4.640803  1180.607003  1304.216162  1180.604547  1304.214564  0.002930
247  383  136.218706  -19.448401  -2.784746  1180.631086  1390.464363  1180.632150  1390.462912  0.001800
248  384  97.312912  -19.456702  -1.392472  1180.669878  1476.344542  1180.670964  1476.345065  0.001205
249  385  58.393282  -19.462236  -0.464179  1180.723277  1561.795127  1180.724219  1561.794623  0.001069
250  386  -58.393282  -19.462236  -0.464179  1180.969767  1814.971157  1180.969944  1814.971461  0.000352
251  387  -97.312912  -19.456702  -1.392472  1181.080147  1898.112038  1181.080398  1898.113124  0.001114
252  388  -136.218706  -19.448401  -2.784746  1181.204316  1980.534939  1181.203620  1980.535356  0.000811
253  401  600.000000  19.133851  -55.544627  1266.679494  349.453721  1266.679993  349.452792  0.001054
254  402  561.690327  19.175142  -48.618836  1266.817744  435.524780  1266.817835  435.522869  0.001914
255  403  523.300796  19.213707  -42.150312  1266.941603  521.933357  1266.943882  521.931633  0.002858
256  404  484.836866  19.249540  -36.139974  1267.050933  608.616207  1267.049241  608.615385  0.001881
257  405  446.304005  19.282636  -30.588678  1267.145615  695.509405  1267.145966  695.510631  0.001275
258  406  407.707692  19.312991  -25.497212  1267.225554  782.548513  1267.225995  782.547139  0.001443
259  407  369.053413  19.340600  -20.866300  1267.290675  869.668746  1267.290695  869.668462  0.000285
260  408  330.346665  19.365460  -16.696601  1267.340927  956.805139  1267.341650  956.804691  0.000850
261  409  291.592951  19.387566  -12.988708  1267.376281  1043.892717  1267.376846  1043.891798  0.001079
262  410  252.797779  19.406916  -9.743147  1267.396730  1130.866661  1267.396644  1130.868169  0.001510
263  411  213.966667  19.423506  -6.960380  1267.402289  1217.662477  1267.402075  1217.662738  0.000338
264  412  175.105134  19.437336  -4.640803  1267.392997  1304.216162  1267.395453  1304.214564  0.002930
265  413  136.218706  19.448401  -2.784746  1267.368914  1390.464363  1267.367850  1390.462912  0.001800
266  414  97.312912  19.456702  -1.392472  1267.330122  1476.344542  1267.329036  1476.345065  0.001205
267  415  58.393282  19.462236  -0.464179  1267.276723  1561.795127  1267.275781  1561.794623  0.001069
268  416  -58.393282  19.462236  -0.464179  1267.030233  1814.971157  1267.030056  1814.971461  0.000352
269  417  -97.312912  19.456702  -1.392472  1266.919853  1898.112038  1266.919602  1898.113124  0.001114
270  418  -136.218706  19.448401  -2.784746  1266.795684  1980.534939  1266.796380  1980.535356  0.000811
271  431  600.000000  57.398832  -56.000910  1352.007380  349.460130  1352.008304  349.458546  0.001834
272  432  561.690327  57.522699  -49.076103  1352.421937  435.514376  1352.418910  435.514079  0.003041
273  433  523.300796  57.638388  -42.608498  1352.793343  521.905951  1352.794273  521.907062  0.001450
274  434  484.836866  57.745883  -36.599015  1353.121180  608.571642  1353.119365  608.571192  0.001870
275  435  446.304005  57.845167  -31.048508  1353.405096  695.447559  1353.403553  695.447890  0.001578
276  436  407.707692  57.936228  -25.957766  1353.644804  782.469299  1353.646047  782.467442  0.002235
277  437  369.053413  58.019051  -21.327513  1353.840081  869.572112  1353.840873  869.570919  0.001432
278  438  330.346665  58.093626  -17.158407  1353.990773  956.691068  1353.991189  956.689643  0.001484
279  439  291.592951  58.159942  -13.451040  1354.096792  1043.761228  1354.097117  1043.760307  0.000976
280  440  252.797779  58.217988  -10.205941  1354.158119  1130.717807  1354.157667  1130.717775  0.000453
281  441  213.966667  58.267758  -7.423570  1354.174800  1217.496348  1354.174485  1217.497436  0.001133
282  442  175.105134  58.309243  -5.104323  1354.146948  1304.032881  1354.146713  1304.033162  0.000366
283  443  136.218706  58.342439  -3.248529  1354.074746  1390.264091  1354.076442  1390.265026  0.001937
284  444  97.312912  58.367340  -1.856453  1353.958436  1476.127470  1353.958899  1476.124741  0.002768
285  445  58.393282  58.383942  -0.928293  1353.798330  1561.561481  1353.799044  1561.564549  0.003150
286  446  19.465350  58.392244  -0.464179  1353.594799  1646.505695  1353.594762  1646.504265  0.001431
287  447  -19.465350  58.392244  -0.464179  1353.348277  1730.900946  1353.347234  1730.900645  0.001086
288  448  -58.393282  58.383942  -0.928293  1353.059257  1814.689458  1353.058167  1814.689268  0.001106
289  449  -97.312912  58.367340  -1.856453  1352.728288  1897.814977  1352.729251  1897.814939  0.000964
290  450  -136.218706  58.342439  -3.248529  1352.355976  1980.222891  1352.356322  1980.223668  0.000850
291  463  600.000000  95.655652  -56.913409  1437.242039  349.472903  1437.240676  349.472211  0.001529
292  464  561.690327  95.862078  -49.990572  1437.932324  435.493551  1437.933421  435.495051  0.001859
293  465  523.300796  96.054875  -43.524807  1438.550759  521.851149  1438.551147  521.850912  0.000455
294  466  484.836866  96.234016  -37.517032  1439.096651  608.482550  1439.096967  608.479769  0.002799
295  467  446.304005  96.399474  -31.968104  1439.569412  695.323933  1439.569788  695.322051  0.001919
296  468  407.707692  96.551227  -26.878809  1439.968564  782.310965  1439.967354  782.311704  0.001417
297  469  369.053413  96.689254  -22.249873  1440.293738  869.378965  1440.293839  869.377056  0.001911
298  470  330.346665  96.813533  -18.081952  1440.544677  956.463074  1440.546709  956.463277  0.002042
299  471  291.592951  96.924048  -14.375640  1440.721236  1043.498425  1440.720547  1043.499251  0.001076
300  472  252.797779  97.020784  -11.131463  1440.823380  1130.420303  1440.822833  1130.419594  0.000896
301  473  213.966667  97.103725  -8.349884  1440.851189  1217.164321  1440.850728  1217.163973  0.000577
302  474  175.105134  97.172861  -6.031296  1440.804851  1303.666580  1440.803040  1303.667767  0.002165
303  475  136.218706  97.228182  -4.176030  1440.684667  1389.863832  1440.684403  1389.862938  0.000932
304  476  97.312912  97.269679  -2.784350  1440.491046  1475.693639  1440.492524  1475.694048  0.001533
305  477  58.393282  97.297347  -1.856453  1440.224501  1561.094527  1440.223517  1561.096045  0.001809
306  478  19.465350  97.311182  -1.392472  1439.885653  1646.006134  1439.886162  1646.005185  0.001077
307  479  -19.465350  97.311182  -1.392472  1439.475223  1730.369355  1439.476625  1730.368306  0.001751
308  480  -58.393282  97.297347  -1.856453  1438.994030  1814.126472  1438.993766  1814.126521  0.000268
309  481  -97.312912  97.269679  -2.784350  1438.442991  1897.221290  1438.441065  1897.222295  0.002173
310  482  -136.218706  97.228182  -4.176030  1437.823111  1979.599252  1437.822420  1979.597685  0.001713
311  495  600.000000  133.898873  -58.281997  1522.321581  349.491956  1522.319556  349.491468  0.002083
312  496  561.690327  134.187828  -51.362113  1523.286632  435.462272  1523.285290  435.463575  0.001871
313  497  523.300796  134.457706  -44.899106  1524.151238  521.768970  1524.151418  521.768882  0.000201
314  498  484.836866  134.708467  -38.893895  1524.914430  608.349005  1524.915590  608.348189  0.001418
315  499  446.304005  134.940076  -33.347333  1525.575388  695.138656  1525.577943  695.137927  0.002657
316  500  407.707692  135.152500  -28.260210  1526.133445  782.073694  1526.134562  782.072776  0.001446
317  501  369.053413  135.345709  -23.633248  1526.588086  869.089545  1526.588950  869.088247  0.001560
318  502  330.346665  135.519676  -19.467106  1526.938951  956.121455  1526.939256  956.119631  0.001849
319  503  291.592951  135.674375  -15.762375  1527.185838  1043.104661  1527.186968  1043.103503  0.001617
320  504  252.797779  135.809785  -12.519583  1527.328701  1129.974557  1527.326838  1129.975208  0.001973
321  505  213.966667  135.925887  -9.739189  1527.367649  1216.666860  1527.369789  1216.666635  0.002151
322  506  175.105134  136.022664  -7.421591  1527.302946  1303.117776  1527.302665  1303.119502  0.001749
323  507  136.218706  136.100101  -5.567117  1527.135013  1389.264159  1527.135902  1389.264165  0.000889
324  508  97.312912  136.158189  -4.176030  1526.864419  1475.043673  1526.865851  1475.042094  0.002132
325  509  58.393282  136.196919  -3.248529  1526.491883  1560.394943  1526.491678  1560.393429  0.001528
326  510  19.465350  136.216285  -2.784746  1526.018271  1645.257702  1526.018081  1645.257337  0.000412
327  511  -19.465350  136.216285  -2.784746  1525.444591  1729.572938  1525.444686  1729.572737  0.000222
328  512  -58.393282  136.196919  -3.248529  1524.771987  1813.283024  1524.771228  1813.283202  0.000780
329  513  -97.312912  136.158189  -4.176030  1524.001738  1896.331849  1524.002588  1896.329063  0.002913
330  514  -136.218706  136.100101  -5.567117  1523.135249  1978.664939  1523.133213  1978.663250  0.002646
331  527  561.690327  172.494500  -53.190531  1608.422983  435.420487  1608.421533  435.421944  0.002056
332  528  523.300796  172.841420  -46.731201  1609.532561  521.659446  1609.531799  521.659040  0.000863
333  529  484.836866  173.163766  -40.729407  1610.512002  608.171118  1610.512310  608.169709  0.001442
334  530  446.304005  173.461493  -35.186001  1611.360254  694.891922  1611.360868  694.893354  0.001558
335  531  407.707692  173.734558  -30.101773  1612.076463  781.757765  1612.075825  781.757477  0.000700
336  532  369.053413  173.982922  -25.477444  1612.659970  868.704212  1612.659307  868.704829  0.000906
337  533  330.346665  174.206551  -21.313672  1613.110315  955.666652  1613.110575  955.665432  0.001247
338  534  291.592951  174.405413  -17.611049  1613.427238  1042.580463  1613.428400  1042.580495  0.001163
339  535  252.797779  174.579479  -14.370101  1613.610680  1129.381179  1613.610505  1129.379104  0.002082
340  536  213.966667  174.728724  -11.591290  1613.660782  1216.004657  1613.661570  1216.004125  0.000951
341  537  175.105134  174.853127  -9.275010  1613.577884  1302.387242  1613.575168  1302.388213  0.002885
342  538  136.218706  174.952671  -7.421591  1613.362523  1388.465926  1613.361091  1388.465726  0.001446
343  539  97.312912  175.027341  -6.031296  1613.015430  1474.178506  1613.016017  1474.177693  0.001003
344  540  58.393282  175.077127  -5.104323  1612.537527  1559.463738  1612.539196  1559.463228  0.001745
345  541  19.465350  175.102022  -4.640803  1611.929924  1644.261485  1611.929434  1644.260962  0.000716
346  542  -19.465350  175.102022  -4.640803  1611.193911  1728.512857  1611.193486  1728.511663  0.001268
347  543  -58.393282  175.077127  -5.104323  1610.330956  1812.160346  1610.331033  1812.160755  0.000416
348  544  -97.312912  175.027341  -6.031296  1609.342697  1895.147955  1609.342986  1895.145407  0.002564
349  545  -136.218706  174.952671  -7.421591  1608.230936  1977.421319  1608.229666  1977.420638  0.001441
350  557  561.690327  210.776648  -55.475566  1693.280046  435.368131  1693.282001  435.368678  0.002030
351  558  523.300796  211.200561  -49.020832  1694.633065  521.522614  1694.635788  521.523034  0.002755
352  559  484.836866  211.594446  -43.023308  1695.827409  607.949037  1695.826273  607.949319  0.001171
353  560  446.304005  211.958248  -37.483846  1696.861801  694.583987  1696.860601  694.581579  0.002691
354  561  407.707692  212.291915  -32.403235  1697.735200  781.363543  1697.733509  781.364109  0.001783
355  562  369.053413  212.595400  -27.782196  1698.446805  868.223445  1698.446917  868.222661  0.000792
356  563  330.346665  212.868659  -23.621386  1698.996057  955.099256  1698.997406  955.098253  0.001681
357  564  291.592951  213.111655  -19.921398  1699.382641  1041.926530  1699.381963  1041.928931  0.002495
358  565  252.797779  213.324351  -16.682756  1699.606485  1128.640978  1699.605539  1128.642231  0.001570
359  566  213.966667  213.506719  -13.905922  1699.667761  1215.178631  1699.666706  1215.180244  0.001927
360  567  175.105134  213.658731  -11.591290  1699.566884  1301.476006  1699.567689  1301.475494  0.000954
361  568  136.218706  213.780367  -9.739189  1699.304507  1387.470266  1699.303441  1387.469343  0.001410
362  569  97.312912  213.871609  -8.349884  1698.881521  1473.099377  1698.882401  1473.099112  0.000919
363  570  58.393282  213.932445  -7.423570  1698.299049  1558.302257  1698.299183  1558.300196  0.002065
364  571  19.465350  213.962864  -6.960380  1697.558441  1643.018927  1697.559852  1643.019638  0.001581
365  572  -19.465350  213.962864  -6.960380  1696.661269  1727.190653  1696.659433  1727.190959  0.001861
366  573  -58.393282  213.932445  -7.423570  1695.609319  1810.760074  1695.609695  1810.762038  0.002000
367  574  -97.312912  213.871609  -8.349884  1694.404585  1893.671336  1694.406105  1893.672028  0.001671
368  575  -136.218706  213.780367  -9.739189  1693.049262  1975.870208  1693.048915  1975.871321  0.001166
369  587  561.690327  249.028830  -58.216893  1777.797195  435.305119  1777.799069  435.307551  0.003070
370  588  523.300796  249.529674  -51.767673  1779.391793  521.358525  1779.393845  521.358658  0.002056
371  589  484.836866  249.995042  -45.775271  1780.799407  607.682946  1780.800724  607.682901  0.001317
372  590  446.304005  250.424868  -40.240541  1782.018535  694.215170  1782.020710  694.213007  0.003068
373  591  407.707692  250.819090  -35.164269  1783.047955  780.891485  1783.047942  780.893310  0.001825
374  592  369.053413  251.177652  -30.547177  1783.886725  867.647836  1783.888969  867.647041  0.002380
375  593  330.346665  251.500503  -26.389922  1784.534190  954.419997  1784.534226  954.418982  0.001015
376  594  291.592951  251.787598  -22.693093  1784.989979  1041.143732  1784.989097  1041.145189  0.001704
377  595  252.797779  252.038895  -19.457218  1785.254009  1127.754960  1785.252152  1127.753926  0.002126
378  596  213.966667  252.254359  -16.682756  1785.326484  1214.189923  1785.326692  1214.191037  0.001133
379  597  175.105134  252.433959  -14.370101  1785.207890  1300.385344  1785.207587  1300.384295  0.001092
380  598  136.218706  252.577670  -12.519583  1784.898997  1386.278590  1784.897259  1386.280228  0.002388
381  599  97.312912  252.685470  -11.131463  1784.400855  1471.807825  1784.400213  1471.806764  0.001240
382  600  58.393282  252.757346  -10.205941  1783.714782  1556.912165  1783.713516  1556.913398  0.001767
383  601  19.465350  252.793287  -9.743147  1782.842368  1641.531821  1782.842232  1641.534381  0.002563
384  602  -19.465350  252.793287  -9.743147  1781.785462  1725.608240  1781.786098  1725.607730  0.000815
385  603  -58.393282  252.757346  -10.205941  1780.546164  1809.084241  1780.547812  1809.081508  0.003191
386  604  -97.312912  252.685470  -11.131463  1779.126820  1891.904139  1779.127745  1891.903310  0.001243
387  605  -136.218706  252.577670  -12.519583  1777.530010  1974.013864  1777.529211  1974.014646  0.001118
388  617  523.300796  287.823311  -54.971333  1863.748646  521.167236  1863.747801  521.168207  0.001287
389  618  484.836866  288.360097  -48.984906  1865.367613  607.373062  1865.367024  607.373449  0.000705
390  619  446.304005  288.855884  -43.455694  1866.769832  693.785853  1866.769633  693.787078  0.001241
391  620  407.707692  289.310605  -38.384484  1867.953901  780.342134  1867.953835  780.342381  0.000256
392  621  369.053413  289.724193  -33.771995  1868.918744  866.978093  1868.917414  866.980320  0.002594
393  622  330.346665  290.096590  -29.618885  1869.663607  953.629747  1869.665904  953.629331  0.002334
394  623  291.592951  290.427743  -25.925742  1870.188067  1040.233103  1870.188703  1040.232128  0.001164
395  624  252.797779  290.717605  -22.693093  1870.492030  1126.724325  1870.493086  1126.725446  0.001540
396  625  213.966667  290.966135  -19.921398  1870.575730  1213.039895  1870.574398  1213.039830  0.001333
397  626  175.105134  291.173297  -17.611049  1870.439727  1299.116778  1870.440467  1299.117522  0.001049
398  627  136.218706  291.339062  -15.762375  1870.084906  1384.892576  1870.084844  1384.890924  0.001654
399  628  97.312912  291.463406  -14.375640  1869.512469  1470.305687  1869.512483  1470.305462  0.000226
400  629  58.393282  291.546313  -13.451040  1868.723932  1555.295451  1868.722225  1555.295701  0.001725
401  630  19.465350  291.587769  -12.988708  1867.721118  1639.802302  1867.722933  1639.801339  0.002055
402  631  -19.465350  291.587769  -12.988708  1866.506148  1723.767900  1866.507690  1723.770306  0.002858
403  632  -58.393282  291.546313  -13.451040  1865.081434  1807.135269  1865.081606  1807.135377  0.000203
404  633  -97.312912  291.463406  -14.375640  1863.449666  1889.848922  1863.449914  1889.848024  0.000932
405  634  -136.218706  291.339062  -15.762375  1861.613804  1971.854976  1861.612033  1971.854251  0.001914
406  645  484.836866  326.684154  -52.651756  1949.472653  607.019639  1949.474063  607.017843  0.002283
407  646  446.304005  327.245833  -47.128849  1951.056081  693.296474  1951.055147  693.296032  0.001033
408  647  407.707692  327.760988  -42.063420  1952.393233  779.716118  1952.392577  779.714398  0.001840
409  648  369.053413  328.229543  -37.456191  1953.482896  866.215034  1953.482901  866.213041  0.001993
410  649  330.346665  328.651433  -33.307816  1954.324225  952.729513  1954.323419  952.730716  0.001448
411  650  291.592951  329.026598  -29.618885  1954.916745  1039.195841  1954.917659  1039.194027  0.002031
412  651  252.797779  329.354983  -26.389922  1955.260352  1125.550457  1955.261235  1125.550314  0.000895
413  652  213.966667  329.636543  -23.621386  1955.355309  1211.730121  1955.354874  1211.732380  0.002301
414  653  175.105134  329.871238  -21.313672  1955.202249  1297.672067  1955.201315  1297.671660  0.001019
415  654  136.218706  330.059034  -19.467106  1954.802170  1383.314168  1954.803063  1383.314701  0.001040
416  655  97.312912  330.199904  -18.081952  1954.156424  1468.595084  1954.156802  1468.594162  0.000997
417  656  58.393282  330.293829  -17.158407  1953.266722  1553.454415  1953.267391  1553.453895  0.000847
418  657  19.465350  330.340794  -16.696601  1952.135114  1637.832843  1952.133886  1637.831588  0.001756
419  658  -19.465350  330.340794  -16.696601  1950.763992  1721.672272  1950.764853  1721.673408  0.001426
420  659  -58.393282  330.293829  -17.158407  1949.156069  1804.915961  1949.159309  1804.917796  0.003723
421  660  -97.312912  330.199904  -18.081952  1947.314376  1887.508645  1947.313566  1887.507571  0.001345
422  661  -136.218706  330.059034  -19.467106  1945.242247  1969.396656  1945.242261  1969.398204  0.001549
423  671  484.836866  364.961765  -56.775299  2033.056302  606.622963  2033.053941  606.622012  0.002545
424  672  446.304005  365.589257  -51.259482  2034.818829  692.747533  2034.817314  692.748953  0.002076
425  673  407.707692  366.164772  -46.200556  2036.307305  779.014150  2036.305273  779.014442  0.002052
426  674  369.053413  366.688228  -41.599241  2037.520385  865.359585  2037.521681  865.358808  0.001511
427  675  330.346665  367.159551  -37.456191  2038.457135  951.720437  2038.458908  951.720787  0.001807
428  676  291.592951  367.578673  -33.771995  2039.117029  1038.033302  2039.117281  1038.033209  0.000269
429  677  252.797779  367.945536  -30.547177  2039.499953  1124.234928  2039.500000  1124.235733  0.000806
430  678  213.966667  368.260086  -27.782196  2039.606203  1210.262381  2039.608344  1210.262120  0.002157
431  679  175.105134  368.522280  -25.477444  2039.436481  1296.053202  2039.437316  1296.052559  0.001054
432  680  136.218706  368.732080  -23.633248  2038.991894  1381.545563  2038.991711  1381.547072  0.001520
433  681  97.312912  368.889456  -22.249873  2038.273947  1466.678419  2038.272351  1466.679120  0.001743
434  682  58.393282  368.994386  -21.327513  2037.284535  1551.391657  2037.285562  1551.391038  0.001199
435  683  19.465350  369.046855  -20.866300  2036.025936  1635.626241  2036.025363  1635.626954  0.000914
436  684  -19.465350  369.046855  -20.866300  2034.500803  1719.324345  2034.500000  1719.323913  0.000912
437  685  -58.393282  368.994386  -21.327513  2032.712149  1802.429489  2032.713558  1802.430527  0.001751
438  686  -97.312912  368.889456  -22.249873  2030.663335  1884.886659  2030.663610  1884.886706  0.000279
439  687  -136.218706  368.732080  -23.633248  2028.358062  1966.642426  2028.358242  1966.641758  0.000692
440  697  446.304005  403.880703  -55.847006  2118.000913  692.139582  2118.000000  692.138481  0.001430
441  698  407.707692  404.516497  -50.795302  2119.638768  778.237021  2119.637789  778.237408  0.001053
442  699  369.053413  405.094779  -46.200556  2120.973715  864.412776  2120.973569  864.412057  0.000733
443  700  330.346665  405.615468  -42.063420  2122.004730  950.603788  2122.003138  950.603993  0.001605
444  701  291.592951  406.078489  -38.384484  2122.731241  1036.746993  2122.732504  1036.745483  0.001969
445  702  252.797779  406.483776  -35.164269  2123.153123  1122.779482  2123.152983  1122.780350  0.000879
446  703  213.966667  406.831273  -32.403235  2123.270704  1208.638658  2123.270523  1208.641077  0.002426
447  704  175.105134  407.120929  -30.101773  2123.084755  1294.262400  2123.085444  1294.263068  0.000960
448  705  136.218706  407.352703  -28.260210  2122.596491  1379.589208  2122.597692  1379.588537  0.001376
449  706  97.312912  407.526562  -26.878809  2121.807563  1464.558365  2121.810442  1464.557312  0.003066
450  707  58.393282  407.642482  -25.957766  2120.720050  1549.110075  2120.720672  1549.108916  0.001316
451  708  19.465350  407.700446  -25.497212  2119.336452  1633.185609  2119.337771  1633.185384  0.001338
452  709  -19.465350  407.700446  -25.497212  2117.659675  1716.727443  2117.660262  1716.728356  0.001085
453  710  -58.393282  407.642482  -25.957766  2115.693025  1799.679384  2115.691794  1799.681120  0.002129
454  711  -97.312912  407.526562  -26.878809  2113.440188  1881.986694  2113.439470  1881.986974  0.000771
455  712  -136.218706  407.352703  -28.260210  2110.905220  1963.596206  2110.906139  1963.597023  0.001229
456  713  -175.105134  407.120929  -30.101773  2108.092529  2044.456433  2108.091341  2044.458215  0.002142
457  721  407.707692  442.810711  -55.847006  2202.331703  777.385600  2202.330910  777.386072  0.000923
458  722  369.053413  443.443737  -51.259482  2203.786823  863.375738  2203.787067  863.375861  0.000273
459  723  330.346665  444.013718  -47.128849  2204.910844  949.380959  2204.910841  949.382133  0.001174
460  724  291.592951  444.520571  -43.455694  2205.703143  1035.338571  2205.703891  1035.339738  0.001386
461  725  252.797779  444.964226  -40.240541  2206.163592  1121.186036  2206.163875  1121.186803  0.000818
462  726  213.966667  445.344619  -37.483846  2206.292545  1206.861128  2206.292550  1206.860713  0.000415
463  727  175.105134  445.661695  -35.186001  2206.090843  1292.302092  2206.092172  1292.302915  0.001563
464  728  136.218706  445.915410  -33.347333  2205.559808  1377.447789  2205.560135  1377.447494  0.000441
465  729  97.312912  446.105728  -31.968104  2204.701231  1462.237856  2204.701946  1462.237246  0.000940
466  730  58.393282  446.232622  -31.048508  2203.517372  1546.612845  2203.517633  1546.613927  0.001113
467  731  19.465350  446.296074  -30.588678  2202.010945  1630.514364  2202.009740  1630.514394  0.001205
468  732  -19.465350  446.296074  -30.588678  2200.185108  1713.885215  2200.185620  1713.883790  0.001514
469  733  -58.393282  446.232622  -31.048508  2198.043446  1796.669519  2198.044603  1796.668623  0.001464
470  734  -97.312912  446.105728  -31.968104  2195.589965  1878.812840  2195.591021  1878.812831  0.001056
471  735  -136.218706  445.915410  -33.347333  2192.829067  1960.262300  2192.828705  1960.261853  0.000575
472  736  -175.105134  445.661695  -35.186001  2189.765537  2040.966681  2189.766793  2040.968891  0.002542
473  743  369.053413  481.729649  -56.775299  2285.905204  862.249699  2285.902763  862.250803  0.002679
474  744  330.346665  482.348840  -52.651756  2287.120866  948.053463  2287.121247  948.053569  0.000395
475  745  291.592951  482.899454  -48.984906  2287.978062  1033.809831  2287.978302  1033.810647  0.000851
476  746  252.797779  483.381413  -45.775271  2288.476651  1119.456670  2288.477287  1119.457102  0.000769
477  747  213.966667  483.794648  -43.023308  2288.617021  1204.932152  2288.617366  1204.934081  0.001960
478  748  175.105134  484.139100  -40.729407  2288.400079  1290.174917  2288.401394  1290.177288  0.002711
479  749  136.218706  484.414721  -38.893895  2287.827248  1375.124219  2287.826352  1375.124650  0.000995
480  750  97.312912  484.621471  -37.517032  2286.900461  1459.720077  2286.900491  1459.718578  0.001499
481  751  58.393282  484.759320  -36.599015  2285.622151  1543.903418  2285.624214  1543.901335  0.002932
482  752  19.465350  484.828250  -36.139974  2283.995240  1627.616214  2283.994264  1627.616661  0.001073
483  753  -19.465350  484.828250  -36.139974  2282.023129  1710.801621  2282.023321  1710.800811  0.000833
484  754  -58.393282  484.759320  -36.599015  2279.709680  1793.404100  2279.711358  1793.404080  0.001678
485  755  -97.312912  484.621471  -37.517032  2277.059203  1875.369542  2277.058051  1875.368996  0.001275
486  756  -136.218706  484.414721  -38.893895  2274.076439  1956.645377  2274.075329  1956.644803  0.001249
487  757  -175.105134  484.139100  -40.729407  2270.766541  2037.180685  2270.766584  2037.182364  0.001679
488  763  291.592951  521.209682  -54.971333  2369.502997  1032.162705  2369.502248  1032.163821  0.001344
489  764  252.797779  521.729877  -51.767673  2370.039273  1117.593618  2370.038854  1117.591639  0.002022
490  765  213.966667  522.175895  -49.020832  2370.191107  1202.854266  2370.191139  1202.856265  0.002000
491  766  175.105134  522.547674  -46.731201  2369.959472  1287.883712  2369.958859  1287.883817  0.000621
492  767  136.218706  522.845161  -44.899106  2369.345890  1372.621630  2369.344455  1372.620921  0.001600
493  768  97.312912  523.068312  -43.524807  2368.352431  1457.008450  2368.352781  1457.008359  0.000362
494  769  58.393282  523.217098  -42.608498  2366.981696  1540.985500  2366.982955  1540.984505  0.001604
495  770  19.465350  523.291496  -42.150312  2365.236811  1624.495145  2365.235359  1624.494671  0.001528
496  771  -19.465350  523.291496  -42.150312  2363.121409  1707.480919  2363.120605  1707.481284  0.000883
497  772  -58.393282  523.217098  -42.608498  2360.639621  1789.887648  2360.638611  1789.889244  0.001889
498  773  -97.312912  523.068312  -43.524807  2357.796055  1871.661573  2357.797687  1871.660956  0.001745
499  774  -136.218706  522.845161  -44.899106  2354.595776  1952.750459  2354.598057  1952.753250  0.003605
500  775  -175.105134  522.547674  -46.731201  2351.044293  2033.103700  2351.045279  2033.102584  0.001490
501  787  -58.393282  561.600489  -49.076103  2440.782900  1786.124983  2440.781978  1786.122015  0.003108
502  788  -97.312912  561.440788  -49.990572  2437.750391  1867.694026  2437.751673  1867.693996  0.001282
503  789  -136.218706  561.201266  -51.362113  2434.337218  1948.582899  2434.336332  1948.582314  0.001062
504  790  -175.105134  560.881955  -53.190531  2430.549233  2028.741333  2430.550186  2028.741767  0.001047
505  801  0.000000  0.000000  0.000000  1224.000000  1689.010817  1224.000000  1689.010290  0.000527
