# COL 1-2: True indices
# COL 3-5: True X/Y/Z plate [mm]
# COL 6-7: True X/Y position [pix]
# COL 8-9: Estimated X/Y centroid [pix]
# COL 10: Centroid error [pix]
1  698  407.707692  404.516497  -50.795302  9.851395  1348.111206  9.851543  1348.110248  0.000969
2  558  523.300796  211.200561  -49.020832  14.437556  1829.142646  14.438231  1829.141097  0.001690
3  646  446.304005  327.245833  -47.128849  24.364422  1534.826343  24.363714  1534.827917  0.001726
4  496  561.690327  134.187828  -51.362113  31.792419  2008.088375  31.792434  2008.090542  0.002167
5  722  369.053413  443.443737  -51.259482  37.699147  1233.403733  37.697260  1233.401521  0.002908
6  589  484.836866  249.995042  -45.775271  40.023615  1719.188903  40.022339  1719.187510  0.001889
7  673  407.707692  366.164772  -46.200556  51.399644  1421.537978  51.400203  1421.537085  0.001054
8  528  523.300796  172.841420  -46.731201  56.687968  1900.561506  56.693078  1900.563957  0.005667
9  744  330.346665  482.348840  -52.651756  66.249019  1117.851809  66.251673  1117.850989  0.002778
10  619  446.304005  288.855884  -43.455694  66.295725  1607.721728  66.294884  1607.722048  0.000900
11  699  369.053413  405.094779  -46.200556  79.128676  1307.141865  79.129765  1307.141246  0.001253
12  559  484.836866  211.594446  -43.023308  82.251082  1791.296362  82.250583  1791.297121  0.000909
13  647  407.707692  327.760988  -42.063420  93.249415  1494.895537  93.251006  1494.894648  0.001822
14  763  291.592951  521.209682  -54.971333  95.488044  1001.632373  95.487359  1001.633030  0.000949
15  497  523.300796  134.457706  -44.899106  99.123312  1971.636168  99.121539  1971.637956  0.002518
16  723  330.346665  444.013718  -47.128849  107.541656  1191.808201  107.538399  1191.809640  0.003560
17  590  446.304005  250.424868  -40.240541  108.480017  1680.435879  108.476209  1680.435253  0.003859
18  674  369.053413  366.688228  -41.599241  120.877799  1380.871794  120.878348  1380.873370  0.001669
19  529  484.836866  173.163766  -40.729407  124.682300  1863.114169  124.683871  1863.112543  0.002261
20  779  252.797779  560.004164  -58.216893  125.400830  884.926087  125.402204  884.927592  0.002038
21  620  407.707692  289.310605  -38.384484  135.370698  1568.131018  135.371667  1568.130912  0.000974
22  745  291.592951  482.899454  -48.984906  136.626284  1075.712267  136.627916  1075.714200  0.002530
23  465  523.300796  96.054875  -43.524807  141.712958  2042.317601  141.715450  2042.312970  0.005259
24  700  330.346665  405.615468  -42.063420  149.171579  1265.818292  149.171353  1265.814757  0.003542
25  560  446.304005  211.958248  -37.483846  150.886799  1752.916931  150.886157  1752.917564  0.000901
26  648  369.053413  328.229543  -37.456191  162.916695  1454.540157  162.917466  1454.539531  0.000993
27  764  252.797779  521.729877  -51.767673  166.367874  959.033561  166.368032  959.032603  0.000971
28  498  484.836866  134.708467  -38.893895  167.286538  1934.592025  167.283462  1934.592458  0.003107
29  591  407.707692  250.819090  -35.164269  177.733069  1641.191733  177.733833  1641.192492  0.001077
30  724  291.592951  444.520571  -43.455694  178.119071  1149.908369  178.119957  1149.906030  0.002501
31  675  330.346665  367.159551  -37.456191  191.109220  1339.828417  191.108907  1339.826382  0.002059
32  530  446.304005  173.461493  -35.186001  193.485295  1825.113465  193.484604  1825.112699  0.001032
33  780  213.966667  560.482903  -55.475566  196.749428  841.954872  196.748788  841.955875  0.001190
34  621  369.053413  289.724193  -33.771995  205.215075  1528.093625  205.216121  1528.095149  0.001848
35  746  252.797779  483.381413  -45.775271  207.706245  1033.320057  207.706011  1033.317505  0.002563
36  466  484.836866  96.234016  -37.517032  210.032923  2005.680328  210.030774  2005.680462  0.002153
37  701  291.592951  406.078489  -38.384484  219.937146  1224.166906  219.937757  1224.169493  0.002658
38  561  407.707692  212.291915  -32.403235  220.305767  1714.025306  220.308720  1714.025901  0.003012
39  649  330.346665  328.651433  -33.307816  233.324482  1413.784794  233.322115  1413.786548  0.002946
40  499  446.304005  134.940076  -33.347333  236.244532  1896.974635  236.243661  1896.978265  0.003733
41  765  213.966667  522.175895  -49.020832  237.916790  916.235182  237.914700  916.235620  0.002136
42  592  369.053413  251.177652  -30.547177  247.742254  1601.479041  247.745134  1601.477386  0.003322
43  725  252.797779  444.964226  -40.240541  249.387045  1107.731896  249.385555  1107.735402  0.003809
44  676  291.592951  367.578673  -33.771995  262.050662  1298.433840  262.050596  1298.437208  0.003369
45  531  407.707692  173.734558  -30.101773  263.057774  1786.579804  263.056631  1786.580295  0.001244
46  781  175.105134  560.881955  -53.190531  268.732200  798.838411  268.732184  798.838407  0.000017
47  622  330.346665  290.096590  -29.618885  275.786813  1487.633666  275.787411  1487.634861  0.001336
48  467  446.304005  96.399474  -31.968104  279.133412  1968.450292  279.131869  1968.448627  0.002270
49  747  213.966667  483.794648  -43.023308  279.443245  990.703945  279.444219  990.707746  0.003924
50  562  369.053413  212.595400  -27.782196  290.467228  1674.643546  290.467739  1674.649244  0.005720
51  702  252.797779  406.483776  -35.164269  291.380736  1182.214983  291.380124  1182.212091  0.002956
52  793  136.218706  599.477583  -58.281997  300.131878  681.316271  300.132375  681.311915  0.004385
53  650  291.592951  329.026598  -29.618885  304.429261  1372.655004  304.427766  1372.656506  0.002119
54  500  407.707692  135.152500  -28.260210  305.957891  1858.803859  305.961315  1858.803793  0.003425
55  766  175.105134  522.547674  -46.731201  310.087912  873.266963  310.088804  873.268576  0.001843
56  593  330.346665  251.500503  -26.389922  318.465284  1561.321431  318.465046  1561.318602  0.002839
57  726  213.966667  445.344619  -37.483846  321.299619  1065.307213  321.296221  1065.304658  0.004251
58  435  446.304005  57.845167  -31.048508  322.120795  2039.491104  322.118593  2039.490653  0.002248
59  532  369.053413  173.982922  -25.477444  333.358754  1747.534718  333.354977  1747.531658  0.004861
60  677  252.797779  367.945536  -30.547177  333.657210  1256.714942  333.658315  1256.719450  0.004642
61  782  136.218706  561.201266  -51.362113  341.301142  755.607242  341.301906  755.609449  0.002336
62  623  291.592951  290.427743  -25.925742  347.042148  1446.776244  347.042841  1446.775797  0.000825
63  468  407.707692  96.551227  -26.878809  348.974815  1930.646800  348.973434  1930.645250  0.002076
64  748  175.105134  484.139100  -40.729407  351.790096  947.893374  351.789446  947.892837  0.000843
65  563  330.346665  212.868659  -23.621386  361.328668  1634.794782  361.328358  1634.795855  0.001117
66  703  213.966667  406.831273  -32.403235  363.456109  1139.990603  363.454215  1139.992776  0.002882
67  794  97.312912  599.733442  -56.913409  373.061083  637.912453  373.059485  637.912732  0.001622
68  651  252.797779  329.354983  -26.389922  376.185865  1331.177257  376.188147  1331.179697  0.003341
69  501  369.053413  135.345709  -23.633248  376.385427  1820.100699  376.386745  1820.097730  0.003248
70  767  136.218706  522.845161  -44.899106  382.832916  830.159211  382.829955  830.160388  0.003186
71  594  291.592951  251.787598  -22.693093  389.858167  1520.743546  389.858324  1520.744254  0.000726
72  436  407.707692  57.936228  -25.957766  392.077224  2002.058774  392.075840  2002.057710  0.001745
73  727  175.105134  445.661695  -35.186001  393.809314  1022.663461  393.808152  1022.664210  0.001382
74  533  330.346665  174.206551  -21.313672  404.345514  1708.000838  404.348923  1708.000604  0.003417
75  678  213.966667  368.260086  -27.782196  405.882364  1214.699439  405.882501  1214.699909  0.000490
76  783  97.312912  561.440788  -49.990572  414.406895  712.292375  414.407327  712.289599  0.002809
77  624  252.797779  290.717605  -22.693093  418.935679  1405.547405  418.937409  1405.545836  0.002335
78  469  369.053413  96.689254  -22.249873  419.515762  1892.290322  419.515359  1892.287080  0.003267
79  749  136.218706  484.414721  -38.893895  424.698174  904.918402  424.700374  904.920351  0.002939
80  564  291.592951  213.111655  -19.921398  432.845887  1594.503186  432.844343  1594.502412  0.001727
81  704  175.105134  407.120929  -30.101773  436.115520  1097.522592  436.113768  1097.522614  0.001752
82  795  58.393282  599.904034  -56.000910  446.489049  594.481410  446.489767  594.484349  0.003026
83  502  330.346665  135.519676  -19.467106  447.484236  1780.887276  447.484019  1780.889850  0.002583
84  652  213.966667  329.636543  -23.621386  448.547554  1289.378885  448.545748  1289.376601  0.002912
85  768  97.312912  523.068312  -43.524807  456.102133  786.942742  456.101890  786.944067  0.001347
86  595  252.797779  252.038895  -19.457218  461.875293  1479.770998  461.876350  1479.770670  0.001106
87  437  369.053413  58.019051  -21.327513  462.718272  1964.053236  462.715459  1964.056720  0.004478
88  728  136.218706  445.915410  -33.347333  466.867233  979.830432  466.866253  979.825840  0.004696
89  534  291.592951  174.405413  -17.611049  475.973673  1668.001854  475.974906  1668.002419  0.001356
90  679  175.105134  368.522280  -25.477444  478.678134  1172.415820  478.680997  1172.416579  0.002962
91  784  58.393282  561.600489  -49.076103  487.998853  668.925222  488.000000  668.925470  0.001174
92  470  330.346665  96.813533  -18.081952  490.713186  1853.402463  490.717391  1853.398993  0.005452
93  625  213.966667  290.966135  -19.921398  491.420454  1363.974089  491.418848  1363.973466  0.001722
94  750  97.312912  484.621471  -37.517032  498.117527  861.809629  498.117355  861.807073  0.002562
95  565  252.797779  213.324351  -16.682756  504.973088  1553.793924  504.973963  1553.794951  0.001349
96  407  369.053413  19.340600  -20.866300  505.961549  2035.340023  505.961359  2035.340259  0.000303
97  705  136.218706  407.352703  -28.260210  509.309818  1054.840453  509.308254  1054.839010  0.002128
98  503  291.592951  135.674375  -15.762375  519.209775  1741.186793  519.209747  1741.185619  0.001174
99  796  19.465350  599.989337  -55.544627  520.364349  551.054979  520.364245  551.056819  0.001843
100  653  175.105134  329.871238  -21.313672  521.466120  1247.288030  521.463237  1247.284243  0.004760
101  769  58.393282  523.217098  -42.608498  529.844666  743.648807  529.845008  743.648696  0.000360
102  438  330.346665  58.093626  -17.158407  534.000735  1925.495575  534.001205  1925.495182  0.000613
103  596  213.966667  252.254359  -16.682756  534.469516  1438.430319  534.468342  1438.431559  0.001707
104  729  97.312912  446.105728  -31.968104  540.423161  936.838493  540.422563  936.839016  0.000795
105  535  252.797779  174.579479  -14.370101  548.197268  1627.562476  548.197237  1627.563332  0.000857
106  680  136.218706  368.732080  -23.633248  551.995141  1129.893289  551.991534  1129.895188  0.004076
107  785  19.465350  561.680344  -48.618836  562.025285  625.537516  562.027024  625.537999  0.001805
108  471  291.592951  96.924048  -14.375640  562.522403  1814.005930  562.522913  1814.005427  0.000717
109  626  175.105134  291.173297  -17.611049  564.448066  1322.084072  564.447802  1322.080724  0.003358
110  751  58.393282  484.759320  -36.599015  571.996985  818.598129  571.997588  818.601655  0.003578
111  408  330.346665  19.365460  -16.696601  577.315356  1997.116725  577.314730  1997.114287  0.002517
112  566  213.966667  213.506719  -13.905922  577.662960  1512.693108  577.666341  1512.692859  0.003390
113  706  97.312912  407.526562  -26.878809  582.988554  1011.974306  582.988961  1011.974040  0.000486
114  504  252.797779  135.809785  -12.519583  591.515939  1701.023495  591.517526  1701.024040  0.001678
115  797  -19.465350  599.989337  -55.544627  594.634535  507.665204  594.634774  507.667940  0.002746
116  654  136.218706  330.059034  -19.467106  594.891981  1204.933577  594.893273  1204.933182  0.001351
117  770  19.465350  523.291496  -42.150312  604.008501  700.309015  604.007858  700.311656  0.002718
118  439  291.592951  58.159942  -13.451040  605.879811  1886.408000  605.882160  1886.408940  0.002530
119  597  175.105134  252.433959  -14.370101  607.592261  1396.748908  607.591401  1396.751400  0.002636
120  730  58.393282  446.232622  -31.048508  614.425687  893.718520  614.427937  893.721013  0.003358
121  536  213.966667  174.728724  -11.591290  620.968844  1586.708389  620.965586  1586.704418  0.005136
122  681  97.312912  368.889456  -22.249873  625.782729  1087.161697  625.785166  1087.160483  0.002722
123  472  252.797779  97.020784  -11.131463  634.897193  1774.124499  634.896424  1774.124715  0.000798
124  786  -19.465350  561.680344  -48.618836  636.433452  582.161234  636.433673  582.161084  0.000267
125  627  136.218706  291.339062  -15.762375  637.968757  1279.905909  637.970851  1279.905804  0.002097
126  752  19.465350  484.828250  -36.139974  646.284284  775.315370  646.280895  775.313474  0.003883
127  409  291.592951  19.387566  -12.988708  649.250374  1958.342672  649.250277  1958.343244  0.000580
128  567  175.105134  213.658731  -11.591290  650.866777  1471.227750  650.865480  1471.230538  0.003075
129  707  58.393282  407.642482  -25.957766  657.100098  968.954811  657.098302  968.953991  0.001974
130  505  213.966667  135.925887  -9.739189  664.355156  1660.422628  664.353511  1660.420288  0.002860
131  655  97.312912  330.199904  -18.081952  668.774295  1162.345096  668.775216  1162.344243  0.001255
132  798  -58.393282  599.904034  -56.000910  669.246267  464.344256  669.246655  464.345055  0.000888
133  440  252.797779  58.217988  -10.205941  678.309186  1846.813808  678.309665  1846.810929  0.002918
134  771  -19.465350  523.291496  -42.150312  678.540639  656.955260  678.539580  656.955412  0.001070
135  598  136.218706  252.577670  -12.519583  681.193615  1354.754973  681.192005  1354.754821  0.001617
136  731  19.465350  446.296074  -30.588678  688.822318  850.501823  688.825759  850.500904  0.003561
137  379  291.592951  -19.387566  -12.988708  692.602669  2029.760663  692.602615  2029.764517  0.003854
138  537  175.105134  174.853127  -9.275010  694.239556  1545.466200  694.235878  1545.467775  0.004002
139  682  58.393282  368.994386  -21.327513  699.989073  1044.251475  699.987932  1044.251959  0.001239
140  473  213.966667  97.103725  -8.349884  707.789889  1733.782967  707.787840  1733.782411  0.002123
141  787  -58.393282  561.600489  -49.076103  711.169741  538.828517  711.170254  538.824307  0.004241
142  628  97.312912  291.463406  -14.375640  711.931528  1237.468869  711.933752  1237.467104  0.002839
143  753  -19.465350  484.828250  -36.139974  720.926187  731.993140  720.927377  731.994567  0.001859
144  410  252.797779  19.406916  -9.743147  721.720220  1919.040676  721.718305  1919.041659  0.002153
145  568  136.218706  213.780367  -9.739189  724.534505  1429.425697  724.533146  1429.422258  0.003698
146  708  19.465350  407.700446  -25.497212  731.591757  925.813101  731.592964  925.814581  0.001909
147  506  175.105134  136.022664  -7.421591  737.678484  1619.410389  737.678588  1619.410555  0.000196
148  656  58.393282  330.293829  -17.158407  743.061075  1119.552767  743.058406  1119.552198  0.002729
149  799  -97.312912  599.733442  -56.913409  744.145439  421.124348  744.146463  421.121577  0.002954
150  441  213.966667  58.267758  -7.423570  751.241126  1806.737342  751.240014  1806.740668  0.003507
151  772  -58.393282  523.217098  -42.608498  753.387217  613.619634  753.388404  613.624831  0.005331
152  599  97.312912  252.685470  -11.131463  755.222449  1312.477471  755.221560  1312.477701  0.000918
153  732  -19.465350  446.296074  -30.588678  763.559606  807.220067  763.562655  807.219859  0.003056
154  380  252.797779  -19.406916  -9.743147  765.098822  1990.755403  765.101125  1990.755032  0.002333
155  538  136.218706  174.952671  -7.421591  767.959268  1503.863388  767.958859  1503.863668  0.000495
156  683  19.465350  369.046855  -20.866300  774.561309  1001.193558  774.560055  1001.191935  0.002051
157  474  175.105134  97.172861  -6.031296  781.151481  1693.007110  781.153188  1693.007249  0.001713
158  788  -97.312912  561.440788  -49.990572  786.179791  495.571587  786.178561  495.568152  0.003649
159  629  58.393282  291.546313  -13.451040  786.284253  1194.802871  786.284083  1194.802847  0.000172
160  411  213.966667  19.423506  -6.960380  794.677118  1879.234620  794.679502  1879.233517  0.002627
161  754  -58.393282  484.759320  -36.599015  795.868612  688.663468  795.869187  688.663380  0.000582
162  569  97.312912  213.871609  -8.349884  798.614909  1387.315579  798.615713  1387.314377  0.001447
163  709  -19.465350  407.700446  -25.497212  806.409903  882.580701  806.407902  882.580661  0.002001
164  507  136.218706  136.100101  -5.567117  811.435716  1578.013872  811.433581  1578.013878  0.002135
165  657  19.465350  330.340794  -16.696601  817.699310  1076.587317  817.699300  1076.587740  0.000423
166  800  -136.218706  599.477583  -58.281997  819.277322  378.037657  819.279544  378.037389  0.002238
167  442  175.105134  58.309243  -5.104323  824.626577  1766.203948  824.627247  1766.203419  0.000853
168  773  -97.312912  523.068312  -43.524807  828.493649  570.334351  828.493371  570.331258  0.003106
169  600  58.393282  252.757346  -10.205941  829.626529  1269.946039  829.623515  1269.948681  0.004008
170  381  213.966667  -19.423506  -6.960380  838.066364  1951.224712  838.067580  1951.224807  0.001219
171  733  -58.393282  446.232622  -31.048508  838.583283  763.905196  838.581853  763.906497  0.001933
172  539  97.312912  175.027341  -6.031296  842.076671  1461.928241  842.075189  1461.930247  0.002495
173  684  -19.465350  369.046855  -20.866300  849.445657  958.019315  849.441690  958.020528  0.004148
174  475  136.218706  97.228182  -4.176030  854.931716  1651.823628  854.932728  1651.822158  0.001785
175  630  19.465350  291.587769  -12.988708  860.973807  1151.938410  860.975080  1151.939639  0.001770
176  789  -136.218706  561.201266  -51.362113  861.408634  452.422668  861.407902  452.422349  0.000799
177  412  175.105134  19.437336  -4.640803  868.071996  1838.949413  868.069797  1838.948937  0.002250
178  755  -97.312912  484.621471  -37.517032  871.056772  645.358538  871.057357  645.360183  0.001746
179  570  58.393282  213.932445  -7.423570  873.055673  1344.926739  873.055897  1344.927786  0.001070
180  349  213.966667  -58.267758  -7.423570  881.377687  2022.658693  881.376454  2022.662719  0.004210
181  710  -58.393282  407.642482  -25.957766  881.500105  839.289452  881.500000  839.285699  0.003754
182  508  97.312912  136.158189  -4.176030  885.575494  1536.261012  885.574820  1536.260454  0.000875
183  658  -19.465350  330.340794  -16.696601  892.635097  1033.479935  892.636421  1033.481630  0.002151
184  443  136.218706  58.342439  -3.248529  898.415268  1725.239924  898.413671  1725.236689  0.003607
185  774  -136.218706  522.845161  -44.899106  903.804754  527.131662  903.803520  527.132543  0.001516
186  601  19.465350  252.793287  -9.743147  904.352640  1227.190929  904.352052  1227.190644  0.000654
187  382  175.105134  -19.437336  -4.640803  911.456232  1911.193054  911.458306  1911.190241  0.003495
188  734  -97.312912  446.105728  -31.968104  913.838388  720.589350  913.838571  720.589393  0.000188
189  540  58.393282  175.077127  -5.104323  916.539395  1419.689793  916.538570  1419.694057  0.004343
190  685  -58.393282  368.994386  -21.327513  924.587551  914.760465  924.589593  914.763456  0.003622
191  476  97.312912  97.269679  -2.784350  929.079213  1610.260094  929.079649  1610.261009  0.001013
192  631  -19.465350  291.587769  -12.988708  935.946190  1108.906484  935.947056  1108.906518  0.000866
193  790  -175.105134  560.881955  -53.190531  936.800831  409.413898  936.802037  409.411010  0.003130
194  413  136.218706  19.448401  -2.784746  941.854591  1798.210940  941.854946  1798.210995  0.000359
195  756  -136.218706  484.414721  -38.893895  946.435309  602.110611  946.435738  602.110281  0.000542
196  571  19.465350  213.962864  -6.960380  947.803524  1302.289168  947.803572  1302.291150  0.001983
197  350  175.105134  -58.309243  -5.104323  954.748128  1982.885585  954.749146  1982.885661  0.001021
198  711  -97.312912  407.526562  -26.878809  956.807262  795.971429  956.808628  795.974009  0.002919
199  509  58.393282  136.196919  -3.248529  960.045421  1494.180524  960.044048  1494.181963  0.001989
200  659  -58.393282  330.293829  -17.158407  967.813767  990.262204  967.813547  990.260732  0.001489
201  444  97.312912  58.367340  -1.856453  972.555825  1683.872465  972.555808  1683.873809  0.001345
202  775  -175.105134  522.547674  -46.731201  979.264906  484.043771  979.263705  484.043394  0.001259
203  602  -19.465350  252.793287  -9.743147  979.346717  1184.242931  979.346472  1184.244993  0.002077
204  383  136.218706  -19.448401  -2.784746  985.218200  1870.685896  985.215601  1870.685511  0.002627
205  735  -136.218706  445.915410  -33.347333  989.269414  677.304780  989.269432  677.303218  0.001562
206  541  19.465350  175.102022  -4.640803  991.294136  1377.177762  991.294868  1377.176248  0.001681
207  686  -97.312912  368.889456  -22.249873  999.931780  871.449001  999.933672  871.448946  0.001893
208  477  58.393282  97.297347  -1.856453  1003.541582  1568.344886  1003.541583  1568.343913  0.000973
209  632  -58.393282  291.546313  -13.451040  1011.146660  1065.738521  1011.147803  1065.740476  0.002265
210  791  -213.966667  560.482903  -55.475566  1012.300616  366.577248  1012.296844  366.578183  0.003886
211  414  97.312912  19.456702  -1.392472  1015.973566  1757.046011  1015.975701  1757.045830  0.002142
212  757  -175.105134  484.139100  -40.729407  1021.948436  558.951942  1021.950179  558.951386  0.001829
213  572  -19.465350  213.962864  -6.960380  1022.804360  1259.433431  1022.804570  1259.432450  0.001003
214  351  136.218706  -58.342439  -3.248529  1028.474978  1942.615171  1028.475894  1942.616312  0.001463
215  712  -136.218706  407.352703  -28.260210  1032.275745  752.658859  1032.273919  752.657712  0.002157
216  510  19.465350  136.216285  -2.784746  1034.792195  1451.801833  1034.792918  1451.802558  0.001024
217  660  -97.312912  330.199904  -18.081952  1043.180028  946.966017  1043.182793  946.970399  0.005181
218  445  58.393282  58.383942  -0.928293  1046.995889  1642.129605  1046.996375  1642.132648  0.003082
219  603  -58.393282  252.757346  -10.205941  1054.553975  1141.133300  1054.554665  1141.129974  0.003397
220  776  -213.966667  522.175895  -49.020832  1054.818171  441.102753  1054.816390  441.101855  0.001995
221  384  97.312912  -19.456702  -1.392472  1059.300990  1829.729655  1059.300987  1829.730404  0.000749
222  736  -175.105134  445.661695  -35.186001  1064.820444  634.083772  1064.817934  634.084168  0.002541
223  542  -19.465350  175.102022  -4.640803  1066.286787  1334.422471  1066.284414  1334.424922  0.003411
224  319  136.218706  -97.228182  -4.176030  1071.594258  2013.950412  1071.592479  2013.949255  0.002122
225  687  -136.218706  368.732080  -23.633248  1075.422626  828.117108  1075.424534  828.116382  0.002041
226  478  19.465350  97.311182  -1.392472  1078.265546  1526.107128  1078.265778  1526.105826  0.001322
227  633  -97.312912  291.463406  -14.375640  1086.519874  1022.466297  1086.520804  1022.465930  0.000999
228  792  -252.797779  560.004164  -58.216893  1087.852040  323.944438  1087.851517  323.945561  0.001239
229  415  58.393282  19.462236  -0.464179  1090.376620  1715.482306  1090.375251  1715.484934  0.002963
230  758  -213.966667  483.794648  -43.023308  1097.540080  515.914690  1097.539857  515.916813  0.002135
231  573  -58.393282  213.932445  -7.423570  1098.003384  1216.390596  1098.006641  1216.390975  0.003279
232  352  97.312912  -58.367340  -1.856453  1102.507049  1901.873467  1102.505122  1901.873968  0.001991
233  713  -175.105134  407.120929  -30.101773  1107.849540  709.384041  1107.849022  709.382972  0.001187
234  511  -19.465350  136.216285  -2.784746  1109.761729  1409.155011  1109.760092  1409.154858  0.001644
235  661  -136.218706  330.059034  -19.467106  1118.678101  903.623499  1118.682007  903.624753  0.004103
236  446  19.465350  58.392244  -0.464179  1121.682240  1600.040154  1121.683067  1600.037992  0.002315
237  604  -97.312912  252.685470  -11.131463  1129.919050  1097.893676  1129.919274  1097.892668  0.001032
238  777  -252.797779  521.729877  -51.767673  1130.408452  398.340471  1130.408149  398.338885  0.001615
239  385  58.393282  -19.462236  -0.464179  1133.652393  1788.351641  1133.654101  1788.350714  0.001943
240  737  -213.966667  445.344619  -37.483846  1140.435297  590.958558  1140.436341  590.958483  0.001047
241  543  -58.393282  175.077127  -5.104323  1141.462565  1291.454784  1141.461430  1291.451788  0.003204
242  320  97.312912  -97.269679  -2.784350  1145.561164  1973.428786  1145.563881  1973.427682  0.002933
243  688  -175.105134  368.522280  -25.477444  1151.004004  784.797079  1151.006645  784.800289  0.004157
244  479  -19.465350  97.311182  -1.392472  1153.197071  1483.576624  1153.198333  1483.576166  0.001343
245  634  -136.218706  291.339062  -15.762375  1162.010023  979.121856  1162.010878  979.122876  0.001331
246  759  -252.797779  483.381413  -45.775271  1173.154028  473.030845  1173.155800  473.029032  0.002535
247  574  -97.312912  213.871609  -8.349884  1173.345239  1173.192151  1173.341623  1173.192688  0.003656
248  353  58.393282  -58.383942  -0.928293  1176.792248  1860.687407  1176.794396  1860.689355  0.002900
249  714  -213.966667  406.831273  -32.403235  1183.472387  666.179257  1183.471342  666.178680  0.001194
250  512  -58.393282  136.196919  -3.248529  1184.899288  1366.270700  1184.899602  1366.271250  0.000634
251  288  97.312912  -136.158189  -4.176030  1188.433295  2044.348321  1188.433301  2044.343561  0.004760
252  662  -175.105134  329.871238  -21.313672  1194.251865  860.266918  1194.251628  860.265488  0.001449
253  447  -19.465350  58.392244  -0.464179  1196.560926  1557.633631  1196.558190  1557.636580  0.004023
254  605  -136.218706  252.577670  -12.519583  1205.386135  1054.556009  1205.384660  1054.556917  0.001733
255  778  -291.592951  521.209682  -54.971333  1205.979633  355.788493  1205.980053  355.789286  0.000897
256  738  -252.797779  444.964226  -40.240541  1216.057674  547.961232  1216.056502  547.962837  0.001987
257  544  -97.312912  175.027341  -6.031296  1216.766155  1248.306022  1216.765275  1248.306001  0.000880
258  321  58.393282  -97.297347  -1.856453  1219.765716  1932.440662  1219.766786  1932.442287  0.001946
259  801  0.000000  0.000000  0.000000  1224.000000  1689.010817  1224.000000  1689.011478  0.000661
260  689  -213.966667  368.260086  -27.782196  1226.619611  741.521233  1226.620390  741.521068  0.000796
261  480  -58.393282  97.297347  -1.856453  1228.281498  1440.783779  1228.285290  1440.785341  0.004101
262  635  -175.105134  291.173297  -17.611049  1237.560982  935.737429  1237.561474  935.741676  0.004276
263  760  -291.592951  482.899454  -48.984906  1248.734069  430.332136  1248.734190  430.332176  0.000127
264  575  -136.218706  213.780367  -9.739189  1248.774152  1129.869932  1248.771878  1129.870915  0.002478
265  354  19.465350  -58.392244  -0.464179  1251.277697  1819.084790  1251.277904  1819.086286  0.001511
266  715  -252.797779  406.483776  -35.164269  1259.087933  623.076695  1259.089684  623.075793  0.001970
267  513  -97.312912  136.158189  -4.176030  1260.149627  1323.180037  1260.146689  1323.181735  0.003393
268  289  58.393282  -136.196919  -3.248529  1262.542892  2003.563831  1262.542186  2003.565086  0.001440
269  663  -213.966667  329.636543  -23.621386  1269.845000  816.928611  1269.844486  816.928506  0.000525
270  448  -58.393282  58.383942  -0.928293  1271.577395  1514.940195  1271.576418  1514.942731  0.002717
271  606  -175.105134  252.433959  -14.370101  1280.899128  1011.152471  1280.900687  1011.150780  0.002300
272  739  -291.592951  444.520571  -43.455694  1291.631302  505.123670  1291.631818  505.121772  0.001967
273  545  -136.218706  174.952671  -7.421591  1292.141846  1205.007889  1292.144731  1205.006645  0.003141
274  322  19.465350  -97.311182  -1.392472  1294.155209  1891.013481  1294.157122  1891.011458  0.002784
275  690  -252.797779  367.945536  -30.547177  1302.213068  698.321827  1302.211511  698.320110  0.002318
276  481  -97.312912  97.269679  -2.784350  1303.463683  1397.759533  1303.464161  1397.762315  0.002823
277  636  -213.966667  290.966135  -19.921398  1313.116445  892.345350  1313.114753  892.343906  0.002224
278  416  -58.393282  19.462236  -0.464179  1314.755512  1588.686991  1314.757423  1588.690375  0.003886
279  761  -330.346665  482.348840  -52.651756  1324.224146  387.849954  1324.225843  387.849084  0.001907
280  576  -175.105134  213.658731  -11.591290  1324.234075  1086.456036  1324.234381  1086.456382  0.000462
281  355  -19.465350  -58.392244  -0.464179  1325.909861  1777.094212  1325.910148  1777.093482  0.000784
282  716  -291.592951  406.078489  -38.384484  1334.639873  580.108358  1334.641456  580.106136  0.002728
283  514  -136.218706  136.100101  -5.567117  1335.457127  1279.914580  1335.458935  1279.916813  0.002873
284  290  19.465350  -136.216285  -2.784746  1336.822174  1962.318243  1336.823867  1962.315666  0.003083
285  664  -252.797779  329.354983  -26.389922  1345.401136  773.640893  1345.397910  773.643046  0.003878
286  449  -97.312912  58.367340  -1.856453  1346.676630  1471.990569  1346.675045  1471.991537  0.001857
287  607  -213.966667  252.254359  -16.682756  1356.401771  967.715377  1356.398631  967.718427  0.004378
288  386  -58.393282  -19.462236  -0.464179  1357.784795  1661.972206  1357.783375  1661.973420  0.001868
289  740  -330.346665  444.013718  -47.128849  1367.100081  462.477447  1367.099355  462.477674  0.000760
290  546  -175.105134  174.853127  -9.275010  1367.533675  1161.592391  1367.532223  1161.593658  0.001927
291  323  -19.465350  -97.311182  -1.392472  1368.676304  1849.175509  1368.678703  1849.175034  0.002446
292  691  -291.592951  367.578673  -33.771995  1377.728068  655.230980  1377.729090  655.231740  0.001273
293  482  -136.218706  97.228182  -4.176030  1378.688131  1354.535277  1378.691044  1354.533749  0.003289
294  259  19.465350  -175.102022  -4.640803  1379.249497  2032.952712  1379.249094  2032.951701  0.001089
295  637  -252.797779  290.717605  -22.693093  1388.620080  848.977972  1388.619289  848.978265  0.000844
296  417  -97.312912  19.456702  -1.392472  1389.757131  1545.820063  1389.756929  1545.819697  0.000418
297  762  -369.053413  481.729649  -56.775299  1399.568491  345.615270  1399.568361  345.617147  0.001882
298  577  -213.966667  213.506719  -13.905922  1399.668829  1042.982741  1399.668394  1042.983708  0.001060
299  356  -58.393282  -58.383942  -0.928293  1400.634681  1734.745002  1400.635789  1734.747628  0.002850
300  717  -330.346665  405.615468  -42.063420  1410.072096  537.305989  1410.072883  537.303901  0.002231
301  515  -175.105134  136.022664  -7.421591  1410.765944  1236.506223  1410.769405  1236.509040  0.004462
302  291  -19.465350  -136.216285  -2.784746  1411.218028  1920.639484  1411.216074  1920.643517  0.004482
303  665  -291.592951  329.026598  -29.618885  1420.863996  730.435975  1420.867173  730.436349  0.003199
304  450  -136.218706  58.342439  -3.248529  1421.803290  1428.815965  1421.801111  1428.814984  0.002390
305  608  -252.797779  252.038895  -19.457218  1431.837801  924.277101  1431.838606  924.278344  0.001481
306  387  -97.312912  -19.456702  -1.392472  1432.674287  1619.195921  1432.674670  1619.196671  0.000842
307  741  -369.053413  443.443737  -51.259482  1442.408228  420.053754  1442.408729  420.053766  0.000501
308  547  -213.966667  174.728724  -11.591290  1442.885573  1118.091750  1442.886087  1118.094575  0.002871
309  324  -58.393282  -97.297347  -1.856453  1443.275162  1806.955775  1443.277904  1806.957762  0.003386
310  692  -330.346665  367.159551  -37.456191  1453.108524  612.280584  1453.107569  612.280082  0.001079
311  260  -19.465350  -175.102022  -4.640803  1453.506135  1991.439537  1453.504821  1991.437324  0.002573
312  483  -175.105134  97.172861  -6.031296  1453.899141  1311.142781  1453.900749  1311.145256  0.002952
313  638  -291.592951  290.427743  -25.925742  1464.015671  805.667583  1464.015076  805.666182  0.001522
314  418  -136.218706  19.448401  -2.784746  1464.771423  1502.703472  1464.775078  1502.703843  0.003674
315  578  -252.797779  213.324351  -16.682756  1475.022250  999.482423  1475.021640  999.479744  0.002747
316  357  -97.312912  -58.367340  -1.856453  1475.397706  1692.067153  1475.399311  1692.066296  0.001819
317  718  -369.053413  405.094779  -46.200556  1485.328834  494.700983  1485.325004  494.701183  0.003835
318  292  -58.393282  -136.196919  -3.248529  1485.676863  1878.556270  1485.678988  1878.554841  0.002560
319  516  -213.966667  135.925887  -9.739189  1486.020144  1192.987119  1486.021105  1192.989573  0.002636
320  666  -330.346665  328.651433  -33.307816  1496.177543  687.345882  1496.178217  687.342226  0.003718
321  451  -175.105134  58.309243  -5.104323  1496.901853  1385.448009  1496.900577  1385.447199  0.001512
322  609  -291.592951  251.787598  -22.693093  1507.151094  880.869990  1507.149104  880.871441  0.002463
323  388  -136.218706  -19.448401  -2.784746  1507.561801  1576.145601  1507.560972  1576.145588  0.000829
324  742  -407.707692  442.810711  -55.847006  1517.500420  377.883322  1517.502714  377.886232  0.003705
325  325  -97.312912  -97.269679  -2.784350  1517.897579  1764.384001  1517.898767  1764.385674  0.002052
326  548  -252.797779  174.579479  -14.370101  1518.141505  1074.538327  1518.138687  1074.537061  0.003090
327  261  -58.393282  -175.077127  -5.104323  1527.811101  1949.499681  1527.812989  1949.500000  0.001914
328  693  -369.053413  366.688228  -41.599241  1528.298708  569.502221  1528.296296  569.503616  0.002786
329  484  -213.966667  97.103725  -8.349884  1529.040951  1267.614107  1529.041031  1267.616501  0.002395
330  639  -330.346665  290.096590  -29.618885  1539.247264  762.446325  1539.244467  762.446839  0.002844
331  419  -175.105134  19.437336  -4.640803  1539.743068  1459.368682  1539.745974  1459.365798  0.004095
332  358  -136.218706  -58.342439  -3.248529  1550.144230  1649.091249  1550.145950  1649.093879  0.003142
333  579  -291.592951  213.111655  -19.921398  1550.238336  955.987471  1550.239581  955.989730  0.002580
334  293  -97.312912  -136.158189  -4.176030  1560.144747  1836.098040  1560.146372  1836.097380  0.001754
335  719  -407.707692  404.516497  -50.795302  1560.354797  452.324311  1560.351784  452.322201  0.003679
336  517  -252.797779  135.809785  -12.519583  1561.163855  1149.389592  1561.162543  1149.388655  0.001612
337  231  -58.393282  -213.932445  -7.423570  1569.649950  2019.740751  1569.649274  2019.743566  0.002895
338  667  -369.053413  328.229543  -37.456191  1571.286125  644.402370  1571.282605  644.398991  0.004879
339  452  -213.966667  58.267758  -7.423570  1571.916752  1341.918656  1571.917460  1341.919274  0.000940
340  610  -330.346665  251.500503  -26.389922  1582.285807  837.526284  1582.286830  837.525629  0.001215
341  389  -175.105134  -19.437336  -4.640803  1582.392255  1532.852535  1582.392019  1532.851435  0.001125
342  326  -136.218706  -97.228182  -4.176030  1592.489117  1721.490531  1592.488563  1721.490369  0.000577
343  549  -291.592951  174.405413  -17.611049  1593.245621  1030.964534  1593.245472  1030.964983  0.000473
344  262  -97.312912  -175.027341  -6.031296  1602.110763  1907.162288  1602.110386  1907.160740  0.001593
345  694  -407.707692  366.164772  -46.200556  1603.243400  526.927089  1603.244113  526.926989  0.000721
346  485  -252.797779  97.020784  -11.131463  1604.057878  1223.981528  1604.056736  1223.984748  0.003416
347  640  -369.053413  289.724193  -33.771995  1614.259310  719.346107  1614.254795  719.347653  0.004773
348  420  -213.966667  19.423506  -6.960380  1614.616730  1415.847524  1614.618810  1415.845995  0.002582
349  359  -175.105134  -58.309243  -5.104323  1624.819433  1605.848385  1624.817436  1605.848894  0.002060
350  580  -330.346665  212.868659  -23.621386  1625.261387  912.530204  1625.258164  912.531622  0.003521
351  294  -136.218706  -136.100101  -5.567117  1634.567538  1793.294885  1634.567237  1793.291052  0.003845
352  720  -446.304005  403.880703  -55.847006  1635.095322  410.206442  1635.096899  410.207535  0.001919
353  518  -291.592951  135.674375  -15.762375  1636.141407  1105.746061  1636.141073  1105.746065  0.000334
354  232  -97.312912  -213.871609  -8.349884  1643.767959  1977.531300  1643.769543  1977.531622  0.001617
355  668  -407.707692  327.760988  -42.063420  1646.134615  601.636844  1646.134088  601.636931  0.000534
356  453  -252.797779  58.217988  -10.205941  1646.792525  1298.260110  1646.792791  1298.259053  0.001090
357  390  -213.966667  -19.423506  -6.960380  1657.110565  1489.348414  1657.108053  1489.348522  0.002514
358  611  -369.053413  251.177652  -30.547177  1657.186526  794.278028  1657.184904  794.278947  0.001864
359  327  -175.105134  -97.172861  -6.031296  1666.995245  1678.306254  1666.995167  1678.307843  0.001591
360  550  -330.346665  174.206551  -21.313672  1668.142395  987.402752  1668.143226  987.404325  0.001779
361  263  -136.218706  -174.952671  -7.421591  1676.351302  1864.457181  1676.348522  1864.454526  0.003844
362  695  -446.304005  365.589257  -51.259482  1677.888021  484.585917  1677.892068  484.586330  0.004068
363  486  -291.592951  96.924048  -14.375640  1678.894464  1180.277448  1678.894777  1180.277839  0.000501
364  641  -407.707692  289.310605  -38.384484  1688.996810  676.398527  1688.996983  676.397377  0.001163
365  421  -252.797779  19.406916  -9.743147  1689.337192  1372.172116  1689.336603  1372.173005  0.001067
366  360  -213.966667  -58.267758  -7.423570  1699.368514  1562.370097  1699.366211  1562.366814  0.004010
367  581  -369.053413  212.595400  -27.782196  1700.036154  869.142787  1700.030828  869.144217  0.005515
368  295  -175.105134  -136.022664  -7.421591  1708.891022  1750.177474  1708.890490  1750.177842  0.000647
369  519  -330.346665  135.519676  -19.467106  1710.897477  1062.088949  1710.895756  1062.089136  0.001731
370  233  -136.218706  -213.780367  -9.739189  1717.813014  1934.931817  1717.812302  1934.931686  0.000724
371  669  -446.304005  327.245833  -47.128849  1720.668556  559.080279  1720.666181  559.080807  0.002433
372  454  -291.592951  58.159942  -13.451040  1721.473953  1254.504744  1721.477990  1254.505126  0.004055
373  391  -252.797779  -19.406916  -9.743147  1731.661794  1445.665250  1731.665534  1445.667946  0.004610
374  612  -407.707692  250.819090  -35.164269  1731.798408  751.156994  1731.797118  751.156959  0.001290
375  328  -213.966667  -97.103725  -8.349884  1741.361474  1634.862532  1741.360490  1634.862122  0.001066
376  551  -369.053413  173.982922  -25.477444  1742.776770  943.885245  1742.777839  943.886126  0.001385
377  264  -175.105134  -174.853127  -9.275010  1750.478847  1821.414796  1750.478618  1821.412968  0.001843
378  696  -484.836866  364.961765  -56.775299  1752.178778  442.508893  1752.176543  442.506625  0.003184
379  487  -330.346665  96.813533  -18.081952  1753.495615  1136.534316  1753.495781  1136.536762  0.002451
380  203  -136.218706  -252.577670  -12.519583  1758.926126  2004.674805  1758.924487  2004.673429  0.002140
381  642  -446.304005  288.855884  -43.455694  1763.405451  633.634789  1763.404424  633.637786  0.003169
382  422  -291.592951  19.387566  -12.988708  1763.849503  1328.374778  1763.849516  1328.375390  0.000612
383  361  -252.797779  -58.217988  -10.205941  1773.736840  1518.688273  1773.738411  1518.690146  0.002445
384  582  -407.707692  212.291915  -32.403235  1774.507976  825.857149  1774.506641  825.860449  0.003560
385  296  -213.966667  -135.925887  -9.739189  1783.061048  1706.776979  1783.059701  1706.776537  0.001418
386  520  -369.053413  135.345709  -23.633248  1785.377230  1018.450602  1785.372762  1018.451572  0.004572
387  234  -175.105134  -213.658731  -11.591290  1791.731615  1891.972486  1791.728236  1891.970986  0.003696
388  670  -484.836866  326.684154  -52.651756  1794.834289  516.763144  1794.833373  516.761467  0.001910
389  455  -330.346665  58.093626  -17.158407  1795.906202  1210.685010  1795.908229  1210.683891  0.002316
390  392  -291.592951  -19.387566  -12.988708  1805.991284  1401.835297  1805.993351  1401.833417  0.002794
391  613  -446.304005  250.424868  -40.240541  1806.067315  708.194600  1806.066374  708.197048  0.002623
392  329  -252.797779  -97.020784  -11.131463  1815.533500  1591.191117  1815.534088  1591.187730  0.003438
393  552  -407.707692  173.734558  -30.101773  1817.094298  900.444081  1817.091527  900.441504  0.003784
394  265  -213.966667  -174.728724  -11.591290  1824.439611  1778.066099  1824.441965  1778.063347  0.003622
395  488  -369.053413  96.689254  -22.249873  1827.806747  1092.784541  1827.807628  1092.783486  0.001375
396  204  -175.105134  -252.433959  -14.370101  1832.623085  1961.806417  1832.622426  1961.806825  0.000775
397  643  -484.836866  288.360097  -48.984906  1837.431742  591.085627  1837.433506  591.085704  0.001766
398  423  -330.346665  19.365460  -16.696601  1838.099118  1284.487954  1838.099295  1284.488241  0.000337
399  362  -291.592951  -58.159942  -13.451040  1847.870076  1474.835082  1847.870556  1474.836195  0.001212
400  583  -446.304005  211.958248  -37.483846  1848.622919  782.704901  1848.623777  782.708102  0.003314
401  297  -252.797779  -135.809785  -12.519583  1857.023669  1663.124995  1857.021176  1663.126055  0.002708
402  521  -407.707692  135.152500  -28.260210  1859.526459  974.863209  1859.526880  974.865193  0.002029
403  235  -213.966667  -213.506719  -13.905922  1865.470362  1848.684056  1865.471960  1848.688439  0.004665
404  456  -369.053413  58.019051  -21.327513  1870.034964  1166.833364  1870.032584  1166.830711  0.003564
405  175  -175.105134  -291.173297  -17.611049  1873.127932  2030.874147  1873.127428  2030.872572  0.001653
406  614  -484.836866  249.995042  -45.775271  1879.939951  665.421830  1879.941594  665.420055  0.002418
407  393  -330.346665  -19.365460  -16.696601  1880.044804  1357.890965  1880.044226  1357.890767  0.000611
408  330  -291.592951  -96.924048  -14.375640  1889.457338  1547.324069  1889.460178  1547.320803  0.004328
409  553  -446.304005  173.461493  -35.186001  1891.041276  857.111049  1891.039974  857.112182  0.001726
410  266  -252.797779  -174.579479  -14.370101  1898.180025  1734.442513  1898.178557  1734.444500  0.002471
411  489  -407.707692  96.551227  -26.878809  1901.773920  1049.060412  1901.775003  1049.060836  0.001163
412  205  -213.966667  -252.254359  -16.682756  1906.127385  1918.586609  1906.126405  1918.586373  0.001008
413  644  -523.300796  287.823311  -54.971333  1911.023148  548.781232  1911.023560  548.781562  0.000528
414  424  -369.053413  19.340600  -20.866300  1912.032032  1240.544120  1912.034861  1240.544028  0.002830
415  363  -330.346665  -58.093626  -17.158407  1921.714329  1430.842881  1921.714336  1430.842437  0.000444
416  584  -484.836866  211.594446  -43.023308  1922.327910  739.717259  1922.325738  739.720141  0.003609
417  298  -291.592951  -135.674375  -15.762375  1930.725271  1619.253462  1930.724535  1619.253746  0.000789
418  522  -446.304005  134.940076  -33.347333  1933.291718  931.358715  1933.289599  931.356614  0.002984
419  236  -252.797779  -213.324351  -16.682756  1938.976094  1805.097761  1938.975064  1805.099696  0.002192
420  457  -407.707692  57.936228  -25.957766  1943.806594  1122.982175  1943.807054  1122.981888  0.000542
421  176  -213.966667  -290.966135  -19.921398  1946.385690  1987.731188  1946.385925  1987.734358  0.003179
422  615  -523.300796  249.529674  -51.767673  1953.363993  622.869156  1953.362741  622.871624  0.002767
423  394  -369.053413  -19.340600  -20.866300  1953.768679  1313.864736  1953.767509  1313.863583  0.001643
424  331  -330.346665  -96.813533  -18.081952  1963.079460  1503.293679  1963.078488  1503.295582  0.002137
425  554  -484.836866  173.163766  -40.729407  1964.564880  813.917578  1964.563659  813.917466  0.001226
426  267  -291.592951  -174.405413  -17.611049  1971.646878  1690.575838  1971.652683  1690.576793  0.005883
427  490  -446.304005  96.399474  -31.968104  1975.343974  1005.394014  1975.341688  1005.393455  0.002354
428  206  -252.797779  -252.038895  -19.457218  1979.386292  1875.046411  1979.384937  1875.047093  0.001517
429  425  -407.707692  19.312991  -25.497212  1985.594920  1196.575709  1985.595464  1196.573179  0.002588
430  364  -369.053413  -58.019051  -21.327513  1995.216282  1386.744142  1995.218282  1386.745498  0.002416
431  585  -523.300796  211.200561  -49.020832  1995.570866  696.924964  1995.569087  696.925308  0.001812
432  299  -330.346665  -135.519676  -19.467106  2004.112717  1575.194583  2004.111458  1575.197392  0.003079
433  523  -484.836866  134.708467  -38.893895  2006.620459  887.968744  2006.622159  887.970451  0.002409
434  237  -291.592951  -213.111655  -19.921398  2012.196017  1761.245246  2012.193214  1761.243971  0.003080
435  458  -446.304005  57.845167  -31.048508  2017.168244  1079.163648  2017.171252  1079.162199  0.003339
436  177  -252.797779  -290.717605  -22.693093  2019.385982  1944.245792  2019.384622  1944.244080  0.002186
437  616  -561.690327  249.028830  -58.216893  2026.288216  580.566471  2026.284239  580.566898  0.004000
438  395  -407.707692  -19.312991  -25.497212  2027.109932  1269.789087  2027.111527  1269.786771  0.002812
439  332  -369.053413  -96.689254  -22.249873  2036.346926  1459.132385  2036.345615  1459.132589  0.001326
440  555  -523.300796  172.841420  -46.731201  2037.613293  770.894659  2037.611310  770.897561  0.003514
441  268  -330.346665  -174.206551  -21.313672  2044.787441  1646.498174  2044.788088  1646.496384  0.001904
442  491  -484.836866  96.234016  -37.517032  2048.464661  961.817148  2048.466797  961.820002  0.003565
443  207  -291.592951  -251.787598  -22.693093  2052.347459  1831.217294  2052.347050  1831.215601  0.001741
444  426  -446.304005  19.282636  -30.588678  2058.735270  1152.615026  2058.737374  1152.616488  0.002562
445  150  -252.797779  -329.354983  -26.389922  2058.951513  2012.654970  2058.952303  2012.654307  0.001031
446  586  -561.690327  210.776648  -55.475566  2068.300819  654.358211  2068.297082  654.353163  0.006281
447  365  -407.707692  -57.936228  -25.957766  2068.323325  1342.571362  2068.320210  1342.573783  0.003945
448  300  -369.053413  -135.345709  -23.633248  2077.133472  1530.980743  2077.135840  1530.980041  0.002470
449  524  -523.300796  134.457706  -44.899106  2079.461155  844.724522  2079.458089  844.725234  0.003148
450  238  -330.346665  -212.868659  -23.621386  2085.077843  1717.158484  2085.080042  1717.158123  0.002229
451  459  -484.836866  57.745883  -36.599015  2090.067990  1035.409739  2090.066977  1035.411255  0.001823
452  178  -291.592951  -290.427743  -25.925742  2092.076927  1900.449239  2092.076548  1900.450486  0.001303
453  396  -446.304005  -19.282636  -30.588678  2100.016408  1225.696400  2100.015707  1225.694573  0.001957
454  333  -407.707692  -96.551227  -26.878809  2109.207524  1414.872687  2109.207589  1414.870917  0.001771
455  556  -561.690327  172.494500  -53.190531  2110.135827  728.072772  2110.136894  728.071539  0.001630
456  269  -369.053413  -173.982922  -25.477444  2117.549609  1602.241831  2117.550625  1602.239038  0.002972
457  492  -523.300796  96.054875  -43.524807  2121.084770  918.361249  2121.083318  918.360183  0.001801
458  208  -330.346665  -251.500503  -26.389922  2124.959053  1787.131092  2124.961271  1787.132715  0.002748
459  151  -291.592951  -329.026598  -29.618885  2131.361144  1968.900056  2131.359193  1968.901530  0.002446
460  427  -484.836866  19.249540  -36.139974  2131.401508  1108.694164  2131.400199  1108.693873  0.001341
461  366  -446.304005  -57.845167  -31.048508  2140.983689  1298.356984  2140.983134  1298.357510  0.000764
462  301  -407.707692  -135.152500  -28.260210  2149.735738  1486.644426  2149.738901  1486.645268  0.003273
463  525  -561.690327  134.187828  -51.362113  2151.763426  801.656794  2151.767198  801.656380  0.003794
464  239  -369.053413  -212.595400  -27.782196  2157.569911  1672.869698  2157.568176  1672.873149  0.003863
465  460  -523.300796  57.638388  -42.608498  2162.454960  991.752080  2162.452002  991.754478  0.003807
466  179  -330.346665  -290.096590  -29.618885  2164.407170  1856.373204  2164.407192  1856.368622  0.004582
467  125  -291.592951  -367.578673  -33.771995  2170.177866  2036.530506  2170.177967  2036.530752  0.000266
468  397  -484.836866  -19.249540  -36.139974  2172.436906  1181.618887  2172.435592  1181.620991  0.002481
469  334  -446.304005  -96.399474  -31.968104  2181.609888  1370.547067  2181.612329  1370.547281  0.002450
470  270  -407.707692  -173.734558  -30.101773  2189.882020  1557.839258  2189.882501  1557.838854  0.000628
471  493  -561.690327  95.862078  -49.990572  2193.154248  875.057315  2193.153912  875.058661  0.001388
472  209  -369.053413  -251.177652  -30.547177  2197.169883  1742.819917  2197.171959  1742.816567  0.003941
473  152  -330.346665  -328.651433  -33.307816  2203.399300  1924.843731  2203.398290  1924.845309  0.001873
474  428  -523.300796  19.213707  -42.150312  2203.543123  1064.844927  2203.540352  1064.845139  0.002779
475  367  -484.836866  -57.745883  -36.599015  2213.146567  1254.133313  2213.146923  1254.130647  0.002690
476  302  -446.304005  -134.940076  -33.347333  2221.868577  1442.218131  2221.866000  1442.219198  0.002789
477  526  -600.000000  133.898873  -58.281997  2223.478150  758.795760  2223.480938  758.795410  0.002810
478  240  -407.707692  -212.291915  -32.403235  2229.621319  1628.411277  2229.626102  1628.410100  0.004925
479  461  -561.690327  57.522699  -49.076103  2234.279454  948.221895  2234.280369  948.221104  0.001210
480  180  -369.053413  -289.724193  -33.771995  2236.326008  1812.049673  2236.330400  1812.049479  0.004396
481  126  -330.346665  -367.159551  -37.456191  2241.913592  1992.503350  2241.910957  1992.505126  0.003178
482  398  -523.300796  -19.213707  -42.150312  2244.321301  1137.588503  2244.321412  1137.589445  0.000948
483  335  -484.836866  -96.234016  -37.517032  2253.503628  1326.187906  2253.503314  1326.185691  0.002237
484  271  -446.304005  -173.461493  -35.186001  2261.734186  1513.322952  2261.738092  1513.321707  0.004099
485  494  -600.000000  95.655652  -56.913409  2264.624318  831.935828  2264.624571  831.937283  0.001477
486  210  -407.707692  -250.819090  -35.164269  2268.929526  1698.316083  2268.928632  1698.316080  0.000894
487  153  -369.053413  -328.229543  -37.456191  2275.015786  1880.517835  2275.013877  1880.519005  0.002239
488  429  -561.690327  19.175142  -48.618836  2275.110789  1021.098751  2275.111962  1021.098683  0.001175
489  368  -523.300796  -57.638388  -42.608498  2284.762238  1209.932440  2284.761169  1209.929362  0.003258
490  303  -484.836866  -134.708467  -38.893895  2293.482037  1397.734294  2293.482522  1397.734440  0.000507
491  241  -446.304005  -211.958248  -37.483846  2301.182047  1583.815699  2301.182870  1583.814722  0.001278
492  462  -600.000000  57.398832  -56.000910  2305.493054  904.849933  2305.493367  904.850373  0.000540
493  181  -407.707692  -289.310605  -38.384484  2307.783516  1767.510863  2307.783598  1767.511465  0.000607
494  127  -369.053413  -366.688228  -41.599241  2313.217767  1948.185023  2313.220873  1948.185847  0.003214
495  399  -561.690327  -19.175142  -48.618836  2315.620657  1093.636875  2315.621505  1093.638992  0.002281
496  336  -523.300796  -96.054875  -43.524807  2324.839448  1281.827404  2324.839108  1281.822822  0.004595
497  272  -484.836866  -173.163766  -40.729407  2333.056609  1468.725382  2333.059099  1468.722868  0.003538
498  211  -446.304005  -250.424868  -40.240541  2340.188447  1653.652023  2340.191482  1653.652347  0.003053
499  430  -600.000000  19.133851  -55.544627  2346.056469  977.486627  2346.056028  977.488509  0.001933
500  154  -407.707692  -327.760988  -42.063420  2346.161192  1835.954472  2346.163458  1835.956503  0.003044
501  102  -369.053413  -405.094779  -46.200556  2350.911582  2015.013670  2350.913494  2015.011469  0.002916
502  369  -561.690327  -57.522699  -49.076103  2355.782181  1165.786157  2355.783486  1165.785900  0.001330
503  304  -523.300796  -134.457706  -44.899106  2364.527266  1353.225205  2364.526804  1353.224433  0.000900
504  242  -484.836866  -211.594446  -43.023308  2372.203072  1539.115442  2372.204037  1539.116291  0.001286
505  182  -446.304005  -288.855884  -43.455694  2378.730663  1722.789144  2378.734469  1722.790041  0.003910
506  128  -407.707692  -366.164772  -46.200556  2384.041511  1903.607494  2384.041683  1903.610602  0.003113
507  400  -600.000000  -19.133851  -55.544627  2386.287344  1049.795216  2386.288912  1049.794396  0.001770
508  337  -561.690327  -95.862078  -49.990572  2395.569260  1237.497500  2395.572234  1237.497592  0.002975
509  273  -523.300796  -172.841420  -46.731201  2403.800900  1424.078905  2403.801642  1424.078134  0.001070
510  212  -484.836866  -249.995042  -45.775271  2410.898116  1608.860207  2410.897957  1608.860257  0.000167
511  155  -446.304005  -327.245833  -47.128849  2416.787007  1791.185927  2416.786243  1791.185961  0.000765
512  103  -407.707692  -404.516497  -50.795302  2421.404519  1970.432307  2421.401524  1970.432241  0.002996
513  370  -600.000000  -57.398832  -56.000910  2426.159186  1121.725883  2426.159376  1121.728838  0.002961
514  305  -561.690327  -134.187828  -51.362113  2434.956625  1308.722927  2434.957762  1308.722096  0.001408
515  243  -523.300796  -211.200561  -49.020832  2442.636486  1494.342910  2442.636592  1494.336089  0.006822
