# COL 1-3: Estimated X/Y/Z plate position [mm]
# COL 4-6: X/Y/Z plate position error [mm]
-561.697969  134.215000  -51.480632  -0.007642  0.027172  -0.118519
-600.009020  57.423112  -56.119079  -0.009020  0.024280  -0.118169
-407.709676  404.554284  -50.916359  -0.001984  0.037787  -0.121057
-446.307429  327.280498  -47.248898  -0.003424  0.034665  -0.120049
-484.841709  250.026657  -45.894505  -0.004843  0.031615  -0.119234
-523.307042  172.870049  -46.849804  -0.006246  0.028629  -0.118603
-561.697960  95.887783  -50.108721  -0.007633  0.025705  -0.118149
-600.009012  19.156688  -55.662497  -0.009012  0.022837  -0.117870
-407.709683  366.200988  -46.320977  -0.001991  0.036216  -0.120421
-446.307431  288.889012  -43.575189  -0.003426  0.033128  -0.119495
-484.841708  211.624553  -43.142063  -0.004842  0.030107  -0.118755
-523.307038  134.484855  -45.017303  -0.006242  0.027149  -0.118197
-561.697954  57.546949  -49.193918  -0.007627  0.024250  -0.117815
-369.053960  405.132571  -46.321424  -0.000547  0.037792  -0.120868
-407.709690  327.795650  -42.183247  -0.001998  0.034662  -0.119827
-600.009005  -19.112447  -55.662232  -0.009005  0.021404  -0.117605
-446.307434  250.456473  -40.359519  -0.003429  0.031605  -0.118978
-484.841708  173.192378  -40.847721  -0.004842  0.028612  -0.118314
-523.307034  96.080556  -43.642635  -0.006238  0.025681  -0.117828
-561.697950  19.197948  -48.736352  -0.007623  0.022806  -0.117516
-369.053973  366.724447  -41.719475  -0.000560  0.036219  -0.120234
-407.709698  289.343727  -38.503756  -0.002006  0.033122  -0.119272
-600.008999  -57.378850  -56.118284  -0.008999  0.019982  -0.117374
-446.307438  211.988343  -37.602347  -0.003433  0.030095  -0.118501
-484.841708  134.735596  -39.011804  -0.004842  0.027129  -0.117909
-523.307032  57.662612  -42.725993  -0.006236  0.024224  -0.117495
-561.697946  -19.153771  -48.736088  -0.007619  0.021371  -0.117252
-369.053985  328.264206  -37.575831  -0.000572  0.034663  -0.119640
-407.709706  250.850688  -35.283027  -0.002014  0.031598  -0.118758
-600.008993  -95.637084  -57.030587  -0.008993  0.018568  -0.117178
-446.307442  173.490091  -35.304061  -0.003437  0.028598  -0.118060
-484.841709  96.259676  -37.634574  -0.004843  0.025660  -0.117542
-523.307031  19.236484  -42.267509  -0.006235  0.022777  -0.117197
-330.345790  367.195777  -37.576272  0.000875  0.036226  -0.120081
-369.053998  289.757314  -33.891081  -0.000585  0.033121  -0.119086
-561.697944  -57.502753  -49.193126  -0.007617  0.019946  -0.117023
-407.709714  212.322001  -32.521515  -0.002022  0.030086  -0.118280
-600.008991  -133.881710  -58.399012  -0.008991  0.017163  -0.117015
-446.307446  134.967190  -33.464990  -0.003441  0.027114  -0.117657
-484.841710  57.770084  -36.716225  -0.004844  0.024201  -0.117210
-523.307030  -19.192366  -42.267246  -0.006234  0.021341  -0.116934
-330.345808  328.686101  -33.427303  0.000857  0.034668  -0.119487
-369.054011  251.209246  -30.665748  -0.000598  0.031594  -0.118571
-561.697942  -95.843548  -50.107399  -0.007615  0.018530  -0.116827
-407.709722  173.763145  -30.219613  -0.002030  0.028587  -0.117840
-446.307451  96.425117  -32.085393  -0.003446  0.025643  -0.117289
-484.841712  19.272293  -36.256887  -0.004846  0.022753  -0.116913
-291.590639  367.614909  -33.891958  0.002312  0.036236  -0.119963
-330.345826  290.129714  -29.737818  0.000839  0.033124  -0.118933
-523.307031  -57.618474  -42.725204  -0.006235  0.019914  -0.116706
-369.054023  212.625481  -27.900290  -0.000610  0.030081  -0.118094
-561.697942  -134.170705  -51.478778  -0.007615  0.017123  -0.116665
-407.709731  135.179602  -28.377648  -0.002039  0.027102  -0.117438
-446.307456  57.869349  -31.165466  -0.003451  0.024182  -0.116958
-484.841715  -19.228226  -36.256624  -0.004849  0.021314  -0.116650
-291.590662  329.061273  -29.738254  0.002289  0.034675  -0.119369
-330.345844  251.532098  -26.508341  0.000821  0.031595  -0.118419
-523.307032  -96.036379  -43.641317  -0.006236  0.018496  -0.116510
-369.054036  174.011503  -25.595099  -0.000623  0.028581  -0.117655
-561.697940  -172.478775  -53.307067  -0.007613  0.015725  -0.116536
-407.709740  96.576855  -26.995880  -0.002048  0.025628  -0.117071
-446.307462  19.305368  -30.705339  -0.003457  0.022732  -0.116661
-291.590685  290.460872  -26.044558  0.002266  0.033129  -0.118816
-484.841719  -57.725997  -36.715437  -0.004853  0.019886  -0.116422
-330.345861  212.898739  -23.739329  0.000804  0.030080  -0.117943
-523.307033  -134.440618  -45.015455  -0.006237  0.017088  -0.116349
-369.054049  135.372802  -23.750501  -0.000636  0.027093  -0.117253
-407.709748  57.960393  -26.074506  -0.002056  0.024165  -0.116740
-561.697937  -210.762317  -55.592006  -0.007610  0.014331  -0.116440
-252.794057  329.389670  -26.509208  0.003722  0.034687  -0.119286
-446.307468  -19.261345  -30.705078  -0.003463  0.021291  -0.116400
-291.590708  251.819196  -22.811395  0.002243  0.031598  -0.118302
-484.841722  -96.215550  -37.633260  -0.004856  0.018466  -0.116228
-330.345878  174.235128  -21.431175  0.000787  0.028577  -0.117503
-523.307034  -172.825733  -46.847422  -0.006238  0.015687  -0.116221
-369.054061  96.714870  -22.366759  -0.000648  0.025616  -0.116886
-407.709757  19.335705  -25.613656  -0.002065  0.022714  -0.116444
-561.697936  -249.015881  -58.333270  -0.007609  0.012949  -0.116377
-252.794085  290.750744  -22.811826  0.003694  0.033139  -0.118733
-446.307474  -57.825307  -31.164681  -0.003469  0.019860  -0.116173
-291.590730  213.141736  -20.039223  0.002221  0.030081  -0.117825
-484.841726  -134.691412  -39.009962  -0.004860  0.017055  -0.116067
-330.345895  135.546763  -19.584208  0.000770  0.027087  -0.117102
-523.307035  -211.186266  -49.136957  -0.006239  0.014295  -0.116125
-369.054074  58.043203  -21.444069  -0.000661  0.024152  -0.116556
-407.709767  -19.291720  -25.613395  -0.002075  0.021271  -0.116183
-252.794112  252.070500  -19.575436  0.003667  0.031605  -0.118218
-446.307481  -96.381035  -32.084083  -0.003476  0.018439  -0.115979
-291.590752  174.433989  -17.728435  0.002199  0.028576  -0.117386
-484.841731  -173.148113  -40.845347  -0.004865  0.015653  -0.115940
-330.345912  96.839142  -18.198688  0.000753  0.025609  -0.116736
-369.054086  19.363298  -20.982561  -0.000673  0.022698  -0.116261
-523.307038  -249.516767  -51.883736  -0.006242  0.012907  -0.116063
-213.961540  290.999286  -20.040081  0.005127  0.033151  -0.118683
-407.709776  -57.916389  -26.073723  -0.002084  0.019839  -0.115957
-252.794139  213.354437  -16.800498  0.003640  0.030086  -0.117742
-446.307487  -134.923050  -33.463152  -0.003482  0.017026  -0.115819
-291.590772  135.701460  -15.879360  0.002179  0.027085  -0.116985
-484.841737  -211.580187  -43.139153  -0.004871  0.014259  -0.115845
-330.345928  58.117768  -17.274813  0.000737  0.024142  -0.116406
-369.054099  -19.319346  -20.982300  -0.000686  0.021254  -0.116000
-523.307044  -287.811779  -55.087366  -0.006248  0.011532  -0.116033
-213.961573  252.285975  -16.800925  0.005094  0.031616  -0.118169
-407.709786  -96.532812  -26.994573  -0.002094  0.018415  -0.115764
-252.794165  174.608058  -14.487404  0.003614  0.028579  -0.117303
-446.307495  -173.445871  -35.301694  -0.003490  0.015622  -0.115693
-291.590793  96.949653  -14.492259  0.002158  0.025605  -0.116619
-330.345944  19.388146  -16.812712  0.000721  0.022686  -0.116111
-484.841742  -249.982172  -45.891055  -0.004876  0.012870  -0.115784
-175.098571  291.206465  -17.729718  0.006563  0.033168  -0.118669
-369.054111  -57.999232  -21.443287  -0.000698  0.019819  -0.115774
-213.961604  213.536813  -14.023614  0.005063  0.030094  -0.117692
-407.709795  -135.135499  -28.375814  -0.002103  0.017001  -0.115604
-252.794190  135.836871  -12.636484  0.003589  0.027086  -0.116901
-446.307504  -211.944023  -37.599445  -0.003499  0.014225  -0.115599
-291.590813  58.184077  -13.567329  0.002138  0.024135  -0.116289
-330.345959  -19.344219  -16.812452  0.000706  0.021241  -0.115851
-484.841748  -288.348605  -49.100661  -0.004882  0.011492  -0.115755
-175.098609  252.465589  -14.488255  0.006525  0.031630  -0.118154
-369.054124  -96.670859  -22.365454  -0.000711  0.018395  -0.115581
-213.961634  174.757310  -11.708543  0.005033  0.028586  -0.117253
-407.709805  -173.718964  -30.217250  -0.002113  0.015594  -0.115477
-252.794214  97.046387  -11.247999  0.003565  0.025603  -0.116536
-446.307511  -250.412031  -40.356079  -0.003506  0.012837  -0.115538
-291.590832  19.410243  -13.104702  0.002119  0.022677  -0.115994
-330.345975  -58.073822  -17.274031  0.000690  0.019804  -0.115624
-484.841753  -326.674035  -52.767513  -0.004887  0.010119  -0.115757
-175.098644  213.688837  -11.708967  0.006490  0.030106  -0.117677
-369.054136  -135.328731  -23.748671  -0.000723  0.016978  -0.115423
-213.961663  135.952977  -9.856041  0.005004  0.027090  -0.116852
-407.709816  -212.277719  -32.518619  -0.002124  0.014196  -0.115384
-252.794238  58.242121  -10.322147  0.003541  0.024133  -0.116206
-291.590851  -19.366336  -13.104442  0.002100  0.021230  -0.115734
-446.307519  -288.844430  -43.571203  -0.003514  0.011454  -0.115509
-136.210745  252.609317  -12.637756  0.007961  0.031647  -0.118173
-330.345990  -96.795156  -18.197384  0.000675  0.018377  -0.115432
-484.841761  -364.953015  -56.891092  -0.004895  0.008750  -0.115793
-175.098679  174.881722  -9.392248  0.006455  0.028595  -0.117238
-369.054148  -173.967353  -25.592740  -0.000735  0.015569  -0.115296
-213.961692  97.129330  -8.466369  0.004975  0.025605  -0.116485
-407.709825  -250.806285  -35.279593  -0.002133  0.012805  -0.115324
-252.794261  19.429588  -9.859058  0.003518  0.022672  -0.115911
-291.590870  -58.140150  -13.566549  0.002081  0.019792  -0.115509
-446.307528  -327.235754  -47.244361  -0.003523  0.010079  -0.115512
-136.210785  213.810489  -9.856885  0.007921  0.030122  -0.117696
-330.346005  -135.502717  -19.582380  0.000660  0.016959  -0.115274
-175.098713  136.049761  -7.538426  0.006421  0.027097  -0.116835
-369.054161  -212.581230  -27.897399  -0.000748  0.014170  -0.115203
-213.961719  58.291891  -7.539726  0.004948  0.024133  -0.116156
-252.794283  -19.385693  -9.858798  0.003496  0.021223  -0.115651
-407.709836  -289.299184  -38.499780  -0.002144  0.011421  -0.115296
-291.590888  -96.905686  -14.490956  0.002063  0.018362  -0.115316
-446.307536  -365.580547  -51.375030  -0.003531  0.008710  -0.115548
-136.210825  174.981279  -7.538847  0.007881  0.028608  -0.117256
-330.346020  -174.191003  -21.428820  0.000645  0.015548  -0.115148
-175.098745  97.198472  -6.147765  0.006389  0.025611  -0.116469
-369.054173  -251.164875  -30.662321  -0.000760  0.012777  -0.115144
-213.961745  19.446177  -7.076241  0.004922  0.022671  -0.115861
-252.794305  -58.198206  -10.321366  0.003474  0.019782  -0.115425
-407.709848  -327.750944  -42.178721  -0.002156  0.010044  -0.115301
-97.303556  213.901750  -8.467633  0.009356  0.030141  -0.117749
-291.590906  -135.657433  -15.877533  0.002045  0.016942  -0.115158
-446.307544  -403.873357  -55.962623  -0.003539  0.007346  -0.115617
-136.210863  136.127209  -5.683970  0.007843  0.027108  -0.116853
-330.346035  -212.854513  -23.736442  0.000630  0.014146  -0.115056
-175.098776  58.333379  -5.220462  0.006358  0.024136  -0.116139
-213.961771  -19.402288  -7.075981  0.004896  0.021218  -0.115601
-369.054185  -289.712802  -33.887111  -0.000772  0.011391  -0.115116
-252.794326  -97.002432  -11.246697  0.003453  0.018352  -0.115234
-407.709858  -366.156099  -46.315893  -0.002166  0.008673  -0.115337
-97.303599  175.055966  -6.148604  0.009313  0.028625  -0.117308
-291.590923  -174.389883  -17.726081  0.002028  0.015530  -0.115032
-136.210899  97.253802  -4.292517  0.007807  0.025620  -0.116487
-175.098806  19.460008  -4.756648  0.006328  0.022672  -0.115845
-330.346049  -251.487751  -26.504918  0.000616  0.012752  -0.114996
-213.961796  -58.247981  -7.538945  0.004871  0.019777  -0.115375
-369.054198  -328.219532  -37.571312  -0.000785  0.010011  -0.115121
-58.382485  213.962607  -7.541407  0.010797  0.030162  -0.117837
-252.794346  -135.792856  -12.634658  0.003433  0.016929  -0.115075
-407.709866  -404.509190  -50.910707  -0.002174  0.007307  -0.115405
-97.303641  136.185312  -4.292935  0.009271  0.027123  -0.116905
-291.590940  -213.097528  -20.036338  0.002011  0.014127  -0.114940
-136.210933  58.366581  -3.364686  0.007773  0.024142  -0.116157
-175.098835  -19.416118  -4.756388  0.006299  0.021218  -0.115585
-330.346063  -290.085226  -29.733853  0.000602  0.011364  -0.114968
-213.961820  -97.085381  -8.465067  0.004847  0.018344  -0.115183
-369.054210  -366.679590  -41.714399  -0.000797  0.008638  -0.115158
-58.382533  175.105772  -5.221718  0.010749  0.028645  -0.117395
-252.794366  -174.563963  -14.485051  0.003413  0.015516  -0.114950
-97.303681  97.295311  -2.900888  0.009231  0.025632  -0.116538
-407.709877  -442.804764  -55.962512  -0.002185  0.005947  -0.115506
-136.210967  19.471078  -2.900607  0.007739  0.022677  -0.115861
-291.590956  -251.774868  -22.807974  0.001995  0.012730  -0.114881
-175.098863  -58.289470  -5.219681  0.006271  0.019773  -0.115358
-330.346076  -328.641451  -33.422790  0.000589  0.009982  -0.114974
-213.961843  -135.908967  -9.854215  0.004824  0.016920  -0.115026
-58.382579  136.224059  -3.365520  0.010703  0.027140  -0.116991
-369.054221  -405.087508  -46.315782  -0.000808  0.007271  -0.115226
-97.303720  58.391492  -1.972660  0.009192  0.024152  -0.116207
-252.794385  -213.310242  -16.797614  0.003394  0.014109  -0.114858
-136.210999  -19.427181  -2.900347  0.007707  0.021220  -0.115601
-291.590971  -290.416403  -26.040596  0.001980  0.011340  -0.114854
-175.098889  -97.154522  -6.146463  0.006245  0.018339  -0.115167
-19.453160  175.130690  -4.758319  0.012190  0.028668  -0.117516
-330.346090  -367.150944  -37.571202  0.000575  0.008607  -0.115011
-58.382624  97.322994  -1.973076  0.010658  0.025647  -0.116623
-213.961865  -174.713220  -11.706190  0.004802  0.015504  -0.114900
-369.054233  -443.437828  -51.374809  -0.000820  0.005909  -0.115327
-97.303757  19.479386  -1.508383  0.009155  0.022684  -0.115911
-252.794403  -252.026184  -19.572017  0.003376  0.012711  -0.114799
-136.211030  -58.322665  -3.363904  0.007676  0.019774  -0.115375
-291.590987  -329.016641  -29.733744  0.001964  0.009957  -0.114859
-19.453210  136.243446  -2.901857  0.012140  0.027161  -0.117111
-175.098915  -136.005751  -7.536599  0.006219  0.016913  -0.115008
-330.346102  -405.608230  -42.178501  0.000563  0.007238  -0.115081
-58.382666  58.408108  -1.044584  0.010616  0.024166  -0.116291
-213.961886  -213.492623  -14.020730  0.004781  0.014096  -0.114808
-369.054244  -481.725097  -56.890760  -0.000831  0.004552  -0.115461
-97.303793  -19.435476  -1.508123  0.009119  0.021226  -0.115651
-252.794421  -290.706286  -22.807866  0.003358  0.011319  -0.114773
19.478987  175.130717  -4.758475  0.013637  0.028695  -0.117672
-136.211060  -97.209844  -4.291213  0.007646  0.018338  -0.115183
-291.591001  -367.570094  -33.886892  0.001950  0.008579  -0.114897
-19.453259  97.336849  -1.509214  0.012091  0.025667  -0.116742
-175.098939  -174.837632  -9.389894  0.006195  0.015495  -0.114884
-330.346117  -444.007843  -47.244031  0.000548  0.005875  -0.115182
-58.382707  19.484932  -0.580175  0.010575  0.022696  -0.115996
-213.961906  -252.241664  -16.797505  0.004761  0.012695  -0.114749
-97.303827  -58.347561  -1.971878  0.009085  0.019779  -0.115425
-252.794437  -329.345049  -26.504700  0.003342  0.009934  -0.114778
19.478932  136.243471  -2.902011  0.013582  0.027186  -0.117265
-136.211088  -136.083192  -5.682141  0.007618  0.016909  -0.115024
-291.591015  -406.071281  -38.499451  0.001936  0.007208  -0.114967
-19.453305  58.416427  -0.580589  0.012045  0.024183  -0.116410
-175.098963  -213.644646  -11.706082  0.006171  0.014085  -0.114792
-330.346130  -482.344324  -52.767071  0.000535  0.004516  -0.115315
-58.382746  -19.441001  -0.579913  0.010536  0.021235  -0.115734
-213.961926  -290.954833  -20.036120  0.004741  0.011302  -0.114722
-97.303859  -97.251340  -2.899582  0.009053  0.018339  -0.115232
-252.794454  -367.936980  -30.661993  0.003325  0.008556  -0.114816
19.478880  97.336871  -1.509368  0.013530  0.025689  -0.116896
-136.211115  -174.937181  -7.536491  0.007591  0.015490  -0.114900
-291.591030  -444.514727  -43.570763  0.001921  0.005844  -0.115069
-175.098985  -252.421276  -14.484834  0.006149  0.012683  -0.114733
-58.382783  -58.364157  -1.043800  0.010499  0.019785  -0.115507
-213.961944  -329.626629  -23.736115  0.004723  0.009914  -0.114729
58.408313  136.224133  -3.365984  0.015031  0.027214  -0.117455
-97.303890  -136.141280  -4.291104  0.009022  0.016909  -0.115074
-252.794469  -406.476594  -35.279155  0.003310  0.007182  -0.114886
19.478830  58.416447  -0.580742  0.013480  0.024203  -0.116563
-136.211140  -213.766289  -9.853997  0.007566  0.014078  -0.114808
-291.591045  -482.894971  -49.100109  0.001906  0.004483  -0.115203
-175.099007  -291.162010  -17.725755  0.006127  0.011287  -0.114706
-58.382818  -97.279003  -1.971768  0.010464  0.018344  -0.115315
-213.961962  -368.251552  -27.896963  0.004705  0.008534  -0.114767
0.000000  0.000000  0.000000  0.000000  0.000000  0.000000
58.408257  97.323061  -1.973537  0.014975  0.025714  -0.117084
-97.303919  -175.011854  -6.146245  0.008993  0.015487  -0.114949
-252.794484  -444.958409  -40.355529  0.003295  0.005817  -0.114988
-291.591057  -521.206555  -55.086702  0.001894  0.003127  -0.115369
-136.211165  -252.564996  -12.634332  0.007541  0.012674  -0.114749
-19.453431  -58.372449  -0.579803  0.011919  0.019795  -0.115624
-175.099027  -329.861340  -21.428384  0.006107  0.009898  -0.114712
97.329400  136.185434  -4.293709  0.016488  0.027245  -0.117679
-58.382851  -136.180007  -3.363685  0.010431  0.016912  -0.115156
-213.961979  -406.824112  -32.518072  0.004688  0.007161  -0.114837
58.408203  58.408168  -1.045042  0.014921  0.024226  -0.116749
-97.303947  -213.857536  -8.464741  0.008965  0.014073  -0.114857
-252.794501  -483.376958  -45.890394  0.003278  0.004455  -0.115123
-136.211188  -291.327786  -15.877098  0.007518  0.011276  -0.114723
-19.453470  -97.292829  -1.507903  0.011880  0.018353  -0.115431
-175.099046  -368.513765  -25.592195  0.006088  0.008515  -0.114751
97.329339  97.295423  -2.901657  0.016427  0.025744  -0.117307
-58.382883  -175.061639  -5.219354  0.010399  0.015488  -0.115031
-213.961995  -445.338826  -37.598786  0.004672  0.005793  -0.114940
58.408152  19.484986  -0.580630  0.014870  0.022750  -0.116451
-252.794514  -521.726780  -51.882962  0.003265  0.003097  -0.115289
-97.303974  -252.672803  -11.246261  0.008938  0.012667  -0.114798
19.478693  -58.372435  -0.579954  0.013343  0.019809  -0.115775
-136.211210  -330.049148  -19.581835  0.007496  0.009886  -0.114729
-19.453506  -136.199367  -2.900018  0.011844  0.016918  -0.115272
-175.099064  -407.113788  -30.216594  0.006070  0.007141  -0.114821
97.329281  58.391593  -1.973424  0.016369  0.024253  -0.116971
-58.382913  -213.918372  -7.538509  0.010369  0.014073  -0.114939
-213.962010  -483.790220  -43.138383  0.004657  0.004428  -0.115075
58.408103  -19.440953  -0.580367  0.014821  0.021283  -0.116188
-252.794526  -560.002423  -58.332382  0.003253  0.001741  -0.115489
-97.303999  -291.452138  -14.490412  0.008913  0.011268  -0.114772
19.478652  -97.292818  -1.508053  0.013302  0.018364  -0.115581
-136.211230  -368.723579  -23.748016  0.007476  0.008501  -0.114768
136.236593  97.253958  -4.293595  0.017887  0.025776  -0.117565
-19.453540  -175.086529  -4.755950  0.011810  0.015493  -0.115147
-175.099081  -445.655925  -35.300926  0.006053  0.005770  -0.114925
97.329226  19.479476  -1.509143  0.016314  0.022774  -0.116671
-213.962025  -522.172828  -49.136074  0.004642  0.003067  -0.115242
-58.382942  -252.744682  -10.320821  0.010340  0.012664  -0.114880
58.408056  -58.364116  -1.044251  0.014774  0.019826  -0.115958
-97.304022  -330.190029  -18.196730  0.008890  0.009875  -0.114778
19.478613  -136.199357  -2.900167  0.013263  0.016928  -0.115421
-136.211250  -407.345580  -28.375049  0.007456  0.007123  -0.114839
136.236531  58.366723  -3.365757  0.017825  0.024284  -0.117228
-19.453573  -213.948790  -7.075435  0.011777  0.014074  -0.115055
-175.099097  -484.134697  -40.844467  0.006037  0.004403  -0.115060
97.329174  -19.435397  -1.508879  0.016262  0.021305  -0.116407
-213.962038  -560.481192  -55.591008  0.004629  0.001711  -0.115442
-58.382969  -291.535049  -13.565894  0.010313  0.011264  -0.114854
58.408012  -97.278968  -1.972218  0.014730  0.018379  -0.115765
-97.304044  -368.880967  -22.364690  0.008868  0.008489  -0.114817
19.478576  -175.086522  -4.756099  0.013226  0.015500  -0.115296
-136.211268  -445.909662  -33.462276  0.007438  0.005748  -0.114943
136.236472  19.471204  -2.901673  0.017766  0.022803  -0.116927
-19.453603  -252.780622  -9.858142  0.011747  0.012665  -0.114995
-175.099112  -522.544633  -46.846429  0.006022  0.003041  -0.115228
97.329124  -58.347493  -1.972631  0.016212  0.019847  -0.116178
-58.382994  -330.283960  -17.273267  0.010288  0.009869  -0.114860
58.407971  -136.179978  -3.364134  0.014689  0.016941  -0.115605
-97.304064  -407.519454  -26.993698  0.008848  0.007108  -0.114889
175.124423  58.333561  -5.221843  0.019289  0.024318  -0.117520
19.478542  -213.948784  -7.075583  0.013192  0.014080  -0.115203
-136.211285  -484.410339  -39.008973  0.007421  0.004382  -0.115078
136.236417  -19.427070  -2.901407  0.017711  0.021331  -0.116661
-175.099126  -560.880272  -53.305958  0.006008  0.001683  -0.115427
-19.453632  -291.576507  -13.103677  0.011718  0.011262  -0.114969
97.329077  -97.251281  -2.900333  0.016165  0.018398  -0.115983
-58.383017  -368.985906  -21.442412  0.010265  0.008480  -0.114899
58.407931  -175.061617  -5.219801  0.014649  0.015510  -0.115478
-97.304084  -446.099995  -32.083096  0.008828  0.005733  -0.114992
175.124360  19.460170  -4.758021  0.019226  0.022834  -0.117218
19.478509  -252.780619  -9.858291  0.013159  0.012668  -0.115144
-136.211300  -522.842142  -45.014352  0.007406  0.003019  -0.115246
136.236364  -58.322568  -3.364960  0.017658  0.019871  -0.116431
-19.453658  -330.330929  -16.811577  0.011692  0.009865  -0.114976
97.329032  -136.141232  -4.291852  0.016120  0.016957  -0.115822
-58.383039  -407.635385  -26.072737  0.010243  0.007097  -0.114971
213.987427  58.292114  -7.541418  0.020760  0.024356  -0.117848
58.407894  -213.918355  -7.538956  0.014612  0.014090  -0.115386
-97.304101  -484.617110  -37.632161  0.008811  0.004361  -0.115129
175.124301  -19.415974  -4.757755  0.019167  0.021362  -0.116952
-136.211315  -561.199608  -51.477559  0.007391  0.001658  -0.115446
19.478478  -291.576505  -13.103825  0.013128  0.011264  -0.115117
136.236314  -97.209763  -4.292266  0.017608  0.018419  -0.116236
-19.453684  -369.038380  -20.981315  0.011666  0.008475  -0.115015
97.328991  -175.011816  -6.146991  0.016079  0.015525  -0.115695
-58.383060  -446.226901  -31.163583  0.010222  0.005721  -0.115075
213.987360  19.446376  -7.077925  0.020693  0.022870  -0.117545
58.407859  -252.744672  -10.321267  0.014577  0.012674  -0.115326
-97.304118  -523.065317  -43.640103  0.008794  0.002995  -0.115296
175.124245  -58.289345  -5.221043  0.019111  0.019898  -0.116720
-136.211328  -599.477281  -58.397676  0.007378  0.000302  -0.115679
19.478450  -330.330930  -16.811725  0.013100  0.009864  -0.115124
136.236267  -136.083125  -5.683191  0.017561  0.016976  -0.116074
-19.453706  -407.693357  -25.612299  0.011644  0.007089  -0.115087
97.328952  -213.857508  -8.465486  0.016040  0.014101  -0.115602
-58.383078  -484.754967  -36.714226  0.010204  0.004353  -0.115211
213.987298  -19.402112  -7.077657  0.020631  0.021394  -0.117277
58.407827  -291.535045  -13.566340  0.014545  0.011268  -0.115300
-97.304132  -561.439154  -50.106070  0.008780  0.001634  -0.115498
175.124192  -97.154416  -6.147819  0.019058  0.018445  -0.116523
19.478424  -369.038383  -20.981464  0.013074  0.008472  -0.115164
136.236222  -174.937128  -7.537538  0.017516  0.015543  -0.115947
252.819949  19.429825  -9.861054  0.022170  0.022909  -0.117907
-19.453728  -446.290366  -30.703869  0.011622  0.005708  -0.115191
97.328915  -252.672786  -11.247006  0.016003  0.012684  -0.115543
-58.383095  -523.214113  -42.723878  0.010187  0.002985  -0.115380
213.987238  -58.247829  -7.540614  0.020571  0.019929  -0.117044
-97.304146  -599.733163  -57.029140  0.008766  0.000279  -0.115731
58.407797  -330.283962  -17.273713  0.014515  0.009867  -0.115306
175.124142  -136.005664  -7.537952  0.019008  0.017000  -0.116361
19.478399  -407.693362  -25.612448  0.013049  0.007084  -0.115236
136.236181  -213.766251  -9.855043  0.017475  0.014116  -0.115854
252.819883  -19.385484  -9.860785  0.022104  0.021432  -0.117638
-19.453747  -484.823903  -36.255300  0.011603  0.004347  -0.115326
97.328880  -291.452130  -14.491156  0.015968  0.011276  -0.115516
-58.383110  -561.598867  -49.191684  0.010172  0.001622  -0.115581
213.987182  -97.085252  -8.466730  0.020515  0.018473  -0.116846
58.407769  -368.985912  -21.442859  0.014487  0.008474  -0.115346
175.124094  -174.837563  -9.391243  0.018960  0.015564  -0.116233
291.616606  19.410518  -13.107015  0.023655  0.022952  -0.118307
19.478377  -446.290372  -30.704018  0.013027  0.005702  -0.115340
136.236142  -252.564971  -12.635376  0.017436  0.012699  -0.115793
-19.453765  -523.288536  -42.265810  0.011585  0.002960  -0.115498
252.819820  -58.198025  -10.323345  0.022041  0.019963  -0.117404
-58.383124  -599.903771  -56.116724  0.010158  0.000263  -0.115814
97.328849  -330.190029  -18.197474  0.015937  0.009875  -0.115522
213.987129  -135.908860  -9.855873  0.020462  0.017027  -0.116684
58.407744  -407.635399  -26.073184  0.014462  0.007083  -0.115418
175.124051  -213.644595  -11.707429  0.018917  0.014136  -0.116139
291.616536  -19.366094  -13.106744  0.023585  0.021472  -0.118036
19.478357  -484.823923  -36.255452  0.013007  0.004327  -0.115478
136.236106  -291.327773  -15.878141  0.017400  0.011289  -0.115766
-19.453780  -561.678739  -48.734535  0.011570  0.001605  -0.115699
252.819761  -97.002278  -11.248669  0.021982  0.018506  -0.117206
97.328819  -368.880977  -22.365434  0.015907  0.008479  -0.115561
213.987080  -174.713135  -11.707844  0.020413  0.015589  -0.116554
58.407720  -446.226924  -31.164032  0.014438  0.005698  -0.115524
175.124009  -252.421243  -14.486179  0.018875  0.012716  -0.116078
291.616470  -58.139940  -13.568841  0.023519  0.020002  -0.117801
19.478339  -523.288548  -42.265960  0.012989  0.002948  -0.115648
136.236072  -330.049149  -19.582879  0.017366  0.009885  -0.115773
-19.453794  -599.989088  -55.660560  0.011556  0.000249  -0.115933
252.819705  -135.792729  -12.636624  0.021926  0.017056  -0.117041
97.328793  -407.519474  -26.994443  0.015881  0.007088  -0.115634
213.987033  -213.492560  -14.022381  0.020366  0.014159  -0.116459
330.371743  -19.343944  -16.815072  0.025078  0.021516  -0.118471
58.407699  -484.754995  -36.714676  0.014417  0.004325  -0.115661
175.123972  -291.161994  -17.727100  0.018838  0.011303  -0.116051
291.616408  -96.905507  -14.493241  0.023457  0.018541  -0.117601
19.478322  -561.678758  -48.734686  0.012972  0.001586  -0.115850
136.236042  -368.723595  -23.749061  0.017336  0.008485  -0.115813
252.819653  -174.563862  -14.487013  0.021874  0.015617  -0.116912
97.328769  -446.100027  -32.083843  0.015857  0.005701  -0.115739
213.986990  -252.241623  -16.799155  0.020323  0.012736  -0.116399
330.371673  -58.073582  -17.276641  0.025008  0.020044  -0.118234
58.407680  -523.214145  -42.724329  0.014398  0.002953  -0.115831
175.123937  -329.861342  -21.429729  0.018803  0.009896  -0.116057
19.478309  -599.989105  -55.660711  0.012959  0.000232  -0.116084
291.616349  -135.657285  -15.879810  0.023398  0.017090  -0.117435
136.236013  -407.345610  -28.376095  0.017307  0.007093  -0.115885
369.079993  -19.319036  -20.985245  0.026580  0.021564  -0.118945
252.819604  -213.310167  -16.799572  0.021825  0.014184  -0.116816
97.328746  -484.617147  -37.632910  0.015834  0.004324  -0.115878
213.986950  -290.954814  -20.037769  0.020283  0.011321  -0.116371
330.371608  -96.794952  -18.199985  0.024943  0.018581  -0.118033
58.407664  -561.598910  -49.192137  0.014382  0.001579  -0.116034
175.123904  -368.513785  -25.593541  0.018770  0.008495  -0.116097
291.616295  -174.389765  -17.728353  0.023344  0.015648  -0.117304
136.235988  -445.909705  -33.463324  0.017282  0.005705  -0.115991
369.079920  -57.998962  -21.446219  0.026507  0.020089  -0.118706
252.819559  -252.026135  -19.573973  0.021780  0.012760  -0.116755
97.328727  -523.065364  -43.640855  0.015815  0.002948  -0.116048
213.986914  -329.626632  -23.737764  0.020247  0.009911  -0.116378
330.371546  -135.502548  -19.584972  0.024881  0.017128  -0.117866
58.407650  -599.903817  -56.117179  0.014368  0.000217  -0.116269
175.123875  -407.113827  -30.217942  0.018741  0.007102  -0.116169
291.616243  -213.097441  -20.038606  0.023292  0.014214  -0.117208
136.235965  -484.410397  -39.010023  0.017259  0.004324  -0.116128
369.079851  -96.670629  -22.368375  0.026438  0.018625  -0.118502
252.819517  -290.706263  -22.809820  0.021738  0.011342  -0.116727
97.328710  -561.439213  -50.106824  0.015798  0.001575  -0.116252
213.986880  -368.251577  -27.898613  0.020213  0.008509  -0.116417
330.371489  -174.190868  -21.431407  0.024824  0.015683  -0.117735
175.123849  -445.655983  -35.302277  0.018715  0.005712  -0.116276
407.735708  -57.916088  -26.076982  0.028016  0.020140  -0.119216
291.616196  -251.774811  -22.810240  0.023245  0.012787  -0.117147
136.235945  -522.842213  -45.015406  0.017239  0.002948  -0.116300
369.079787  -135.328540  -23.751584  0.026374  0.017169  -0.118336
252.819479  -329.345051  -26.506655  0.021700  0.009932  -0.116733
97.328696  -599.733231  -57.029898  0.015784  0.000211  -0.116489
213.986849  -406.824159  -32.519724  0.020182  0.007114  -0.116489
330.371435  -212.854413  -23.739024  0.024770  0.014246  -0.117638
175.123825  -484.134772  -40.845821  0.018691  0.004328  -0.116414
407.735637  -96.532556  -26.997820  0.027945  0.018671  -0.119011
291.616152  -290.416376  -26.042861  0.023201  0.011367  -0.117119
136.235928  -561.199691  -51.478617  0.017222  0.001575  -0.116504
252.819444  -367.937009  -30.663950  0.021665  0.008527  -0.116773
369.079727  -173.967200  -25.595646  0.026314  0.015722  -0.118202
446.333543  -57.824974  -31.168273  0.029538  0.020193  -0.119765
213.986822  -445.338896  -37.600442  0.020155  0.005723  -0.116596
330.371386  -251.487685  -26.507497  0.024721  0.012818  -0.117575
175.123805  -522.544724  -46.847787  0.018671  0.002950  -0.116586
407.735569  -135.135286  -28.379052  0.027877  0.017214  -0.118842
291.616112  -329.016643  -29.736009  0.023161  0.009955  -0.117124
136.235914  -599.477378  -58.398739  0.017208  0.000205  -0.116742
252.819412  -406.476647  -35.281114  0.021633  0.007129  -0.116845
369.079671  -212.581116  -27.900300  0.026258  0.014284  -0.118104
213.986798  -483.790311  -43.140043  0.020131  0.004337  -0.116735
446.333468  -96.380751  -32.087662  0.029463  0.018723  -0.119558
330.371340  -290.085194  -29.736431  0.024675  0.011396  -0.117546
175.123787  -560.880377  -53.307321  0.018653  0.001578  -0.116790
407.735506  -173.718793  -30.220481  0.027814  0.015765  -0.118708
291.616076  -367.570125  -33.889159  0.023125  0.008548  -0.117164
252.819383  -444.958491  -40.357493  0.021604  0.005735  -0.116952
369.079619  -251.164800  -30.665219  0.026206  0.012852  -0.118042
213.986777  -522.172928  -49.137737  0.020110  0.002967  -0.116905
446.333398  -134.922813  -33.466721  0.029393  0.017263  -0.119388
330.371298  -328.641452  -33.425368  0.024633  0.009981  -0.117552
407.735448  -212.277592  -32.521844  0.027756  0.014323  -0.118609
291.616042  -406.071345  -38.501721  0.023091  0.007144  -0.117237
484.867859  -96.215237  -37.637178  0.030993  0.018779  -0.120146
252.819358  -483.377067  -45.892362  0.021579  0.004346  -0.117091
369.079571  -289.712765  -33.890007  0.026158  0.011428  -0.118012
213.986759  -560.481307  -55.592676  0.020092  0.001596  -0.117110
446.333332  -173.445681  -35.305254  0.029327  0.015812  -0.119253
330.371260  -367.150980  -37.573783  0.024595  0.008571  -0.117592
291.616013  -444.514825  -43.573038  0.023062  0.005746  -0.117344
407.735394  -250.806200  -35.282814  0.027702  0.012890  -0.118545
484.867786  -134.691149  -39.013868  0.030920  0.017318  -0.119973
252.819337  -521.726907  -51.884936  0.021558  0.002970  -0.117263
369.079528  -328.219532  -37.574208  0.026115  0.010011  -0.118017
446.333271  -211.943881  -37.602999  0.029266  0.014367  -0.119153
330.371226  -405.608302  -42.181085  0.024561  0.007166  -0.117665
523.333332  -96.036036  -43.645579  0.032536  0.018839  -0.120772
291.615987  -482.895096  -49.102389  0.023036  0.004358  -0.117483
407.735344  -289.299141  -38.502999  0.027652  0.011464  -0.118515
252.819319  -560.002563  -58.334361  0.021540  0.001601  -0.117468
484.867717  -173.147902  -40.849243  0.030851  0.015864  -0.119836
369.079488  -366.679629  -41.717297  0.026075  0.008599  -0.118056
446.333215  -250.411936  -40.359629  0.029210  0.012932  -0.119088
330.371196  -444.007949  -47.246620  0.024531  0.005769  -0.117771
523.333256  -134.440330  -45.019705  0.032460  0.017376  -0.120599
291.615965  -521.206707  -55.088989  0.023014  0.002975  -0.117656
407.735299  -327.750942  -42.181940  0.027607  0.010046  -0.118520
484.867654  -211.580029  -43.143043  0.030788  0.014417  -0.119735
369.079453  -405.087584  -46.318685  0.026040  0.007195  -0.118129
446.333163  -288.844379  -43.574751  0.029158  0.011505  -0.119057
330.371169  -482.344460  -52.769667  0.024504  0.004380  -0.117911
523.333185  -172.825501  -46.851662  0.032389  0.015919  -0.120461
407.735258  -366.156137  -46.319114  0.027566  0.008635  -0.118558
484.867595  -249.982063  -45.894941  0.030729  0.012979  -0.119670
369.079421  -443.437939  -51.377717  0.026008  0.005798  -0.118235
561.724340  -134.170393  -51.483379  0.034013  0.017435  -0.121266
446.333116  -327.235746  -47.247910  0.029111  0.010087  -0.119061
523.333119  -211.186091  -49.141191  0.032323  0.014470  -0.120359
407.735221  -404.509268  -50.913934  0.027529  0.007229  -0.118632
