# COL 1-3: Estimated X/Y/Z plate position [mm]
# COL 4-6: X/Y/Z plate position error [mm]
407.735465  404.508957  -50.913926  0.027773  -0.007540  -0.118624
523.333198  211.185700  -49.141178  0.032402  -0.014861  -0.120346
446.333297  327.235410  -47.247900  0.029292  -0.010423  -0.119051
561.724355  134.169978  -51.483365  0.034028  -0.017850  -0.121252
369.079701  443.437659  -51.377711  0.026288  -0.006078  -0.118229
484.867713  249.981699  -45.894930  0.030847  -0.013343  -0.119659
407.735475  366.155827  -46.319107  0.027783  -0.008945  -0.118551
523.333237  172.825115  -46.851650  0.032441  -0.016305  -0.120449
330.371483  482.344193  -52.769659  0.024818  -0.004647  -0.117903
446.333317  288.844042  -43.574743  0.029312  -0.011842  -0.119049
369.079706  405.087299  -46.318678  0.026293  -0.007480  -0.118122
484.867744  211.579667  -43.143033  0.030878  -0.014779  -0.119725
407.735489  327.750633  -42.181933  0.027797  -0.010355  -0.118513
291.616313  521.206430  -55.088976  0.023362  -0.003252  -0.117643
523.333281  134.439946  -45.019693  0.032485  -0.017760  -0.120587
330.371483  444.007700  -47.246615  0.024818  -0.006018  -0.117766
446.333341  250.411600  -40.359620  0.029336  -0.013268  -0.119079
369.079714  366.679345  -41.717291  0.026301  -0.008883  -0.118050
484.867780  173.147544  -40.849234  0.030914  -0.016222  -0.119827
252.819700  560.002302  -58.334345  0.021921  -0.001862  -0.117452
407.735507  289.298832  -38.502992  0.027815  -0.011773  -0.118508
291.616309  482.894849  -49.102381  0.023358  -0.004605  -0.117475
523.333330  96.035652  -43.645568  0.032534  -0.019223  -0.120761
330.371487  405.608046  -42.181080  0.024822  -0.007422  -0.117660
446.333370  211.943547  -37.602991  0.029365  -0.014701  -0.119145
369.079727  328.219253  -37.574203  0.026314  -0.010290  -0.118012
252.819692  521.726650  -51.884922  0.021913  -0.003227  -0.117249
484.867821  134.690793  -39.013858  0.030955  -0.017674  -0.119963
407.735529  250.805893  -35.282808  0.027837  -0.013197  -0.118539
291.616308  444.514600  -43.573034  0.023357  -0.005971  -0.117340
330.371494  367.150727  -37.573778  0.024829  -0.008824  -0.117587
446.333403  173.445351  -35.305246  0.029398  -0.016142  -0.119245
213.987146  560.481092  -55.592664  0.020479  -0.001811  -0.117098
369.079742  289.712488  -33.890002  0.026329  -0.011705  -0.118007
252.819687  483.376845  -45.892355  0.021908  -0.004568  -0.117084
484.867866  96.214882  -37.637168  0.031000  -0.019134  -0.120136
291.616310  406.071130  -38.501718  0.023359  -0.007359  -0.117234
407.735555  212.277287  -32.521838  0.027863  -0.014628  -0.118603
330.371504  328.641201  -33.425364  0.024839  -0.010232  -0.117548
446.333441  134.922485  -33.466713  0.029436  -0.017591  -0.119380
213.987138  522.172724  -49.137728  0.020471  -0.003171  -0.116896
369.079762  251.164523  -30.665213  0.026349  -0.013129  -0.118036
252.819685  444.958301  -40.357490  0.021906  -0.005925  -0.116949
291.616316  367.569903  -33.889155  0.023365  -0.008770  -0.117160
407.735586  173.718491  -30.220475  0.027894  -0.016067  -0.118702
175.124180  560.880209  -53.307313  0.019046  -0.001746  -0.116782
330.371519  290.084948  -29.736428  0.024854  -0.011642  -0.117543
446.333483  96.380425  -32.087654  0.029478  -0.019049  -0.119550
213.987132  483.790131  -43.140038  0.020465  -0.004517  -0.116730
369.079787  212.580842  -27.900296  0.026374  -0.014558  -0.118100
252.819687  406.476468  -35.281113  0.021908  -0.007308  -0.116844
136.236339  599.477255  -58.398734  0.017633  -0.000328  -0.116737
291.616325  329.016420  -29.736006  0.023374  -0.010178  -0.117121
407.735620  135.134986  -28.379046  0.027928  -0.017514  -0.118836
175.124172  522.544567  -46.847782  0.019038  -0.003107  -0.116581
330.371537  251.487439  -26.507493  0.024872  -0.013064  -0.117571
213.987130  445.338741  -37.600441  0.020463  -0.005878  -0.116595
446.333530  57.824649  -31.168265  0.029525  -0.020518  -0.119757
369.079814  173.966928  -25.595641  0.026401  -0.015994  -0.118197
252.819691  367.936820  -30.663948  0.021912  -0.008716  -0.116771
136.236327  561.199569  -51.478613  0.017621  -0.001697  -0.116500
291.616338  290.416157  -26.042858  0.023387  -0.011586  -0.117116
407.735659  96.532258  -26.997814  0.027967  -0.018969  -0.119005
175.124166  484.134639  -40.845820  0.019032  -0.004461  -0.116413
330.371558  212.854168  -23.739021  0.024893  -0.014491  -0.117635
213.987130  406.824009  -32.519724  0.020463  -0.007264  -0.116489
97.329126  599.733147  -57.029895  0.016214  -0.000295  -0.116486
252.819699  329.344859  -26.506652  0.021920  -0.010124  -0.116730
369.079846  135.328269  -23.751579  0.026433  -0.017440  -0.118331
136.236318  522.842099  -45.015403  0.017612  -0.003062  -0.116297
291.616354  251.774595  -22.810238  0.023403  -0.013003  -0.117145
407.735703  57.915792  -26.076976  0.028011  -0.020436  -0.119210
175.124162  445.655863  -35.302277  0.019028  -0.005832  -0.116276
330.371584  174.190625  -21.431403  0.024919  -0.015926  -0.117731
213.987133  368.251421  -27.898612  0.020466  -0.008665  -0.116416
97.329114  561.439124  -50.106821  0.016202  -0.001664  -0.116249
252.819710  290.706072  -22.809818  0.021931  -0.011533  -0.116725
369.079882  96.670360  -22.368371  0.026469  -0.018894  -0.118498
136.236311  484.410297  -39.010023  0.017605  -0.004424  -0.116128
291.616373  213.097226  -20.038604  0.023422  -0.014429  -0.117206
175.124162  407.113704  -30.217942  0.019028  -0.007225  -0.116169
58.408085  599.903761  -56.117177  0.014803  -0.000273  -0.116267
330.371613  135.502307  -19.584969  0.024948  -0.017369  -0.117863
213.987140  329.626471  -23.737762  0.020473  -0.010072  -0.116376
97.329104  523.065281  -43.640852  0.016192  -0.003031  -0.116045
252.819723  252.025949  -19.573971  0.021944  -0.012946  -0.116753
369.079922  57.998693  -21.446214  0.026509  -0.020358  -0.118701
136.236307  445.909612  -33.463324  0.017601  -0.005798  -0.115991
291.616396  174.389551  -17.728351  0.023445  -0.015862  -0.117302
175.124164  368.513658  -25.593540  0.019030  -0.008622  -0.116096
58.408072  561.598848  -49.192134  0.014790  -0.001641  -0.116031
330.371645  96.794711  -18.199982  0.024980  -0.018822  -0.118030
213.987148  290.954653  -20.037768  0.020481  -0.011482  -0.116370
97.329097  484.617072  -37.632909  0.016185  -0.004399  -0.115877
252.819741  213.309981  -16.799570  0.021962  -0.014370  -0.116814
369.079966  19.318768  -20.985240  0.026553  -0.021832  -0.118940
136.236305  407.345513  -28.376095  0.017599  -0.007190  -0.115885
291.616422  135.657072  -15.879808  0.023471  -0.017303  -0.117433
19.478747  599.989079  -55.660709  0.013397  -0.000258  -0.116082
175.124168  329.861213  -21.429729  0.019034  -0.010025  -0.116057
58.408062  523.214090  -42.724327  0.014780  -0.003008  -0.115829
330.371682  58.073343  -17.276638  0.025017  -0.020283  -0.118231
213.987161  252.241465  -16.799154  0.020494  -0.012894  -0.116398
97.329092  446.099956  -32.083843  0.016180  -0.005772  -0.115739
252.819761  174.563677  -14.487011  0.021982  -0.015802  -0.116910
136.236306  368.723494  -23.749060  0.017600  -0.008586  -0.115812
19.478735  561.678723  -48.734683  0.013385  -0.001621  -0.115847
291.616452  96.905295  -14.493238  0.023501  -0.018753  -0.117598
175.124175  291.161864  -17.727099  0.019041  -0.011433  -0.116050
58.408054  484.754945  -36.714675  0.014772  -0.004375  -0.115660
330.371723  19.343705  -16.815069  0.025058  -0.021755  -0.118468
213.987175  213.492404  -14.022381  0.020508  -0.014315  -0.116459
97.329089  407.519403  -26.994443  0.016177  -0.007159  -0.115634
252.819785  135.792545  -12.636622  0.022006  -0.017240  -0.117039
-19.453352  599.989096  -55.660558  0.011998  -0.000241  -0.115931
136.236309  330.049050  -19.582878  0.017603  -0.009984  -0.115772
19.478724  523.288511  -42.265957  0.013374  -0.002985  -0.115645
291.616486  58.139729  -13.568839  0.023535  -0.020213  -0.117799
175.124185  252.421114  -14.486179  0.019051  -0.012845  -0.116078
58.408048  446.226874  -31.164031  0.014766  -0.005748  -0.115523
213.987193  174.712980  -11.707843  0.020526  -0.015744  -0.116553
97.329087  368.880904  -22.365434  0.016175  -0.008552  -0.115561
252.819811  97.002095  -11.248667  0.022032  -0.018689  -0.117204
-19.453365  561.678742  -48.734533  0.011985  -0.001602  -0.115697
136.236314  291.327674  -15.878141  0.017608  -0.011388  -0.115766
19.478715  484.823898  -36.255450  0.013365  -0.004352  -0.115476
291.616523  19.365883  -13.106741  0.023572  -0.021683  -0.118033
175.124198  213.644468  -11.707428  0.019064  -0.014263  -0.116138
58.408043  407.635352  -26.073184  0.014761  -0.007130  -0.115418
213.987214  135.908706  -9.855872  0.020547  -0.017181  -0.116683
97.329089  330.189956  -18.197474  0.016177  -0.009948  -0.115522
-58.382680  599.903810  -56.116724  0.010602  -0.000224  -0.115814
252.819841  58.197842  -10.323343  0.022062  -0.020146  -0.117402
-19.453377  523.288530  -42.265807  0.011973  -0.002966  -0.115495
136.236321  252.564872  -12.635376  0.017615  -0.012798  -0.115793
19.478707  446.290350  -30.704017  0.013357  -0.005724  -0.115339
291.616563  -19.410729  -13.107012  0.023612  -0.023163  -0.118304
175.124213  174.837437  -9.391243  0.019079  -0.015690  -0.116233
58.408041  368.985868  -21.442858  0.014759  -0.008518  -0.115345
213.987238  97.085098  -8.466729  0.020571  -0.018627  -0.116845
-58.382692  561.598905  -49.191683  0.010590  -0.001584  -0.115580
97.329093  291.452058  -14.491156  0.016181  -0.011348  -0.115516
-19.453387  484.823917  -36.255300  0.011963  -0.004333  -0.115326
252.819875  19.385302  -9.860783  0.022096  -0.021614  -0.117636
136.236332  213.766152  -9.855043  0.017626  -0.014215  -0.115854
19.478702  407.693343  -25.612447  0.013352  -0.007103  -0.115235
175.124231  136.005538  -7.537951  0.019097  -0.017126  -0.116360
58.408040  330.283918  -17.273713  0.014758  -0.009911  -0.115306
-97.303700  599.733232  -57.029140  0.009212  -0.000210  -0.115731
213.987265  58.247675  -7.540613  0.020598  -0.020083  -0.117043
-58.382704  523.214151  -42.723877  0.010578  -0.002947  -0.115379
97.329098  252.672715  -11.247006  0.016186  -0.012755  -0.115543
-19.453395  446.290370  -30.703868  0.011955  -0.005704  -0.115190
252.819912  -19.430007  -9.861053  0.022133  -0.023091  -0.117906
136.236345  174.937031  -7.537538  0.017639  -0.015640  -0.115947
19.478698  369.038368  -20.981464  0.013348  -0.008487  -0.115164
175.124252  97.154291  -6.147819  0.019118  -0.018570  -0.116523
-97.303713  561.439220  -50.106069  0.009199  -0.001568  -0.115497
58.408043  291.535001  -13.566340  0.014761  -0.011312  -0.115300
213.987295  19.401958  -7.077656  0.020628  -0.021548  -0.117276
-58.382715  484.755004  -36.714225  0.010567  -0.004316  -0.115210
97.329107  213.857439  -8.465486  0.016195  -0.014170  -0.115602
-19.453401  407.693366  -25.612298  0.011949  -0.007080  -0.115086
136.236360  136.083027  -5.683191  0.017654  -0.017074  -0.116074
19.478696  330.330917  -16.811726  0.013346  -0.009877  -0.115125
-136.210880  599.477381  -58.397676  0.007826  -0.000202  -0.115679
175.124276  58.289220  -5.221042  0.019142  -0.020023  -0.116719
-97.303726  523.065379  -43.640102  0.009186  -0.002933  -0.115295
58.408046  252.744630  -10.321267  0.014764  -0.012716  -0.115326
213.987328  -19.446531  -7.077924  0.020661  -0.023025  -0.117544
-58.382725  446.226936  -31.163582  0.010557  -0.005686  -0.115074
97.329117  175.011747  -6.146991  0.016205  -0.015594  -0.115695
-19.453407  369.038394  -20.981315  0.011943  -0.008461  -0.115015
136.236378  97.209666  -4.292265  0.017672  -0.018516  -0.116235
19.478697  291.576495  -13.103826  0.013347  -0.011274  -0.115118
-136.210895  561.199706  -51.477558  0.007811  -0.001560  -0.115445
175.124302  19.415848  -4.757754  0.019168  -0.021488  -0.116951
-97.303737  484.617170  -37.632159  0.009175  -0.004301  -0.115127
58.408052  213.918316  -7.538956  0.014770  -0.014129  -0.115386
213.987365  -58.292269  -7.541417  0.020698  -0.024511  -0.117847
-58.382732  407.635424  -26.072737  0.010550  -0.007058  -0.114971
97.329130  136.141164  -4.291852  0.016218  -0.017025  -0.115822
-19.453410  330.330945  -16.811577  0.011940  -0.009849  -0.114976
136.236399  58.322471  -3.364960  0.017693  -0.019968  -0.116431
-136.210907  522.842239  -45.014351  0.007799  -0.002922  -0.115245
19.478699  252.780607  -9.858291  0.013349  -0.012680  -0.115144
175.124332  -19.460296  -4.758020  0.019198  -0.022960  -0.117217
-97.303747  446.100060  -32.083095  0.009165  -0.005668  -0.114991
58.408060  175.061577  -5.219801  0.014778  -0.015550  -0.115478
-58.382738  368.985949  -21.442412  0.010544  -0.008437  -0.114899
97.329145  97.251213  -2.900333  0.016233  -0.018466  -0.115983
-19.453412  291.576526  -13.103677  0.011938  -0.011243  -0.114969
-175.098705  560.880402  -53.305958  0.006429  -0.001553  -0.115427
136.236423  19.426972  -2.901407  0.017717  -0.021429  -0.116661
-136.210920  484.410436  -39.008972  0.007786  -0.004285  -0.115077
19.478703  213.948773  -7.075584  0.013353  -0.014091  -0.115204
175.124365  -58.333688  -5.221842  0.019231  -0.024445  -0.117519
-97.303756  407.519524  -26.993697  0.009156  -0.007038  -0.114888
58.408071  136.179938  -3.364134  0.014789  -0.016981  -0.115605
-58.382743  330.284005  -17.273267  0.010539  -0.009824  -0.114860
97.329163  58.347424  -1.972631  0.016251  -0.019916  -0.116178
-175.098718  522.544763  -46.846429  0.006416  -0.002911  -0.115228
-19.453411  252.780642  -9.858143  0.011939  -0.012645  -0.114996
136.236448  -19.471302  -2.901672  0.017742  -0.022901  -0.116926
-136.210931  445.909760  -33.462275  0.007775  -0.005650  -0.114942
19.478708  175.086511  -4.756099  0.013358  -0.015511  -0.115296
-97.303763  368.881041  -22.364690  0.009149  -0.008415  -0.114817
58.408083  97.278928  -1.972218  0.014801  -0.018419  -0.115765
-58.382747  291.535096  -13.565894  0.010535  -0.011217  -0.114854
-213.961617  560.481353  -55.591008  0.005050  -0.001550  -0.115442
97.329183  19.435327  -1.508879  0.016271  -0.021375  -0.116407
-175.098731  484.134829  -40.844467  0.006403  -0.004271  -0.115060
-19.453409  213.948808  -7.075435  0.011941  -0.014056  -0.115055
136.236477  -58.366822  -3.365757  0.017771  -0.024383  -0.117228
-136.210940  407.345683  -28.375049  0.007766  -0.007020  -0.114839
19.478716  136.199346  -2.900167  0.013366  -0.016939  -0.115421
-97.303770  330.190104  -18.196730  0.009142  -0.009800  -0.114778
58.408098  58.364075  -1.044251  0.014816  -0.019867  -0.115958
-58.382748  252.744730  -10.320821  0.010534  -0.012616  -0.114880
-213.961631  522.172991  -49.136074  0.005036  -0.002904  -0.115242
97.329205  -19.479547  -1.509143  0.016293  -0.022845  -0.116671
-175.098744  445.656061  -35.300926  0.006390  -0.005634  -0.114925
-19.453407  175.086547  -4.755950  0.011943  -0.015475  -0.115147
136.236509  -97.254058  -4.293595  0.017803  -0.025876  -0.117565
-136.210949  368.723684  -23.748016  0.007757  -0.008396  -0.114768
19.478725  97.292806  -1.508053  0.013375  -0.018376  -0.115581
-97.303776  291.452214  -14.490412  0.009136  -0.011192  -0.114772
-252.794106  560.002614  -58.332382  0.003673  -0.001550  -0.115489
58.408114  19.440912  -0.580367  0.014832  -0.021324  -0.116188
-213.961645  483.790386  -43.138383  0.005022  -0.004262  -0.115075
-58.382749  213.918419  -7.538509  0.010533  -0.014026  -0.114939
97.329231  -58.391664  -1.973424  0.016319  -0.024324  -0.116971
-175.098755  407.113924  -30.216595  0.006379  -0.007005  -0.114822
-19.453401  136.199384  -2.900018  0.011949  -0.016901  -0.115272
-136.210957  330.049254  -19.581835  0.007749  -0.009780  -0.114729
19.478737  58.372422  -0.579954  0.013387  -0.019822  -0.115775
-97.303779  252.672880  -11.246262  0.009133  -0.012590  -0.114799
-252.794120  521.726974  -51.882962  0.003659  -0.002903  -0.115289
58.408134  -19.485028  -0.580630  0.014852  -0.022792  -0.116451
-213.961658  445.338994  -37.598787  0.005009  -0.005625  -0.114941
-58.382748  175.061686  -5.219354  0.010534  -0.015441  -0.115031
97.329258  -97.295495  -2.901657  0.016346  -0.025816  -0.117307
-175.098765  368.513900  -25.592195  0.006369  -0.008380  -0.114751
-19.453394  97.292846  -1.507903  0.011956  -0.018336  -0.115431
-136.210964  291.327892  -15.877098  0.007742  -0.011170  -0.114723
-252.794134  483.377154  -45.890394  0.003645  -0.004259  -0.115123
-97.303781  213.857611  -8.464741  0.009131  -0.013998  -0.114857
58.408155  -58.408212  -1.045042  0.014873  -0.024270  -0.116749
-213.961670  406.824279  -32.518073  0.004997  -0.006994  -0.114838
-58.382745  136.180053  -3.363685  0.010537  -0.016866  -0.115156
97.329289  -136.185509  -4.293709  0.016377  -0.027320  -0.117679
-175.098774  329.861475  -21.428384  0.006360  -0.009763  -0.114712
-19.453386  58.372464  -0.579803  0.011964  -0.019780  -0.115624
-136.210970  252.565102  -12.634332  0.007736  -0.012568  -0.114749
-291.590666  521.206777  -55.086702  0.002285  -0.002905  -0.115369
-252.794149  444.958605  -40.355530  0.003630  -0.005621  -0.114989
-97.303783  175.011929  -6.146245  0.009129  -0.015412  -0.114949
58.408179  -97.323107  -1.973537  0.014897  -0.025760  -0.117084
0.000000  -0.000000  0.000000  0.000000  -0.000000  0.000000
-213.961681  368.251717  -27.896963  0.004986  -0.008369  -0.114767
-58.382741  97.279048  -1.971768  0.010541  -0.018299  -0.115315
-175.098783  291.162144  -17.725755  0.006351  -0.011153  -0.114706
-291.590680  482.895194  -49.100109  0.002271  -0.004260  -0.115203
-136.210974  213.766393  -9.853997  0.007732  -0.013974  -0.114808
19.478784  -58.416463  -0.580742  0.013434  -0.024219  -0.116563
-252.794162  406.476788  -35.279156  0.003617  -0.006988  -0.114887
-97.303783  136.141354  -4.291104  0.009129  -0.016835  -0.115074
58.408205  -136.224180  -3.365984  0.014923  -0.027261  -0.117455
-213.961692  329.626793  -23.736115  0.004975  -0.009750  -0.114729
-58.382736  58.364201  -1.043800  0.010546  -0.019741  -0.115507
-175.098791  252.421410  -14.484834  0.006343  -0.012549  -0.114733
-291.590696  444.514950  -43.570764  0.002255  -0.005621  -0.115070
-136.210978  174.937284  -7.536490  0.007728  -0.015387  -0.114899
19.478804  -97.336889  -1.509368  0.013454  -0.025707  -0.116896
-252.794174  367.937174  -30.661993  0.003605  -0.008362  -0.114816
-97.303782  97.251413  -2.899582  0.009130  -0.018266  -0.115232
-213.961702  290.954996  -20.036120  0.004965  -0.011139  -0.114722
-58.382729  19.441043  -0.579913  0.010553  -0.021193  -0.115734
-330.345767  482.344575  -52.767072  0.000898  -0.004265  -0.115316
-175.098797  213.644779  -11.706082  0.006337  -0.013952  -0.114792
-19.453349  -58.416415  -0.580589  0.012001  -0.024171  -0.116410
-291.590710  406.071503  -38.499451  0.002241  -0.006986  -0.114967
-136.210980  136.083294  -5.682141  0.007726  -0.016807  -0.115024
19.478826  -136.243491  -2.902011  0.013476  -0.027206  -0.117265
-252.794186  329.345241  -26.504699  0.003593  -0.009742  -0.114777
-97.303779  58.347633  -1.971877  0.009133  -0.019707  -0.115424
-213.961712  252.241826  -16.797505  0.004955  -0.012533  -0.114749
-58.382720  -19.484891  -0.580175  0.010562  -0.022655  -0.115996
-330.345783  444.008094  -47.244031  0.000882  -0.005624  -0.115182
-175.098803  174.837764  -9.389893  0.006331  -0.015363  -0.114883
-19.453334  -97.336839  -1.509214  0.012016  -0.025657  -0.116742
-291.590724  367.570315  -33.886893  0.002227  -0.008358  -0.114898
-136.210983  97.209946  -4.291213  0.007723  -0.018236  -0.115183
19.478850  -175.130739  -4.758475  0.013500  -0.028717  -0.117672
-252.794198  290.706477  -22.807865  0.003581  -0.011128  -0.114772
-97.303775  19.435546  -1.508122  0.009137  -0.021156  -0.115650
-369.053886  481.725376  -56.890761  -0.000473  -0.004273  -0.115462
-213.961721  213.492784  -14.020730  0.004946  -0.013935  -0.114808
-58.382710  -58.408069  -1.044584  0.010572  -0.024127  -0.116291
-330.345799  405.608480  -42.178501  0.000866  -0.006988  -0.115081
-175.098808  136.005881  -7.536599  0.006326  -0.016783  -0.115008
-19.453316  -136.243439  -2.901857  0.012034  -0.027154  -0.117111
-291.590737  329.016862  -29.733744  0.002214  -0.009736  -0.114859
-136.210983  58.322764  -3.363904  0.007723  -0.019675  -0.115375
-252.794210  252.026374  -19.572017  0.003569  -0.012521  -0.114799
-97.303770  -19.479318  -1.508383  0.009142  -0.022616  -0.115911
-369.053903  443.438107  -51.374810  -0.000490  -0.005630  -0.115328
-213.961729  174.713380  -11.706190  0.004938  -0.015344  -0.114900
-58.382698  -97.322957  -1.973077  0.010584  -0.025610  -0.116624
-330.345815  367.151193  -37.571202  0.000850  -0.008358  -0.115011
-19.453296  -175.130685  -4.758320  0.012054  -0.028663  -0.117517
-175.098812  97.154652  -6.146462  0.006322  -0.018209  -0.115166
-291.590751  290.416623  -26.040596  0.002200  -0.011120  -0.114854
-136.210982  19.427279  -2.900347  0.007724  -0.021122  -0.115601
-252.794221  213.310431  -16.797614  0.003558  -0.013920  -0.114858
-97.303763  -58.391426  -1.972660  0.009149  -0.024086  -0.116207
-369.053920  405.087787  -46.315783  -0.000507  -0.006992  -0.115227
-58.382684  -136.224025  -3.365521  0.010598  -0.027106  -0.116992
-213.961736  135.909126  -9.854215  0.004931  -0.016761  -0.115026
-330.345829  328.641700  -33.422790  0.000836  -0.009733  -0.114974
-175.098816  58.289597  -5.219681  0.006318  -0.019646  -0.115358
-291.590765  251.775086  -22.807974  0.002186  -0.012512  -0.114881
-136.210980  -19.470982  -2.900607  0.007726  -0.022581  -0.115861
-407.709551  442.805071  -55.962513  -0.001859  -0.005640  -0.115507
-97.303755  -97.295247  -2.900888  0.009157  -0.025568  -0.116538
-252.794232  174.564151  -14.485051  0.003547  -0.015328  -0.114950
-58.382669  -175.105740  -5.221719  0.010613  -0.028613  -0.117396
-369.053937  366.679868  -41.714399  -0.000524  -0.008360  -0.115158
-213.961743  97.085538  -8.465067  0.004924  -0.018187  -0.115183
-330.345844  290.085475  -29.733853  0.000821  -0.011115  -0.114968
-175.098818  19.416243  -4.756387  0.006316  -0.021093  -0.115584
-136.210977  -58.366488  -3.364686  0.007729  -0.024049  -0.116157
-291.590778  213.097745  -20.036338  0.002173  -0.013910  -0.114940
-97.303745  -136.185250  -4.292936  0.009167  -0.027061  -0.116906
-407.709570  404.509497  -50.910708  -0.001878  -0.007000  -0.115406
-252.794242  135.793042  -12.634658  0.003537  -0.016743  -0.115075
-58.382651  -213.962578  -7.541408  0.010631  -0.030133  -0.117838
-369.053953  328.219809  -37.571312  -0.000540  -0.009734  -0.115121
-213.961750  58.248136  -7.538945  0.004917  -0.019622  -0.115375
-330.345860  251.487998  -26.504917  0.000805  -0.012505  -0.114995
-175.098819  -19.459884  -4.756648  0.006315  -0.022548  -0.115845
-136.210972  -97.253710  -4.292517  0.007734  -0.025528  -0.116487
-291.590791  174.390097  -17.726081  0.002160  -0.015316  -0.115032
-97.303734  -175.055908  -6.148605  0.009178  -0.028567  -0.117309
-407.709588  366.156406  -46.315893  -0.001896  -0.008366  -0.115337
-252.794251  97.002617  -11.246697  0.003528  -0.018167  -0.115234
-369.053969  289.713079  -33.887111  -0.000556  -0.011114  -0.115116
-213.961755  19.402441  -7.075981  0.004912  -0.021065  -0.115601
-175.098820  -58.333258  -5.220462  0.006314  -0.024015  -0.116139
-330.345875  212.854758  -23.736442  0.000790  -0.013901  -0.115056
-136.210967  -136.127121  -5.683971  0.007739  -0.027020  -0.116854
-446.307253  403.873692  -55.962625  -0.003248  -0.007011  -0.115619
-291.590803  135.657646  -15.877533  0.002148  -0.016729  -0.115158
-97.303722  -213.901694  -8.467634  0.009190  -0.030085  -0.117750
-407.709606  327.751250  -42.178721  -0.001914  -0.009738  -0.115301
-252.794260  58.198389  -10.321366  0.003519  -0.019599  -0.115425
-213.961760  -19.446026  -7.076241  0.004907  -0.022520  -0.115861
-369.053986  251.165150  -30.662321  -0.000573  -0.012502  -0.115144
-175.098820  -97.198354  -6.147766  0.006314  -0.025493  -0.116470
-330.345891  174.191245  -21.428820  0.000774  -0.015306  -0.115148
-136.210960  -174.981194  -7.538848  0.007746  -0.028523  -0.117257
-446.307273  365.580882  -51.375032  -0.003268  -0.008375  -0.115550
-291.590815  96.905898  -14.490956  0.002136  -0.018150  -0.115316
-407.709624  289.299488  -38.499780  -0.001932  -0.011117  -0.115296
-252.794269  19.385874  -9.858798  0.003510  -0.021042  -0.115651
-213.961764  -58.291742  -7.539726  0.004903  -0.023984  -0.116156
-369.054004  212.581503  -27.897399  -0.000591  -0.013897  -0.115203
-175.098818  -136.049645  -7.538427  0.006316  -0.026981  -0.116836
-330.345905  135.502958  -19.582380  0.000760  -0.016718  -0.115274
-136.210952  -213.810406  -9.856887  0.007754  -0.030039  -0.117698
-446.307293  327.236088  -47.244363  -0.003288  -0.009745  -0.115514
-291.590827  58.140360  -13.566549  0.002124  -0.019582  -0.115509
-252.794278  -19.429410  -9.859058  0.003501  -0.022494  -0.115911
-407.709643  250.806588  -35.279594  -0.001951  -0.012502  -0.115325
-213.961767  -97.129185  -8.466370  0.004900  -0.025460  -0.116486
-369.054022  173.967624  -25.592740  -0.000609  -0.015298  -0.115296
-175.098815  -174.881610  -9.392249  0.006319  -0.028483  -0.117239
-484.841504  364.953379  -56.891095  -0.004638  -0.008386  -0.115796
-330.345920  96.795396  -18.197384  0.000745  -0.018137  -0.115432
-136.210943  -252.609239  -12.637758  0.007763  -0.031569  -0.118175
-446.307313  288.844762  -43.571204  -0.003308  -0.011122  -0.115510
-291.590839  19.366544  -13.104442  0.002112  -0.021022  -0.115734
-252.794285  -58.241945  -10.322147  0.003494  -0.023957  -0.116206
-407.709662  212.278020  -32.518620  -0.001970  -0.013895  -0.115385
-213.961770  -135.952834  -9.856042  0.004897  -0.026947  -0.116853
-369.054039  135.329001  -23.748671  -0.000626  -0.016708  -0.115423
-175.098812  -213.688728  -11.708969  0.006322  -0.029997  -0.117679
-484.841526  326.674399  -52.767516  -0.004660  -0.009755  -0.115760
-330.345935  58.074060  -17.274031  0.000730  -0.019566  -0.115624
-291.590851  -19.410038  -13.104702  0.002100  -0.022472  -0.115994
-446.307333  250.412362  -40.356080  -0.003328  -0.012506  -0.115539
-252.794292  -97.046215  -11.248000  0.003487  -0.025431  -0.116537
-407.709682  173.719263  -30.217251  -0.001990  -0.015295  -0.115478
-213.961772  -174.757171  -11.708545  0.004895  -0.028447  -0.117255
-369.054057  96.671127  -22.365454  -0.000644  -0.018127  -0.115581
-175.098807  -252.465484  -14.488258  0.006327  -0.031525  -0.118157
-484.841548  288.348967  -49.100663  -0.004682  -0.011130  -0.115757
-330.345950  19.344455  -16.812452  0.000715  -0.021005  -0.115851
-291.590862  -58.183875  -13.567330  0.002089  -0.023933  -0.116290
-446.307354  211.944351  -37.599446  -0.003349  -0.013897  -0.115600
-252.794299  -135.836702  -12.636485  0.003480  -0.026917  -0.116902
-407.709702  135.135796  -28.375815  -0.002010  -0.016704  -0.115605
-213.961772  -213.536678  -14.023616  0.004895  -0.029959  -0.117694
-369.054075  57.999497  -21.443287  -0.000662  -0.019554  -0.115774
-175.098801  -291.206364  -17.729721  0.006333  -0.033067  -0.118672
-484.841570  249.982530  -45.891057  -0.004704  -0.012512  -0.115786
-330.345965  -19.387914  -16.812713  0.000700  -0.022454  -0.116112
-291.590872  -96.949454  -14.492260  0.002079  -0.025406  -0.116620
-446.307376  173.446197  -35.301695  -0.003371  -0.015296  -0.115694
-252.794304  -174.607893  -14.487406  0.003475  -0.028414  -0.117305
-407.709723  96.533107  -26.994574  -0.002031  -0.018120  -0.115765
-213.961773  -252.285844  -16.800928  0.004894  -0.031485  -0.118172
-523.306851  287.812170  -55.087370  -0.006055  -0.011141  -0.116037
-369.054093  19.319609  -20.982301  -0.000680  -0.020991  -0.116001
-330.345979  -58.117539  -17.274814  0.000686  -0.023913  -0.116407
-484.841593  211.580544  -43.139155  -0.004727  -0.013902  -0.115847
-291.590883  -135.701265  -15.879361  0.002068  -0.026890  -0.116986
-446.307399  134.923374  -33.463154  -0.003394  -0.016702  -0.115821
-252.794310  -213.354276  -16.800500  0.003469  -0.029925  -0.117744
-407.709743  57.916682  -26.073724  -0.002051  -0.019546  -0.115958
-213.961772  -290.999159  -20.040085  0.004895  -0.033024  -0.118687
-523.306876  249.517152  -51.883739  -0.006080  -0.012522  -0.116066
-369.054111  -19.363039  -20.982562  -0.000698  -0.022439  -0.116262
-330.345994  -96.838917  -18.198690  0.000671  -0.025384  -0.116738
-484.841617  173.148467  -40.845349  -0.004751  -0.015299  -0.115942
-291.590893  -174.433798  -17.728437  0.002058  -0.028385  -0.117388
-446.307422  96.381357  -32.084084  -0.003417  -0.018117  -0.115980
-252.794315  -252.070343  -19.575440  0.003464  -0.031448  -0.118222
-407.709764  19.292010  -25.613397  -0.002072  -0.020981  -0.116185
-369.054129  -58.042948  -21.444071  -0.000716  -0.023897  -0.116558
-523.306901  211.186650  -49.136961  -0.006105  -0.013911  -0.116129
-330.346009  -135.546541  -19.584210  0.000656  -0.026865  -0.117104
-484.841643  134.691763  -39.009964  -0.004777  -0.016704  -0.116069
-291.590903  -213.141548  -20.039226  0.002048  -0.029893  -0.117828
-446.307445  57.825626  -31.164682  -0.003440  -0.019541  -0.116174
-252.794319  -290.750591  -22.811831  0.003460  -0.032986  -0.118738
-561.697782  249.016293  -58.333275  -0.007455  -0.012537  -0.116382
-407.709786  -19.335418  -25.613658  -0.002094  -0.022427  -0.116446
-369.054147  -96.714618  -22.366762  -0.000734  -0.025364  -0.116889
-523.306927  172.826113  -46.847425  -0.006131  -0.015307  -0.116224
-330.346023  -174.234911  -21.431178  0.000642  -0.028360  -0.117506
-484.841668  96.215898  -37.633263  -0.004802  -0.018118  -0.116231
-291.590913  -251.819013  -22.811399  0.002038  -0.031415  -0.118306
-446.307469  19.261662  -30.705080  -0.003464  -0.020974  -0.116402
-252.794323  -329.389522  -26.509214  0.003456  -0.034539  -0.119292
-561.697809  210.762725  -55.592010  -0.007482  -0.013923  -0.116444
-407.709807  -57.960111  -26.074509  -0.002115  -0.023883  -0.116743
-369.054166  -135.372554  -23.750504  -0.000753  -0.026845  -0.117256
-523.306955  134.440995  -45.015458  -0.006159  -0.016711  -0.116352
-330.346037  -212.898525  -23.739333  0.000628  -0.029866  -0.117947
-484.841695  57.726343  -36.715440  -0.004829  -0.019540  -0.116425
-291.590922  -290.460694  -26.044564  0.002029  -0.032951  -0.118822
-446.307494  -19.305055  -30.705342  -0.003489  -0.022419  -0.116664
-407.709829  -96.576577  -26.995883  -0.002137  -0.025350  -0.117074
-561.697838  172.479182  -53.307071  -0.007511  -0.015318  -0.116540
-369.054184  -174.011259  -25.595102  -0.000771  -0.028337  -0.117658
-523.306983  96.036753  -43.641320  -0.006187  -0.018122  -0.116513
-330.346051  -251.531889  -26.508346  0.000614  -0.031386  -0.118424
-291.590930  -329.061099  -29.738261  0.002021  -0.034501  -0.119376
-484.841722  19.228568  -36.256627  -0.004856  -0.020972  -0.116653
-446.307519  -57.869040  -31.165469  -0.003514  -0.023873  -0.116961
-407.709852  -135.179328  -28.377652  -0.002160  -0.026828  -0.117442
-561.697868  134.171108  -51.478782  -0.007541  -0.016720  -0.116669
-369.054203  -212.625242  -27.900295  -0.000790  -0.029842  -0.118099
-523.307012  57.618845  -42.725207  -0.006216  -0.019543  -0.116709
-330.346065  -290.129510  -29.737824  0.000600  -0.032920  -0.118939
-291.590939  -367.614741  -33.891966  0.002012  -0.036068  -0.119971
-484.841749  -19.271953  -36.256890  -0.004883  -0.022413  -0.116916
-446.307545  -96.424812  -32.085397  -0.003540  -0.025338  -0.117293
-407.709874  -173.762876  -30.219618  -0.002182  -0.028318  -0.117845
-561.697899  95.843948  -50.107403  -0.007572  -0.018130  -0.116831
-369.054222  -251.209012  -30.665754  -0.000809  -0.031360  -0.118577
-330.346079  -328.685902  -33.427311  0.000586  -0.034469  -0.119495
-523.307042  19.192734  -42.267250  -0.006246  -0.020973  -0.116938
-484.841778  -57.769749  -36.716229  -0.004912  -0.023866  -0.117214
-446.307571  -134.966890  -33.464995  -0.003566  -0.026814  -0.117662
-600.008924  133.882141  -58.399017  -0.008924  -0.016732  -0.117020
-407.709898  -212.321736  -32.521521  -0.002206  -0.029821  -0.118286
-561.697931  57.503150  -49.193131  -0.007604  -0.019549  -0.117028
-369.054241  -289.757085  -33.891088  -0.000828  -0.032892  -0.119093
-330.346094  -367.195583  -37.576281  0.000571  -0.036032  -0.120090
-523.307074  -19.236118  -42.267514  -0.006278  -0.022411  -0.117202
-484.841808  -96.259345  -37.634579  -0.004942  -0.025329  -0.117547
-446.307599  -173.489795  -35.304067  -0.003594  -0.028302  -0.118066
-600.008958  95.637512  -57.030593  -0.008958  -0.018140  -0.117184
-407.709922  -250.850427  -35.283034  -0.002230  -0.031337  -0.118765
-369.054260  -328.263982  -37.575840  -0.000847  -0.034439  -0.119649
-561.697964  19.154165  -48.736094  -0.007637  -0.020977  -0.117258
-523.307106  -57.662251  -42.725999  -0.006310  -0.023863  -0.117501
-484.841838  -134.735271  -39.011811  -0.004972  -0.026804  -0.117916
-446.307626  -211.988052  -37.602353  -0.003621  -0.029804  -0.118507
-600.008993  57.379274  -56.118290  -0.008993  -0.019558  -0.117380
-407.709945  -289.343472  -38.503765  -0.002253  -0.032867  -0.119281
-369.054280  -366.724229  -41.719485  -0.000867  -0.036001  -0.120244
-561.697999  -19.197556  -48.736358  -0.007672  -0.022414  -0.117522
-523.307139  -96.080200  -43.642641  -0.006343  -0.025325  -0.117834
-484.841869  -173.192057  -40.847728  -0.005003  -0.028291  -0.118321
-446.307654  -250.456187  -40.359528  -0.003649  -0.031319  -0.118987
-600.009029  19.112867  -55.662239  -0.009029  -0.020984  -0.117612
-407.709969  -327.795401  -42.183257  -0.002277  -0.034413  -0.119837
-369.054298  -405.132359  -46.321436  -0.000885  -0.037580  -0.120880
-561.698034  -57.546562  -49.193925  -0.007707  -0.023863  -0.117822
-523.307174  -134.484503  -45.017311  -0.006378  -0.026797  -0.118205
-484.841901  -211.624236  -43.142071  -0.005035  -0.029790  -0.118763
-446.307683  -288.888731  -43.575198  -0.003678  -0.032847  -0.119504
-407.709993  -366.200745  -46.320989  -0.002301  -0.035973  -0.120433
-600.009067  -19.156270  -55.662505  -0.009067  -0.022419  -0.117878
-561.698071  -95.887401  -50.108729  -0.007744  -0.025323  -0.118157
-523.307209  -172.869702  -46.849812  -0.006413  -0.028282  -0.118611
-484.841934  -250.026346  -45.894515  -0.005068  -0.031304  -0.119244
-446.307712  -327.280224  -47.248909  -0.003707  -0.034391  -0.120060
-407.710019  -404.554047  -50.916373  -0.002327  -0.037550  -0.121071
-600.009106  -57.422699  -56.119088  -0.009106  -0.023867  -0.118178
-561.698110  -134.214623  -51.480641  -0.007783  -0.026795  -0.118528
-523.307246  -211.230341  -49.139887  -0.006450  -0.029780  -0.119055
