# COL 1-3: Estimated X/Y/Z plate position [mm]
# COL 4-6: X/Y/Z plate position error [mm]
-58.421348  -566.706325  -50.088510  -0.028066  -5.105836  -1.012407
-97.342810  -567.937592  -51.248879  -0.029898  -6.496804  -1.258307
-136.249950  -569.351813  -52.913534  -0.031244  -8.150547  -1.551421
-175.137915  -571.104005  -55.110294  -0.032781  -10.222050  -1.919763
291.578132  -520.958453  -55.045252  -0.014819  0.251229  -0.073919
252.781408  -521.479949  -51.841862  -0.016371  0.249928  -0.074189
213.948899  -521.928204  -49.095490  -0.017768  0.247691  -0.074658
175.086041  -522.299420  -46.805911  -0.019093  0.248254  -0.074710
136.198363  -522.589716  -44.972827  -0.020343  0.255445  -0.073721
97.290982  -522.793977  -43.595660  -0.021930  0.274335  -0.070853
58.369609  -522.898989  -42.672482  -0.023673  0.318109  -0.063984
19.440258  -522.892169  -42.201394  -0.025092  0.399327  -0.051082
-19.491710  -522.782483  -42.183910  -0.026360  0.509013  -0.033598
-58.421189  -522.584323  -42.622370  -0.027907  0.632775  -0.013872
-97.342642  -522.300540  -43.517181  -0.029730  0.767772  0.007626
-136.249740  -521.927995  -44.867677  -0.031034  0.917166  0.031429
-175.137705  -521.471203  -46.674415  -0.032571  1.076471  0.056786
369.041615  -481.742383  -56.891903  -0.011798  -0.012734  -0.116604
330.333440  -482.359757  -52.768084  -0.013225  -0.010917  -0.116328
291.578147  -482.908797  -49.101016  -0.014804  -0.009343  -0.116110
252.781439  -483.389463  -45.891246  -0.016340  -0.008050  -0.115975
213.948944  -483.801633  -43.139229  -0.017723  -0.006985  -0.115921
175.086091  -484.145240  -40.845344  -0.019043  -0.006140  -0.115937
136.198391  -484.420073  -39.009890  -0.020315  -0.005352  -0.115995
97.290991  -484.625718  -37.633058  -0.021921  -0.004247  -0.116026
58.369640  -484.761439  -36.714955  -0.023642  -0.002119  -0.115940
19.440327  -484.826947  -36.255677  -0.025023  0.001303  -0.115703
-19.491644  -484.823073  -36.255404  -0.026294  0.005177  -0.115430
-58.421166  -484.750449  -36.714237  -0.027884  0.008871  -0.115222
-97.342616  -484.609488  -37.632178  -0.029704  0.011983  -0.115146
-136.249678  -484.400715  -39.009149  -0.030972  0.014006  -0.115254
-175.137645  -484.123986  -40.844952  -0.032511  0.015114  -0.115545
407.697185  -442.834849  -55.965051  -0.010507  -0.024138  -0.118045
369.041617  -443.468761  -51.377629  -0.011796  -0.025024  -0.118147
330.333439  -444.039459  -47.247092  -0.013226  -0.025741  -0.118243
291.578146  -444.546662  -43.574004  -0.014805  -0.026091  -0.118310
252.781443  -444.990316  -40.358910  -0.016336  -0.026090  -0.118369
213.948947  -445.370488  -37.602290  -0.017720  -0.025869  -0.118444
175.086093  -445.687413  -35.304567  -0.019041  -0.025718  -0.118566
136.198384  -445.941176  -33.466081  -0.020322  -0.025766  -0.118748
97.290977  -446.131719  -32.087079  -0.021935  -0.025991  -0.118975
58.369640  -446.259435  -31.167830  -0.023642  -0.026813  -0.119322
19.440332  -446.324538  -30.708504  -0.025018  -0.028464  -0.119826
-19.491650  -446.326499  -30.709084  -0.026300  -0.030425  -0.120406
-58.421195  -446.264596  -31.169474  -0.027913  -0.031974  -0.120966
-97.342626  -446.138819  -32.089613  -0.029714  -0.033091  -0.121509
-136.249673  -445.949326  -33.469368  -0.030967  -0.033916  -0.122035
-175.137668  -445.695857  -35.308529  -0.032534  -0.034162  -0.122528
446.294788  -403.894083  -55.963457  -0.009217  -0.013380  -0.116451
407.697212  -404.529747  -50.911690  -0.010480  -0.013250  -0.116388
369.041644  -405.107955  -46.316914  -0.011769  -0.013176  -0.116358
330.333468  -405.628707  -42.179783  -0.013197  -0.013239  -0.116363
291.578178  -406.091829  -38.500877  -0.014773  -0.013340  -0.116393
252.781479  -406.497205  -35.280733  -0.016300  -0.013429  -0.116464
213.948982  -406.844749  -32.519809  -0.017685  -0.013476  -0.116574
175.086132  -407.134523  -30.218504  -0.019002  -0.013594  -0.116731
136.198423  -407.366458  -28.377137  -0.020283  -0.013755  -0.116927
97.291018  -407.540346  -26.995935  -0.021894  -0.013784  -0.117126
58.369697  -407.656215  -26.075118  -0.023585  -0.013733  -0.117352
19.440392  -407.714085  -25.614827  -0.024958  -0.013639  -0.117615
-19.491592  -407.714017  -25.615127  -0.026242  -0.013571  -0.117915
-58.421142  -407.655953  -26.076013  -0.027860  -0.013471  -0.118247
-97.342542  -407.539994  -26.997439  -0.029630  -0.013432  -0.118630
-136.249569  -407.366174  -28.379254  -0.030863  -0.013471  -0.119044
-175.137578  -407.134458  -30.221281  -0.032444  -0.013529  -0.119508
484.829037  -364.974724  -56.891639  -0.007829  -0.012959  -0.116340
446.294830  -365.602298  -51.375740  -0.009175  -0.013041  -0.116258
407.697260  -366.177773  -46.316763  -0.010432  -0.013001  -0.116207
369.041697  -366.701209  -41.715425  -0.011716  -0.012981  -0.116184
330.333527  -367.172599  -37.572380  -0.013138  -0.013048  -0.116189
291.578246  -367.591781  -33.888209  -0.014705  -0.013108  -0.116214
252.781560  -367.958667  -30.663453  -0.016219  -0.013131  -0.116276
213.949072  -368.273200  -27.898574  -0.017595  -0.013114  -0.116378
175.086231  -368.535448  -25.593969  -0.018903  -0.013168  -0.116525
136.198521  -368.745353  -23.749959  -0.020185  -0.013273  -0.116711
97.291117  -368.902742  -22.366779  -0.021795  -0.013286  -0.116906
58.369817  -369.007668  -21.444650  -0.023465  -0.013282  -0.117137
19.440527  -369.060159  -20.983714  -0.024823  -0.013304  -0.117414
-19.491457  -369.060226  -20.984027  -0.026107  -0.013371  -0.117727
-58.421017  -369.007758  -21.445582  -0.027735  -0.013372  -0.118069
-97.342394  -368.902849  -22.368330  -0.029482  -0.013393  -0.118457
-136.249406  -368.745544  -23.752119  -0.030700  -0.013464  -0.118871
484.829042  -326.695854  -52.767814  -0.007824  -0.011700  -0.116058
446.294834  -327.257638  -47.244826  -0.009171  -0.011805  -0.115977
407.697261  -327.772793  -42.179350  -0.010431  -0.011805  -0.115930
369.041694  -328.241360  -37.572102  -0.011719  -0.011817  -0.115911
330.333520  -328.663327  -33.423731  -0.013145  -0.011894  -0.115915
291.578241  -329.038546  -29.734823  -0.014710  -0.011948  -0.115938
252.781561  -329.366943  -26.505921  -0.016218  -0.011960  -0.115999
213.949074  -329.648471  -23.737487  -0.017593  -0.011928  -0.116101
175.086232  -329.883198  -21.429916  -0.018902  -0.011960  -0.116244
136.198509  -330.071073  -19.583532  -0.020197  -0.012039  -0.116426
97.291095  -330.211948  -18.198572  -0.021817  -0.012044  -0.116620
58.369805  -330.305882  -17.275259  -0.023477  -0.012053  -0.116852
19.440524  -330.352899  -16.813733  -0.024826  -0.012105  -0.117132
-19.491471  -330.352989  -16.814047  -0.026121  -0.012195  -0.117446
-58.421056  -330.306036  -17.276197  -0.027774  -0.012207  -0.117790
-97.342425  -330.212130  -18.200129  -0.029513  -0.012226  -0.118177
-136.249435  -330.071311  -19.585693  -0.030729  -0.012277  -0.118587
523.294466  -287.833507  -55.087264  -0.006330  -0.010196  -0.115931
484.829044  -288.370333  -49.100694  -0.007822  -0.010236  -0.115788
446.294835  -288.866196  -43.571397  -0.009170  -0.010312  -0.115703
407.697257  -289.320899  -38.500137  -0.010435  -0.010294  -0.115653
369.041685  -289.734486  -33.887628  -0.011728  -0.010293  -0.115633
330.333507  -290.106947  -29.734519  -0.013158  -0.010357  -0.115634
291.578227  -290.438151  -26.041399  -0.014724  -0.010408  -0.115657
252.781549  -290.728032  -22.808812  -0.016230  -0.010427  -0.115719
213.949062  -290.976546  -20.037219  -0.017605  -0.010411  -0.115821
175.086218  -291.183747  -17.727015  -0.018916  -0.010450  -0.115966
136.198484  -291.349589  -15.878520  -0.020222  -0.010527  -0.116145
97.291062  -291.473940  -14.491980  -0.021850  -0.010534  -0.116340
58.369783  -291.556849  -13.567612  -0.023499  -0.010536  -0.116572
19.440507  -291.598336  -13.105556  -0.024843  -0.010567  -0.116848
-19.491495  -291.598396  -13.105866  -0.026145  -0.010627  -0.117158
-58.421092  -291.556941  -13.568542  -0.027810  -0.010628  -0.117502
-97.342446  -291.474052  -14.493528  -0.029534  -0.010646  -0.117888
-136.249450  -291.349755  -15.880672  -0.030744  -0.010693  -0.118297
561.685541  -249.037680  -58.332791  -0.004786  -0.008850  -0.115898
523.294483  -249.538507  -51.883379  -0.006313  -0.008833  -0.115706
484.829068  -250.003910  -45.890834  -0.007798  -0.008868  -0.115563
446.294863  -250.433795  -40.356018  -0.009142  -0.008927  -0.115477
407.697289  -250.827996  -35.279697  -0.010403  -0.008906  -0.115428
369.041721  -251.186552  -30.662583  -0.011692  -0.008900  -0.115406
330.333547  -251.509454  -26.505328  -0.013118  -0.008951  -0.115406
291.578272  -251.796593  -22.808521  -0.014679  -0.008995  -0.115428
252.781601  -252.047907  -19.572707  -0.016178  -0.009012  -0.115489
213.949118  -252.263361  -16.798348  -0.017549  -0.009002  -0.115592
175.086280  -252.443000  -14.485837  -0.018854  -0.009041  -0.115736
136.198548  -252.586778  -12.635495  -0.020158  -0.009108  -0.115912
97.291130  -252.694586  -11.247569  -0.021782  -0.009116  -0.116106
58.369863  -252.766463  -10.322278  -0.023419  -0.009117  -0.116337
19.440593  -252.802426  -9.859758  -0.024757  -0.009139  -0.116611
-19.491408  -252.802475  -9.860065  -0.026058  -0.009188  -0.116918
-58.421005  -252.766534  -10.323201  -0.027723  -0.009188  -0.117260
-97.342337  -252.694677  -11.249108  -0.029425  -0.009207  -0.117645
-136.249337  -252.586920  -12.637633  -0.030631  -0.009250  -0.118050
561.685549  -210.784238  -55.591277  -0.004778  -0.007590  -0.115711
523.294495  -211.208127  -49.136353  -0.006301  -0.007566  -0.115521
484.829084  -211.602037  -43.138684  -0.007782  -0.007591  -0.115376
446.294882  -211.965896  -37.599136  -0.009123  -0.007648  -0.115290
407.697311  -212.299553  -32.518476  -0.010381  -0.007638  -0.115241
369.041744  -212.603039  -27.897416  -0.011669  -0.007639  -0.115220
330.333572  -212.876344  -23.736605  -0.013093  -0.007685  -0.115219
291.578301  -213.119374  -20.036637  -0.014650  -0.007719  -0.115239
252.781635  -213.332081  -16.798056  -0.016144  -0.007730  -0.115300
213.949155  -213.514435  -14.021325  -0.017512  -0.007716  -0.115403
175.086320  -213.666476  -11.706835  -0.018814  -0.007745  -0.115545
136.198588  -213.788166  -9.854909  -0.020118  -0.007799  -0.115720
97.291171  -213.879412  -8.465795  -0.021741  -0.007803  -0.115911
58.369914  -213.940251  -7.539713  -0.023368  -0.007806  -0.116143
19.440647  -213.970698  -7.076796  -0.024703  -0.007834  -0.116416
-19.491354  -213.970746  -7.077102  -0.026004  -0.007882  -0.116722
-58.420952  -213.940329  -7.540633  -0.027670  -0.007884  -0.117063
-97.342270  -213.879510  -8.467329  -0.029358  -0.007901  -0.117445
-136.249275  -213.788301  -9.857039  -0.030569  -0.007934  -0.117850
561.685549  -172.500641  -53.306074  -0.004778  -0.006141  -0.115543
523.294495  -172.847541  -46.846554  -0.006301  -0.006121  -0.115353
484.829083  -173.169908  -40.844615  -0.007783  -0.006142  -0.115208
446.294880  -173.467683  -35.301122  -0.009125  -0.006190  -0.115121
407.697305  -173.740744  -30.216845  -0.010387  -0.006186  -0.115072
369.041735  -173.989112  -25.592495  -0.011678  -0.006190  -0.115051
330.333561  -174.212779  -21.428720  -0.013104  -0.006228  -0.115048
291.578289  -174.411668  -17.726117  -0.014662  -0.006255  -0.115068
252.781624  -174.585741  -14.485230  -0.016155  -0.006262  -0.115129
213.949142  -174.734973  -11.706522  -0.017525  -0.006249  -0.115232
175.086305  -174.859398  -9.390383  -0.018829  -0.006271  -0.115373
136.198567  -174.958983  -7.537137  -0.020139  -0.006312  -0.115546
97.291145  -175.033654  -6.147034  -0.021767  -0.006313  -0.115738
58.369890  -175.083442  -5.220292  -0.023392  -0.006315  -0.115969
19.440622  -175.108360  -4.757045  -0.024728  -0.006338  -0.116242
-19.491384  -175.108399  -4.757350  -0.026034  -0.006377  -0.116547
-58.420989  -175.083504  -5.221211  -0.027707  -0.006377  -0.116888
-97.342304  -175.033728  -6.148566  -0.029392  -0.006387  -0.117270
-136.249323  -174.959080  -7.539265  -0.030617  -0.006409  -0.117674
599.996409  -133.903586  -58.397571  -0.003591  -0.004713  -0.115574
561.685553  -134.192568  -51.477525  -0.004774  -0.004740  -0.115412
523.294500  -134.462432  -45.014329  -0.006296  -0.004726  -0.115223
484.829089  -134.713210  -39.008973  -0.007777  -0.004743  -0.115078
446.294886  -134.944853  -33.462322  -0.009119  -0.004777  -0.114989
407.697310  -135.157269  -28.375151  -0.010382  -0.004769  -0.114941
369.041739  -135.350478  -23.748167  -0.011674  -0.004769  -0.114919
330.333564  -135.524473  -19.582022  -0.013101  -0.004797  -0.114916
291.578292  -135.679194  -15.877310  -0.014659  -0.004819  -0.114935
252.781629  -135.814610  -12.634578  -0.016150  -0.004825  -0.114995
213.949147  -135.930703  -9.854288  -0.017520  -0.004816  -0.115099
175.086311  -136.027498  -7.536830  -0.018823  -0.004834  -0.115239
136.198570  -136.104968  -5.682527  -0.020136  -0.004867  -0.115410
97.291146  -136.163057  -4.291633  -0.021766  -0.004868  -0.115603
58.369895  -136.201788  -3.364363  -0.023387  -0.004869  -0.115834
19.440628  -136.221170  -2.900851  -0.024722  -0.004885  -0.116105
-19.491376  -136.221197  -2.901155  -0.026026  -0.004912  -0.116409
-58.420981  -136.201830  -3.365279  -0.027699  -0.004911  -0.116750
-97.342290  -136.163110  -4.293162  -0.029378  -0.004921  -0.117132
-136.249317  -136.105041  -5.684651  -0.030611  -0.004940  -0.117534
599.996414  -95.659082  -57.028890  -0.003586  -0.003430  -0.115481
561.685561  -95.865526  -50.105891  -0.004766  -0.003448  -0.115319
523.294511  -96.058316  -43.639937  -0.006285  -0.003441  -0.115130
484.829105  -96.237469  -37.632018  -0.007761  -0.003453  -0.114986
446.294905  -96.402948  -32.083000  -0.009100  -0.003474  -0.114896
407.697333  -96.554692  -26.993657  -0.010359  -0.003465  -0.114848
369.041765  -96.692716  -22.364699  -0.011648  -0.003462  -0.114826
330.333594  -96.817014  -18.196775  -0.013071  -0.003481  -0.114823
291.578326  -96.927545  -14.490481  -0.014625  -0.003497  -0.114841
252.781667  -97.024286  -11.246365  -0.016112  -0.003502  -0.114902
213.949189  -97.107223  -8.464889  -0.017478  -0.003498  -0.115005
175.086357  -97.176374  -6.146441  -0.018777  -0.003513  -0.115145
136.198619  -97.231719  -4.291346  -0.020087  -0.003537  -0.115316
97.291199  -97.273218  -2.899857  -0.021713  -0.003539  -0.115507
58.369953  -97.300887  -1.972190  -0.023329  -0.003540  -0.115737
19.440689  -97.314731  -1.508480  -0.024661  -0.003549  -0.116008
-19.491311  -97.314749  -1.508782  -0.025961  -0.003567  -0.116310
-58.420911  -97.300912  -1.973103  -0.027629  -0.003565  -0.116650
-97.342213  -97.273253  -2.901380  -0.029301  -0.003574  -0.117030
-136.249245  -97.231771  -4.293462  -0.030539  -0.003589  -0.117432
599.996417  -57.400921  -56.116326  -0.003583  -0.002089  -0.115416
561.685562  -57.524800  -49.191357  -0.004765  -0.002101  -0.115254
523.294512  -57.640482  -42.723564  -0.006284  -0.002094  -0.115066
484.829104  -57.747982  -36.713936  -0.007762  -0.002099  -0.114921
446.294904  -57.847280  -31.163339  -0.009101  -0.002113  -0.114831
407.697331  -57.938337  -26.072549  -0.010361  -0.002109  -0.114783
369.041761  -58.021160  -21.442274  -0.011652  -0.002109  -0.114761
330.333588  -58.095746  -17.273163  -0.013077  -0.002120  -0.114756
291.578320  -58.162069  -13.565815  -0.014631  -0.002127  -0.114775
252.781661  -58.220117  -10.320776  -0.016118  -0.002129  -0.114835
213.949180  -58.269883  -7.538508  -0.017487  -0.002125  -0.114938
175.086348  -58.311376  -5.219401  -0.018786  -0.002133  -0.115078
136.198607  -58.344586  -3.363777  -0.020099  -0.002147  -0.115248
97.291186  -58.369486  -1.971893  -0.021726  -0.002146  -0.115440
58.369940  -58.386088  -1.043962  -0.023342  -0.002146  -0.115669
19.440674  -58.394396  -0.580120  -0.024676  -0.002152  -0.115941
-19.491328  -58.394407  -0.580422  -0.025978  -0.002163  -0.116243
-58.420931  -58.386105  -1.044875  -0.027649  -0.002163  -0.116582
-97.342231  -58.369507  -1.973416  -0.029319  -0.002167  -0.116963
-136.249268  -58.344615  -3.365894  -0.030562  -0.002176  -0.117365
599.996419  -19.134545  -55.660011  -0.003581  -0.000694  -0.115384
561.685563  -19.175840  -48.734057  -0.004764  -0.000698  -0.115221
523.294514  -19.214398  -42.265345  -0.006282  -0.000691  -0.115033
484.829106  -19.250231  -36.254862  -0.007760  -0.000691  -0.114888
446.294906  -19.283334  -30.703475  -0.009099  -0.000698  -0.114797
407.697332  -19.313689  -25.611961  -0.010360  -0.000698  -0.114749
369.041762  -19.341298  -20.981028  -0.011651  -0.000698  -0.114728
330.333589  -19.366161  -16.811325  -0.013076  -0.000701  -0.114724
291.578321  -19.388268  -13.103449  -0.014630  -0.000702  -0.114741
252.781663  -19.407616  -9.857948  -0.016116  -0.000700  -0.114801
213.949183  -19.424202  -7.075285  -0.017484  -0.000696  -0.114905
175.086350  -19.438031  -4.755848  -0.018784  -0.000695  -0.115045
136.198608  -19.449099  -2.899960  -0.020098  -0.000698  -0.115214
97.291185  -19.457398  -1.507877  -0.021727  -0.000696  -0.115405
58.369942  -19.462932  -0.579815  -0.023340  -0.000696  -0.115636
-58.420934  -19.462937  -0.580727  -0.027652  -0.000701  -0.116548
-97.342229  -19.457402  -1.509399  -0.029317  -0.000700  -0.116927
-136.249258  -19.449101  -2.902075  -0.030552  -0.000700  -0.117329
599.996421  19.134546  -55.660011  -0.003579  0.000695  -0.115384
561.685566  19.175844  -48.734058  -0.004761  0.000702  -0.115222
523.294518  19.214406  -42.265345  -0.006278  0.000699  -0.115033
484.829112  19.250242  -36.254863  -0.007754  0.000702  -0.114889
446.294912  19.283347  -30.703476  -0.009093  0.000711  -0.114798
407.697340  19.313703  -25.611962  -0.010352  0.000712  -0.114750
369.041771  19.341314  -20.981029  -0.011642  0.000714  -0.114729
330.333599  19.366179  -16.811326  -0.013066  0.000719  -0.114725
291.578331  19.388289  -13.103450  -0.014620  0.000723  -0.114742
252.781675  19.407641  -9.857950  -0.016104  0.000725  -0.114803
213.949197  19.424233  -7.075286  -0.017470  0.000727  -0.114906
175.086364  19.438067  -4.755849  -0.018770  0.000731  -0.115046
136.198622  19.449140  -2.899961  -0.020084  0.000739  -0.115215
97.291200  19.457444  -1.507878  -0.021712  0.000742  -0.115406
58.369961  19.462980  -0.579816  -0.023321  0.000744  -0.115637
-58.420915  19.462993  -0.580727  -0.027633  0.000757  -0.116548
-97.342207  19.457463  -1.509399  -0.029295  0.000761  -0.116927
-136.249228  19.449169  -2.902074  -0.030522  0.000768  -0.117328
599.996421  57.400807  -56.116325  -0.003579  0.001975  -0.115415
561.685567  57.524689  -49.191356  -0.004760  0.001990  -0.115253
523.294517  57.640373  -42.723563  -0.006279  0.001985  -0.115065
484.829110  57.747876  -36.713935  -0.007756  0.001993  -0.114920
446.294910  57.847179  -31.163338  -0.009095  0.002012  -0.114830
407.697336  57.938239  -26.072548  -0.010356  0.002011  -0.114782
369.041767  58.021066  -21.442273  -0.011646  0.002015  -0.114760
330.333594  58.095655  -17.273162  -0.013071  0.002029  -0.114755
291.578325  58.161981  -13.565814  -0.014626  0.002039  -0.114774
252.781668  58.220032  -10.320775  -0.016111  0.002044  -0.114834
213.949188  58.269799  -7.538507  -0.017479  0.002041  -0.114937
175.086356  58.311294  -5.219400  -0.018778  0.002051  -0.115077
136.198613  58.344506  -3.363776  -0.020093  0.002067  -0.115247
97.291191  58.369409  -1.971892  -0.021721  0.002069  -0.115439
58.369948  58.386014  -1.043961  -0.023334  0.002072  -0.115668
19.440686  58.394325  -0.580119  -0.024664  0.002081  -0.115940
-19.491320  58.394340  -0.580421  -0.025970  0.002096  -0.116242
-58.420928  58.386040  -1.044874  -0.027646  0.002098  -0.116581
-97.342224  58.369444  -1.973414  -0.029312  0.002104  -0.116961
-136.249248  58.344553  -3.365892  -0.030542  0.002114  -0.117363
599.996421  95.658963  -57.028888  -0.003579  0.003311  -0.115479
561.685566  95.865410  -50.105888  -0.004761  0.003332  -0.115316
523.294514  96.058202  -43.639934  -0.006282  0.003327  -0.115127
484.829106  96.237358  -37.632015  -0.007760  0.003342  -0.114983
446.294904  96.402844  -32.082997  -0.009101  0.003370  -0.114893
407.697330  96.554594  -26.993654  -0.010362  0.003367  -0.114845
369.041760  96.692623  -22.364696  -0.011653  0.003369  -0.114823
330.333587  96.816926  -18.196772  -0.013078  0.003393  -0.114820
291.578317  96.927460  -14.490478  -0.014634  0.003412  -0.114838
252.781656  97.024203  -11.246362  -0.016123  0.003419  -0.114899
213.949176  97.107141  -8.464885  -0.017491  0.003416  -0.115001
175.086342  97.176291  -6.146438  -0.018792  0.003430  -0.115142
136.198601  97.231637  -4.291342  -0.020105  0.003455  -0.115312
97.291178  97.273138  -2.899854  -0.021734  0.003459  -0.115504
58.369931  97.300809  -1.972188  -0.023351  0.003462  -0.115735
19.440666  97.314658  -1.508477  -0.024684  0.003476  -0.116005
-19.491340  97.314680  -1.508780  -0.025990  0.003498  -0.116308
-58.420946  97.300847  -1.973102  -0.027664  0.003500  -0.116649
-97.342248  97.273187  -2.901379  -0.029336  0.003508  -0.117029
-136.249274  97.231703  -4.293461  -0.030568  0.003521  -0.117431
599.996421  133.903617  -58.397574  -0.003579  0.004744  -0.115577
561.685566  134.192601  -51.477529  -0.004761  0.004773  -0.115416
523.294515  134.462472  -45.014333  -0.006281  0.004766  -0.115227
484.829105  134.713254  -39.008977  -0.007761  0.004787  -0.115082
446.294904  134.944899  -33.462327  -0.009101  0.004823  -0.114994
407.697331  135.157318  -28.375155  -0.010361  0.004818  -0.114945
369.041761  135.350530  -23.748172  -0.011652  0.004821  -0.114924
330.333588  135.524528  -19.582026  -0.013077  0.004852  -0.114920
291.578318  135.679254  -15.877315  -0.014633  0.004879  -0.114940
252.781657  135.814675  -12.634583  -0.016122  0.004890  -0.115000
213.949177  135.930772  -9.854293  -0.017490  0.004885  -0.115104
175.086342  136.027570  -7.536835  -0.018792  0.004906  -0.115244
136.198603  136.105043  -5.682532  -0.020103  0.004942  -0.115415
97.291181  136.163136  -4.291637  -0.021731  0.004947  -0.115607
58.369933  136.201871  -3.364367  -0.023349  0.004952  -0.115838
19.440669  136.221256  -2.900855  -0.024681  0.004971  -0.116109
-19.491336  136.221288  -2.901159  -0.025986  0.005003  -0.116413
-58.420942  136.201924  -3.365283  -0.027660  0.005005  -0.116754
-97.342247  136.163207  -4.293164  -0.029335  0.005018  -0.117134
-136.249264  136.105140  -5.684653  -0.030558  0.005039  -0.117536
561.685565  172.500642  -53.306077  -0.004762  0.006142  -0.115546
523.294512  172.847546  -46.846557  -0.006284  0.006126  -0.115356
484.829101  173.169916  -40.844619  -0.007765  0.006150  -0.115212
446.294899  173.467690  -35.301125  -0.009106  0.006197  -0.115124
407.697326  173.740748  -30.216848  -0.010366  0.006190  -0.115075
369.041756  173.989115  -25.592497  -0.011657  0.006193  -0.115053
330.333583  174.212783  -21.428723  -0.013082  0.006232  -0.115051
291.578311  174.411676  -17.726119  -0.014640  0.006263  -0.115070
252.781648  174.585753  -14.485233  -0.016131  0.006274  -0.115132
213.949168  174.734991  -11.706525  -0.017499  0.006267  -0.115235
175.086332  174.859422  -9.390386  -0.018802  0.006295  -0.115376
136.198593  174.959014  -7.537140  -0.020113  0.006343  -0.115549
97.291171  175.033690  -6.147037  -0.021741  0.006349  -0.115741
58.369921  175.083482  -5.220295  -0.023361  0.006355  -0.115972
19.440659  175.108400  -4.757048  -0.024691  0.006378  -0.116245
-19.491350  175.108441  -4.757352  -0.026000  0.006419  -0.116549
-58.420960  175.083550  -5.221213  -0.027678  0.006423  -0.116890
-97.342269  175.033781  -6.148568  -0.029357  0.006440  -0.117272
-136.249270  174.959142  -7.539266  -0.030564  0.006471  -0.117675
561.685562  210.784099  -55.591270  -0.004765  0.007451  -0.115704
523.294506  211.207990  -49.136345  -0.006290  0.007429  -0.115513
484.829092  211.601903  -43.138677  -0.007774  0.007457  -0.115369
446.294888  211.965767  -37.599128  -0.009117  0.007519  -0.115282
407.697314  212.299429  -32.518468  -0.010378  0.007514  -0.115233
369.041744  212.602918  -27.897408  -0.011669  0.007518  -0.115212
330.333569  212.876224  -23.736597  -0.013096  0.007565  -0.115211
291.578295  213.119255  -20.036629  -0.014656  0.007600  -0.115231
252.781628  213.331964  -16.798048  -0.016151  0.007613  -0.115292
213.949145  213.514323  -14.021317  -0.017522  0.007604  -0.115395
175.086307  213.666369  -11.706827  -0.018827  0.007638  -0.115537
136.198570  213.788063  -9.854901  -0.020136  0.007696  -0.115712
97.291149  213.879311  -8.465788  -0.021763  0.007702  -0.115904
58.369892  213.940151  -7.539706  -0.023390  0.007706  -0.116136
19.440627  213.970596  -7.076789  -0.024723  0.007732  -0.116409
-19.491383  213.970643  -7.077096  -0.026033  0.007779  -0.116716
-58.420993  213.940227  -7.540627  -0.027711  0.007782  -0.117057
-97.342308  213.879410  -8.467324  -0.029396  0.007801  -0.117440
-136.249298  213.788206  -9.857034  -0.030592  0.007839  -0.117845
561.685560  249.037648  -58.332792  -0.004767  0.008818  -0.115899
523.294502  249.538468  -51.883380  -0.006294  0.008794  -0.115707
484.829087  250.003870  -45.890834  -0.007779  0.008828  -0.115563
446.294883  250.433766  -40.356019  -0.009122  0.008898  -0.115478
407.697308  250.827979  -35.279698  -0.010384  0.008889  -0.115429
369.041740  251.186544  -30.662585  -0.011673  0.008892  -0.115408
330.333565  251.509451  -26.505329  -0.013100  0.008948  -0.115407
291.578290  251.796590  -22.808522  -0.014661  0.008992  -0.115429
252.781621  252.047903  -19.572708  -0.016158  0.009008  -0.115490
213.949138  252.263356  -16.798349  -0.017529  0.008997  -0.115593
175.086299  252.442994  -14.485837  -0.018835  0.009035  -0.115736
136.198565  252.586773  -12.635495  -0.020141  0.009103  -0.115912
97.291146  252.694583  -11.247569  -0.021766  0.009113  -0.116106
58.369882  252.766464  -10.322278  -0.023400  0.009118  -0.116337
19.440615  252.802437  -9.859759  -0.024735  0.009150  -0.116612
-19.491392  252.802495  -9.860067  -0.026042  0.009208  -0.116920
-58.420998  252.766560  -10.323203  -0.027716  0.009214  -0.117262
-97.342326  252.694706  -11.249110  -0.029414  0.009236  -0.117647
-136.249312  252.586951  -12.637634  -0.030606  0.009281  -0.118051
523.294499  287.833468  -55.087266  -0.006297  0.010157  -0.115933
484.829081  288.370298  -49.100696  -0.007785  0.010201  -0.115790
446.294875  288.866162  -43.571400  -0.009130  0.010278  -0.115706
407.697301  289.320867  -38.500140  -0.010391  0.010262  -0.115656
369.041732  289.734457  -33.887631  -0.011681  0.010264  -0.115636
330.333558  290.106923  -29.734522  -0.013107  0.010333  -0.115637
291.578281  290.438134  -26.041403  -0.014670  0.010391  -0.115661
252.781608  290.728020  -22.808815  -0.016171  0.010415  -0.115722
213.949126  290.976534  -20.037222  -0.017541  0.010399  -0.115824
175.086285  291.183736  -17.727017  -0.018849  0.010439  -0.115968
136.198554  291.349578  -15.878522  -0.020152  0.010516  -0.116147
97.291134  291.473933  -14.491981  -0.021778  0.010527  -0.116341
58.369861  291.556848  -13.567614  -0.023421  0.010535  -0.116574
19.440593  291.598343  -13.105557  -0.024757  0.010574  -0.116849
-19.491409  291.598411  -13.105867  -0.026059  0.010642  -0.117159
-58.421010  291.556962  -13.568542  -0.027728  0.010649  -0.117502
-97.342358  291.474075  -14.493527  -0.029446  0.010669  -0.117887
-136.249347  291.349778  -15.880670  -0.030641  0.010716  -0.118295
484.829070  326.695855  -52.767818  -0.007796  0.011701  -0.116062
446.294863  327.257621  -47.244828  -0.009142  0.011788  -0.115979
407.697289  327.772757  -42.179350  -0.010403  0.011769  -0.115930
369.041722  328.241314  -37.572100  -0.011691  0.011771  -0.115909
330.333549  328.663282  -33.423729  -0.013116  0.011849  -0.115913
291.578269  329.038512  -29.734822  -0.014682  0.011914  -0.115937
252.781589  329.366925  -26.505921  -0.016190  0.011942  -0.115999
213.949102  329.648468  -23.737488  -0.017565  0.011925  -0.116102
175.086260  329.883206  -21.429919  -0.018874  0.011968  -0.116247
136.198538  330.071091  -19.583535  -0.020168  0.012057  -0.116429
97.291125  330.211974  -18.198576  -0.021787  0.012070  -0.116624
58.369837  330.305908  -17.275263  -0.023445  0.012079  -0.116856
19.440558  330.352915  -16.813734  -0.024792  0.012121  -0.117133
-19.491436  330.352994  -16.814047  -0.026086  0.012200  -0.117446
-58.421019  330.306036  -17.276196  -0.027737  0.012207  -0.117789
-97.342382  330.212131  -18.200128  -0.029470  0.012227  -0.118176
-136.249382  330.071315  -19.585692  -0.030676  0.012281  -0.118586
484.829044  364.974686  -56.891636  -0.007822  0.012921  -0.116337
446.294831  365.602284  -51.375739  -0.009174  0.013027  -0.116257
407.697255  366.177787  -46.316764  -0.010437  0.013015  -0.116208
369.041686  366.701241  -41.715428  -0.011727  0.013013  -0.116187
330.333510  367.172640  -37.572383  -0.013155  0.013089  -0.116192
291.578222  367.591821  -33.888211  -0.014729  0.013148  -0.116216
252.781529  367.958701  -30.663454  -0.016250  0.013165  -0.116277
213.949033  368.273228  -27.898574  -0.017634  0.013142  -0.116378
175.086185  368.535473  -25.593969  -0.018949  0.013193  -0.116525
136.198471  368.745377  -23.749960  -0.020235  0.013297  -0.116712
97.291062  368.902766  -22.366780  -0.021850  0.013310  -0.116907
58.369754  369.007696  -21.444653  -0.023528  0.013310  -0.117140
19.440454  369.060200  -20.983718  -0.024896  0.013345  -0.117418
-19.491536  369.060280  -20.984034  -0.026186  0.013425  -0.117734
-58.421100  369.007820  -21.445591  -0.027818  0.013434  -0.118078
-97.342481  368.902915  -22.368340  -0.029569  0.013459  -0.118467
-136.249498  368.745611  -23.752131  -0.030792  0.013531  -0.118883
446.294823  403.895004  -55.963578  -0.009182  0.014301  -0.116572
407.697248  404.530796  -50.911826  -0.010444  0.014299  -0.116524
369.041683  405.109084  -46.317060  -0.011730  0.014305  -0.116504
330.333508  405.629863  -42.179933  -0.013157  0.014395  -0.116513
291.578221  406.092956  -38.501022  -0.014730  0.014467  -0.116538
252.781524  406.498267  -35.280870  -0.016255  0.014491  -0.116601
213.949029  406.845740  -32.519937  -0.017638  0.014467  -0.116702
175.086180  407.135452  -30.218624  -0.018954  0.014523  -0.116851
136.198471  407.367343  -28.377250  -0.020235  0.014640  -0.117040
97.291065  407.541218  -26.996046  -0.021847  0.014656  -0.117237
58.369744  407.657135  -26.075235  -0.023538  0.014653  -0.117469
19.440438  407.715133  -25.614960  -0.024912  0.014687  -0.117748
-19.491549  407.715217  -25.615277  -0.026199  0.014771  -0.118065
-58.421103  407.657257  -26.076176  -0.027821  0.014775  -0.118410
-97.342508  407.541352  -26.997609  -0.029596  0.014790  -0.118800
-136.249541  407.367561  -28.379427  -0.030835  0.014858  -0.119217
-175.137559  407.135812  -30.221450  -0.032425  0.014883  -0.119677
407.697251  442.826882  -55.963960  -0.010441  0.016171  -0.116954
369.041688  443.459905  -51.376415  -0.011725  0.016168  -0.116933
330.333515  444.030007  -47.245795  -0.013150  0.016289  -0.116946
291.578228  444.536985  -43.572676  -0.014723  0.016414  -0.116982
252.781530  444.980708  -40.357591  -0.016249  0.016482  -0.117050
213.949040  445.361084  -37.600999  -0.017627  0.016465  -0.117153
175.086191  445.678214  -35.303303  -0.018943  0.016519  -0.117302
136.198486  445.932062  -33.464828  -0.020220  0.016652  -0.117495
97.291084  446.122428  -32.085800  -0.021828  0.016700  -0.117696
58.369754  446.249370  -31.166443  -0.023528  0.016748  -0.117935
19.440455  446.312923  -30.706902  -0.024895  0.016849  -0.118224
-19.491520  446.313085  -30.707232  -0.026170  0.017011  -0.118554
-58.421060  446.249702  -31.167416  -0.027778  0.017080  -0.118908
-97.342485  446.122870  -32.087408  -0.029573  0.017142  -0.119304
-136.249521  445.932665  -33.467062  -0.030815  0.017255  -0.119729
-175.137505  445.679039  -35.306199  -0.032371  0.017344  -0.120198
369.041636  481.746816  -56.892571  -0.011777  0.017167  -0.117272
330.333458  482.366083  -52.769036  -0.013207  0.017243  -0.117280
291.578161  482.916755  -49.102212  -0.014790  0.017301  -0.117306
252.781450  483.398713  -45.892636  -0.016329  0.017300  -0.117365
213.948951  483.811888  -43.140769  -0.017716  0.017240  -0.117461
175.086094  484.156376  -40.847016  -0.019040  0.017276  -0.117609
136.198390  484.432117  -39.011698  -0.020316  0.017396  -0.117803
97.290986  484.638872  -37.635033  -0.021926  0.017401  -0.118001
58.369633  484.776694  -36.717246  -0.023649  0.017374  -0.118231
19.440320  484.845633  -36.258483  -0.025030  0.017383  -0.118509
-19.491653  484.845710  -36.258804  -0.026303  0.017460  -0.118830
-58.421179  484.776777  -36.718190  -0.027897  0.017457  -0.119175
-97.342630  484.638933  -37.636600  -0.029718  0.017462  -0.119568
-136.249690  484.432278  -39.013889  -0.030984  0.017557  -0.119994
-175.137655  484.156696  -40.849865  -0.032521  0.017596  -0.120458
291.578136  521.226037  -55.088692  -0.014815  0.016355  -0.117359
252.781409  521.746097  -51.885067  -0.016370  0.016220  -0.117394
213.948897  522.192005  -49.138315  -0.017770  0.016110  -0.117483
175.086035  522.563819  -46.848833  -0.019099  0.016145  -0.117632
136.198352  522.861393  -45.016930  -0.020354  0.016232  -0.117824
97.290966  523.084392  -43.642804  -0.021946  0.016080  -0.117997
58.369588  523.232850  -42.726676  -0.023694  0.015752  -0.118178
19.440233  523.306843  -42.268701  -0.025117  0.015347  -0.118389
-19.491742  523.306432  -42.268945  -0.026392  0.014936  -0.118633
-58.421229  523.231501  -42.727393  -0.027947  0.014403  -0.118895
-97.342692  523.082157  -43.644003  -0.029780  0.013845  -0.119196
-136.249799  522.858515  -45.018639  -0.031093  0.013354  -0.119533
-175.137773  522.560270  -46.851072  -0.032639  0.012596  -0.119871
-58.421183  561.644209  -49.200294  -0.027901  0.043720  -0.124191
-97.342631  561.487484  -50.115676  -0.029719  0.046696  -0.125104
-136.249763  561.250963  -51.488158  -0.031057  0.049697  -0.126045
-175.137724  560.935541  -53.317716  -0.032590  0.053586  -0.127185
0.000094  0.000047  -0.000000  0.000094  0.000047  -0.000000
