# COL 1-3: Estimated X/Y/Z plate position [mm]
# COL 4-6: X/Y/Z plate position error [mm]
407.725197  404.504241  -50.912029  0.017505  -0.012256  -0.116727
523.324721  211.180882  -49.139482  0.023925  -0.019679  -0.118650
446.311538  327.227281  -47.244056  0.007533  -0.018552  -0.115207
561.728240  134.165011  -51.483836  0.037913  -0.022817  -0.121723
369.078295  443.427224  -51.376110  0.024882  -0.016513  -0.116628
484.867119  249.972427  -45.894121  0.030253  -0.022615  -0.118850
407.738966  366.154031  -46.319345  0.031274  -0.010741  -0.118789
523.332546  172.824875  -46.851525  0.031750  -0.016545  -0.120324
330.373383  482.347911  -52.770413  0.026718  -0.000929  -0.118657
446.322207  288.843042  -43.573114  0.018202  -0.012842  -0.117420
369.071393  405.091340  -46.318234  0.017980  -0.003439  -0.117678
484.867237  211.585084  -43.143312  0.030371  -0.009362  -0.120004
407.744156  327.752639  -42.183233  0.036464  -0.008349  -0.119813
291.626341  521.211121  -55.090649  0.033390  0.001439  -0.119316
523.316665  134.437366  -45.016885  0.015869  -0.020340  -0.117779
330.372034  444.010813  -47.247101  0.025369  -0.002905  -0.118252
446.333762  250.416873  -40.360088  0.029757  -0.007995  -0.119547
369.078710  366.682455  -41.717530  0.025297  -0.005773  -0.118289
484.875315  173.145856  -40.850276  0.038449  -0.017910  -0.120869
252.819438  559.998395  -58.333642  0.021659  -0.005769  -0.116749
407.735243  289.297752  -38.502862  0.027551  -0.012853  -0.118378
291.619903  482.887415  -49.101591  0.026952  -0.012039  -0.116685
523.332086  96.033009  -43.645287  0.031290  -0.021866  -0.120480
330.377230  405.600095  -42.180668  0.030565  -0.015373  -0.117248
446.341324  211.944909  -37.604180  0.037319  -0.013339  -0.120334
369.081563  328.216961  -37.574180  0.028150  -0.012582  -0.117989
252.821612  521.720940  -51.884146  0.023833  -0.008937  -0.116473
484.886300  134.690404  -39.016619  0.049434  -0.018063  -0.122724
407.740707  250.808332  -35.283651  0.033015  -0.010758  -0.119382
291.635949  444.517890  -43.575266  0.042998  -0.002681  -0.119572
330.361623  367.154780  -37.573229  0.014958  -0.004771  -0.117038
446.326367  173.442780  -35.304136  0.022362  -0.018713  -0.118135
213.984573  560.495000  -55.594922  0.017906  0.012097  -0.119356
369.082077  289.717841  -33.890749  0.028664  -0.006352  -0.118754
252.813320  483.388117  -45.893547  0.015541  0.006704  -0.118276
484.877715  96.217578  -37.638728  0.040849  -0.016438  -0.121696
291.614275  406.077680  -38.502358  0.021324  -0.000809  -0.117874
407.724606  212.274387  -32.520266  0.016914  -0.017528  -0.117031
330.377916  328.643000  -33.426202  0.031251  -0.008433  -0.118386
446.334696  134.921455  -33.466844  0.030691  -0.018621  -0.119511
213.982081  522.175981  -49.137921  0.015414  0.000086  -0.117089
369.077685  251.159828  -30.664612  0.024272  -0.017824  -0.117435
252.821241  444.955940  -40.357286  0.023462  -0.008286  -0.116745
291.620950  367.563312  -33.888824  0.027999  -0.015361  -0.116829
407.745256  173.717383  -30.221634  0.037564  -0.017175  -0.119861
175.127194  560.868790  -53.305484  0.022060  -0.013165  -0.114953
330.360014  290.077145  -29.734553  0.013349  -0.019445  -0.115668
446.345988  96.376124  -32.089253  0.041983  -0.023350  -0.121149
213.991069  483.778106  -43.138494  0.024402  -0.016542  -0.115186
369.069681  212.580517  -27.899122  0.016268  -0.014883  -0.116926
252.822343  406.474952  -35.281130  0.024564  -0.008824  -0.116861
136.212444  599.480664  -58.398356  -0.006262  0.003081  -0.116359
291.622075  329.016196  -29.736501  0.029124  -0.010402  -0.117616
407.747101  135.132196  -28.380376  0.039409  -0.020304  -0.120166
175.125745  522.549239  -46.848626  0.020611  0.001565  -0.117425
330.373304  251.492698  -26.508082  0.026639  -0.007805  -0.118160
213.986122  445.343701  -37.601058  0.019455  -0.000918  -0.117212
446.394570  57.820424  -31.176615  0.090565  -0.024743  -0.128107
369.064625  173.970068  -25.594079  0.011212  -0.012854  -0.116635
252.821513  367.937900  -30.664213  0.023734  -0.007636  -0.117036
136.245775  561.201442  -51.479340  0.027069  0.000176  -0.117227
291.621358  290.420959  -26.043741  0.028407  -0.006784  -0.117999
407.744461  96.534084  -26.998977  0.036769  -0.017143  -0.120168
175.126248  484.131551  -40.845469  0.021114  -0.007549  -0.116062
330.371631  212.858649  -23.739322  0.024966  -0.010010  -0.117936
213.979355  406.822741  -32.519050  0.012688  -0.008532  -0.115815
97.326497  599.720538  -57.027458  0.013585  -0.012904  -0.114049
252.812921  329.340584  -26.505688  0.015142  -0.014399  -0.115766
369.077065  135.325156  -23.751132  0.023652  -0.020553  -0.117884
136.228499  522.832992  -45.013593  0.009793  -0.012169  -0.114487
291.626877  251.775505  -22.811255  0.033926  -0.012093  -0.118162
407.742084  57.922981  -26.077908  0.034392  -0.013247  -0.120142
175.116859  445.652281  -35.301387  0.011725  -0.009414  -0.115386
330.367235  174.187764  -21.430807  0.020570  -0.018787  -0.117135
213.992167  368.251515  -27.898955  0.025500  -0.008571  -0.116759
97.334078  561.444253  -50.107867  0.021166  0.003465  -0.117295
252.805209  290.707254  -22.808794  0.007430  -0.010351  -0.115701
369.078682  96.667693  -22.368155  0.025269  -0.021561  -0.118282
136.236572  484.418209  -39.011222  0.017866  0.003488  -0.117327
291.617699  213.091503  -20.038347  0.024748  -0.020152  -0.116949
175.122621  407.117860  -30.218382  0.017487  -0.003069  -0.116609
58.406152  599.907156  -56.117776  0.012870  0.003122  -0.116866
330.381971  135.499422  -19.585903  0.035306  -0.020254  -0.118797
213.985866  329.630248  -23.738062  0.019199  -0.006295  -0.116676
97.336159  523.069949  -43.641824  0.023247  0.001637  -0.117017
252.806022  252.022399  -19.572628  0.008243  -0.016496  -0.115410
369.070963  57.992622  -21.445086  0.017550  -0.026429  -0.117573
136.244165  445.909834  -33.463686  0.025459  -0.005576  -0.116353
291.623924  174.388257  -17.728958  0.030973  -0.017156  -0.117909
175.113631  368.514711  -25.593091  0.008497  -0.007569  -0.115647
58.397319  561.608956  -49.193704  0.004037  0.008467  -0.117601
330.376253  96.795277  -18.200467  0.029588  -0.018256  -0.118515
213.993266  290.951970  -20.037930  0.026599  -0.014165  -0.116532
97.323196  484.613946  -37.632262  0.010284  -0.007525  -0.115230
252.818031  213.312357  -16.799593  0.020252  -0.011994  -0.116837
369.054699  19.317478  -20.982358  0.001286  -0.023122  -0.116058
136.226232  407.342122  -28.375244  0.007526  -0.010581  -0.115034
291.607043  135.658699  -15.879034  0.014092  -0.015676  -0.116659
19.479369  599.969971  -55.657141  0.014019  -0.019366  -0.112514
175.121710  329.855293  -21.428994  0.016576  -0.015945  -0.115322
58.420509  523.199042  -42.722109  0.027227  -0.018056  -0.113611
330.382558  58.075085  -17.277775  0.035893  -0.018541  -0.119368
213.993398  252.244349  -16.799788  0.026731  -0.010010  -0.117032
97.328422  446.099328  -32.083736  0.015510  -0.006400  -0.115632
252.813917  174.568635  -14.486823  0.016138  -0.010844  -0.116722
136.234300  368.722477  -23.748860  0.015594  -0.009603  -0.115612
19.473420  561.691426  -48.736869  0.008070  0.011082  -0.118033
291.617321  96.902494  -14.493233  0.024370  -0.021554  -0.117593
175.128392  291.164307  -17.727546  0.023258  -0.008990  -0.116497
58.407654  484.754236  -36.714561  0.014372  -0.005084  -0.115546
330.377203  19.349728  -16.815662  0.030538  -0.015732  -0.119061
213.994012  213.495761  -14.023051  0.027345  -0.010958  -0.117129
97.329058  407.517880  -26.994251  0.016146  -0.008682  -0.115442
252.828235  135.795332  -12.637395  0.030456  -0.014453  -0.117812
-19.448168  599.984892  -55.659741  0.017182  -0.004445  -0.115114
136.254713  330.051521  -19.583902  0.036007  -0.007513  -0.116796
19.476196  523.292629  -42.266610  0.010846  0.001133  -0.116298
291.587914  58.138386  -13.566252  -0.005037  -0.021556  -0.115212
175.113843  252.421831  -14.485677  0.008709  -0.012128  -0.115576
58.407952  446.232329  -31.164782  0.014670  -0.000293  -0.116274
213.992666  174.708038  -11.707938  0.025999  -0.020686  -0.116648
97.331682  368.881855  -22.365620  0.018770  -0.007601  -0.115747
252.831589  97.001350  -11.249560  0.033810  -0.019434  -0.118097
-19.448764  561.679585  -48.734652  0.016586  -0.000759  -0.115816
136.232889  291.330619  -15.878262  0.014183  -0.008443  -0.115887
19.491332  484.816073  -36.254351  0.025982  -0.012177  -0.114377
291.604742  19.360838  -13.105655  0.011791  -0.026728  -0.116947
175.123775  213.641507  -11.707211  0.018641  -0.017224  -0.115921
58.412907  407.628281  -26.072382  0.019625  -0.014201  -0.114616
213.978348  135.906313  -9.855189  0.011681  -0.019574  -0.116000
97.328707  330.189402  -18.197406  0.015795  -0.010502  -0.115454
-58.386541  599.902296  -56.116511  0.006741  -0.001738  -0.115601
252.824609  58.199609  -10.323745  0.026830  -0.018379  -0.117804
-19.463000  523.301040  -42.267896  0.002350  0.009544  -0.117584
136.234530  252.561352  -12.635027  0.015824  -0.016318  -0.115444
19.472565  446.291186  -30.704096  0.007215  -0.004888  -0.115418
291.627690  -19.417388  -13.108050  0.034739  -0.029822  -0.119342
175.121167  174.837133  -9.391063  0.016033  -0.015994  -0.116053
58.405527  368.993860  -21.443722  0.012245  -0.000526  -0.116209
213.988958  97.079553  -8.466677  0.022291  -0.024172  -0.116793
-58.384395  561.586042  -49.189468  0.008887  -0.014447  -0.113365
97.330293  291.448743  -14.490895  0.017381  -0.014663  -0.115255
-19.444013  484.819497  -36.254580  0.021337  -0.008753  -0.114606
252.824742  19.374131  -9.861095  0.026963  -0.032785  -0.117948
136.244419  213.768942  -9.855564  0.025713  -0.011425  -0.116375
19.482166  407.695856  -25.612784  0.016816  -0.004590  -0.115572
175.125125  136.008285  -7.538114  0.019991  -0.014379  -0.116523
58.418164  330.282147  -17.273715  0.024882  -0.011682  -0.115308
-97.305153  599.727138  -57.028045  0.007759  -0.006304  -0.114636
213.976735  58.253736  -7.540030  0.010068  -0.014022  -0.116460
-58.381616  523.221022  -42.724973  0.011666  0.003924  -0.116475
97.334175  252.674098  -11.247265  0.021263  -0.011372  -0.115802
-19.451814  446.284751  -30.703083  0.013536  -0.011323  -0.114405
252.807322  -19.431706  -9.860085  0.009543  -0.024790  -0.116938
136.241865  174.939900  -7.537923  0.023159  -0.012771  -0.116332
19.484221  369.035973  -20.981225  0.018871  -0.010882  -0.114925
175.126049  97.154635  -6.147925  0.020915  -0.018226  -0.116629
-97.305288  561.441991  -50.106600  0.007624  0.001203  -0.116028
58.424702  291.535858  -13.566716  0.031420  -0.010455  -0.115676
213.979531  19.406318  -7.077172  0.012864  -0.017188  -0.116792
-58.386361  484.760407  -36.715102  0.006921  0.001087  -0.116087
97.329356  213.859818  -8.465650  0.016444  -0.011791  -0.115766
-19.454595  407.696629  -25.612716  0.010755  -0.003817  -0.115504
136.244172  136.081251  -5.683443  0.025466  -0.018850  -0.116326
19.478061  330.331629  -16.811794  0.012711  -0.009165  -0.115193
-136.209188  599.481387  -58.398353  0.009518  0.003804  -0.116356
175.126070  58.289037  -5.221135  0.020936  -0.020206  -0.116812
-97.304548  523.062676  -43.639688  0.008364  -0.005636  -0.114881
58.399387  252.746338  -10.321245  0.006105  -0.011008  -0.115304
213.994425  -19.433632  -7.078313  0.027758  -0.010126  -0.117933
-58.375611  446.220678  -31.162590  0.017671  -0.011944  -0.114082
97.331509  175.015152  -6.147246  0.018597  -0.012189  -0.115950
-19.445697  369.032250  -20.980570  0.019653  -0.014605  -0.114270
136.243272  97.207482  -4.292488  0.024566  -0.020700  -0.116458
19.482503  291.579797  -13.104145  0.017153  -0.007972  -0.115437
-136.210144  561.205401  -51.478521  0.008562  0.004135  -0.116408
175.133503  19.429175  -4.758327  0.028369  -0.008161  -0.117524
-97.308004  484.626373  -37.633669  0.004908  0.004902  -0.116637
58.401227  213.916596  -7.538721  0.007945  -0.015849  -0.115151
213.975156  -58.284221  -7.540471  0.008489  -0.016463  -0.116901
-58.391890  407.633214  -26.072624  0.001392  -0.009268  -0.114858
97.321321  136.140700  -4.291600  0.008409  -0.017489  -0.115570
-19.457715  330.336717  -16.812190  0.007635  -0.004077  -0.115589
136.235884  58.314506  -3.364796  0.017178  -0.027933  -0.116267
-136.210103  522.829407  -45.012233  0.008603  -0.015754  -0.113127
19.507876  252.778811  -9.858326  0.042526  -0.014476  -0.115179
175.127719  -19.447814  -4.758128  0.022585  -0.010478  -0.117325
-97.298931  446.099597  -32.082886  0.013981  -0.006131  -0.114782
58.400649  175.058573  -5.219507  0.007367  -0.018554  -0.115184
-58.386420  368.991456  -21.443105  0.006862  -0.002930  -0.115592
97.329084  97.248554  -2.900252  0.016172  -0.021125  -0.115902
-19.455415  291.571208  -13.103212  0.009935  -0.016561  -0.114504
-175.096388  560.879537  -53.305681  0.008746  -0.002418  -0.115150
136.239168  19.427572  -2.901525  0.020462  -0.020829  -0.116779
-136.210389  484.415206  -39.009666  0.008317  0.000485  -0.115771
19.482094  213.945924  -7.075417  0.016744  -0.016940  -0.115037
175.113344  -58.334821  -5.221270  0.008210  -0.025578  -0.116947
-97.300130  407.515148  -26.993038  0.012782  -0.011414  -0.114229
58.414590  136.175417  -3.364062  0.021308  -0.021502  -0.115533
-58.378952  330.278424  -17.272631  0.014330  -0.015405  -0.114224
97.319506  58.354483  -1.972469  0.006594  -0.012857  -0.116016
-175.099902  522.550065  -46.847354  0.005232  0.002391  -0.116153
-19.462518  252.780932  -9.858220  0.002832  -0.012355  -0.115073
136.243694  -19.467555  -2.901953  0.024988  -0.019154  -0.117207
-136.213815  445.914492  -33.463050  0.004891  -0.000918  -0.115717
19.482622  175.089416  -4.756278  0.017272  -0.012606  -0.115475
-97.305095  368.884256  -22.365095  0.007817  -0.005200  -0.115222
58.410239  97.288247  -1.972534  0.016957  -0.009100  -0.116081
-58.385574  291.537400  -13.566152  0.007708  -0.008913  -0.115112
-213.963259  560.479558  -55.590804  0.003408  -0.003345  -0.115238
97.332106  19.440058  -1.508994  0.019194  -0.016644  -0.116522
-175.098898  484.128699  -40.843556  0.006236  -0.010401  -0.114149
-19.461976  213.944738  -7.075219  0.003374  -0.018126  -0.114839
136.247975  -58.357352  -3.366068  0.029269  -0.014913  -0.117539
-136.205718  407.342023  -28.374369  0.012988  -0.010680  -0.114159
19.480533  136.199821  -2.900198  0.015183  -0.016464  -0.115452
-97.300793  330.185140  -18.196136  0.012119  -0.014764  -0.114184
58.416440  58.361119  -1.044348  0.023158  -0.022823  -0.116055
-58.379018  252.742246  -10.320562  0.014264  -0.015100  -0.114621
-213.960998  522.179145  -49.137031  0.005669  0.003250  -0.116199
97.328526  -19.486471  -1.509164  0.015614  -0.029769  -0.116692
-175.100157  445.662084  -35.301834  0.004977  0.000389  -0.115833
-19.450164  175.086774  -4.755943  0.015186  -0.015248  -0.115140
136.239529  -97.237661  -4.293232  0.020823  -0.009479  -0.117202
-136.215026  368.719299  -23.747689  0.003680  -0.012781  -0.114441
19.477005  97.299593  -1.508245  0.011655  -0.011589  -0.115773
-97.308511  291.454270  -14.490738  0.004401  -0.009136  -0.115098
-252.800216  560.005855  -58.333430  -0.002437  0.001691  -0.116537
58.404869  19.437892  -0.580291  0.011587  -0.024344  -0.116112
-213.961531  483.786573  -43.137803  0.005136  -0.008075  -0.114495
-58.384252  213.920181  -7.538652  0.009030  -0.012264  -0.115082
97.329263  -58.403934  -1.973645  0.016351  -0.036594  -0.117192
-175.096527  407.115776  -30.216707  0.008607  -0.005153  -0.114934
-19.456580  136.196984  -2.899937  0.008770  -0.019301  -0.115191
-136.210138  330.061640  -19.583060  0.008568  0.002606  -0.115954
19.477484  58.364629  -0.579807  0.012134  -0.027615  -0.115628
-97.304992  252.671100  -11.246160  0.007920  -0.014370  -0.114697
-252.788393  521.715168  -51.880595  0.009386  -0.014709  -0.112922
58.414442  -19.486597  -0.580752  0.021160  -0.024361  -0.116573
-213.962410  445.340999  -37.599114  0.004257  -0.003620  -0.115268
-58.383372  175.065457  -5.219568  0.009910  -0.011670  -0.115245
97.320417  -97.307288  -2.901745  0.007505  -0.037609  -0.117395
-175.098720  368.509778  -25.591724  0.006414  -0.012502  -0.114280
-19.457844  97.286791  -1.507749  0.007506  -0.024391  -0.115277
-136.209039  291.320175  -15.876325  0.009667  -0.018887  -0.113950
-252.796981  483.384693  -45.891750  0.000798  0.003280  -0.116479
-97.305264  213.855935  -8.464675  0.007648  -0.015674  -0.114791
58.410070  -58.434784  -1.045552  0.016788  -0.050842  -0.117259
-213.962468  406.827932  -32.518585  0.004199  -0.003341  -0.115350
-58.380860  136.176734  -3.363513  0.012422  -0.020185  -0.114984
97.329968  -136.173918  -4.293245  0.017056  -0.015729  -0.117215
-175.098695  329.859400  -21.428169  0.006439  -0.011838  -0.114497
-19.451486  58.372912  -0.579800  0.013864  -0.019332  -0.115621
-136.209990  252.574599  -12.635028  0.008716  -0.003071  -0.115445
-291.593945  521.210946  -55.087677  -0.000994  0.001264  -0.116344
-252.790373  444.949266  -40.353945  0.007406  -0.014960  -0.113404
-97.303407  175.010134  -6.146137  0.009505  -0.017207  -0.114841
58.413345  -97.151451  -1.968514  0.020063  0.145896  -0.112061
-0.003932  0.003234  -0.000000  -0.003932  0.003234  -0.000000
-213.961032  368.253092  -27.897077  0.005635  -0.006994  -0.114881
-58.383029  97.285179  -1.971956  0.010253  -0.012168  -0.115503
-175.100305  291.159806  -17.725627  0.004829  -0.013491  -0.114578
-291.590526  482.897306  -49.100412  0.002425  -0.002148  -0.115506
-136.209047  213.762523  -9.853662  0.009659  -0.017844  -0.114473
19.472398  -58.421310  -0.580790  0.007048  -0.029066  -0.116611
-252.795746  406.480327  -35.279725  0.002033  -0.003449  -0.115456
-97.301447  136.155263  -4.291615  0.011465  -0.002926  -0.115585
58.413311  -136.913693  -3.394946  0.020029  -0.716774  -0.146417
-213.961580  329.623023  -23.735724  0.005087  -0.013520  -0.114338
-58.379140  58.355630  -1.043582  0.014142  -0.028312  -0.115289
-175.098626  252.414544  -14.484292  0.006508  -0.019415  -0.114191
-291.592434  444.515948  -43.571059  0.000517  -0.004623  -0.115365
-136.210482  174.946663  -7.536973  0.008224  -0.006008  -0.115382
19.466963  -97.165354  -1.504186  0.001613  0.145828  -0.111714
-252.793380  367.938541  -30.662087  0.004399  -0.006995  -0.114910
-97.305552  97.251654  -2.899642  0.007360  -0.018025  -0.115292
-213.961708  290.963160  -20.036853  0.004959  -0.002975  -0.115455
-58.383795  19.429990  -0.579867  0.009487  -0.032246  -0.115688
-330.341676  482.338785  -52.765782  0.004989  -0.010055  -0.114026
-175.099453  213.639562  -11.705774  0.005681  -0.019169  -0.114484
-19.448102  -58.419818  -0.580619  0.017248  -0.027574  -0.116440
-291.591714  406.070090  -38.499364  0.001237  -0.008399  -0.114880
-136.213043  136.097363  -5.682815  0.005663  -0.002738  -0.115698
19.477611  -138.808181  -3.010130  0.012261  -2.591896  -0.225384
-252.794989  329.342248  -26.504458  0.002790  -0.012735  -0.114536
-97.306752  58.345225  -1.971923  0.006160  -0.022115  -0.115470
-213.959969  252.233734  -16.796762  0.006698  -0.020625  -0.114006
-58.380623  -19.493131  -0.580186  0.012659  -0.030895  -0.116007
-330.350844  444.013466  -47.245292  -0.004179  -0.000252  -0.116443
-175.099041  174.835807  -9.389801  0.006093  -0.017320  -0.114791
-19.448845  -97.241290  -1.506339  0.016505  0.069892  -0.113867
-291.589292  367.573495  -33.887125  0.003659  -0.005178  -0.115130
-136.211222  97.203938  -4.291044  0.007484  -0.024244  -0.115014
19.476460  -177.934848  -4.910299  0.011110  -2.832826  -0.269496
-252.792525  290.704642  -22.807570  0.005254  -0.012963  -0.114477
-97.305787  19.441028  -1.508215  0.007125  -0.015674  -0.115743
-369.059514  481.729994  -56.892102  -0.006101  0.000345  -0.116803
-213.962001  213.503324  -14.021441  0.004666  -0.003395  -0.115519
-58.388249  -58.398452  -1.044511  0.005033  -0.014510  -0.116218
-330.339481  405.600327  -42.176827  0.007184  -0.015141  -0.113407
-175.098083  135.999077  -7.536276  0.007051  -0.023587  -0.114685
-19.446086  -139.222914  -3.027617  0.019264  -3.006629  -0.242871
-291.592894  329.019668  -29.734224  0.000057  -0.006930  -0.115339
-136.209723  58.323819  -3.363870  0.008983  -0.018620  -0.115341
-252.797031  252.030243  -19.572537  0.000748  -0.008652  -0.115319
-97.304620  -19.486136  -1.508449  0.008292  -0.029434  -0.115977
-369.049350  443.442741  -51.374927  0.004063  -0.000996  -0.115445
-213.960525  174.713581  -11.706122  0.006142  -0.015143  -0.114832
-58.383821  -97.346433  -1.973797  0.009461  -0.049086  -0.117344
-330.346606  367.151222  -37.571287  0.000059  -0.008329  -0.115096
-19.453156  -180.572324  -5.055183  0.012194  -5.470302  -0.414380
-175.096270  97.155507  -6.146351  0.008864  -0.017354  -0.115055
-291.587506  290.409724  -26.039686  0.005445  -0.018019  -0.113944
-136.208958  19.427953  -2.900266  0.009748  -0.020448  -0.115520
-252.792688  213.302823  -16.796995  0.005091  -0.021528  -0.114239
-97.303561  -58.396530  -1.972746  0.009351  -0.029190  -0.116293
-369.058835  405.091932  -46.316868  -0.005422  -0.002847  -0.116312
-58.389352  -133.845881  -3.267184  0.003930  2.351038  -0.018655
-213.961528  135.913225  -9.854372  0.005139  -0.012662  -0.115183
-330.346329  328.644968  -33.423173  0.000336  -0.006465  -0.115357
-175.099541  58.281007  -5.219566  0.005593  -0.028236  -0.115243
-291.592763  251.779918  -22.808529  0.000188  -0.007680  -0.115436
-136.209809  -19.467558  -2.900538  0.008897  -0.019157  -0.115792
-407.713129  442.799330  -55.962176  -0.005437  -0.011381  -0.115170
-97.299903  -97.315894  -2.901389  0.013009  -0.046215  -0.117039
-252.795995  174.564459  -14.485205  0.001784  -0.015020  -0.115104
-58.376617  -173.780735  -5.150705  0.016665  1.296392  -0.046382
-369.055868  366.676355  -41.714220  -0.002455  -0.011873  -0.114979
-213.964554  97.085642  -8.465255  0.002113  -0.018083  -0.115371
-330.350179  290.085782  -29.734323  -0.003514  -0.010808  -0.115438
-175.098065  19.415544  -4.756343  0.007069  -0.021792  -0.115540
-136.207536  -58.368134  -3.364572  0.011170  -0.025695  -0.116043
-291.588796  213.093239  -20.035864  0.004155  -0.018416  -0.114466
-97.301399  -134.858550  -4.237726  0.011513  1.299639  -0.061696
-407.709702  404.517034  -50.911674  -0.002010  0.000537  -0.116372
-252.789765  135.805582  -12.634833  0.008014  -0.004203  -0.115250
-58.378281  -214.981160  -7.608394  0.015001  -1.048715  -0.184824
-369.042853  328.218588  -37.569918  0.010560  -0.010955  -0.113727
-213.959326  58.243374  -7.538701  0.007341  -0.024384  -0.115131
-330.336515  251.480010  -26.503344  0.010150  -0.020493  -0.113422
-175.099158  -19.462873  -4.756684  0.005976  -0.025537  -0.115881
-136.210658  -97.270720  -4.293012  0.008048  -0.042538  -0.116982
-291.590050  174.393839  -17.726215  0.002901  -0.011574  -0.115166
-97.303645  -172.687655  -6.022250  0.009267  2.339686  0.009046
-407.708113  366.155093  -46.315557  -0.000421  -0.009679  -0.115001
-252.796513  96.998640  -11.246754  0.001266  -0.022144  -0.115291
-369.062811  289.720763  -33.888810  -0.009398  -0.003430  -0.116815
-213.965223  19.405057  -7.076224  0.001444  -0.018449  -0.115844
-175.105408  -58.337650  -5.220895  -0.000274  -0.028407  -0.116572
-330.353097  212.866383  -23.737941  -0.006432  -0.002276  -0.116555
-136.212014  -135.824986  -5.671410  0.006692  0.275115  -0.104293
-446.303351  403.869738  -55.961584  0.000654  -0.010965  -0.114578
-291.598051  135.652392  -15.877964  -0.005100  -0.021983  -0.115589
-97.315658  -214.287753  -8.493371  -0.002746  -0.416144  -0.143487
-407.719816  327.749191  -42.179803  -0.012124  -0.011797  -0.116383
-252.797468  58.198239  -10.321613  0.000311  -0.019749  -0.115672
-213.963734  -19.449422  -7.076391  0.002933  -0.025916  -0.116011
-369.058785  251.160473  -30.662505  -0.005372  -0.017179  -0.115328
-175.100921  -97.199802  -6.147922  0.004213  -0.026941  -0.116626
-330.346778  174.186190  -21.428638  -0.000113  -0.020361  -0.114966
-136.210140  -175.067264  -7.543438  0.008566  -0.114593  -0.121847
-446.308351  365.587682  -51.375955  -0.004346  -0.001575  -0.116473
-291.587641  96.907138  -14.490708  0.005310  -0.016910  -0.115068
-407.695827  289.296433  -38.497763  0.011865  -0.014172  -0.113279
-252.787910  19.380648  -9.858273  0.009869  -0.026268  -0.115126
-213.957818  -58.282847  -7.539308  0.008849  -0.015089  -0.115738
-369.047030  212.579230  -27.896455  0.006383  -0.016170  -0.114259
-175.095846  -136.052279  -7.538378  0.009288  -0.029615  -0.116787
-330.342758  135.503984  -19.582102  0.003907  -0.015692  -0.114996
-136.207266  -213.868116  -9.860524  0.011440  -0.087749  -0.121335
-446.301449  327.232395  -47.243176  0.002556  -0.013438  -0.114327
-291.591968  58.130979  -13.566483  0.000983  -0.028963  -0.115443
-252.792449  -19.408739  -9.858793  0.005330  -0.001823  -0.115646
-407.717757  250.815408  -35.281303  -0.010065  -0.003682  -0.117034
-213.963391  -97.128070  -8.466443  0.003276  -0.024345  -0.116559
-369.057379  173.968575  -25.593174  -0.003966  -0.014347  -0.115730
-175.103373  -174.914462  -9.394259  0.001761  -0.061335  -0.119249
-484.849180  364.957033  -56.892671  -0.012314  -0.004732  -0.117372
-330.348589  96.799453  -18.197777  -0.001924  -0.014080  -0.115825
-136.209052  -253.087682  -12.674875  0.009654  -0.510012  -0.155292
-446.309367  288.841467  -43.571193  -0.005362  -0.014417  -0.115499
-291.593173  19.357265  -13.104596  -0.000222  -0.030301  -0.115888
-252.789591  -58.226351  -10.321504  0.008188  -0.008363  -0.115563
-407.700160  212.267790  -32.516749  0.007532  -0.024125  -0.113514
-213.955946  -135.963438  -9.856102  0.010721  -0.037551  -0.116913
-369.050771  135.328173  -23.748264  0.002642  -0.017536  -0.115016
-175.110060  -213.699441  -11.710278  -0.004926  -0.040710  -0.118988
-484.837873  326.679259  -52.767459  -0.001007  -0.004895  -0.115703
-330.334123  58.078589  -17.272911  0.012542  -0.015037  -0.114504
-291.594275  -19.398698  -13.104942  -0.001324  -0.011132  -0.116234
-446.312807  250.412799  -40.356871  -0.008802  -0.012069  -0.116330
-252.795722  -97.062151  -11.248586  0.002057  -0.041367  -0.117123
-407.712547  173.736739  -30.218551  -0.004855  0.002181  -0.116778
-213.959396  -174.789701  -11.710136  0.007271  -0.060977  -0.118846
-369.057814  96.672611  -22.365926  -0.004401  -0.016643  -0.116053
-175.105026  -252.418896  -14.484975  0.000108  0.015063  -0.114874
-484.844838  288.348259  -49.101095  -0.007972  -0.011838  -0.116189
-330.346464  19.348337  -16.812528  0.000201  -0.017123  -0.115927
-291.587554  -58.172576  -13.566831  0.005397  -0.012634  -0.115791
-446.313458  211.950522  -37.600695  -0.009453  -0.007726  -0.116849
-252.795209  -135.841281  -12.636747  0.002570  -0.031496  -0.117164
-407.710125  135.124789  -28.375409  -0.002433  -0.027711  -0.115199
-213.959274  -213.528587  -14.022921  0.007393  -0.021868  -0.116999
-369.052671  57.996120  -21.443067  0.000742  -0.022931  -0.115554
-175.102603  -291.222989  -17.731417  0.002531  -0.049692  -0.120368
-484.825311  249.974924  -45.888018  0.011555  -0.020118  -0.112747
-330.344695  -19.397286  -16.812640  0.001970  -0.031826  -0.116039
-291.583663  -96.952224  -14.491696  0.009288  -0.028176  -0.116056
-446.293142  173.435553  -35.299156  0.010863  -0.025940  -0.113155
-252.791359  -174.622804  -14.487978  0.006420  -0.043325  -0.117877
-407.699647  96.545450  -26.993673  0.008045  -0.005777  -0.114864
-213.951601  -252.259963  -16.798248  0.015066  -0.005604  -0.115492
-523.295999  287.810607  -55.085460  0.004797  -0.012704  -0.114127
-369.050142  19.312564  -20.981810  0.003271  -0.028036  -0.115510
-330.346318  -58.109220  -17.274699  0.000347  -0.015594  -0.116292
-484.854922  211.598488  -43.142340  -0.018056  0.004042  -0.119032
-291.599076  -135.694709  -15.879823  -0.006125  -0.020334  -0.117448
-446.317539  134.935093  -33.465044  -0.013534  -0.004983  -0.117711
-252.802300  -213.325175  -16.799211  -0.004521  -0.000824  -0.116455
-407.718546  57.920052  -26.074892  -0.010854  -0.016176  -0.117126
-213.970805  -290.969488  -20.038020  -0.004138  -0.003353  -0.116622
-523.319012  249.511571  -51.885283  -0.018216  -0.018103  -0.117610
-369.061148  -19.367335  -20.983388  -0.007735  -0.026735  -0.117088
-330.348365  -96.843320  -18.199062  -0.001700  -0.029787  -0.117110
-484.845258  173.134346  -40.845138  -0.008392  -0.029420  -0.115731
-291.592060  -174.428681  -17.728267  0.000891  -0.023268  -0.117218
-446.309422  96.366159  -32.083907  -0.005417  -0.033315  -0.115803
-252.792919  -252.084851  -19.576458  0.004860  -0.045956  -0.119240
-407.702318  19.288519  -25.612439  0.005374  -0.024472  -0.115227
-369.050025  -58.035732  -21.443475  0.003388  -0.016681  -0.115962
-523.295061  211.184130  -49.134869  0.005735  -0.016431  -0.114037
-330.340354  -135.551677  -19.583849  0.006311  -0.032001  -0.116743
-484.836549  134.708112  -39.009881  0.000317  -0.000355  -0.115986
-291.586606  -213.116254  -20.037178  0.006345  -0.004599  -0.115780
-446.307415  57.846252  -31.165047  -0.003410  0.001085  -0.116539
-252.790919  -290.696929  -22.806754  0.006860  0.020676  -0.113661
-561.702650  249.021882  -58.334561  -0.012323  -0.006948  -0.117668
-407.710076  -19.327353  -25.613646  -0.002384  -0.014362  -0.116434
-369.054256  -96.716389  -22.366827  -0.000843  -0.027135  -0.116954
-523.315254  172.828293  -46.848896  -0.014458  -0.013127  -0.117695
-330.344582  -174.238840  -21.431243  0.002083  -0.032289  -0.117571
-484.844979  96.199918  -37.633284  -0.008113  -0.034098  -0.116252
-291.590766  -251.823340  -22.811722  0.002185  -0.035742  -0.118629
-446.310442  19.259443  -30.705477  -0.006437  -0.023193  -0.116799
-252.795964  -329.404950  -26.510911  0.001815  -0.049967  -0.120989
-561.689474  210.749489  -55.589682  0.000853  -0.027159  -0.114116
-407.711807  -57.968110  -26.074904  -0.004115  -0.031882  -0.117138
-369.055261  -135.379337  -23.750912  -0.001848  -0.033628  -0.117664
-523.298920  134.429452  -45.013670  0.001876  -0.028254  -0.114564
-330.346629  -212.908401  -23.740042  0.000036  -0.039742  -0.118656
-484.837135  57.744954  -36.715088  -0.000269  -0.000929  -0.116073
-291.590378  -290.451139  -26.043658  0.002573  -0.023396  -0.117916
-446.283831  -19.302291  -30.702060  0.020174  -0.019655  -0.113382
-407.709504  -96.559443  -26.995331  -0.001812  -0.008216  -0.116522
-561.705115  172.502475  -53.309595  -0.014788  0.007975  -0.119064
-369.059719  -174.008672  -25.595594  -0.006306  -0.025750  -0.118150
-523.308082  96.051484  -43.641938  -0.007286  -0.003391  -0.117131
-330.349675  -251.507946  -26.506856  -0.003010  -0.007443  -0.116934
-291.600230  -329.078527  -29.740871  -0.007279  -0.051929  -0.121986
-484.847456  19.218138  -36.257426  -0.010590  -0.031402  -0.117452
-446.310865  -57.878564  -31.166101  -0.006860  -0.033397  -0.117593
-407.709998  -135.200795  -28.378567  -0.002306  -0.048295  -0.118357
-561.703577  134.153466  -51.479043  -0.013250  -0.034362  -0.116930
-369.051047  -212.642597  -27.901075  0.002366  -0.047197  -0.118879
-523.303202  57.592964  -42.724126  -0.002406  -0.045424  -0.115628
-330.336236  -290.144534  -29.738168  0.010429  -0.047944  -0.119283
-291.570131  -367.607416  -33.889255  0.022820  -0.028743  -0.117260
-484.817705  -19.281547  -36.253337  0.019161  -0.032007  -0.113363
-446.304040  -96.431167  -32.085103  -0.000035  -0.031693  -0.116999
-407.709642  -173.760083  -30.219438  -0.001950  -0.025525  -0.117665
-561.698202  95.855998  -50.107816  -0.007875  -0.006080  -0.117244
-369.061129  -251.169532  -30.663476  -0.007716  0.008120  -0.116299
-330.348954  -328.625063  -33.421417  -0.002289  0.026370  -0.113601
-523.314885  19.218787  -42.268679  -0.014089  0.005080  -0.118367
-484.852531  -57.762637  -36.717717  -0.015665  -0.016754  -0.118702
-446.317121  -134.960476  -33.466046  -0.013116  -0.020400  -0.118713
-600.012361  133.900786  -58.400439  -0.012361  0.001913  -0.118442
-407.716735  -212.306932  -32.521411  -0.009043  -0.015017  -0.118176
-561.707330  57.492053  -49.194574  -0.017003  -0.030646  -0.118471
-369.061929  -289.784506  -33.894426  -0.008516  -0.060313  -0.122431
-330.348435  -367.139265  -37.570114  -0.001770  0.020286  -0.113923
-523.311475  -19.238202  -42.268241  -0.010679  -0.024495  -0.117929
-484.836492  -96.256279  -37.633689  0.000374  -0.022263  -0.116657
-446.292865  -173.481618  -35.301592  0.011140  -0.020125  -0.115591
-600.001652  95.633623  -57.029110  -0.001652  -0.022029  -0.115701
-407.695034  -250.853790  -35.281415  0.012658  -0.034700  -0.117146
-369.055329  -328.207792  -37.570247  -0.001916  0.021751  -0.114056
-561.688804  19.151571  -48.734478  0.001523  -0.023571  -0.115642
-523.294390  -57.668591  -42.724047  0.006406  -0.030203  -0.115549
-484.847522  -134.723754  -39.012184  -0.010656  -0.015287  -0.118289
-446.314761  -211.988429  -37.603365  -0.010756  -0.030181  -0.119519
-600.011684  57.391610  -56.119014  -0.011684  -0.007222  -0.118104
-407.716869  -289.329299  -38.503369  -0.009177  -0.018694  -0.118885
-369.058233  -366.649693  -41.711458  -0.004820  0.038535  -0.112217
-561.708189  -19.192270  -48.738107  -0.017862  -0.017128  -0.119271
-523.312405  -96.068144  -43.643137  -0.011609  -0.013269  -0.118330
-484.841947  -173.202102  -40.848279  -0.005081  -0.038336  -0.118872
-446.299483  -250.466561  -40.359202  0.004522  -0.041693  -0.118661
-599.997805  19.116559  -55.660163  0.002195  -0.017292  -0.115536
-407.697713  -327.774529  -42.179584  0.009979  -0.013541  -0.116164
-369.038327  -405.164706  -46.323677  0.015086  -0.069927  -0.123121
-561.676043  -57.564306  -49.190402  0.014284  -0.041607  -0.114299
-523.306029  -134.503173  -45.017904  -0.005233  -0.045467  -0.118798
-484.845148  -211.637122  -43.143406  -0.008282  -0.042676  -0.120098
-446.316090  -288.911297  -43.578387  -0.012085  -0.055413  -0.122693
-407.715493  -366.208783  -46.322600  -0.007801  -0.044011  -0.122044
-600.005731  -19.170638  -55.661967  -0.005731  -0.036787  -0.117340
-561.710612  -95.879244  -50.110677  -0.020285  -0.017166  -0.120105
-523.307167  -172.845507  -46.848506  -0.006371  -0.004087  -0.117305
-484.841232  -250.018096  -45.893768  -0.004366  -0.023054  -0.118497
-446.297102  -327.220063  -47.241319  0.006903  0.025770  -0.112470
-407.705233  -404.546088  -50.914764  0.002459  -0.029591  -0.119462
-599.987655  -57.464194  -56.115820  0.012345  -0.065362  -0.114910
-561.699426  -134.214955  -51.480885  -0.009099  -0.027127  -0.118772
-523.309219  -211.238685  -49.140756  -0.008423  -0.038124  -0.119924
