# COL 1-2: True indices
# COL 3-5: True X/Y/Z plate [mm]
# COL 6-7: True X/Y position [pix]
# COL 8-9: Estimated X/Y centroid [pix]
# COL 10: Centroid error [pix]
1  17  -58.393282  -561.600489  -49.076103  7.217100  1786.124983  7.217036  1786.123501  0.001483
2  18  -97.312912  -561.440788  -49.990572  10.249609  1867.694026  10.248077  1867.694600  0.001636
3  19  -136.218706  -561.201266  -51.362113  13.662782  1948.582899  13.663081  1948.582861  0.000301
4  20  -175.105134  -560.881955  -53.190531  17.450767  2028.741333  17.450108  2028.742471  0.001315
5  23  291.592951  -521.209682  -54.971333  78.497003  1032.162705  78.497657  1032.164173  0.001607
6  24  252.797779  -521.729877  -51.767673  77.960727  1117.593618  77.961311  1117.592308  0.001434
7  25  213.966667  -522.175895  -49.020832  77.808893  1202.854266  77.807677  1202.856374  0.002434
8  26  175.105134  -522.547674  -46.731201  78.040528  1287.883712  78.040133  1287.883552  0.000426
9  27  136.218706  -522.845161  -44.899106  78.654110  1372.621630  78.654713  1372.621306  0.000685
10  28  97.312912  -523.068312  -43.524807  79.647569  1457.008450  79.647026  1457.008939  0.000730
11  29  58.393282  -523.217098  -42.608498  81.018304  1540.985500  81.016204  1540.984466  0.002341
12  30  19.465350  -523.291496  -42.150312  82.763189  1624.495145  82.763200  1624.494828  0.000317
13  31  -19.465350  -523.291496  -42.150312  84.878591  1707.480919  84.878600  1707.480376  0.000543
14  32  -58.393282  -523.217098  -42.608498  87.360379  1789.887648  87.360307  1789.887827  0.000193
15  33  -97.312912  -523.068312  -43.524807  90.203945  1871.661573  90.202241  1871.661450  0.001709
16  34  -136.218706  -522.845161  -44.899106  93.404224  1952.750459  93.402273  1952.751885  0.002417
17  35  -175.105134  -522.547674  -46.731201  96.955707  2033.103700  96.956197  2033.103165  0.000725
18  39  369.053413  -481.729649  -56.775299  162.094796  862.249699  162.096697  862.249949  0.001918
19  40  330.346665  -482.348840  -52.651756  160.879134  948.053463  160.877841  948.052733  0.001485
20  41  291.592951  -482.899454  -48.984906  160.021938  1033.809831  160.021439  1033.810318  0.000697
21  42  252.797779  -483.381413  -45.775271  159.523349  1119.456670  159.522118  1119.456931  0.001258
22  43  213.966667  -483.794648  -43.023308  159.382979  1204.932152  159.382299  1204.932392  0.000721
23  44  175.105134  -484.139100  -40.729407  159.599921  1290.174917  159.599134  1290.176610  0.001867
24  45  136.218706  -484.414721  -38.893895  160.172752  1375.124219  160.173277  1375.123977  0.000578
25  46  97.312912  -484.621471  -37.517032  161.099539  1459.720077  161.098552  1459.718743  0.001659
26  47  58.393282  -484.759320  -36.599015  162.377849  1543.903418  162.375404  1543.902482  0.002618
27  48  19.465350  -484.828250  -36.139974  164.004760  1627.616214  164.006210  1627.616560  0.001491
28  49  -19.465350  -484.828250  -36.139974  165.976871  1710.801621  165.977241  1710.800534  0.001148
29  50  -58.393282  -484.759320  -36.599015  168.290320  1793.404100  168.290078  1793.403072  0.001056
30  51  -97.312912  -484.621471  -37.517032  170.940797  1875.369542  170.941254  1875.368717  0.000943
31  52  -136.218706  -484.414721  -38.893895  173.923561  1956.645377  173.924559  1956.645165  0.001020
32  53  -175.105134  -484.139100  -40.729407  177.233459  2037.180685  177.233079  2037.181218  0.000655
33  59  407.707692  -442.810711  -55.847006  245.668297  777.385600  245.668410  777.386262  0.000671
34  60  369.053413  -443.443737  -51.259482  244.213177  863.375738  244.213955  863.376446  0.001052
35  61  330.346665  -444.013718  -47.128849  243.089156  949.380959  243.088754  949.382350  0.001448
36  62  291.592951  -444.520571  -43.455694  242.296857  1035.338571  242.296262  1035.339484  0.001090
37  63  252.797779  -444.964226  -40.240541  241.836408  1121.186036  241.835188  1121.185953  0.001223
38  64  213.966667  -445.344619  -37.483846  241.707455  1206.861128  241.707661  1206.860846  0.000349
39  65  175.105134  -445.661695  -35.186001  241.909157  1292.302092  241.908251  1292.302276  0.000925
40  66  136.218706  -445.915410  -33.347333  242.440192  1377.447789  242.439285  1377.447767  0.000907
41  67  97.312912  -446.105728  -31.968104  243.298769  1462.237856  243.298659  1462.237458  0.000413
42  68  58.393282  -446.232622  -31.048508  244.482628  1546.612845  244.481761  1546.613703  0.001219
43  69  19.465350  -446.296074  -30.588678  245.989055  1630.514364  245.990069  1630.514195  0.001028
44  70  -19.465350  -446.296074  -30.588678  247.814892  1713.885215  247.814585  1713.884588  0.000698
45  71  -58.393282  -446.232622  -31.048508  249.956554  1796.669519  249.956100  1796.669907  0.000597
46  72  -97.312912  -446.105728  -31.968104  252.410035  1878.812840  252.409551  1878.812984  0.000505
47  73  -136.218706  -445.915410  -33.347333  255.170933  1960.262300  255.170384  1960.262138  0.000572
48  74  -175.105134  -445.661695  -35.186001  258.234463  2040.966681  258.233890  2040.969338  0.002718
49  81  446.304005  -403.880703  -55.847006  329.999087  692.139582  330.000000  692.138410  0.001486
50  82  407.707692  -404.516497  -50.795302  328.361232  778.237021  328.361338  778.236534  0.000499
51  83  369.053413  -405.094779  -46.200556  327.026285  864.412776  327.025702  864.412062  0.000922
52  84  330.346665  -405.615468  -42.063420  325.995270  950.603788  325.996044  950.603308  0.000911
53  85  291.592951  -406.078489  -38.384484  325.268759  1036.746993  325.267197  1036.745636  0.002069
54  86  252.797779  -406.483776  -35.164269  324.846877  1122.779482  324.847186  1122.781649  0.002189
55  87  213.966667  -406.831273  -32.403235  324.729296  1208.638658  324.729120  1208.640290  0.001642
56  88  175.105134  -407.120929  -30.101773  324.915245  1294.262400  324.914198  1294.262598  0.001066
57  89  136.218706  -407.352703  -28.260210  325.403509  1379.589208  325.402797  1379.588757  0.000843
58  90  97.312912  -407.526562  -26.878809  326.192437  1464.558365  326.190706  1464.558454  0.001733
59  91  58.393282  -407.642482  -25.957766  327.279950  1549.110075  327.279189  1549.109220  0.001145
60  92  19.465350  -407.700446  -25.497212  328.663548  1633.185609  328.662696  1633.185367  0.000886
61  93  -19.465350  -407.700446  -25.497212  330.340325  1716.727443  330.340088  1716.728498  0.001081
62  94  -58.393282  -407.642482  -25.957766  332.306975  1799.679384  332.307438  1799.680476  0.001186
63  95  -97.312912  -407.526562  -26.878809  334.559812  1881.986694  334.559731  1881.986454  0.000254
64  96  -136.218706  -407.352703  -28.260210  337.094780  1963.596206  337.094461  1963.596363  0.000355
65  97  -175.105134  -407.120929  -30.101773  339.907471  2044.456433  339.907114  2044.457601  0.001221
66  105  484.836866  -364.961765  -56.775299  414.943698  606.622963  414.944728  606.622886  0.001033
67  106  446.304005  -365.589257  -51.259482  413.181171  692.747533  413.182345  692.749582  0.002361
68  107  407.707692  -366.164772  -46.200556  411.692695  779.014150  411.694370  779.013956  0.001687
69  108  369.053413  -366.688228  -41.599241  410.479615  865.359585  410.478252  865.359201  0.001416
70  109  330.346665  -367.159551  -37.456191  409.542865  951.720437  409.541484  951.720476  0.001382
71  110  291.592951  -367.578673  -33.771995  408.882971  1038.033302  408.882887  1038.033302  0.000084
72  111  252.797779  -367.945536  -30.547177  408.500047  1124.234928  408.500000  1124.236510  0.001582
73  112  213.966667  -368.260086  -27.782196  408.393797  1210.262381  408.391352  1210.262202  0.002452
74  113  175.105134  -368.522280  -25.477444  408.563519  1296.053202  408.563119  1296.052692  0.000648
75  114  136.218706  -368.732080  -23.633248  409.008106  1381.545563  409.007596  1381.546894  0.001425
76  115  97.312912  -368.889456  -22.249873  409.726053  1466.678419  409.725926  1466.679281  0.000871
77  116  58.393282  -368.994386  -21.327513  410.715465  1551.391657  410.714622  1551.391376  0.000888
78  117  19.465350  -369.046855  -20.866300  411.974064  1635.626241  411.975027  1635.626856  0.001142
79  118  -19.465350  -369.046855  -20.866300  413.499197  1719.324345  413.500000  1719.324660  0.000863
80  119  -58.393282  -368.994386  -21.327513  415.287851  1802.429489  415.287018  1802.430012  0.000983
81  120  -97.312912  -368.889456  -22.249873  417.336665  1884.886659  417.335722  1884.885911  0.001203
82  121  -136.218706  -368.732080  -23.633248  419.641938  1966.642426  419.642773  1966.642773  0.000904
83  131  484.836866  -326.684154  -52.651756  498.527347  607.019639  498.525337  607.018242  0.002448
84  132  446.304005  -327.245833  -47.128849  496.943919  693.296474  496.944570  693.296175  0.000716
85  133  407.707692  -327.760988  -42.063420  495.606767  779.716118  495.607348  779.715301  0.001002
86  134  369.053413  -328.229543  -37.456191  494.517104  866.215034  494.516839  866.213124  0.001928
87  135  330.346665  -328.651433  -33.307816  493.675775  952.729513  493.677387  952.730288  0.001788
88  136  291.592951  -329.026598  -29.618885  493.083255  1039.195841  493.082197  1039.194174  0.001974
89  137  252.797779  -329.354983  -26.389922  492.739648  1125.550457  492.738967  1125.549803  0.000945
90  138  213.966667  -329.636543  -23.621386  492.644691  1211.730121  492.644698  1211.731256  0.001135
91  139  175.105134  -329.871238  -21.313672  492.797751  1297.672067  492.798353  1297.672313  0.000651
92  140  136.218706  -330.059034  -19.467106  493.197830  1383.314168  493.196540  1383.313894  0.001319
93  141  97.312912  -330.199904  -18.081952  493.843576  1468.595084  493.842926  1468.594209  0.001090
94  142  58.393282  -330.293829  -17.158407  494.733278  1553.454415  494.732956  1553.453925  0.000587
95  143  19.465350  -330.340794  -16.696601  495.864886  1637.832843  495.865859  1637.832655  0.000991
96  144  -19.465350  -330.340794  -16.696601  497.236008  1721.672272  497.235089  1721.672604  0.000977
97  145  -58.393282  -330.293829  -17.158407  498.843931  1804.915961  498.842262  1804.917371  0.002185
98  146  -97.312912  -330.199904  -18.081952  500.685624  1887.508645  500.686377  1887.508405  0.000790
99  147  -136.218706  -330.059034  -19.467106  502.757753  1969.396656  502.758045  1969.397349  0.000752
100  157  523.300796  -287.823311  -54.971333  584.251354  521.167236  584.250924  521.167817  0.000723
101  158  484.836866  -288.360097  -48.984906  582.632387  607.373062  582.633146  607.372190  0.001156
102  159  446.304005  -288.855884  -43.455694  581.230168  693.785853  581.230678  693.786612  0.000914
103  160  407.707692  -289.310605  -38.384484  580.046099  780.342134  580.045865  780.341456  0.000717
104  161  369.053413  -289.724193  -33.771995  579.081256  866.978093  579.081939  866.979635  0.001687
105  162  330.346665  -290.096590  -29.618885  578.336393  953.629747  578.335146  953.629148  0.001383
106  163  291.592951  -290.427743  -25.925742  577.811933  1040.233103  577.812057  1040.232038  0.001073
107  164  252.797779  -290.717605  -22.693093  577.507970  1126.724325  577.506767  1126.724493  0.001215
108  165  213.966667  -290.966135  -19.921398  577.424270  1213.039895  577.425254  1213.039886  0.000984
109  166  175.105134  -291.173297  -17.611049  577.560273  1299.116778  577.560641  1299.117730  0.001021
110  167  136.218706  -291.339062  -15.762375  577.915094  1384.892576  577.915813  1384.892098  0.000863
111  168  97.312912  -291.463406  -14.375640  578.487531  1470.305687  578.487322  1470.305818  0.000247
112  169  58.393282  -291.546313  -13.451040  579.276068  1555.295451  579.277338  1555.296243  0.001496
113  170  19.465350  -291.587769  -12.988708  580.278882  1639.802302  580.277151  1639.801418  0.001944
114  171  -19.465350  -291.587769  -12.988708  581.493852  1723.767900  581.493035  1723.769321  0.001639
115  172  -58.393282  -291.546313  -13.451040  582.918566  1807.135269  582.918343  1807.135546  0.000356
116  173  -97.312912  -291.463406  -14.375640  584.550334  1889.848922  584.550216  1889.848455  0.000482
117  174  -136.218706  -291.339062  -15.762375  586.386196  1971.854976  586.386487  1971.854342  0.000697
118  185  561.690327  -249.028830  -58.216893  670.202805  435.305119  670.201743  435.305558  0.001150
119  186  523.300796  -249.529674  -51.767673  668.608207  521.358525  668.606479  521.358851  0.001758
120  187  484.836866  -249.995042  -45.775271  667.200593  607.682946  667.199235  607.683441  0.001446
121  188  446.304005  -250.424868  -40.240541  665.981465  694.215170  665.980484  694.214358  0.001273
122  189  407.707692  -250.819090  -35.164269  664.952045  780.891485  664.952337  780.891856  0.000472
123  190  369.053413  -251.177652  -30.547177  664.113275  867.647836  664.111981  867.648416  0.001418
124  191  330.346665  -251.500503  -26.389922  663.465810  954.419997  663.464584  954.418401  0.002013
125  192  291.592951  -251.787598  -22.693093  663.010021  1041.143732  663.010946  1041.144427  0.001157
126  193  252.797779  -252.038895  -19.457218  662.745991  1127.754960  662.746350  1127.754176  0.000863
127  194  213.966667  -252.254359  -16.682756  662.673516  1214.189923  662.673025  1214.190460  0.000728
128  195  175.105134  -252.433959  -14.370101  662.792110  1300.385344  662.791894  1300.384940  0.000459
129  196  136.218706  -252.577670  -12.519583  663.101003  1386.278590  663.101825  1386.279795  0.001459
130  197  97.312912  -252.685470  -11.131463  663.599145  1471.807825  663.598996  1471.807481  0.000375
131  198  58.393282  -252.757346  -10.205941  664.285218  1556.912165  664.286158  1556.913575  0.001695
132  199  19.465350  -252.793287  -9.743147  665.157632  1641.531821  665.157601  1641.533884  0.002064
133  200  -19.465350  -252.793287  -9.743147  666.214538  1725.608240  666.214794  1725.609183  0.000978
134  201  -58.393282  -252.757346  -10.205941  667.453836  1809.084241  667.452607  1809.083003  0.001745
135  202  -97.312912  -252.685470  -11.131463  668.873180  1891.904139  668.871978  1891.903512  0.001356
136  203  -136.218706  -252.577670  -12.519583  670.469990  1974.013864  670.470177  1974.015051  0.001202
137  215  561.690327  -210.776648  -55.475566  754.719954  435.368131  754.718230  435.369150  0.002003
138  216  523.300796  -211.200561  -49.020832  753.366935  521.522614  753.365815  521.522975  0.001177
139  217  484.836866  -211.594446  -43.023308  752.172591  607.949037  752.173666  607.949204  0.001088
140  218  446.304005  -211.958248  -37.483846  751.138199  694.583987  751.139444  694.582705  0.001787
141  219  407.707692  -212.291915  -32.403235  750.264800  781.363543  750.266379  781.364303  0.001752
142  220  369.053413  -212.595400  -27.782196  749.553195  868.223445  749.552553  868.223660  0.000677
143  221  330.346665  -212.868659  -23.621386  749.003943  955.099256  749.002954  955.098282  0.001388
144  222  291.592951  -213.111655  -19.921398  748.617359  1041.926530  748.617362  1041.927843  0.001313
145  223  252.797779  -213.324351  -16.682756  748.393515  1128.640978  748.394230  1128.642309  0.001511
146  224  213.966667  -213.506719  -13.905922  748.332239  1215.178631  748.331558  1215.179270  0.000934
147  225  175.105134  -213.658731  -11.591290  748.433116  1301.476006  748.432582  1301.476282  0.000601
148  226  136.218706  -213.780367  -9.739189  748.695493  1387.470266  748.697053  1387.470001  0.001582
149  227  97.312912  -213.871609  -8.349884  749.118479  1473.099377  749.117713  1473.098216  0.001391
150  228  58.393282  -213.932445  -7.423570  749.700951  1558.302257  749.700712  1558.300217  0.002054
151  229  19.465350  -213.962864  -6.960380  750.441559  1643.018927  750.441382  1643.019993  0.001081
152  230  -19.465350  -213.962864  -6.960380  751.338731  1727.190653  751.339627  1727.190552  0.000902
153  231  -58.393282  -213.932445  -7.423570  752.390681  1810.760074  752.389548  1810.761177  0.001581
154  232  -97.312912  -213.871609  -8.349884  753.595415  1893.671336  753.593957  1893.672642  0.001957
155  233  -136.218706  -213.780367  -9.739189  754.950738  1975.870208  754.950792  1975.871802  0.001595
156  245  561.690327  -172.494500  -53.190531  839.577017  435.420487  839.578060  435.421670  0.001577
157  246  523.300796  -172.841420  -46.731201  838.467439  521.659446  838.468196  521.657940  0.001685
158  247  484.836866  -173.163766  -40.729407  837.487998  608.171118  837.487717  608.170282  0.000882
159  248  446.304005  -173.461493  -35.186001  836.639746  694.891922  836.639626  694.892863  0.000949
160  249  407.707692  -173.734558  -30.101773  835.923537  781.757765  835.923363  781.758201  0.000469
161  250  369.053413  -173.982922  -25.477444  835.340030  868.704212  835.340558  868.704299  0.000535
162  251  330.346665  -174.206551  -21.313672  834.889685  955.666652  834.889354  955.665459  0.001238
163  252  291.592951  -174.405413  -17.611049  834.572762  1042.580463  834.572719  1042.579376  0.001088
164  253  252.797779  -174.579479  -14.370101  834.389320  1129.381179  834.388564  1129.379347  0.001982
165  254  213.966667  -174.728724  -11.591290  834.339218  1216.004657  834.339059  1216.003587  0.001082
166  255  175.105134  -174.853127  -9.275010  834.422116  1302.387242  834.423933  1302.387916  0.001939
167  256  136.218706  -174.952671  -7.421591  834.637477  1388.465926  834.638005  1388.465679  0.000583
168  257  97.312912  -175.027341  -6.031296  834.984570  1474.178506  834.983068  1474.178772  0.001525
169  258  58.393282  -175.077127  -5.104323  835.462473  1559.463738  835.462030  1559.463725  0.000443
170  259  19.465350  -175.102022  -4.640803  836.070076  1644.261485  836.069683  1644.261381  0.000407
171  260  -19.465350  -175.102022  -4.640803  836.806089  1728.512857  836.806961  1728.511858  0.001326
172  261  -58.393282  -175.077127  -5.104323  837.669044  1812.160346  837.668988  1812.160658  0.000317
173  262  -97.312912  -175.027341  -6.031296  838.657303  1895.147955  838.657156  1895.147117  0.000851
174  263  -136.218706  -174.952671  -7.421591  839.769064  1977.421319  839.769697  1977.420365  0.001145
175  275  600.000000  -133.898873  -58.281997  925.678419  349.491956  925.680063  349.491853  0.001647
176  276  561.690327  -134.187828  -51.362113  924.713368  435.462272  924.713853  435.462336  0.000489
177  277  523.300796  -134.457706  -44.899106  923.848762  521.768970  923.849520  521.769652  0.001020
178  278  484.836866  -134.708467  -38.893895  923.085570  608.349005  923.084279  608.347691  0.001842
179  279  446.304005  -134.940076  -33.347333  922.424612  695.138656  922.422032  695.138631  0.002580
180  280  407.707692  -135.152500  -28.260210  921.866555  782.073694  921.865763  782.072695  0.001274
181  281  369.053413  -135.345709  -23.633248  921.411914  869.089545  921.411739  869.089130  0.000450
182  282  330.346665  -135.519676  -19.467106  921.061049  956.121455  921.060729  956.121018  0.000542
183  283  291.592951  -135.674375  -15.762375  920.814162  1043.104661  920.813470  1043.104214  0.000824
184  284  252.797779  -135.809785  -12.519583  920.671299  1129.974557  920.673161  1129.974439  0.001866
185  285  213.966667  -135.925887  -9.739189  920.632351  1216.666860  920.630878  1216.665917  0.001749
186  286  175.105134  -136.022664  -7.421591  920.697054  1303.117776  920.698125  1303.118566  0.001330
187  287  136.218706  -136.100101  -5.567117  920.864987  1389.264159  920.864948  1389.263802  0.000360
188  288  97.312912  -136.158189  -4.176030  921.135581  1475.043673  921.134590  1475.043302  0.001058
189  289  58.393282  -136.196919  -3.248529  921.508117  1560.394943  921.508561  1560.394423  0.000684
190  290  19.465350  -136.216285  -2.784746  921.981729  1645.257702  921.981097  1645.258008  0.000703
191  291  -19.465350  -136.216285  -2.784746  922.555409  1729.572938  922.554698  1729.573154  0.000743
192  292  -58.393282  -136.196919  -3.248529  923.228013  1813.283024  923.228866  1813.283733  0.001109
193  293  -97.312912  -136.158189  -4.176030  923.998262  1896.331849  923.996827  1896.329897  0.002423
194  294  -136.218706  -136.100101  -5.567117  924.864751  1978.664939  924.865484  1978.664479  0.000865
195  307  600.000000  -95.655652  -56.913409  1010.757961  349.472903  1010.758581  349.471261  0.001755
196  308  561.690327  -95.862078  -49.990572  1010.067676  435.493551  1010.066620  435.494382  0.001344
197  309  523.300796  -96.054875  -43.524807  1009.449241  521.851149  1009.448736  521.849861  0.001383
198  310  484.836866  -96.234016  -37.517032  1008.903349  608.482550  1008.903226  608.480182  0.002371
199  311  446.304005  -96.399474  -31.968104  1008.430588  695.323933  1008.431443  695.323389  0.001014
200  312  407.707692  -96.551227  -26.878809  1008.031436  782.310965  1008.032827  782.311526  0.001500
201  313  369.053413  -96.689254  -22.249873  1007.706262  869.378965  1007.706335  869.377726  0.001241
202  314  330.346665  -96.813533  -18.081952  1007.455323  956.463074  1007.454467  956.464003  0.001263
203  315  291.592951  -96.924048  -14.375640  1007.278764  1043.498425  1007.279084  1043.499178  0.000819
204  316  252.797779  -97.020784  -11.131463  1007.176620  1130.420303  1007.177313  1130.419210  0.001294
205  317  213.966667  -97.103725  -8.349884  1007.148811  1217.164321  1007.148992  1217.163235  0.001101
206  318  175.105134  -97.172861  -6.031296  1007.195149  1303.666580  1007.196993  1303.667684  0.002150
207  319  136.218706  -97.228182  -4.176030  1007.315333  1389.863832  1007.315360  1389.863184  0.000649
208  320  97.312912  -97.269679  -2.784350  1007.508954  1475.693639  1007.508242  1475.694088  0.000842
209  321  58.393282  -97.297347  -1.856453  1007.775499  1561.094527  1007.776174  1561.095170  0.000932
210  322  19.465350  -97.311182  -1.392472  1008.114347  1646.006134  1008.112767  1646.005871  0.001602
211  323  -19.465350  -97.311182  -1.392472  1008.524777  1730.369355  1008.523999  1730.369616  0.000821
212  324  -58.393282  -97.297347  -1.856453  1009.005970  1814.126472  1009.005441  1814.125575  0.001041
213  325  -97.312912  -97.269679  -2.784350  1009.557009  1897.221290  1009.557946  1897.221258  0.000937
214  326  -136.218706  -97.228182  -4.176030  1010.176889  1979.599252  1010.176770  1979.597845  0.001412
215  339  600.000000  -57.398832  -56.000910  1095.992620  349.460130  1095.992417  349.459915  0.000296
216  340  561.690327  -57.522699  -49.076103  1095.578063  435.514376  1095.580309  435.515105  0.002361
217  341  523.300796  -57.638388  -42.608498  1095.206657  521.905951  1095.205147  521.907621  0.002252
218  342  484.836866  -57.745883  -36.599015  1094.878820  608.571642  1094.879783  608.571817  0.000979
219  343  446.304005  -57.845167  -31.048508  1094.594904  695.447559  1094.595163  695.448095  0.000596
220  344  407.707692  -57.936228  -25.957766  1094.355196  782.469299  1094.354725  782.468055  0.001331
221  345  369.053413  -58.019051  -21.327513  1094.159919  869.572112  1094.159532  869.571746  0.000533
222  346  330.346665  -58.093626  -17.158407  1094.009227  956.691068  1094.009063  956.690305  0.000781
223  347  291.592951  -58.159942  -13.451040  1093.903208  1043.761228  1093.903275  1043.761130  0.000119
224  348  252.797779  -58.217988  -10.205941  1093.841881  1130.717807  1093.841276  1130.717839  0.000606
225  349  213.966667  -58.267758  -7.423570  1093.825200  1217.496348  1093.824163  1217.497288  0.001400
226  350  175.105134  -58.309243  -5.104323  1093.853052  1304.032881  1093.853733  1304.033067  0.000706
227  351  136.218706  -58.342439  -3.248529  1093.925254  1390.264091  1093.924895  1390.264950  0.000931
228  352  97.312912  -58.367340  -1.856453  1094.041564  1476.127470  1094.041645  1476.125713  0.001759
229  353  58.393282  -58.383942  -0.928293  1094.201670  1561.561481  1094.201062  1561.563051  0.001684
230  354  19.465350  -58.392244  -0.464179  1094.405201  1646.505695  1094.404749  1646.504195  0.001567
231  355  -19.465350  -58.392244  -0.464179  1094.651723  1730.900946  1094.652458  1730.900553  0.000833
232  356  -58.393282  -58.383942  -0.928293  1094.940743  1814.689458  1094.940445  1814.690444  0.001030
233  357  -97.312912  -58.367340  -1.856453  1095.271712  1897.814977  1095.270092  1897.815325  0.001657
234  358  -136.218706  -58.342439  -3.248529  1095.644024  1980.222891  1095.643780  1980.223613  0.000762
235  371  600.000000  -19.133851  -55.544627  1181.320506  349.453721  1181.320253  349.452902  0.000858
236  372  561.690327  -19.175142  -48.618836  1181.182256  435.524780  1181.182991  435.523757  0.001260
237  373  523.300796  -19.213707  -42.150312  1181.058397  521.933357  1181.056630  521.932423  0.001999
238  374  484.836866  -19.249540  -36.139974  1180.949067  608.616207  1180.949136  608.615939  0.000276
239  375  446.304005  -19.282636  -30.588678  1180.854385  695.509405  1180.854451  695.509954  0.000553
240  376  407.707692  -19.312991  -25.497212  1180.774446  782.548513  1180.774371  782.548281  0.000243
241  377  369.053413  -19.340600  -20.866300  1180.709325  869.668746  1180.709153  869.668631  0.000208
242  378  330.346665  -19.365460  -16.696601  1180.659073  956.805139  1180.658034  956.805085  0.001041
243  379  291.592951  -19.387566  -12.988708  1180.623719  1043.892717  1180.624281  1043.892474  0.000612
244  380  252.797779  -19.406916  -9.743147  1180.603270  1130.866661  1180.603856  1130.866855  0.000617
245  381  213.966667  -19.423506  -6.960380  1180.597711  1217.662477  1180.597884  1217.663405  0.000944
246  382  175.105134  -19.437336  -4.640803  1180.607003  1304.216162  1180.605422  1304.215260  0.001820
247  383  136.218706  -19.448401  -2.784746  1180.631086  1390.464363  1180.632248  1390.462960  0.001822
248  384  97.312912  -19.456702  -1.392472  1180.669878  1476.344542  1180.671258  1476.344164  0.001431
249  385  58.393282  -19.462236  -0.464179  1180.723277  1561.795127  1180.725711  1561.795074  0.002435
250  386  -58.393282  -19.462236  -0.464179  1180.969767  1814.971157  1180.970226  1814.970867  0.000543
251  387  -97.312912  -19.456702  -1.392472  1181.080147  1898.112038  1181.080466  1898.112288  0.000405
252  388  -136.218706  -19.448401  -2.784746  1181.204316  1980.534939  1181.204640  1980.535130  0.000377
253  401  600.000000  19.133851  -55.544627  1266.679494  349.453721  1266.679747  349.452902  0.000858
254  402  561.690327  19.175142  -48.618836  1266.817744  435.524780  1266.817009  435.523757  0.001260
255  403  523.300796  19.213707  -42.150312  1266.941603  521.933357  1266.943370  521.932423  0.001999
256  404  484.836866  19.249540  -36.139974  1267.050933  608.616207  1267.050864  608.615939  0.000276
257  405  446.304005  19.282636  -30.588678  1267.145615  695.509405  1267.145549  695.509954  0.000553
258  406  407.707692  19.312991  -25.497212  1267.225554  782.548513  1267.225629  782.548281  0.000243
259  407  369.053413  19.340600  -20.866300  1267.290675  869.668746  1267.290847  869.668631  0.000208
260  408  330.346665  19.365460  -16.696601  1267.340927  956.805139  1267.341966  956.805085  0.001041
261  409  291.592951  19.387566  -12.988708  1267.376281  1043.892717  1267.375719  1043.892474  0.000612
262  410  252.797779  19.406916  -9.743147  1267.396730  1130.866661  1267.396144  1130.866855  0.000617
263  411  213.966667  19.423506  -6.960380  1267.402289  1217.662477  1267.402116  1217.663405  0.000944
264  412  175.105134  19.437336  -4.640803  1267.392997  1304.216162  1267.394578  1304.215260  0.001820
265  413  136.218706  19.448401  -2.784746  1267.368914  1390.464363  1267.367752  1390.462960  0.001822
266  414  97.312912  19.456702  -1.392472  1267.330122  1476.344542  1267.328742  1476.344164  0.001431
267  415  58.393282  19.462236  -0.464179  1267.276723  1561.795127  1267.274289  1561.795074  0.002435
268  416  -58.393282  19.462236  -0.464179  1267.030233  1814.971157  1267.029774  1814.970867  0.000543
269  417  -97.312912  19.456702  -1.392472  1266.919853  1898.112038  1266.919534  1898.112288  0.000405
270  418  -136.218706  19.448401  -2.784746  1266.795684  1980.534939  1266.795360  1980.535130  0.000377
271  431  600.000000  57.398832  -56.000910  1352.007380  349.460130  1352.007583  349.459915  0.000296
272  432  561.690327  57.522699  -49.076103  1352.421937  435.514376  1352.419691  435.515105  0.002361
273  433  523.300796  57.638388  -42.608498  1352.793343  521.905951  1352.794853  521.907621  0.002252
274  434  484.836866  57.745883  -36.599015  1353.121180  608.571642  1353.120217  608.571817  0.000979
275  435  446.304005  57.845167  -31.048508  1353.405096  695.447559  1353.404837  695.448095  0.000596
276  436  407.707692  57.936228  -25.957766  1353.644804  782.469299  1353.645275  782.468054  0.001331
277  437  369.053413  58.019051  -21.327513  1353.840081  869.572112  1353.840468  869.571746  0.000533
278  438  330.346665  58.093626  -17.158407  1353.990773  956.691068  1353.990937  956.690305  0.000781
279  439  291.592951  58.159942  -13.451040  1354.096792  1043.761228  1354.096725  1043.761130  0.000119
280  440  252.797779  58.217988  -10.205941  1354.158119  1130.717807  1354.158724  1130.717839  0.000606
281  441  213.966667  58.267758  -7.423570  1354.174800  1217.496348  1354.175837  1217.497288  0.001400
282  442  175.105134  58.309243  -5.104323  1354.146948  1304.032881  1354.146267  1304.033067  0.000706
283  443  136.218706  58.342439  -3.248529  1354.074746  1390.264091  1354.075105  1390.264950  0.000931
284  444  97.312912  58.367340  -1.856453  1353.958436  1476.127470  1353.958355  1476.125713  0.001759
285  445  58.393282  58.383942  -0.928293  1353.798330  1561.561481  1353.798938  1561.563051  0.001684
286  446  19.465350  58.392244  -0.464179  1353.594799  1646.505695  1353.595251  1646.504195  0.001567
287  447  -19.465350  58.392244  -0.464179  1353.348277  1730.900946  1353.347542  1730.900553  0.000833
288  448  -58.393282  58.383942  -0.928293  1353.059257  1814.689458  1353.059555  1814.690444  0.001030
289  449  -97.312912  58.367340  -1.856453  1352.728288  1897.814977  1352.729908  1897.815325  0.001657
290  450  -136.218706  58.342439  -3.248529  1352.355976  1980.222891  1352.356220  1980.223613  0.000762
291  463  600.000000  95.655652  -56.913409  1437.242039  349.472903  1437.241419  349.471261  0.001755
292  464  561.690327  95.862078  -49.990572  1437.932324  435.493551  1437.933380  435.494382  0.001344
293  465  523.300796  96.054875  -43.524807  1438.550759  521.851149  1438.551263  521.849861  0.001383
294  466  484.836866  96.234016  -37.517032  1439.096651  608.482550  1439.096774  608.480182  0.002371
295  467  446.304005  96.399474  -31.968104  1439.569412  695.323933  1439.568557  695.323389  0.001014
296  468  407.707692  96.551227  -26.878809  1439.968564  782.310965  1439.967173  782.311526  0.001500
297  469  369.053413  96.689254  -22.249873  1440.293738  869.378965  1440.293665  869.377726  0.001241
298  470  330.346665  96.813533  -18.081952  1440.544677  956.463074  1440.545533  956.464003  0.001263
299  471  291.592951  96.924048  -14.375640  1440.721236  1043.498425  1440.720916  1043.499178  0.000819
300  472  252.797779  97.020784  -11.131463  1440.823380  1130.420303  1440.822687  1130.419210  0.001294
301  473  213.966667  97.103725  -8.349884  1440.851189  1217.164321  1440.851008  1217.163235  0.001101
302  474  175.105134  97.172861  -6.031296  1440.804851  1303.666580  1440.803007  1303.667684  0.002150
303  475  136.218706  97.228182  -4.176030  1440.684667  1389.863832  1440.684640  1389.863184  0.000649
304  476  97.312912  97.269679  -2.784350  1440.491046  1475.693639  1440.491758  1475.694088  0.000842
305  477  58.393282  97.297347  -1.856453  1440.224501  1561.094527  1440.223826  1561.095170  0.000932
306  478  19.465350  97.311182  -1.392472  1439.885653  1646.006134  1439.887233  1646.005871  0.001602
307  479  -19.465350  97.311182  -1.392472  1439.475223  1730.369355  1439.476001  1730.369616  0.000821
308  480  -58.393282  97.297347  -1.856453  1438.994030  1814.126472  1438.994559  1814.125575  0.001041
309  481  -97.312912  97.269679  -2.784350  1438.442991  1897.221290  1438.442054  1897.221258  0.000937
310  482  -136.218706  97.228182  -4.176030  1437.823111  1979.599252  1437.823230  1979.597845  0.001412
311  495  600.000000  133.898873  -58.281997  1522.321581  349.491956  1522.319937  349.491853  0.001647
312  496  561.690327  134.187828  -51.362113  1523.286632  435.462272  1523.286147  435.462336  0.000489
313  497  523.300796  134.457706  -44.899106  1524.151238  521.768970  1524.150480  521.769652  0.001020
314  498  484.836866  134.708467  -38.893895  1524.914430  608.349005  1524.915721  608.347691  0.001842
315  499  446.304005  134.940076  -33.347333  1525.575388  695.138656  1525.577968  695.138631  0.002580
316  500  407.707692  135.152500  -28.260210  1526.133445  782.073694  1526.134237  782.072695  0.001274
317  501  369.053413  135.345709  -23.633248  1526.588086  869.089545  1526.588261  869.089130  0.000450
318  502  330.346665  135.519676  -19.467106  1526.938951  956.121455  1526.939271  956.121019  0.000541
319  503  291.592951  135.674375  -15.762375  1527.185838  1043.104661  1527.186530  1043.104214  0.000824
320  504  252.797779  135.809785  -12.519583  1527.328701  1129.974557  1527.326839  1129.974439  0.001866
321  505  213.966667  135.925887  -9.739189  1527.367649  1216.666860  1527.369122  1216.665917  0.001749
322  506  175.105134  136.022664  -7.421591  1527.302946  1303.117776  1527.301875  1303.118566  0.001330
323  507  136.218706  136.100101  -5.567117  1527.135013  1389.264159  1527.135052  1389.263802  0.000360
324  508  97.312912  136.158189  -4.176030  1526.864419  1475.043673  1526.865410  1475.043302  0.001058
325  509  58.393282  136.196919  -3.248529  1526.491883  1560.394943  1526.491439  1560.394423  0.000684
326  510  19.465350  136.216285  -2.784746  1526.018271  1645.257702  1526.018903  1645.258008  0.000703
327  511  -19.465350  136.216285  -2.784746  1525.444591  1729.572938  1525.445302  1729.573154  0.000743
328  512  -58.393282  136.196919  -3.248529  1524.771987  1813.283024  1524.771134  1813.283733  0.001109
329  513  -97.312912  136.158189  -4.176030  1524.001738  1896.331849  1524.003173  1896.329897  0.002423
330  514  -136.218706  136.100101  -5.567117  1523.135249  1978.664939  1523.134516  1978.664479  0.000865
331  527  561.690327  172.494500  -53.190531  1608.422983  435.420487  1608.421940  435.421670  0.001577
332  528  523.300796  172.841420  -46.731201  1609.532561  521.659446  1609.531804  521.657940  0.001685
333  529  484.836866  173.163766  -40.729407  1610.512002  608.171118  1610.512283  608.170282  0.000882
334  530  446.304005  173.461493  -35.186001  1611.360254  694.891922  1611.360374  694.892863  0.000949
335  531  407.707692  173.734558  -30.101773  1612.076463  781.757765  1612.076637  781.758201  0.000469
336  532  369.053413  173.982922  -25.477444  1612.659970  868.704212  1612.659442  868.704299  0.000535
337  533  330.346665  174.206551  -21.313672  1613.110315  955.666652  1613.110646  955.665459  0.001238
338  534  291.592951  174.405413  -17.611049  1613.427238  1042.580463  1613.427281  1042.579376  0.001088
339  535  252.797779  174.579479  -14.370101  1613.610680  1129.381179  1613.611436  1129.379347  0.001982
340  536  213.966667  174.728724  -11.591290  1613.660782  1216.004657  1613.660941  1216.003587  0.001082
341  537  175.105134  174.853127  -9.275010  1613.577884  1302.387242  1613.576067  1302.387916  0.001939
342  538  136.218706  174.952671  -7.421591  1613.362523  1388.465926  1613.361995  1388.465679  0.000583
343  539  97.312912  175.027341  -6.031296  1613.015430  1474.178506  1613.016932  1474.178772  0.001525
344  540  58.393282  175.077127  -5.104323  1612.537527  1559.463738  1612.537970  1559.463725  0.000443
345  541  19.465350  175.102022  -4.640803  1611.929924  1644.261485  1611.930317  1644.261381  0.000407
346  542  -19.465350  175.102022  -4.640803  1611.193911  1728.512857  1611.193039  1728.511858  0.001326
347  543  -58.393282  175.077127  -5.104323  1610.330956  1812.160346  1610.331012  1812.160658  0.000317
348  544  -97.312912  175.027341  -6.031296  1609.342697  1895.147955  1609.342844  1895.147117  0.000851
349  545  -136.218706  174.952671  -7.421591  1608.230936  1977.421319  1608.230303  1977.420365  0.001145
350  557  561.690327  210.776648  -55.475566  1693.280046  435.368131  1693.281770  435.369150  0.002003
351  558  523.300796  211.200561  -49.020832  1694.633065  521.522614  1694.634185  521.522975  0.001177
352  559  484.836866  211.594446  -43.023308  1695.827409  607.949037  1695.826334  607.949204  0.001088
353  560  446.304005  211.958248  -37.483846  1696.861801  694.583987  1696.860556  694.582705  0.001787
354  561  407.707692  212.291915  -32.403235  1697.735200  781.363543  1697.733622  781.364303  0.001752
355  562  369.053413  212.595400  -27.782196  1698.446805  868.223445  1698.447447  868.223660  0.000677
356  563  330.346665  212.868659  -23.621386  1698.996057  955.099256  1698.997046  955.098282  0.001388
357  564  291.592951  213.111655  -19.921398  1699.382641  1041.926530  1699.382638  1041.927843  0.001313
358  565  252.797779  213.324351  -16.682756  1699.606485  1128.640978  1699.605770  1128.642309  0.001511
359  566  213.966667  213.506719  -13.905922  1699.667761  1215.178631  1699.668442  1215.179270  0.000934
360  567  175.105134  213.658731  -11.591290  1699.566884  1301.476006  1699.567418  1301.476282  0.000601
361  568  136.218706  213.780367  -9.739189  1699.304507  1387.470266  1699.302947  1387.470001  0.001582
362  569  97.312912  213.871609  -8.349884  1698.881521  1473.099377  1698.882287  1473.098216  0.001391
363  570  58.393282  213.932445  -7.423570  1698.299049  1558.302257  1698.299288  1558.300217  0.002054
364  571  19.465350  213.962864  -6.960380  1697.558441  1643.018927  1697.558618  1643.019993  0.001081
365  572  -19.465350  213.962864  -6.960380  1696.661269  1727.190653  1696.660373  1727.190552  0.000902
366  573  -58.393282  213.932445  -7.423570  1695.609319  1810.760074  1695.610452  1810.761177  0.001581
367  574  -97.312912  213.871609  -8.349884  1694.404585  1893.671336  1694.406043  1893.672642  0.001957
368  575  -136.218706  213.780367  -9.739189  1693.049262  1975.870208  1693.049208  1975.871802  0.001595
369  587  561.690327  249.028830  -58.216893  1777.797195  435.305119  1777.798257  435.305558  0.001149
370  588  523.300796  249.529674  -51.767673  1779.391793  521.358525  1779.393521  521.358851  0.001758
371  589  484.836866  249.995042  -45.775271  1780.799407  607.682946  1780.800765  607.683441  0.001446
372  590  446.304005  250.424868  -40.240541  1782.018535  694.215170  1782.019516  694.214358  0.001273
373  591  407.707692  250.819090  -35.164269  1783.047955  780.891485  1783.047663  780.891856  0.000472
374  592  369.053413  251.177652  -30.547177  1783.886725  867.647836  1783.888019  867.648416  0.001418
375  593  330.346665  251.500503  -26.389922  1784.534190  954.419997  1784.535416  954.418401  0.002013
376  594  291.592951  251.787598  -22.693093  1784.989979  1041.143732  1784.989054  1041.144427  0.001157
377  595  252.797779  252.038895  -19.457218  1785.254009  1127.754960  1785.253650  1127.754176  0.000863
378  596  213.966667  252.254359  -16.682756  1785.326484  1214.189923  1785.326975  1214.190460  0.000728
379  597  175.105134  252.433959  -14.370101  1785.207890  1300.385344  1785.208106  1300.384940  0.000459
380  598  136.218706  252.577670  -12.519583  1784.898997  1386.278590  1784.898175  1386.279795  0.001459
381  599  97.312912  252.685470  -11.131463  1784.400855  1471.807825  1784.401004  1471.807481  0.000375
382  600  58.393282  252.757346  -10.205941  1783.714782  1556.912165  1783.713842  1556.913575  0.001695
383  601  19.465350  252.793287  -9.743147  1782.842368  1641.531821  1782.842399  1641.533884  0.002064
384  602  -19.465350  252.793287  -9.743147  1781.785462  1725.608240  1781.785206  1725.609183  0.000978
385  603  -58.393282  252.757346  -10.205941  1780.546164  1809.084241  1780.547393  1809.083003  0.001745
386  604  -97.312912  252.685470  -11.131463  1779.126820  1891.904139  1779.128022  1891.903512  0.001356
387  605  -136.218706  252.577670  -12.519583  1777.530010  1974.013864  1777.529823  1974.015051  0.001202
388  617  523.300796  287.823311  -54.971333  1863.748646  521.167236  1863.749076  521.167817  0.000723
389  618  484.836866  288.360097  -48.984906  1865.367613  607.373062  1865.366854  607.372190  0.001156
390  619  446.304005  288.855884  -43.455694  1866.769832  693.785853  1866.769322  693.786612  0.000914
391  620  407.707692  289.310605  -38.384484  1867.953901  780.342134  1867.954135  780.341456  0.000717
392  621  369.053413  289.724193  -33.771995  1868.918744  866.978093  1868.918061  866.979635  0.001687
393  622  330.346665  290.096590  -29.618885  1869.663607  953.629747  1869.664854  953.629148  0.001383
394  623  291.592951  290.427743  -25.925742  1870.188067  1040.233103  1870.187943  1040.232038  0.001073
395  624  252.797779  290.717605  -22.693093  1870.492030  1126.724325  1870.493233  1126.724493  0.001215
396  625  213.966667  290.966135  -19.921398  1870.575730  1213.039895  1870.574746  1213.039886  0.000984
397  626  175.105134  291.173297  -17.611049  1870.439727  1299.116778  1870.439359  1299.117730  0.001021
398  627  136.218706  291.339062  -15.762375  1870.084906  1384.892576  1870.084187  1384.892098  0.000863
399  628  97.312912  291.463406  -14.375640  1869.512469  1470.305687  1869.512678  1470.305818  0.000247
400  629  58.393282  291.546313  -13.451040  1868.723932  1555.295451  1868.722662  1555.296243  0.001496
401  630  19.465350  291.587769  -12.988708  1867.721118  1639.802302  1867.722849  1639.801418  0.001944
402  631  -19.465350  291.587769  -12.988708  1866.506148  1723.767900  1866.506965  1723.769321  0.001639
403  632  -58.393282  291.546313  -13.451040  1865.081434  1807.135269  1865.081657  1807.135546  0.000356
404  633  -97.312912  291.463406  -14.375640  1863.449666  1889.848922  1863.449784  1889.848455  0.000482
405  634  -136.218706  291.339062  -15.762375  1861.613804  1971.854976  1861.613513  1971.854342  0.000697
406  645  484.836866  326.684154  -52.651756  1949.472653  607.019639  1949.474663  607.018242  0.002448
407  646  446.304005  327.245833  -47.128849  1951.056081  693.296474  1951.055430  693.296175  0.000716
408  647  407.707692  327.760988  -42.063420  1952.393233  779.716118  1952.392652  779.715301  0.001002
409  648  369.053413  328.229543  -37.456191  1953.482896  866.215034  1953.483161  866.213124  0.001928
410  649  330.346665  328.651433  -33.307816  1954.324225  952.729513  1954.322613  952.730288  0.001788
411  650  291.592951  329.026598  -29.618885  1954.916745  1039.195841  1954.917803  1039.194174  0.001974
412  651  252.797779  329.354983  -26.389922  1955.260352  1125.550457  1955.261033  1125.549803  0.000945
413  652  213.966667  329.636543  -23.621386  1955.355309  1211.730121  1955.355302  1211.731256  0.001135
414  653  175.105134  329.871238  -21.313672  1955.202249  1297.672067  1955.201647  1297.672313  0.000651
415  654  136.218706  330.059034  -19.467106  1954.802170  1383.314168  1954.803460  1383.313894  0.001319
416  655  97.312912  330.199904  -18.081952  1954.156424  1468.595084  1954.157074  1468.594209  0.001090
417  656  58.393282  330.293829  -17.158407  1953.266722  1553.454415  1953.267044  1553.453925  0.000587
418  657  19.465350  330.340794  -16.696601  1952.135114  1637.832843  1952.134141  1637.832655  0.000991
419  658  -19.465350  330.340794  -16.696601  1950.763992  1721.672272  1950.764911  1721.672604  0.000977
420  659  -58.393282  330.293829  -17.158407  1949.156069  1804.915961  1949.157738  1804.917371  0.002185
421  660  -97.312912  330.199904  -18.081952  1947.314376  1887.508645  1947.313623  1887.508405  0.000790
422  661  -136.218706  330.059034  -19.467106  1945.242247  1969.396656  1945.241955  1969.397349  0.000752
423  671  484.836866  364.961765  -56.775299  2033.056302  606.622963  2033.055272  606.622886  0.001033
424  672  446.304005  365.589257  -51.259482  2034.818829  692.747533  2034.817655  692.749582  0.002361
425  673  407.707692  366.164772  -46.200556  2036.307305  779.014150  2036.305630  779.013956  0.001687
426  674  369.053413  366.688228  -41.599241  2037.520385  865.359585  2037.521748  865.359201  0.001416
427  675  330.346665  367.159551  -37.456191  2038.457135  951.720437  2038.458516  951.720476  0.001382
428  676  291.592951  367.578673  -33.771995  2039.117029  1038.033302  2039.117113  1038.033302  0.000084
429  677  252.797779  367.945536  -30.547177  2039.499953  1124.234928  2039.500000  1124.236510  0.001582
430  678  213.966667  368.260086  -27.782196  2039.606203  1210.262381  2039.608648  1210.262202  0.002452
431  679  175.105134  368.522280  -25.477444  2039.436481  1296.053202  2039.436881  1296.052692  0.000648
432  680  136.218706  368.732080  -23.633248  2038.991894  1381.545563  2038.992404  1381.546894  0.001425
433  681  97.312912  368.889456  -22.249873  2038.273947  1466.678419  2038.274074  1466.679281  0.000871
434  682  58.393282  368.994386  -21.327513  2037.284535  1551.391657  2037.285378  1551.391376  0.000888
435  683  19.465350  369.046855  -20.866300  2036.025936  1635.626241  2036.024973  1635.626856  0.001142
436  684  -19.465350  369.046855  -20.866300  2034.500803  1719.324345  2034.500000  1719.324660  0.000863
437  685  -58.393282  368.994386  -21.327513  2032.712149  1802.429489  2032.712982  1802.430012  0.000983
438  686  -97.312912  368.889456  -22.249873  2030.663335  1884.886659  2030.664278  1884.885911  0.001203
439  687  -136.218706  368.732080  -23.633248  2028.358062  1966.642426  2028.357227  1966.642773  0.000904
440  697  446.304005  403.880703  -55.847006  2118.000913  692.139582  2118.000000  692.138410  0.001486
441  698  407.707692  404.516497  -50.795302  2119.638768  778.237021  2119.638662  778.236534  0.000499
442  699  369.053413  405.094779  -46.200556  2120.973715  864.412776  2120.974298  864.412062  0.000922
443  700  330.346665  405.615468  -42.063420  2122.004730  950.603788  2122.003956  950.603308  0.000911
444  701  291.592951  406.078489  -38.384484  2122.731241  1036.746993  2122.732803  1036.745636  0.002069
445  702  252.797779  406.483776  -35.164269  2123.153123  1122.779482  2123.152814  1122.781649  0.002189
446  703  213.966667  406.831273  -32.403235  2123.270704  1208.638658  2123.270880  1208.640290  0.001642
447  704  175.105134  407.120929  -30.101773  2123.084755  1294.262400  2123.085802  1294.262598  0.001066
448  705  136.218706  407.352703  -28.260210  2122.596491  1379.589208  2122.597203  1379.588757  0.000843
449  706  97.312912  407.526562  -26.878809  2121.807563  1464.558365  2121.809294  1464.558454  0.001733
450  707  58.393282  407.642482  -25.957766  2120.720050  1549.110075  2120.720811  1549.109220  0.001145
451  708  19.465350  407.700446  -25.497212  2119.336452  1633.185609  2119.337304  1633.185367  0.000886
452  709  -19.465350  407.700446  -25.497212  2117.659675  1716.727443  2117.659912  1716.728498  0.001081
453  710  -58.393282  407.642482  -25.957766  2115.693025  1799.679384  2115.692562  1799.680476  0.001186
454  711  -97.312912  407.526562  -26.878809  2113.440188  1881.986694  2113.440269  1881.986454  0.000254
455  712  -136.218706  407.352703  -28.260210  2110.905220  1963.596206  2110.905539  1963.596363  0.000355
456  713  -175.105134  407.120929  -30.101773  2108.092529  2044.456433  2108.092886  2044.457601  0.001221
457  721  407.707692  442.810711  -55.847006  2202.331703  777.385600  2202.331590  777.386262  0.000671
458  722  369.053413  443.443737  -51.259482  2203.786823  863.375738  2203.786045  863.376446  0.001052
459  723  330.346665  444.013718  -47.128849  2204.910844  949.380959  2204.911246  949.382350  0.001448
460  724  291.592951  444.520571  -43.455694  2205.703143  1035.338571  2205.703738  1035.339484  0.001090
461  725  252.797779  444.964226  -40.240541  2206.163592  1121.186036  2206.164812  1121.185953  0.001223
462  726  213.966667  445.344619  -37.483846  2206.292545  1206.861128  2206.292339  1206.860846  0.000349
463  727  175.105134  445.661695  -35.186001  2206.090843  1292.302092  2206.091749  1292.302276  0.000925
464  728  136.218706  445.915410  -33.347333  2205.559808  1377.447789  2205.560715  1377.447767  0.000907
465  729  97.312912  446.105728  -31.968104  2204.701231  1462.237856  2204.701341  1462.237458  0.000413
466  730  58.393282  446.232622  -31.048508  2203.517372  1546.612845  2203.518239  1546.613703  0.001219
467  731  19.465350  446.296074  -30.588678  2202.010945  1630.514364  2202.009931  1630.514195  0.001028
468  732  -19.465350  446.296074  -30.588678  2200.185108  1713.885215  2200.185415  1713.884588  0.000698
469  733  -58.393282  446.232622  -31.048508  2198.043446  1796.669519  2198.043900  1796.669907  0.000597
470  734  -97.312912  446.105728  -31.968104  2195.589965  1878.812840  2195.590449  1878.812984  0.000505
471  735  -136.218706  445.915410  -33.347333  2192.829067  1960.262300  2192.829616  1960.262138  0.000572
472  736  -175.105134  445.661695  -35.186001  2189.765537  2040.966681  2189.766110  2040.969338  0.002718
473  743  369.053413  481.729649  -56.775299  2285.905204  862.249699  2285.903303  862.249949  0.001918
474  744  330.346665  482.348840  -52.651756  2287.120866  948.053463  2287.122159  948.052733  0.001485
475  745  291.592951  482.899454  -48.984906  2287.978062  1033.809831  2287.978561  1033.810318  0.000697
476  746  252.797779  483.381413  -45.775271  2288.476651  1119.456670  2288.477882  1119.456931  0.001258
477  747  213.966667  483.794648  -43.023308  2288.617021  1204.932152  2288.617701  1204.932392  0.000721
478  748  175.105134  484.139100  -40.729407  2288.400079  1290.174917  2288.400866  1290.176610  0.001867
479  749  136.218706  484.414721  -38.893895  2287.827248  1375.124219  2287.826723  1375.123977  0.000578
480  750  97.312912  484.621471  -37.517032  2286.900461  1459.720077  2286.901448  1459.718743  0.001659
481  751  58.393282  484.759320  -36.599015  2285.622151  1543.903418  2285.624596  1543.902482  0.002618
482  752  19.465350  484.828250  -36.139974  2283.995240  1627.616214  2283.993790  1627.616560  0.001491
483  753  -19.465350  484.828250  -36.139974  2282.023129  1710.801621  2282.022759  1710.800534  0.001148
484  754  -58.393282  484.759320  -36.599015  2279.709680  1793.404100  2279.709922  1793.403072  0.001056
485  755  -97.312912  484.621471  -37.517032  2277.059203  1875.369542  2277.058746  1875.368717  0.000943
486  756  -136.218706  484.414721  -38.893895  2274.076439  1956.645377  2274.075441  1956.645165  0.001020
487  757  -175.105134  484.139100  -40.729407  2270.766541  2037.180685  2270.766921  2037.181218  0.000655
488  763  291.592951  521.209682  -54.971333  2369.502997  1032.162705  2369.502343  1032.164173  0.001607
489  764  252.797779  521.729877  -51.767673  2370.039273  1117.593618  2370.038689  1117.592308  0.001434
490  765  213.966667  522.175895  -49.020832  2370.191107  1202.854266  2370.192323  1202.856374  0.002434
491  766  175.105134  522.547674  -46.731201  2369.959472  1287.883712  2369.959867  1287.883552  0.000426
492  767  136.218706  522.845161  -44.899106  2369.345890  1372.621630  2369.345287  1372.621306  0.000685
493  768  97.312912  523.068312  -43.524807  2368.352431  1457.008450  2368.352974  1457.008939  0.000730
494  769  58.393282  523.217098  -42.608498  2366.981696  1540.985500  2366.983796  1540.984466  0.002341
495  770  19.465350  523.291496  -42.150312  2365.236811  1624.495145  2365.236800  1624.494828  0.000317
496  771  -19.465350  523.291496  -42.150312  2363.121409  1707.480919  2363.121400  1707.480376  0.000543
497  772  -58.393282  523.217098  -42.608498  2360.639621  1789.887648  2360.639693  1789.887827  0.000193
498  773  -97.312912  523.068312  -43.524807  2357.796055  1871.661573  2357.797759  1871.661450  0.001709
499  774  -136.218706  522.845161  -44.899106  2354.595776  1952.750459  2354.597727  1952.751885  0.002417
500  775  -175.105134  522.547674  -46.731201  2351.044293  2033.103700  2351.043803  2033.103165  0.000725
501  787  -58.393282  561.600489  -49.076103  2440.782900  1786.124983  2440.782957  1786.123519  0.001465
502  788  -97.312912  561.440788  -49.990572  2437.750391  1867.694026  2437.751923  1867.694600  0.001636
503  789  -136.218706  561.201266  -51.362113  2434.337218  1948.582899  2434.336919  1948.582861  0.000301
504  790  -175.105134  560.881955  -53.190531  2430.549233  2028.741333  2430.549892  2028.742471  0.001315
505  801  0.000000  0.000000  0.000000  1224.000000  1689.010817  1224.000000  1689.010606  0.000211
