# COL 1-2: True indices
# COL 3-5: True X/Y/Z plate [mm]
# COL 6-7: True X/Y position [pix]
# COL 8-9: Estimated X/Y centroid [pix]
# COL 10: Centroid error [pix]
1  698  407.707692  404.516497  -50.795302  9.851395  1348.111206  9.852260  1348.110681  0.001011
2  558  523.300796  211.200561  -49.020832  14.437556  1829.142646  14.437594  1829.142797  0.000156
3  646  446.304005  327.245833  -47.128849  24.364422  1534.826343  24.364004  1534.827449  0.001182
4  496  561.690327  134.187828  -51.362113  31.792419  2008.088375  31.792583  2008.087757  0.000639
5  722  369.053413  443.443737  -51.259482  37.699147  1233.403733  37.698114  1233.404570  0.001330
6  589  484.836866  249.995042  -45.775271  40.023615  1719.188903  40.021730  1719.187635  0.002272
7  673  407.707692  366.164772  -46.200556  51.399644  1421.537978  51.401115  1421.538892  0.001732
8  528  523.300796  172.841420  -46.731201  56.687968  1900.561506  56.687580  1900.562766  0.001319
9  744  330.346665  482.348840  -52.651756  66.249019  1117.851809  66.250221  1117.851831  0.001202
10  619  446.304005  288.855884  -43.455694  66.295725  1607.721728  66.296266  1607.722686  0.001100
11  699  369.053413  405.094779  -46.200556  79.128676  1307.141865  79.128341  1307.141066  0.000866
12  559  484.836866  211.594446  -43.023308  82.251082  1791.296362  82.249551  1791.295864  0.001610
13  647  407.707692  327.760988  -42.063420  93.249415  1494.895537  93.250838  1494.894907  0.001556
14  763  291.592951  521.209682  -54.971333  95.488044  1001.632373  95.487206  1001.631215  0.001430
15  497  523.300796  134.457706  -44.899106  99.123312  1971.636168  99.122371  1971.637822  0.001903
16  723  330.346665  444.013718  -47.128849  107.541656  1191.808201  107.541545  1191.807442  0.000768
17  590  446.304005  250.424868  -40.240541  108.480017  1680.435879  108.479228  1680.436255  0.000874
18  674  369.053413  366.688228  -41.599241  120.877799  1380.871794  120.877148  1380.872257  0.000799
19  529  484.836866  173.163766  -40.729407  124.682300  1863.114169  124.683094  1863.113478  0.001052
20  779  252.797779  560.004164  -58.216893  125.400830  884.926087  125.400949  884.927096  0.001016
21  620  407.707692  289.310605  -38.384484  135.370698  1568.131018  135.370457  1568.130852  0.000293
22  745  291.592951  482.899454  -48.984906  136.626284  1075.712267  136.626516  1075.712877  0.000653
23  465  523.300796  96.054875  -43.524807  141.712958  2042.317601  141.713310  2042.318448  0.000918
24  700  330.346665  405.615468  -42.063420  149.171579  1265.818292  149.170873  1265.818520  0.000742
25  560  446.304005  211.958248  -37.483846  150.886799  1752.916931  150.887007  1752.917038  0.000234
26  648  369.053413  328.229543  -37.456191  162.916695  1454.540157  162.915981  1454.539402  0.001039
27  764  252.797779  521.729877  -51.767673  166.367874  959.033561  166.367012  959.035175  0.001830
28  498  484.836866  134.708467  -38.893895  167.286538  1934.592025  167.286732  1934.592505  0.000518
29  591  407.707692  250.819090  -35.164269  177.733069  1641.191733  177.732970  1641.191032  0.000708
30  724  291.592951  444.520571  -43.455694  178.119071  1149.908369  178.120451  1149.907714  0.001528
31  675  330.346665  367.159551  -37.456191  191.109220  1339.828417  191.109397  1339.827583  0.000852
32  530  446.304005  173.461493  -35.186001  193.485295  1825.113465  193.485508  1825.113470  0.000213
33  780  213.966667  560.482903  -55.475566  196.749428  841.954872  196.749947  841.955446  0.000774
34  621  369.053413  289.724193  -33.771995  205.215075  1528.093625  205.214889  1528.093155  0.000505
35  746  252.797779  483.381413  -45.775271  207.706245  1033.320057  207.705910  1033.321124  0.001118
36  466  484.836866  96.234016  -37.517032  210.032923  2005.680328  210.032395  2005.680668  0.000628
37  701  291.592951  406.078489  -38.384484  219.937146  1224.166906  219.936982  1224.166534  0.000407
38  561  407.707692  212.291915  -32.403235  220.305767  1714.025306  220.307678  1714.025033  0.001930
39  649  330.346665  328.651433  -33.307816  233.324482  1413.784794  233.322774  1413.784875  0.001710
40  499  446.304005  134.940076  -33.347333  236.244532  1896.974635  236.242634  1896.975695  0.002174
41  765  213.966667  522.175895  -49.020832  237.916790  916.235182  237.915376  916.234735  0.001483
42  592  369.053413  251.177652  -30.547177  247.742254  1601.479041  247.742078  1601.478635  0.000443
43  725  252.797779  444.964226  -40.240541  249.387045  1107.731896  249.386267  1107.732315  0.000883
44  676  291.592951  367.578673  -33.771995  262.050662  1298.433840  262.051147  1298.434937  0.001199
45  531  407.707692  173.734558  -30.101773  263.057774  1786.579804  263.058006  1786.580810  0.001033
46  781  175.105134  560.881955  -53.190531  268.732200  798.838411  268.731713  798.838332  0.000494
47  622  330.346665  290.096590  -29.618885  275.786813  1487.633666  275.785864  1487.633741  0.000952
48  467  446.304005  96.399474  -31.968104  279.133412  1968.450292  279.134085  1968.449467  0.001064
49  747  213.966667  483.794648  -43.023308  279.443245  990.703945  279.444387  990.704071  0.001149
50  562  369.053413  212.595400  -27.782196  290.467228  1674.643546  290.468509  1674.643987  0.001354
51  702  252.797779  406.483776  -35.164269  291.380736  1182.214983  291.381781  1182.214518  0.001143
52  793  136.218706  599.477583  -58.281997  300.131878  681.316271  300.130519  681.314610  0.002146
53  650  291.592951  329.026598  -29.618885  304.429261  1372.655004  304.429438  1372.654638  0.000407
54  500  407.707692  135.152500  -28.260210  305.957891  1858.803859  305.959054  1858.803498  0.001218
55  766  175.105134  522.547674  -46.731201  310.087912  873.266963  310.087425  873.265841  0.001223
56  593  330.346665  251.500503  -26.389922  318.465284  1561.321431  318.465228  1561.322345  0.000916
57  726  213.966667  445.344619  -37.483846  321.299619  1065.307213  321.299283  1065.307866  0.000734
58  435  446.304005  57.845167  -31.048508  322.120795  2039.491104  322.119431  2039.489445  0.002147
59  532  369.053413  173.982922  -25.477444  333.358754  1747.534718  333.358689  1747.532717  0.002002
60  677  252.797779  367.945536  -30.547177  333.657210  1256.714942  333.658551  1256.715601  0.001494
61  782  136.218706  561.201266  -51.362113  341.301142  755.607242  341.300797  755.607595  0.000494
62  623  291.592951  290.427743  -25.925742  347.042148  1446.776244  347.041439  1446.775147  0.001306
63  468  407.707692  96.551227  -26.878809  348.974815  1930.646800  348.974459  1930.646357  0.000568
64  748  175.105134  484.139100  -40.729407  351.790096  947.893374  351.791671  947.892966  0.001627
65  563  330.346665  212.868659  -23.621386  361.328668  1634.794782  361.328802  1634.795132  0.000375
66  703  213.966667  406.831273  -32.403235  363.456109  1139.990603  363.454446  1139.992328  0.002396
67  794  97.312912  599.733442  -56.913409  373.061083  637.912453  373.060014  637.913485  0.001486
68  651  252.797779  329.354983  -26.389922  376.185865  1331.177257  376.186595  1331.177776  0.000896
69  501  369.053413  135.345709  -23.633248  376.385427  1820.100699  376.384533  1820.100319  0.000972
70  767  136.218706  522.845161  -44.899106  382.832916  830.159211  382.832721  830.160753  0.001555
71  594  291.592951  251.787598  -22.693093  389.858167  1520.743546  389.857954  1520.742874  0.000705
72  436  407.707692  57.936228  -25.957766  392.077224  2002.058774  392.076851  2002.059283  0.000631
73  727  175.105134  445.661695  -35.186001  393.809314  1022.663461  393.809671  1022.662774  0.000775
74  533  330.346665  174.206551  -21.313672  404.345514  1708.000838  404.346450  1708.000619  0.000961
75  678  213.966667  368.260086  -27.782196  405.882364  1214.699439  405.881726  1214.698708  0.000970
76  783  97.312912  561.440788  -49.990572  414.406895  712.292375  414.407533  712.292015  0.000732
77  624  252.797779  290.717605  -22.693093  418.935679  1405.547405  418.936134  1405.547193  0.000502
78  469  369.053413  96.689254  -22.249873  419.515762  1892.290322  419.515529  1892.290012  0.000388
79  749  136.218706  484.414721  -38.893895  424.698174  904.918402  424.698808  904.918531  0.000647
80  564  291.592951  213.111655  -19.921398  432.845887  1594.503186  432.846580  1594.502673  0.000862
81  704  175.105134  407.120929  -30.101773  436.115520  1097.522592  436.116850  1097.522309  0.001360
82  795  58.393282  599.904034  -56.000910  446.489049  594.481410  446.489179  594.482851  0.001447
83  502  330.346665  135.519676  -19.467106  447.484236  1780.887276  447.485492  1780.887259  0.001256
84  652  213.966667  329.636543  -23.621386  448.547554  1289.378885  448.546551  1289.378937  0.001004
85  768  97.312912  523.068312  -43.524807  456.102133  786.942742  456.101949  786.944125  0.001395
86  595  252.797779  252.038895  -19.457218  461.875293  1479.770998  461.875628  1479.772318  0.001361
87  437  369.053413  58.019051  -21.327513  462.718272  1964.053236  462.716812  1964.054244  0.001774
88  728  136.218706  445.915410  -33.347333  466.867233  979.830432  466.866856  979.830418  0.000377
89  534  291.592951  174.405413  -17.611049  475.973673  1668.001854  475.975915  1668.002857  0.002456
90  679  175.105134  368.522280  -25.477444  478.678134  1172.415820  478.678569  1172.417220  0.001466
91  784  58.393282  561.600489  -49.076103  487.998853  668.925222  488.000000  668.923715  0.001894
92  470  330.346665  96.813533  -18.081952  490.713186  1853.402463  490.713594  1853.401537  0.001012
93  625  213.966667  290.966135  -19.921398  491.420454  1363.974089  491.419201  1363.972116  0.002337
94  750  97.312912  484.621471  -37.517032  498.117527  861.809629  498.116961  861.809787  0.000588
95  565  252.797779  213.324351  -16.682756  504.973088  1553.793924  504.974239  1553.795392  0.001866
96  407  369.053413  19.340600  -20.866300  505.961549  2035.340023  505.961702  2035.338473  0.001558
97  705  136.218706  407.352703  -28.260210  509.309818  1054.840453  509.309617  1054.839730  0.000750
98  503  291.592951  135.674375  -15.762375  519.209775  1741.186793  519.209780  1741.186622  0.000171
99  796  19.465350  599.989337  -55.544627  520.364349  551.054979  520.363351  551.057045  0.002294
100  653  175.105134  329.871238  -21.313672  521.466120  1247.288030  521.466392  1247.287299  0.000780
101  769  58.393282  523.217098  -42.608498  529.844666  743.648807  529.844629  743.647794  0.001014
102  438  330.346665  58.093626  -17.158407  534.000735  1925.495575  534.001398  1925.495378  0.000692
103  596  213.966667  252.254359  -16.682756  534.469516  1438.430319  534.470619  1438.431979  0.001993
104  729  97.312912  446.105728  -31.968104  540.423161  936.838493  540.421796  936.838285  0.001381
105  535  252.797779  174.579479  -14.370101  548.197268  1627.562476  548.197537  1627.562258  0.000346
106  680  136.218706  368.732080  -23.633248  551.995141  1129.893289  551.994614  1129.894820  0.001619
107  785  19.465350  561.680344  -48.618836  562.025285  625.537516  562.026267  625.537919  0.001061
108  471  291.592951  96.924048  -14.375640  562.522403  1814.005930  562.522272  1814.004252  0.001684
109  626  175.105134  291.173297  -17.611049  564.448066  1322.084072  564.447730  1322.082786  0.001329
110  751  58.393282  484.759320  -36.599015  571.996985  818.598129  571.998744  818.599773  0.002408
111  408  330.346665  19.365460  -16.696601  577.315356  1997.116725  577.314741  1997.116693  0.000616
112  566  213.966667  213.506719  -13.905922  577.662960  1512.693108  577.663812  1512.693028  0.000855
113  706  97.312912  407.526562  -26.878809  582.988554  1011.974306  582.988421  1011.975673  0.001373
114  504  252.797779  135.809785  -12.519583  591.515939  1701.023495  591.516559  1701.022565  0.001118
115  797  -19.465350  599.989337  -55.544627  594.634535  507.665204  594.634147  507.665414  0.000441
116  654  136.218706  330.059034  -19.467106  594.891981  1204.933577  594.892154  1204.931782  0.001803
117  770  19.465350  523.291496  -42.150312  604.008501  700.309015  604.009093  700.309581  0.000819
118  439  291.592951  58.159942  -13.451040  605.879811  1886.408000  605.879283  1886.408274  0.000595
119  597  175.105134  252.433959  -14.370101  607.592261  1396.748908  607.591453  1396.749771  0.001182
120  730  58.393282  446.232622  -31.048508  614.425687  893.718520  614.425453  893.718595  0.000246
121  536  213.966667  174.728724  -11.591290  620.968844  1586.708389  620.968187  1586.707906  0.000816
122  681  97.312912  368.889456  -22.249873  625.782729  1087.161697  625.783130  1087.160374  0.001383
123  472  252.797779  97.020784  -11.131463  634.897193  1774.124499  634.896433  1774.123729  0.001082
124  786  -19.465350  561.680344  -48.618836  636.433452  582.161234  636.433765  582.161920  0.000755
125  627  136.218706  291.339062  -15.762375  637.968757  1279.905909  637.968859  1279.907220  0.001315
126  752  19.465350  484.828250  -36.139974  646.284284  775.315370  646.282579  775.316631  0.002121
127  409  291.592951  19.387566  -12.988708  649.250374  1958.342672  649.250584  1958.342050  0.000656
128  567  175.105134  213.658731  -11.591290  650.866777  1471.227750  650.865298  1471.228251  0.001561
129  707  58.393282  407.642482  -25.957766  657.100098  968.954811  657.098209  968.954129  0.002008
130  505  213.966667  135.925887  -9.739189  664.355156  1660.422628  664.355575  1660.421510  0.001195
131  655  97.312912  330.199904  -18.081952  668.774295  1162.345096  668.772353  1162.344254  0.002117
132  798  -58.393282  599.904034  -56.000910  669.246267  464.344256  669.246496  464.344510  0.000343
133  440  252.797779  58.217988  -10.205941  678.309186  1846.813808  678.309025  1846.812254  0.001562
134  771  -19.465350  523.291496  -42.150312  678.540639  656.955260  678.539273  656.956055  0.001580
135  598  136.218706  252.577670  -12.519583  681.193615  1354.754973  681.194248  1354.754342  0.000894
136  731  19.465350  446.296074  -30.588678  688.822318  850.501823  688.823796  850.500623  0.001903
137  379  291.592951  -19.387566  -12.988708  692.602669  2029.760663  692.603343  2029.762979  0.002412
138  537  175.105134  174.853127  -9.275010  694.239556  1545.466200  694.239231  1545.466882  0.000756
139  682  58.393282  368.994386  -21.327513  699.989073  1044.251475  699.987636  1044.250854  0.001566
140  473  213.966667  97.103725  -8.349884  707.789889  1733.782967  707.789849  1733.782637  0.000332
141  787  -58.393282  561.600489  -49.076103  711.169741  538.828517  711.168356  538.827676  0.001620
142  628  97.312912  291.463406  -14.375640  711.931528  1237.468869  711.931729  1237.468519  0.000404
143  753  -19.465350  484.828250  -36.139974  720.926187  731.993140  720.926319  731.993106  0.000136
144  410  252.797779  19.406916  -9.743147  721.720220  1919.040676  721.720091  1919.041088  0.000432
145  568  136.218706  213.780367  -9.739189  724.534505  1429.425697  724.533099  1429.424995  0.001571
146  708  19.465350  407.700446  -25.497212  731.591757  925.813101  731.591601  925.812629  0.000497
147  506  175.105134  136.022664  -7.421591  737.678484  1619.410389  737.677230  1619.411403  0.001612
148  656  58.393282  330.293829  -17.158407  743.061075  1119.552767  743.060007  1119.553395  0.001239
149  799  -97.312912  599.733442  -56.913409  744.145439  421.124348  744.146171  421.123210  0.001353
150  441  213.966667  58.267758  -7.423570  751.241126  1806.737342  751.241198  1806.739082  0.001742
151  772  -58.393282  523.217098  -42.608498  753.387217  613.619634  753.388619  613.620562  0.001681
152  599  97.312912  252.685470  -11.131463  755.222449  1312.477471  755.222168  1312.477541  0.000290
153  732  -19.465350  446.296074  -30.588678  763.559606  807.220067  763.560169  807.220572  0.000756
154  380  252.797779  -19.406916  -9.743147  765.098822  1990.755403  765.099705  1990.755477  0.000886
155  538  136.218706  174.952671  -7.421591  767.959268  1503.863388  767.959248  1503.862994  0.000394
156  683  19.465350  369.046855  -20.866300  774.561309  1001.193558  774.560915  1001.193488  0.000401
157  474  175.105134  97.172861  -6.031296  781.151481  1693.007110  781.151142  1693.008186  0.001128
158  788  -97.312912  561.440788  -49.990572  786.179791  495.571587  786.181210  495.571706  0.001424
159  629  58.393282  291.546313  -13.451040  786.284253  1194.802871  786.284545  1194.804369  0.001527
160  411  213.966667  19.423506  -6.960380  794.677118  1879.234620  794.678178  1879.234031  0.001212
161  754  -58.393282  484.759320  -36.599015  795.868612  688.663468  795.868568  688.663944  0.000478
162  569  97.312912  213.871609  -8.349884  798.614909  1387.315579  798.614720  1387.315941  0.000409
163  709  -19.465350  407.700446  -25.497212  806.409903  882.580701  806.409300  882.581725  0.001188
164  507  136.218706  136.100101  -5.567117  811.435716  1578.013872  811.434457  1578.013201  0.001427
165  657  19.465350  330.340794  -16.696601  817.699310  1076.587317  817.699372  1076.587884  0.000570
166  800  -136.218706  599.477583  -58.281997  819.277322  378.037657  819.277609  378.036489  0.001203
167  442  175.105134  58.309243  -5.104323  824.626577  1766.203948  824.626822  1766.204277  0.000410
168  773  -97.312912  523.068312  -43.524807  828.493649  570.334351  828.494620  570.336306  0.002183
169  600  58.393282  252.757346  -10.205941  829.626529  1269.946039  829.625689  1269.946096  0.000842
170  381  213.966667  -19.423506  -6.960380  838.066364  1951.224712  838.067622  1951.224919  0.001275
171  733  -58.393282  446.232622  -31.048508  838.583283  763.905196  838.581993  763.904905  0.001323
172  539  97.312912  175.027341  -6.031296  842.076671  1461.928241  842.076542  1461.929655  0.001420
173  684  -19.465350  369.046855  -20.866300  849.445657  958.019315  849.444373  958.019188  0.001290
174  475  136.218706  97.228182  -4.176030  854.931716  1651.823628  854.931532  1651.822423  0.001219
175  630  19.465350  291.587769  -12.988708  860.973807  1151.938410  860.973328  1151.938216  0.000517
176  789  -136.218706  561.201266  -51.362113  861.408634  452.422668  861.409772  452.422231  0.001219
177  412  175.105134  19.437336  -4.640803  868.071996  1838.949413  868.071335  1838.948865  0.000858
178  755  -97.312912  484.621471  -37.517032  871.056772  645.358538  871.057176  645.360378  0.001884
179  570  58.393282  213.932445  -7.423570  873.055673  1344.926739  873.056061  1344.927239  0.000633
180  349  213.966667  -58.267758  -7.423570  881.377687  2022.658693  881.378302  2022.658715  0.000615
181  710  -58.393282  407.642482  -25.957766  881.500105  839.289452  881.500000  839.290594  0.001147
182  508  97.312912  136.158189  -4.176030  885.575494  1536.261012  885.575005  1536.261404  0.000627
183  658  -19.465350  330.340794  -16.696601  892.635097  1033.479935  892.635553  1033.479988  0.000459
184  443  136.218706  58.342439  -3.248529  898.415268  1725.239924  898.416199  1725.239113  0.001234
185  774  -136.218706  522.845161  -44.899106  903.804754  527.131662  903.805116  527.130180  0.001526
186  601  19.465350  252.793287  -9.743147  904.352640  1227.190929  904.351726  1227.190230  0.001151
187  382  175.105134  -19.437336  -4.640803  911.456232  1911.193054  911.456649  1911.192565  0.000643
188  734  -97.312912  446.105728  -31.968104  913.838388  720.589350  913.837211  720.588745  0.001323
189  540  58.393282  175.077127  -5.104323  916.539395  1419.689793  916.540402  1419.690448  0.001201
190  685  -58.393282  368.994386  -21.327513  924.587551  914.760465  924.588950  914.762099  0.002151
191  476  97.312912  97.269679  -2.784350  929.079213  1610.260094  929.079616  1610.260422  0.000519
192  631  -19.465350  291.587769  -12.988708  935.946190  1108.906484  935.946573  1108.907217  0.000827
193  790  -175.105134  560.881955  -53.190531  936.800831  409.413898  936.801384  409.414809  0.001066
194  413  136.218706  19.448401  -2.784746  941.854591  1798.210940  941.855564  1798.210082  0.001297
195  756  -136.218706  484.414721  -38.893895  946.435309  602.110611  946.435570  602.111446  0.000875
196  571  19.465350  213.962864  -6.960380  947.803524  1302.289168  947.803861  1302.289327  0.000373
197  350  175.105134  -58.309243  -5.104323  954.748128  1982.885585  954.747942  1982.885920  0.000383
198  711  -97.312912  407.526562  -26.878809  956.807262  795.971429  956.807134  795.972846  0.001423
199  509  58.393282  136.196919  -3.248529  960.045421  1494.180524  960.045304  1494.180354  0.000207
200  659  -58.393282  330.293829  -17.158407  967.813767  990.262204  967.813424  990.261056  0.001199
201  444  97.312912  58.367340  -1.856453  972.555825  1683.872465  972.554545  1683.871215  0.001789
202  775  -175.105134  522.547674  -46.731201  979.264906  484.043771  979.261481  484.043811  0.003426
203  602  -19.465350  252.793287  -9.743147  979.346717  1184.242931  979.346664  1184.244330  0.001400
204  383  136.218706  -19.448401  -2.784746  985.218200  1870.685896  985.218852  1870.685671  0.000690
205  735  -136.218706  445.915410  -33.347333  989.269414  677.304780  989.269601  677.304310  0.000505
206  541  19.465350  175.102022  -4.640803  991.294136  1377.177762  991.294224  1377.176702  0.001064
207  686  -97.312912  368.889456  -22.249873  999.931780  871.449001  999.932158  871.448437  0.000679
208  477  58.393282  97.297347  -1.856453  1003.541582  1568.344886  1003.540743  1568.346804  0.002094
209  632  -58.393282  291.546313  -13.451040  1011.146660  1065.738521  1011.145089  1065.739574  0.001891
210  791  -213.966667  560.482903  -55.475566  1012.300616  366.577248  1012.299751  366.577905  0.001086
211  414  97.312912  19.456702  -1.392472  1015.973566  1757.046011  1015.974858  1757.045081  0.001592
212  757  -175.105134  484.139100  -40.729407  1021.948436  558.951942  1021.949188  558.949824  0.002248
213  572  -19.465350  213.962864  -6.960380  1022.804360  1259.433431  1022.805521  1259.432894  0.001279
214  351  136.218706  -58.342439  -3.248529  1028.474978  1942.615171  1028.474338  1942.615851  0.000934
215  712  -136.218706  407.352703  -28.260210  1032.275745  752.658859  1032.277017  752.658435  0.001341
216  510  19.465350  136.216285  -2.784746  1034.792195  1451.801833  1034.793714  1451.801175  0.001656
217  660  -97.312912  330.199904  -18.081952  1043.180028  946.966017  1043.180265  946.967323  0.001327
218  445  58.393282  58.383942  -0.928293  1046.995889  1642.129605  1046.996663  1642.130847  0.001464
219  603  -58.393282  252.757346  -10.205941  1054.553975  1141.133300  1054.554317  1141.132192  0.001160
220  776  -213.966667  522.175895  -49.020832  1054.818171  441.102753  1054.818055  441.102061  0.000701
221  384  97.312912  -19.456702  -1.392472  1059.300990  1829.729655  1059.301574  1829.729891  0.000630
222  736  -175.105134  445.661695  -35.186001  1064.820444  634.083772  1064.820468  634.082348  0.001424
223  542  -19.465350  175.102022  -4.640803  1066.286787  1334.422471  1066.287320  1334.423009  0.000757
224  319  136.218706  -97.228182  -4.176030  1071.594258  2013.950412  1071.593567  2013.948949  0.001618
225  687  -136.218706  368.732080  -23.633248  1075.422626  828.117108  1075.423020  828.117879  0.000866
226  478  19.465350  97.311182  -1.392472  1078.265546  1526.107128  1078.265125  1526.106161  0.001055
227  633  -97.312912  291.463406  -14.375640  1086.519874  1022.466297  1086.520821  1022.466669  0.001017
228  792  -252.797779  560.004164  -58.216893  1087.852040  323.944438  1087.851927  323.944892  0.000468
229  415  58.393282  19.462236  -0.464179  1090.376620  1715.482306  1090.376213  1715.482637  0.000524
230  758  -213.966667  483.794648  -43.023308  1097.540080  515.914690  1097.540043  515.914684  0.000037
231  573  -58.393282  213.932445  -7.423570  1098.003384  1216.390596  1098.004872  1216.391616  0.001804
232  352  97.312912  -58.367340  -1.856453  1102.507049  1901.873467  1102.505298  1901.874187  0.001893
233  713  -175.105134  407.120929  -30.101773  1107.849540  709.384041  1107.848835  709.383580  0.000843
234  511  -19.465350  136.216285  -2.784746  1109.761729  1409.155011  1109.761806  1409.154547  0.000470
235  661  -136.218706  330.059034  -19.467106  1118.678101  903.623499  1118.678364  903.623532  0.000265
236  446  19.465350  58.392244  -0.464179  1121.682240  1600.040154  1121.681506  1600.039040  0.001334
237  604  -97.312912  252.685470  -11.131463  1129.919050  1097.893676  1129.919360  1097.893056  0.000693
238  777  -252.797779  521.729877  -51.767673  1130.408452  398.340471  1130.409857  398.340329  0.001412
239  385  58.393282  -19.462236  -0.464179  1133.652393  1788.351641  1133.652656  1788.352680  0.001072
240  737  -213.966667  445.344619  -37.483846  1140.435297  590.958558  1140.435742  590.958802  0.000507
241  543  -58.393282  175.077127  -5.104323  1141.462565  1291.454784  1141.462025  1291.453130  0.001740
242  320  97.312912  -97.269679  -2.784350  1145.561164  1973.428786  1145.561472  1973.428645  0.000339
243  688  -175.105134  368.522280  -25.477444  1151.004004  784.797079  1151.004541  784.799097  0.002088
244  479  -19.465350  97.311182  -1.392472  1153.197071  1483.576624  1153.196363  1483.575978  0.000959
245  634  -136.218706  291.339062  -15.762375  1162.010023  979.121856  1162.010559  979.121954  0.000545
246  759  -252.797779  483.381413  -45.775271  1173.154028  473.030845  1173.154244  473.031470  0.000661
247  574  -97.312912  213.871609  -8.349884  1173.345239  1173.192151  1173.345253  1173.192260  0.000110
248  353  58.393282  -58.383942  -0.928293  1176.792248  1860.687407  1176.793198  1860.688804  0.001689
249  714  -213.966667  406.831273  -32.403235  1183.472387  666.179257  1183.470737  666.179504  0.001669
250  512  -58.393282  136.196919  -3.248529  1184.899288  1366.270700  1184.899448  1366.270629  0.000175
251  288  97.312912  -136.158189  -4.176030  1188.433295  2044.348321  1188.433336  2044.347594  0.000728
252  662  -175.105134  329.871238  -21.313672  1194.251865  860.266918  1194.252167  860.265676  0.001278
253  447  -19.465350  58.392244  -0.464179  1196.560926  1557.633631  1196.559693  1557.632938  0.001414
254  605  -136.218706  252.577670  -12.519583  1205.386135  1054.556009  1205.386682  1054.556676  0.000863
255  778  -291.592951  521.209682  -54.971333  1205.979633  355.788493  1205.979365  355.788575  0.000281
256  738  -252.797779  444.964226  -40.240541  1216.057674  547.961232  1216.057462  547.962622  0.001406
257  544  -97.312912  175.027341  -6.031296  1216.766155  1248.306022  1216.765591  1248.307133  0.001246
258  321  58.393282  -97.297347  -1.856453  1219.765716  1932.440662  1219.765410  1932.441694  0.001076
259  801  0.000000  0.000000  0.000000  1224.000000  1689.010817  1224.000000  1689.010613  0.000204
260  689  -213.966667  368.260086  -27.782196  1226.619611  741.521233  1226.619755  741.522767  0.001541
261  480  -58.393282  97.297347  -1.856453  1228.281498  1440.783779  1228.282069  1440.784481  0.000905
262  635  -175.105134  291.173297  -17.611049  1237.560982  935.737429  1237.561299  935.739101  0.001702
263  760  -291.592951  482.899454  -48.984906  1248.734069  430.332136  1248.733451  430.332878  0.000966
264  575  -136.218706  213.780367  -9.739189  1248.774152  1129.869932  1248.774098  1129.870250  0.000322
265  354  19.465350  -58.392244  -0.464179  1251.277697  1819.084790  1251.277947  1819.084528  0.000362
266  715  -252.797779  406.483776  -35.164269  1259.087933  623.076695  1259.088778  623.075442  0.001512
267  513  -97.312912  136.158189  -4.176030  1260.149627  1323.180037  1260.149203  1323.178262  0.001825
268  289  58.393282  -136.196919  -3.248529  1262.542892  2003.563831  1262.541574  2003.564093  0.001344
269  663  -213.966667  329.636543  -23.621386  1269.845000  816.928611  1269.844392  816.929304  0.000922
270  448  -58.393282  58.383942  -0.928293  1271.577395  1514.940195  1271.576407  1514.941461  0.001606
271  606  -175.105134  252.433959  -14.370101  1280.899128  1011.152471  1280.899421  1011.151949  0.000599
272  739  -291.592951  444.520571  -43.455694  1291.631302  505.123670  1291.631248  505.122037  0.001634
273  545  -136.218706  174.952671  -7.421591  1292.141846  1205.007889  1292.140478  1205.008094  0.001383
274  322  19.465350  -97.311182  -1.392472  1294.155209  1891.013481  1294.153707  1891.013334  0.001509
275  690  -252.797779  367.945536  -30.547177  1302.213068  698.321827  1302.213601  698.321852  0.000534
276  481  -97.312912  97.269679  -2.784350  1303.463683  1397.759533  1303.464120  1397.759704  0.000469
277  636  -213.966667  290.966135  -19.921398  1313.116445  892.345350  1313.115260  892.344405  0.001516
278  416  -58.393282  19.462236  -0.464179  1314.755512  1588.686991  1314.755960  1588.689431  0.002480
279  761  -330.346665  482.348840  -52.651756  1324.224146  387.849954  1324.225068  387.851187  0.001540
280  576  -175.105134  213.658731  -11.591290  1324.234075  1086.456036  1324.235311  1086.457217  0.001710
281  355  -19.465350  -58.392244  -0.464179  1325.909861  1777.094212  1325.911640  1777.093746  0.001839
282  716  -291.592951  406.078489  -38.384484  1334.639873  580.108358  1334.639631  580.107076  0.001305
283  514  -136.218706  136.100101  -5.567117  1335.457127  1279.914580  1335.457785  1279.914803  0.000694
284  290  19.465350  -136.216285  -2.784746  1336.822174  1962.318243  1336.822636  1962.317428  0.000937
285  664  -252.797779  329.354983  -26.389922  1345.401136  773.640893  1345.401553  773.641162  0.000496
286  449  -97.312912  58.367340  -1.856453  1346.676630  1471.990569  1346.677178  1471.991547  0.001121
287  607  -213.966667  252.254359  -16.682756  1356.401771  967.715377  1356.401243  967.714426  0.001088
288  386  -58.393282  -19.462236  -0.464179  1357.784795  1661.972206  1357.783709  1661.972744  0.001212
289  740  -330.346665  444.013718  -47.128849  1367.100081  462.477447  1367.101143  462.478778  0.001703
290  546  -175.105134  174.853127  -9.275010  1367.533675  1161.592391  1367.533093  1161.592749  0.000683
291  323  -19.465350  -97.311182  -1.392472  1368.676304  1849.175509  1368.677029  1849.175600  0.000731
292  691  -291.592951  367.578673  -33.771995  1377.728068  655.230980  1377.727945  655.230866  0.000168
293  482  -136.218706  97.228182  -4.176030  1378.688131  1354.535277  1378.689532  1354.534452  0.001626
294  259  19.465350  -175.102022  -4.640803  1379.249497  2032.952712  1379.248797  2032.952728  0.000700
295  637  -252.797779  290.717605  -22.693093  1388.620080  848.977972  1388.619573  848.978523  0.000749
296  417  -97.312912  19.456702  -1.392472  1389.757131  1545.820063  1389.756685  1545.820189  0.000463
297  762  -369.053413  481.729649  -56.775299  1399.568491  345.615270  1399.568878  345.615344  0.000394
298  577  -213.966667  213.506719  -13.905922  1399.668829  1042.982741  1399.668518  1042.983112  0.000484
299  356  -58.393282  -58.383942  -0.928293  1400.634681  1734.745002  1400.634330  1734.745541  0.000643
300  717  -330.346665  405.615468  -42.063420  1410.072096  537.305989  1410.071741  537.304295  0.001731
301  515  -175.105134  136.022664  -7.421591  1410.765944  1236.506223  1410.766339  1236.507029  0.000898
302  291  -19.465350  -136.216285  -2.784746  1411.218028  1920.639484  1411.217472  1920.640432  0.001099
303  665  -291.592951  329.026598  -29.618885  1420.863996  730.435975  1420.864721  730.435507  0.000863
304  450  -136.218706  58.342439  -3.248529  1421.803290  1428.815965  1421.803296  1428.816477  0.000512
305  608  -252.797779  252.038895  -19.457218  1431.837801  924.277101  1431.836924  924.278167  0.001381
306  387  -97.312912  -19.456702  -1.392472  1432.674287  1619.195921  1432.674439  1619.196059  0.000206
307  741  -369.053413  443.443737  -51.259482  1442.408228  420.053754  1442.408483  420.053553  0.000324
308  547  -213.966667  174.728724  -11.591290  1442.885573  1118.091750  1442.886153  1118.092039  0.000648
309  324  -58.393282  -97.297347  -1.856453  1443.275162  1806.955775  1443.274986  1806.957772  0.002005
310  692  -330.346665  367.159551  -37.456191  1453.108524  612.280584  1453.107661  612.280557  0.000864
311  260  -19.465350  -175.102022  -4.640803  1453.506135  1991.439537  1453.505925  1991.439865  0.000389
312  483  -175.105134  97.172861  -6.031296  1453.899141  1311.142781  1453.899685  1311.142790  0.000544
313  638  -291.592951  290.427743  -25.925742  1464.015671  805.667583  1464.016308  805.666621  0.001153
314  418  -136.218706  19.448401  -2.784746  1464.771423  1502.703472  1464.772353  1502.702936  0.001073
315  578  -252.797779  213.324351  -16.682756  1475.022250  999.482423  1475.022078  999.482405  0.000173
316  357  -97.312912  -58.367340  -1.856453  1475.397706  1692.067153  1475.397096  1692.067361  0.000644
317  718  -369.053413  405.094779  -46.200556  1485.328834  494.700983  1485.328422  494.701306  0.000523
318  292  -58.393282  -136.196919  -3.248529  1485.676863  1878.556270  1485.677999  1878.556511  0.001162
319  516  -213.966667  135.925887  -9.739189  1486.020144  1192.987119  1486.020354  1192.989401  0.002292
320  666  -330.346665  328.651433  -33.307816  1496.177543  687.345882  1496.177550  687.344817  0.001065
321  451  -175.105134  58.309243  -5.104323  1496.901853  1385.448009  1496.900953  1385.448833  0.001220
322  609  -291.592951  251.787598  -22.693093  1507.151094  880.869990  1507.150026  880.870831  0.001359
323  388  -136.218706  -19.448401  -2.784746  1507.561801  1576.145601  1507.561877  1576.146394  0.000797
324  742  -407.707692  442.810711  -55.847006  1517.500420  377.883322  1517.501533  377.885779  0.002697
325  325  -97.312912  -97.269679  -2.784350  1517.897579  1764.384001  1517.897374  1764.383884  0.000236
326  548  -252.797779  174.579479  -14.370101  1518.141505  1074.538327  1518.140717  1074.537591  0.001078
327  261  -58.393282  -175.077127  -5.104323  1527.811101  1949.499681  1527.809772  1949.500000  0.001367
328  693  -369.053413  366.688228  -41.599241  1528.298708  569.502221  1528.298965  569.502668  0.000516
329  484  -213.966667  97.103725  -8.349884  1529.040951  1267.614107  1529.041247  1267.616076  0.001991
330  639  -330.346665  290.096590  -29.618885  1539.247264  762.446325  1539.246804  762.446122  0.000502
331  419  -175.105134  19.437336  -4.640803  1539.743068  1459.368682  1539.742467  1459.368271  0.000728
332  358  -136.218706  -58.342439  -3.248529  1550.144230  1649.091249  1550.143799  1649.091956  0.000828
333  579  -291.592951  213.111655  -19.921398  1550.238336  955.987471  1550.239055  955.988274  0.001078
334  293  -97.312912  -136.158189  -4.176030  1560.144747  1836.098040  1560.143496  1836.098017  0.001251
335  719  -407.707692  404.516497  -50.795302  1560.354797  452.324311  1560.353028  452.325117  0.001944
336  517  -252.797779  135.809785  -12.519583  1561.163855  1149.389592  1561.163085  1149.389224  0.000853
337  231  -58.393282  -213.932445  -7.423570  1569.649950  2019.740751  1569.649827  2019.741635  0.000893
338  667  -369.053413  328.229543  -37.456191  1571.286125  644.402370  1571.286407  644.401537  0.000880
339  452  -213.966667  58.267758  -7.423570  1571.916752  1341.918656  1571.917092  1341.919189  0.000632
340  610  -330.346665  251.500503  -26.389922  1582.285807  837.526284  1582.287865  837.526036  0.002073
341  389  -175.105134  -19.437336  -4.640803  1582.392255  1532.852535  1582.392369  1532.851366  0.001175
342  326  -136.218706  -97.228182  -4.176030  1592.489117  1721.490531  1592.487801  1721.491124  0.001444
343  549  -291.592951  174.405413  -17.611049  1593.245621  1030.964534  1593.244599  1030.964401  0.001031
344  262  -97.312912  -175.027341  -6.031296  1602.110763  1907.162288  1602.111767  1907.160590  0.001972
345  694  -407.707692  366.164772  -46.200556  1603.243400  526.927089  1603.243925  526.927087  0.000525
346  485  -252.797779  97.020784  -11.131463  1604.057878  1223.981528  1604.057342  1223.984064  0.002592
347  640  -369.053413  289.724193  -33.771995  1614.259310  719.346107  1614.256782  719.346541  0.002564
348  420  -213.966667  19.423506  -6.960380  1614.616730  1415.847524  1614.616594  1415.846901  0.000637
349  359  -175.105134  -58.309243  -5.104323  1624.819433  1605.848385  1624.819418  1605.847706  0.000679
350  580  -330.346665  212.868659  -23.621386  1625.261387  912.530204  1625.261770  912.530309  0.000397
351  294  -136.218706  -136.100101  -5.567117  1634.567538  1793.294885  1634.567176  1793.294867  0.000362
352  720  -446.304005  403.880703  -55.847006  1635.095322  410.206442  1635.094990  410.205425  0.001070
353  518  -291.592951  135.674375  -15.762375  1636.141407  1105.746061  1636.140430  1105.746516  0.001077
354  232  -97.312912  -213.871609  -8.349884  1643.767959  1977.531300  1643.768839  1977.532187  0.001249
355  668  -407.707692  327.760988  -42.063420  1646.134615  601.636844  1646.134458  601.636083  0.000777
356  453  -252.797779  58.217988  -10.205941  1646.792525  1298.260110  1646.791888  1298.259954  0.000656
357  390  -213.966667  -19.423506  -6.960380  1657.110565  1489.348414  1657.108492  1489.350149  0.002704
358  611  -369.053413  251.177652  -30.547177  1657.186526  794.278028  1657.186882  794.279743  0.001751
359  327  -175.105134  -97.172861  -6.031296  1666.995245  1678.306254  1666.996059  1678.306058  0.000837
360  550  -330.346665  174.206551  -21.313672  1668.142395  987.402752  1668.144381  987.402236  0.002051
361  263  -136.218706  -174.952671  -7.421591  1676.351302  1864.457181  1676.351761  1864.455933  0.001330
362  695  -446.304005  365.589257  -51.259482  1677.888021  484.585917  1677.888675  484.587150  0.001396
363  486  -291.592951  96.924048  -14.375640  1678.894464  1180.277448  1678.895233  1180.276877  0.000958
364  641  -407.707692  289.310605  -38.384484  1688.996810  676.398527  1688.997362  676.398174  0.000656
365  421  -252.797779  19.406916  -9.743147  1689.337192  1372.172116  1689.337331  1372.173070  0.000964
366  360  -213.966667  -58.267758  -7.423570  1699.368514  1562.370097  1699.368122  1562.369986  0.000407
367  581  -369.053413  212.595400  -27.782196  1700.036154  869.142787  1700.034022  869.142579  0.002142
368  295  -175.105134  -136.022664  -7.421591  1708.891022  1750.177474  1708.891248  1750.177234  0.000330
369  519  -330.346665  135.519676  -19.467106  1710.897477  1062.088949  1710.897342  1062.088075  0.000885
370  233  -136.218706  -213.780367  -9.739189  1717.813014  1934.931817  1717.813590  1934.931252  0.000807
371  669  -446.304005  327.245833  -47.128849  1720.668556  559.080279  1720.667879  559.080645  0.000770
372  454  -291.592951  58.159942  -13.451040  1721.473953  1254.504744  1721.474558  1254.505069  0.000687
373  391  -252.797779  -19.406916  -9.743147  1731.661794  1445.665250  1731.662602  1445.664865  0.000895
374  612  -407.707692  250.819090  -35.164269  1731.798408  751.156994  1731.797544  751.156730  0.000903
375  328  -213.966667  -97.103725  -8.349884  1741.361474  1634.862532  1741.362047  1634.863112  0.000815
376  551  -369.053413  173.982922  -25.477444  1742.776770  943.885245  1742.777505  943.886416  0.001382
377  264  -175.105134  -174.853127  -9.275010  1750.478847  1821.414796  1750.478761  1821.414146  0.000655
378  696  -484.836866  364.961765  -56.775299  1752.178778  442.508893  1752.179068  442.508452  0.000528
379  487  -330.346665  96.813533  -18.081952  1753.495615  1136.534316  1753.496043  1136.535327  0.001098
380  203  -136.218706  -252.577670  -12.519583  1758.926126  2004.674805  1758.925098  2004.674651  0.001040
381  642  -446.304005  288.855884  -43.455694  1763.405451  633.634789  1763.406534  633.635091  0.001124
382  422  -291.592951  19.387566  -12.988708  1763.849503  1328.374778  1763.850785  1328.375941  0.001731
383  361  -252.797779  -58.217988  -10.205941  1773.736840  1518.688273  1773.737380  1518.689182  0.001058
384  582  -407.707692  212.291915  -32.403235  1774.507976  825.857149  1774.508341  825.859146  0.002030
385  296  -213.966667  -135.925887  -9.739189  1783.061048  1706.776979  1783.060465  1706.776410  0.000815
386  520  -369.053413  135.345709  -23.633248  1785.377230  1018.450602  1785.376768  1018.450933  0.000568
387  234  -175.105134  -213.658731  -11.591290  1791.731615  1891.972486  1791.729759  1891.971601  0.002056
388  670  -484.836866  326.684154  -52.651756  1794.834289  516.763144  1794.835315  516.763073  0.001028
389  455  -330.346665  58.093626  -17.158407  1795.906202  1210.685010  1795.906652  1210.686387  0.001449
390  392  -291.592951  -19.387566  -12.988708  1805.991284  1401.835297  1805.991331  1401.834612  0.000687
391  613  -446.304005  250.424868  -40.240541  1806.067315  708.194600  1806.066513  708.194632  0.000802
392  329  -252.797779  -97.020784  -11.131463  1815.533500  1591.191117  1815.535161  1591.189575  0.002266
393  552  -407.707692  173.734558  -30.101773  1817.094298  900.444081  1817.092565  900.442708  0.002211
394  265  -213.966667  -174.728724  -11.591290  1824.439611  1778.066099  1824.438937  1778.065190  0.001132
395  488  -369.053413  96.689254  -22.249873  1827.806747  1092.784541  1827.807150  1092.785061  0.000658
396  204  -175.105134  -252.433959  -14.370101  1832.623085  1961.806417  1832.624065  1961.805794  0.001161
397  643  -484.836866  288.360097  -48.984906  1837.431742  591.085627  1837.432004  591.086049  0.000497
398  423  -330.346665  19.365460  -16.696601  1838.099118  1284.487954  1838.098789  1284.488443  0.000590
399  362  -291.592951  -58.159942  -13.451040  1847.870076  1474.835082  1847.870174  1474.836910  0.001830
400  583  -446.304005  211.958248  -37.483846  1848.622919  782.704901  1848.622979  782.705289  0.000393
401  297  -252.797779  -135.809785  -12.519583  1857.023669  1663.124995  1857.022397  1663.124843  0.001281
402  521  -407.707692  135.152500  -28.260210  1859.526459  974.863209  1859.527601  974.862404  0.001397
403  235  -213.966667  -213.506719  -13.905922  1865.470362  1848.684056  1865.469890  1848.685576  0.001591
404  456  -369.053413  58.019051  -21.327513  1870.034964  1166.833364  1870.034963  1166.833349  0.000015
405  175  -175.105134  -291.173297  -17.611049  1873.127932  2030.874147  1873.125909  2030.874091  0.002024
406  614  -484.836866  249.995042  -45.775271  1879.939951  665.421830  1879.941141  665.420647  0.001678
407  393  -330.346665  -19.365460  -16.696601  1880.044804  1357.890965  1880.044431  1357.889432  0.001578
408  330  -291.592951  -96.924048  -14.375640  1889.457338  1547.324069  1889.458402  1547.322944  0.001549
409  553  -446.304005  173.461493  -35.186001  1891.041276  857.111049  1891.041004  857.112269  0.001250
410  266  -252.797779  -174.579479  -14.370101  1898.180025  1734.442513  1898.180798  1734.444438  0.002075
411  489  -407.707692  96.551227  -26.878809  1901.773920  1049.060412  1901.774894  1049.061894  0.001774
412  205  -213.966667  -252.254359  -16.682756  1906.127385  1918.586609  1906.127162  1918.587089  0.000530
413  644  -523.300796  287.823311  -54.971333  1911.023148  548.781232  1911.022702  548.780695  0.000698
414  424  -369.053413  19.340600  -20.866300  1912.032032  1240.544120  1912.031361  1240.544627  0.000841
415  363  -330.346665  -58.093626  -17.158407  1921.714329  1430.842881  1921.714082  1430.841886  0.001025
416  584  -484.836866  211.594446  -43.023308  1922.327910  739.717259  1922.326531  739.717814  0.001487
417  298  -291.592951  -135.674375  -15.762375  1930.725271  1619.253462  1930.724662  1619.253826  0.000709
418  522  -446.304005  134.940076  -33.347333  1933.291718  931.358715  1933.292536  931.358352  0.000895
419  236  -252.797779  -213.324351  -16.682756  1938.976094  1805.097761  1938.975476  1805.098768  0.001181
420  457  -407.707692  57.936228  -25.957766  1943.806594  1122.982175  1943.806869  1122.981988  0.000333
421  176  -213.966667  -290.966135  -19.921398  1946.385690  1987.731188  1946.386558  1987.731506  0.000925
422  615  -523.300796  249.529674  -51.767673  1953.363993  622.869156  1953.363232  622.870180  0.001276
423  394  -369.053413  -19.340600  -20.866300  1953.768679  1313.864736  1953.770368  1313.864680  0.001690
424  331  -330.346665  -96.813533  -18.081952  1963.079460  1503.293679  1963.079501  1503.294632  0.000954
425  554  -484.836866  173.163766  -40.729407  1964.564880  813.917578  1964.564756  813.917621  0.000131
426  267  -291.592951  -174.405413  -17.611049  1971.646878  1690.575838  1971.649898  1690.575410  0.003050
427  490  -446.304005  96.399474  -31.968104  1975.343974  1005.394014  1975.345337  1005.394426  0.001424
428  206  -252.797779  -252.038895  -19.457218  1979.386292  1875.046411  1979.385453  1875.047629  0.001479
429  425  -407.707692  19.312991  -25.497212  1985.594920  1196.575709  1985.595674  1196.574632  0.001315
430  364  -369.053413  -58.019051  -21.327513  1995.216282  1386.744142  1995.216515  1386.744188  0.000237
431  585  -523.300796  211.200561  -49.020832  1995.570866  696.924964  1995.570616  696.924876  0.000265
432  299  -330.346665  -135.519676  -19.467106  2004.112717  1575.194583  2004.111833  1575.194978  0.000968
433  523  -484.836866  134.708467  -38.893895  2006.620459  887.968744  2006.621824  887.969248  0.001455
434  237  -291.592951  -213.111655  -19.921398  2012.196017  1761.245246  2012.195014  1761.244000  0.001600
435  458  -446.304005  57.845167  -31.048508  2017.168244  1079.163648  2017.167488  1079.161748  0.002045
436  177  -252.797779  -290.717605  -22.693093  2019.385982  1944.245792  2019.386044  1944.246427  0.000638
437  616  -561.690327  249.028830  -58.216893  2026.288216  580.566471  2026.287250  580.566230  0.000996
438  395  -407.707692  -19.312991  -25.497212  2027.109932  1269.789087  2027.111447  1269.788733  0.001556
439  332  -369.053413  -96.689254  -22.249873  2036.346926  1459.132385  2036.347692  1459.132874  0.000909
440  555  -523.300796  172.841420  -46.731201  2037.613293  770.894659  2037.613182  770.894858  0.000228
441  268  -330.346665  -174.206551  -21.313672  2044.787441  1646.498174  2044.786965  1646.496300  0.001934
442  491  -484.836866  96.234016  -37.517032  2048.464661  961.817148  2048.464697  961.817614  0.000468
443  207  -291.592951  -251.787598  -22.693093  2052.347459  1831.217294  2052.347776  1831.216508  0.000848
444  426  -446.304005  19.282636  -30.588678  2058.735270  1152.615026  2058.736112  1152.616427  0.001634
445  150  -252.797779  -329.354983  -26.389922  2058.951513  2012.654970  2058.950954  2012.654133  0.001007
446  586  -561.690327  210.776648  -55.475566  2068.300819  654.358211  2068.300352  654.355213  0.003034
447  365  -407.707692  -57.936228  -25.957766  2068.323325  1342.571362  2068.323244  1342.571378  0.000083
448  300  -369.053413  -135.345709  -23.633248  2077.133472  1530.980743  2077.133156  1530.978900  0.001870
449  524  -523.300796  134.457706  -44.899106  2079.461155  844.724522  2079.459821  844.724591  0.001336
450  238  -330.346665  -212.868659  -23.621386  2085.077843  1717.158484  2085.079160  1717.157036  0.001957
451  459  -484.836866  57.745883  -36.599015  2090.067990  1035.409739  2090.068025  1035.411432  0.001693
452  178  -291.592951  -290.427743  -25.925742  2092.076927  1900.449239  2092.076656  1900.449933  0.000746
453  396  -446.304005  -19.282636  -30.588678  2100.016408  1225.696400  2100.015847  1225.696406  0.000561
454  333  -407.707692  -96.551227  -26.878809  2109.207524  1414.872687  2109.207193  1414.872571  0.000350
455  556  -561.690327  172.494500  -53.190531  2110.135827  728.072772  2110.134893  728.070404  0.002546
456  269  -369.053413  -173.982922  -25.477444  2117.549609  1602.241831  2117.549818  1602.240993  0.000864
457  492  -523.300796  96.054875  -43.524807  2121.084770  918.361249  2121.084639  918.361053  0.000235
458  208  -330.346665  -251.500503  -26.389922  2124.959053  1787.131092  2124.959862  1787.131908  0.001149
459  151  -291.592951  -329.026598  -29.618885  2131.361144  1968.900056  2131.360837  1968.900490  0.000532
460  427  -484.836866  19.249540  -36.139974  2131.401508  1108.694164  2131.402561  1108.695065  0.001386
461  366  -446.304005  -57.845167  -31.048508  2140.983689  1298.356984  2140.983107  1298.356791  0.000613
462  301  -407.707692  -135.152500  -28.260210  2149.735738  1486.644426  2149.736962  1486.644115  0.001263
463  525  -561.690327  134.187828  -51.362113  2151.763426  801.656794  2151.763745  801.655481  0.001351
464  239  -369.053413  -212.595400  -27.782196  2157.569911  1672.869698  2157.569015  1672.870886  0.001488
465  460  -523.300796  57.638388  -42.608498  2162.454960  991.752080  2162.454298  991.752452  0.000759
466  179  -330.346665  -290.096590  -29.618885  2164.407170  1856.373204  2164.406844  1856.371840  0.001403
467  125  -291.592951  -367.578673  -33.771995  2170.177866  2036.530506  2170.179351  2036.531194  0.001637
468  397  -484.836866  -19.249540  -36.139974  2172.436906  1181.618887  2172.436931  1181.618698  0.000190
469  334  -446.304005  -96.399474  -31.968104  2181.609888  1370.547067  2181.610485  1370.546994  0.000601
470  270  -407.707692  -173.734558  -30.101773  2189.882020  1557.839258  2189.880245  1557.839664  0.001821
471  493  -561.690327  95.862078  -49.990572  2193.154248  875.057315  2193.153127  875.057096  0.001142
472  209  -369.053413  -251.177652  -30.547177  2197.169883  1742.819917  2197.171305  1742.820313  0.001477
473  152  -330.346665  -328.651433  -33.307816  2203.399300  1924.843731  2203.399074  1924.843900  0.000283
474  428  -523.300796  19.213707  -42.150312  2203.543123  1064.844927  2203.542140  1064.845480  0.001128
475  367  -484.836866  -57.745883  -36.599015  2213.146567  1254.133313  2213.147040  1254.131650  0.001729
476  302  -446.304005  -134.940076  -33.347333  2221.868577  1442.218131  2221.867005  1442.218441  0.001603
477  526  -600.000000  133.898873  -58.281997  2223.478150  758.795760  2223.480477  758.794823  0.002509
478  240  -407.707692  -212.291915  -32.403235  2229.621319  1628.411277  2229.621815  1628.410381  0.001025
479  461  -561.690327  57.522699  -49.076103  2234.279454  948.221895  2234.280044  948.222408  0.000782
480  180  -369.053413  -289.724193  -33.771995  2236.326008  1812.049673  2236.326578  1812.049202  0.000740
481  126  -330.346665  -367.159551  -37.456191  2241.913592  1992.503350  2241.912065  1992.504784  0.002095
482  398  -523.300796  -19.213707  -42.150312  2244.321301  1137.588503  2244.322770  1137.588597  0.001472
483  335  -484.836866  -96.234016  -37.517032  2253.503628  1326.187906  2253.504037  1326.189023  0.001190
484  271  -446.304005  -173.461493  -35.186001  2261.734186  1513.322952  2261.735735  1513.323672  0.001708
485  494  -600.000000  95.655652  -56.913409  2264.624318  831.935828  2264.623840  831.937145  0.001401
486  210  -407.707692  -250.819090  -35.164269  2268.929526  1698.316083  2268.928803  1698.316278  0.000749
487  153  -369.053413  -328.229543  -37.456191  2275.015786  1880.517835  2275.015056  1880.517178  0.000982
488  429  -561.690327  19.175142  -48.618836  2275.110789  1021.098751  2275.110007  1021.098619  0.000793
489  368  -523.300796  -57.638388  -42.608498  2284.762238  1209.932440  2284.761686  1209.933103  0.000863
490  303  -484.836866  -134.708467  -38.893895  2293.482037  1397.734294  2293.481811  1397.732568  0.001741
491  241  -446.304005  -211.958248  -37.483846  2301.182047  1583.815699  2301.181340  1583.814767  0.001169
492  462  -600.000000  57.398832  -56.000910  2305.493054  904.849933  2305.493138  904.850901  0.000971
493  181  -407.707692  -289.310605  -38.384484  2307.783516  1767.510863  2307.782901  1767.509914  0.001130
494  127  -369.053413  -366.688228  -41.599241  2313.217767  1948.185023  2313.218168  1948.185700  0.000787
495  399  -561.690327  -19.175142  -48.618836  2315.620657  1093.636875  2315.621887  1093.636407  0.001316
496  336  -523.300796  -96.054875  -43.524807  2324.839448  1281.827404  2324.838769  1281.826663  0.001005
497  272  -484.836866  -173.163766  -40.729407  2333.056609  1468.725382  2333.057513  1468.725149  0.000934
498  211  -446.304005  -250.424868  -40.240541  2340.188447  1653.652023  2340.190358  1653.650696  0.002326
499  430  -600.000000  19.133851  -55.544627  2346.056469  977.486627  2346.056674  977.487051  0.000471
500  154  -407.707692  -327.760988  -42.063420  2346.161192  1835.954472  2346.160428  1835.954672  0.000790
501  102  -369.053413  -405.094779  -46.200556  2350.911582  2015.013670  2350.910932  2015.013333  0.000733
502  369  -561.690327  -57.522699  -49.076103  2355.782181  1165.786157  2355.784157  1165.786665  0.002040
503  304  -523.300796  -134.457706  -44.899106  2364.527266  1353.225205  2364.527113  1353.225175  0.000156
504  242  -484.836866  -211.594446  -43.023308  2372.203072  1539.115442  2372.202574  1539.114561  0.001013
505  182  -446.304005  -288.855884  -43.455694  2378.730663  1722.789144  2378.733110  1722.789393  0.002459
506  128  -407.707692  -366.164772  -46.200556  2384.041511  1903.607494  2384.041314  1903.607802  0.000365
507  400  -600.000000  -19.133851  -55.544627  2386.287344  1049.795216  2386.288403  1049.795336  0.001066
508  337  -561.690327  -95.862078  -49.990572  2395.569260  1237.497500  2395.568843  1237.495949  0.001606
509  273  -523.300796  -172.841420  -46.731201  2403.800900  1424.078905  2403.802125  1424.077436  0.001913
510  212  -484.836866  -249.995042  -45.775271  2410.898116  1608.860207  2410.898054  1608.860661  0.000458
511  155  -446.304005  -327.245833  -47.128849  2416.787007  1791.185927  2416.787411  1791.186746  0.000913
512  103  -407.707692  -404.516497  -50.795302  2421.404519  1970.432307  2421.403728  1970.430669  0.001819
513  370  -600.000000  -57.398832  -56.000910  2426.159186  1121.725883  2426.160083  1121.726717  0.001225
514  305  -561.690327  -134.187828  -51.362113  2434.956625  1308.722927  2434.957772  1308.725014  0.002382
515  243  -523.300796  -211.200561  -49.020832  2442.636486  1494.342910  2442.635876  1494.342585  0.000691
