# COL 1-2: True indices
# COL 3-5: True X/Y/Z plate [mm]
# COL 6-7: True X/Y position [pix]
# COL 8-9: Estimated X/Y centroid [pix]
# COL 10: Centroid error [pix]
1  698  407.707692  404.516497  -50.795302  9.851395  1348.111206  9.852170  1348.110710  0.000920
2  558  523.300796  211.200561  -49.020832  14.437556  1829.142646  14.437689  1829.142876  0.000266
3  646  446.304005  327.245833  -47.128849  24.364422  1534.826343  24.364016  1534.827330  0.001067
4  496  561.690327  134.187828  -51.362113  31.792419  2008.088375  31.792498  2008.087939  0.000443
5  722  369.053413  443.443737  -51.259482  37.699147  1233.403733  37.698043  1233.404499  0.001344
6  589  484.836866  249.995042  -45.775271  40.023615  1719.188903  40.021734  1719.187694  0.002236
7  673  407.707692  366.164772  -46.200556  51.399644  1421.537978  51.401192  1421.538827  0.001766
8  528  523.300796  172.841420  -46.731201  56.687968  1900.561506  56.687678  1900.562781  0.001308
9  744  330.346665  482.348840  -52.651756  66.249019  1117.851809  66.250335  1117.851654  0.001325
10  619  446.304005  288.855884  -43.455694  66.295725  1607.721728  66.296238  1607.722619  0.001028
11  699  369.053413  405.094779  -46.200556  79.128676  1307.141865  79.128428  1307.141122  0.000784
12  559  484.836866  211.594446  -43.023308  82.251082  1791.296362  82.249606  1791.295923  0.001540
13  647  407.707692  327.760988  -42.063420  93.249415  1494.895537  93.250873  1494.894793  0.001637
14  763  291.592951  521.209682  -54.971333  95.488044  1001.632373  95.487221  1001.631118  0.001501
15  497  523.300796  134.457706  -44.899106  99.123312  1971.636168  99.122496  1971.637808  0.001831
16  723  330.346665  444.013718  -47.128849  107.541656  1191.808201  107.541452  1191.807432  0.000795
17  590  446.304005  250.424868  -40.240541  108.480017  1680.435879  108.479199  1680.436293  0.000917
18  674  369.053413  366.688228  -41.599241  120.877799  1380.871794  120.877132  1380.872235  0.000800
19  529  484.836866  173.163766  -40.729407  124.682300  1863.114169  124.683058  1863.113575  0.000964
20  779  252.797779  560.004164  -58.216893  125.400830  884.926087  125.401047  884.927026  0.000964
21  620  407.707692  289.310605  -38.384484  135.370698  1568.131018  135.370515  1568.131051  0.000186
22  745  291.592951  482.899454  -48.984906  136.626284  1075.712267  136.626521  1075.712794  0.000578
23  465  523.300796  96.054875  -43.524807  141.712958  2042.317601  141.713331  2042.318307  0.000798
24  700  330.346665  405.615468  -42.063420  149.171579  1265.818292  149.170993  1265.818299  0.000586
25  560  446.304005  211.958248  -37.483846  150.886799  1752.916931  150.886974  1752.917040  0.000206
26  648  369.053413  328.229543  -37.456191  162.916695  1454.540157  162.915924  1454.539404  0.001078
27  764  252.797779  521.729877  -51.767673  166.367874  959.033561  166.367034  959.035112  0.001763
28  498  484.836866  134.708467  -38.893895  167.286538  1934.592025  167.286675  1934.592499  0.000493
29  591  407.707692  250.819090  -35.164269  177.733069  1641.191733  177.732930  1641.191137  0.000612
30  724  291.592951  444.520571  -43.455694  178.119071  1149.908369  178.120444  1149.907598  0.001575
31  675  330.346665  367.159551  -37.456191  191.109220  1339.828417  191.109419  1339.827501  0.000937
32  530  446.304005  173.461493  -35.186001  193.485295  1825.113465  193.485505  1825.113499  0.000213
33  780  213.966667  560.482903  -55.475566  196.749428  841.954872  196.749832  841.955426  0.000686
34  621  369.053413  289.724193  -33.771995  205.215075  1528.093625  205.215021  1528.093296  0.000334
35  746  252.797779  483.381413  -45.775271  207.706245  1033.320057  207.705898  1033.321025  0.001029
36  466  484.836866  96.234016  -37.517032  210.032923  2005.680328  210.032373  2005.680605  0.000615
37  701  291.592951  406.078489  -38.384484  219.937146  1224.166906  219.937000  1224.166639  0.000304
38  561  407.707692  212.291915  -32.403235  220.305767  1714.025306  220.307727  1714.025128  0.001968
39  649  330.346665  328.651433  -33.307816  233.324482  1413.784794  233.322798  1413.784843  0.001685
40  499  446.304005  134.940076  -33.347333  236.244532  1896.974635  236.242664  1896.975789  0.002196
41  765  213.966667  522.175895  -49.020832  237.916790  916.235182  237.915281  916.234878  0.001539
42  592  369.053413  251.177652  -30.547177  247.742254  1601.479041  247.742121  1601.478548  0.000510
43  725  252.797779  444.964226  -40.240541  249.387045  1107.731896  249.386279  1107.732418  0.000927
44  676  291.592951  367.578673  -33.771995  262.050662  1298.433840  262.051282  1298.435018  0.001332
45  531  407.707692  173.734558  -30.101773  263.057774  1786.579804  263.058090  1786.580739  0.000987
46  781  175.105134  560.881955  -53.190531  268.732200  798.838411  268.731647  798.838181  0.000599
47  622  330.346665  290.096590  -29.618885  275.786813  1487.633666  275.785841  1487.633725  0.000974
48  467  446.304005  96.399474  -31.968104  279.133412  1968.450292  279.134159  1968.449490  0.001096
49  747  213.966667  483.794648  -43.023308  279.443245  990.703945  279.444380  990.704146  0.001153
50  562  369.053413  212.595400  -27.782196  290.467228  1674.643546  290.468478  1674.643994  0.001328
51  702  252.797779  406.483776  -35.164269  291.380736  1182.214983  291.381765  1182.214557  0.001113
52  793  136.218706  599.477583  -58.281997  300.131878  681.316271  300.130726  681.314572  0.002053
53  650  291.592951  329.026598  -29.618885  304.429261  1372.655004  304.429429  1372.654538  0.000496
54  500  407.707692  135.152500  -28.260210  305.957891  1858.803859  305.959162  1858.803437  0.001339
55  766  175.105134  522.547674  -46.731201  310.087912  873.266963  310.087484  873.265983  0.001069
56  593  330.346665  251.500503  -26.389922  318.465284  1561.321431  318.465249  1561.322356  0.000926
57  726  213.966667  445.344619  -37.483846  321.299619  1065.307213  321.299218  1065.307816  0.000724
58  435  446.304005  57.845167  -31.048508  322.120795  2039.491104  322.119460  2039.489481  0.002101
59  532  369.053413  173.982922  -25.477444  333.358754  1747.534718  333.358744  1747.532668  0.002050
60  677  252.797779  367.945536  -30.547177  333.657210  1256.714942  333.658550  1256.715617  0.001501
61  782  136.218706  561.201266  -51.362113  341.301142  755.607242  341.300885  755.607623  0.000460
62  623  291.592951  290.427743  -25.925742  347.042148  1446.776244  347.041463  1446.775100  0.001333
63  468  407.707692  96.551227  -26.878809  348.974815  1930.646800  348.974406  1930.646280  0.000662
64  748  175.105134  484.139100  -40.729407  351.790096  947.893374  351.791557  947.892860  0.001549
65  563  330.346665  212.868659  -23.621386  361.328668  1634.794782  361.328830  1634.795076  0.000336
66  703  213.966667  406.831273  -32.403235  363.456109  1139.990603  363.454400  1139.992349  0.002443
67  794  97.312912  599.733442  -56.913409  373.061083  637.912453  373.060014  637.913433  0.001450
68  651  252.797779  329.354983  -26.389922  376.185865  1331.177257  376.186778  1331.177954  0.001149
69  501  369.053413  135.345709  -23.633248  376.385427  1820.100699  376.384709  1820.100311  0.000816
70  767  136.218706  522.845161  -44.899106  382.832916  830.159211  382.832540  830.160817  0.001649
71  594  291.592951  251.787598  -22.693093  389.858167  1520.743546  389.857817  1520.742827  0.000800
72  436  407.707692  57.936228  -25.957766  392.077224  2002.058774  392.076788  2002.059231  0.000632
73  727  175.105134  445.661695  -35.186001  393.809314  1022.663461  393.809563  1022.662785  0.000720
74  533  330.346665  174.206551  -21.313672  404.345514  1708.000838  404.346500  1708.000627  0.001008
75  678  213.966667  368.260086  -27.782196  405.882364  1214.699439  405.881616  1214.698672  0.001072
76  783  97.312912  561.440788  -49.990572  414.406895  712.292375  414.407541  712.291985  0.000755
77  624  252.797779  290.717605  -22.693093  418.935679  1405.547405  418.936053  1405.547154  0.000450
78  469  369.053413  96.689254  -22.249873  419.515762  1892.290322  419.515528  1892.289992  0.000405
79  749  136.218706  484.414721  -38.893895  424.698174  904.918402  424.698818  904.918553  0.000662
80  564  291.592951  213.111655  -19.921398  432.845887  1594.503186  432.846455  1594.502671  0.000767
81  704  175.105134  407.120929  -30.101773  436.115520  1097.522592  436.116826  1097.522278  0.001344
82  795  58.393282  599.904034  -56.000910  446.489049  594.481410  446.489199  594.482872  0.001470
83  502  330.346665  135.519676  -19.467106  447.484236  1780.887276  447.485481  1780.887273  0.001245
84  652  213.966667  329.636543  -23.621386  448.547554  1289.378885  448.546519  1289.379005  0.001042
85  768  97.312912  523.068312  -43.524807  456.102133  786.942742  456.101986  786.944115  0.001381
86  595  252.797779  252.038895  -19.457218  461.875293  1479.770998  461.875464  1479.772169  0.001184
87  437  369.053413  58.019051  -21.327513  462.718272  1964.053236  462.716751  1964.054390  0.001909
88  728  136.218706  445.915410  -33.347333  466.867233  979.830432  466.866759  979.830208  0.000524
89  534  291.592951  174.405413  -17.611049  475.973673  1668.001854  475.975835  1668.002837  0.002375
90  679  175.105134  368.522280  -25.477444  478.678134  1172.415820  478.678562  1172.417163  0.001409
91  784  58.393282  561.600489  -49.076103  487.998853  668.925222  488.000000  668.923758  0.001860
92  470  330.346665  96.813533  -18.081952  490.713186  1853.402463  490.713610  1853.401506  0.001047
93  625  213.966667  290.966135  -19.921398  491.420454  1363.974089  491.419170  1363.972143  0.002332
94  750  97.312912  484.621471  -37.517032  498.117527  861.809629  498.117072  861.809626  0.000455
95  565  252.797779  213.324351  -16.682756  504.973088  1553.793924  504.974262  1553.795309  0.001815
96  407  369.053413  19.340600  -20.866300  505.961549  2035.340023  505.961701  2035.338550  0.001481
97  705  136.218706  407.352703  -28.260210  509.309818  1054.840453  509.309604  1054.839589  0.000891
98  503  291.592951  135.674375  -15.762375  519.209775  1741.186793  519.209921  1741.186706  0.000170
99  796  19.465350  599.989337  -55.544627  520.364349  551.054979  520.363463  551.057060  0.002261
100  653  175.105134  329.871238  -21.313672  521.466120  1247.288030  521.466324  1247.287258  0.000799
101  769  58.393282  523.217098  -42.608498  529.844666  743.648807  529.844459  743.647830  0.000998
102  438  330.346665  58.093626  -17.158407  534.000735  1925.495575  534.001378  1925.495380  0.000672
103  596  213.966667  252.254359  -16.682756  534.469516  1438.430319  534.470568  1438.432057  0.002031
104  729  97.312912  446.105728  -31.968104  540.423161  936.838493  540.421896  936.838254  0.001288
105  535  252.797779  174.579479  -14.370101  548.197268  1627.562476  548.197616  1627.562337  0.000374
106  680  136.218706  368.732080  -23.633248  551.995141  1129.893289  551.994522  1129.894778  0.001613
107  785  19.465350  561.680344  -48.618836  562.025285  625.537516  562.026400  625.537909  0.001182
108  471  291.592951  96.924048  -14.375640  562.522403  1814.005930  562.522311  1814.004273  0.001659
109  626  175.105134  291.173297  -17.611049  564.448066  1322.084072  564.447758  1322.082813  0.001296
110  751  58.393282  484.759320  -36.599015  571.996985  818.598129  571.998678  818.599814  0.002389
111  408  330.346665  19.365460  -16.696601  577.315356  1997.116725  577.314794  1997.116739  0.000563
112  566  213.966667  213.506719  -13.905922  577.662960  1512.693108  577.663813  1512.692987  0.000861
113  706  97.312912  407.526562  -26.878809  582.988554  1011.974306  582.988383  1011.975559  0.001264
114  504  252.797779  135.809785  -12.519583  591.515939  1701.023495  591.516574  1701.022779  0.000957
115  797  -19.465350  599.989337  -55.544627  594.634535  507.665204  594.634133  507.665377  0.000438
116  654  136.218706  330.059034  -19.467106  594.891981  1204.933577  594.892150  1204.931805  0.001780
117  770  19.465350  523.291496  -42.150312  604.008501  700.309015  604.009038  700.309700  0.000870
118  439  291.592951  58.159942  -13.451040  605.879811  1886.408000  605.879267  1886.408327  0.000634
119  597  175.105134  252.433959  -14.370101  607.592261  1396.748908  607.591469  1396.749787  0.001183
120  730  58.393282  446.232622  -31.048508  614.425687  893.718520  614.425511  893.718645  0.000216
121  536  213.966667  174.728724  -11.591290  620.968844  1586.708389  620.968050  1586.707804  0.000986
122  681  97.312912  368.889456  -22.249873  625.782729  1087.161697  625.783070  1087.160513  0.001232
123  472  252.797779  97.020784  -11.131463  634.897193  1774.124499  634.896381  1774.123794  0.001075
124  786  -19.465350  561.680344  -48.618836  636.433452  582.161234  636.433847  582.161952  0.000820
125  627  136.218706  291.339062  -15.762375  637.968757  1279.905909  637.968937  1279.907179  0.001283
126  752  19.465350  484.828250  -36.139974  646.284284  775.315370  646.282601  775.316577  0.002071
127  409  291.592951  19.387566  -12.988708  649.250374  1958.342672  649.250570  1958.342060  0.000643
128  567  175.105134  213.658731  -11.591290  650.866777  1471.227750  650.865149  1471.228418  0.001759
129  707  58.393282  407.642482  -25.957766  657.100098  968.954811  657.098261  968.954162  0.001948
130  505  213.966667  135.925887  -9.739189  664.355156  1660.422628  664.355656  1660.421550  0.001188
131  655  97.312912  330.199904  -18.081952  668.774295  1162.345096  668.772381  1162.344254  0.002091
132  798  -58.393282  599.904034  -56.000910  669.246267  464.344256  669.246461  464.344522  0.000329
133  440  252.797779  58.217988  -10.205941  678.309186  1846.813808  678.309097  1846.812145  0.001666
134  771  -19.465350  523.291496  -42.150312  678.540639  656.955260  678.539265  656.955887  0.001510
135  598  136.218706  252.577670  -12.519583  681.193615  1354.754973  681.194250  1354.754248  0.000963
136  731  19.465350  446.296074  -30.588678  688.822318  850.501823  688.823786  850.500643  0.001883
137  379  291.592951  -19.387566  -12.988708  692.602669  2029.760663  692.603340  2029.762984  0.002416
138  537  175.105134  174.853127  -9.275010  694.239556  1545.466200  694.239219  1545.466872  0.000752
139  682  58.393282  368.994386  -21.327513  699.989073  1044.251475  699.987660  1044.250894  0.001528
140  473  213.966667  97.103725  -8.349884  707.789889  1733.782967  707.789712  1733.782550  0.000453
141  787  -58.393282  561.600489  -49.076103  711.169741  538.828517  711.168443  538.827478  0.001663
142  628  97.312912  291.463406  -14.375640  711.931528  1237.468869  711.931658  1237.468514  0.000378
143  753  -19.465350  484.828250  -36.139974  720.926187  731.993140  720.926336  731.993152  0.000149
144  410  252.797779  19.406916  -9.743147  721.720220  1919.040676  721.719994  1919.041152  0.000526
145  568  136.218706  213.780367  -9.739189  724.534505  1429.425697  724.533086  1429.424996  0.001582
146  708  19.465350  407.700446  -25.497212  731.591757  925.813101  731.591619  925.812562  0.000557
147  506  175.105134  136.022664  -7.421591  737.678484  1619.410389  737.677217  1619.411376  0.001606
148  656  58.393282  330.293829  -17.158407  743.061075  1119.552767  743.060086  1119.553351  0.001148
149  799  -97.312912  599.733442  -56.913409  744.145439  421.124348  744.146203  421.123222  0.001361
150  441  213.966667  58.267758  -7.423570  751.241126  1806.737342  751.241241  1806.739037  0.001699
151  772  -58.393282  523.217098  -42.608498  753.387217  613.619634  753.388646  613.620583  0.001715
152  599  97.312912  252.685470  -11.131463  755.222449  1312.477471  755.222187  1312.477525  0.000267
153  732  -19.465350  446.296074  -30.588678  763.559606  807.220067  763.560271  807.220603  0.000854
154  380  252.797779  -19.406916  -9.743147  765.098822  1990.755403  765.099876  1990.755412  0.001054
155  538  136.218706  174.952671  -7.421591  767.959268  1503.863388  767.959249  1503.862938  0.000450
156  683  19.465350  369.046855  -20.866300  774.561309  1001.193558  774.560897  1001.193535  0.000413
157  474  175.105134  97.172861  -6.031296  781.151481  1693.007110  781.151227  1693.008164  0.001084
158  788  -97.312912  561.440788  -49.990572  786.179791  495.571587  786.181252  495.571600  0.001461
159  629  58.393282  291.546313  -13.451040  786.284253  1194.802871  786.284606  1194.804231  0.001405
160  411  213.966667  19.423506  -6.960380  794.677118  1879.234620  794.678160  1879.234051  0.001187
161  754  -58.393282  484.759320  -36.599015  795.868612  688.663468  795.868407  688.663985  0.000556
162  569  97.312912  213.871609  -8.349884  798.614909  1387.315579  798.614743  1387.315976  0.000430
163  709  -19.465350  407.700446  -25.497212  806.409903  882.580701  806.409371  882.581653  0.001091
164  507  136.218706  136.100101  -5.567117  811.435716  1578.013872  811.434397  1578.013247  0.001460
165  657  19.465350  330.340794  -16.696601  817.699310  1076.587317  817.699278  1076.587933  0.000617
166  800  -136.218706  599.477583  -58.281997  819.277322  378.037657  819.277711  378.036568  0.001156
167  442  175.105134  58.309243  -5.104323  824.626577  1766.203948  824.626846  1766.204350  0.000484
168  773  -97.312912  523.068312  -43.524807  828.493649  570.334351  828.494610  570.336262  0.002139
169  600  58.393282  252.757346  -10.205941  829.626529  1269.946039  829.625577  1269.946134  0.000957
170  381  213.966667  -19.423506  -6.960380  838.066364  1951.224712  838.067620  1951.224980  0.001285
171  733  -58.393282  446.232622  -31.048508  838.583283  763.905196  838.581924  763.904872  0.001397
172  539  97.312912  175.027341  -6.031296  842.076671  1461.928241  842.076479  1461.929694  0.001465
173  684  -19.465350  369.046855  -20.866300  849.445657  958.019315  849.444280  958.019251  0.001379
174  475  136.218706  97.228182  -4.176030  854.931716  1651.823628  854.931489  1651.822352  0.001296
175  630  19.465350  291.587769  -12.988708  860.973807  1151.938410  860.973356  1151.938249  0.000478
176  789  -136.218706  561.201266  -51.362113  861.408634  452.422668  861.409812  452.422302  0.001234
177  412  175.105134  19.437336  -4.640803  868.071996  1838.949413  868.071278  1838.948842  0.000918
178  755  -97.312912  484.621471  -37.517032  871.056772  645.358538  871.057198  645.360436  0.001945
179  570  58.393282  213.932445  -7.423570  873.055673  1344.926739  873.056071  1344.927278  0.000670
180  349  213.966667  -58.267758  -7.423570  881.377687  2022.658693  881.378274  2022.658724  0.000588
181  710  -58.393282  407.642482  -25.957766  881.500105  839.289452  881.500000  839.290532  0.001085
182  508  97.312912  136.158189  -4.176030  885.575494  1536.261012  885.575015  1536.261419  0.000628
183  658  -19.465350  330.340794  -16.696601  892.635097  1033.479935  892.635429  1033.480014  0.000341
184  443  136.218706  58.342439  -3.248529  898.415268  1725.239924  898.416125  1725.239084  0.001200
185  774  -136.218706  522.845161  -44.899106  903.804754  527.131662  903.804977  527.130376  0.001305
186  601  19.465350  252.793287  -9.743147  904.352640  1227.190929  904.351720  1227.190321  0.001103
187  382  175.105134  -19.437336  -4.640803  911.456232  1911.193054  911.456688  1911.192569  0.000666
188  734  -97.312912  446.105728  -31.968104  913.838388  720.589350  913.837180  720.588783  0.001334
189  540  58.393282  175.077127  -5.104323  916.539395  1419.689793  916.540331  1419.690481  0.001162
190  685  -58.393282  368.994386  -21.327513  924.587551  914.760465  924.588976  914.762071  0.002147
191  476  97.312912  97.269679  -2.784350  929.079213  1610.260094  929.079655  1610.260529  0.000620
192  631  -19.465350  291.587769  -12.988708  935.946190  1108.906484  935.946572  1108.907177  0.000791
193  790  -175.105134  560.881955  -53.190531  936.800831  409.413898  936.801318  409.414710  0.000947
194  413  136.218706  19.448401  -2.784746  941.854591  1798.210940  941.855431  1798.210216  0.001109
195  756  -136.218706  484.414721  -38.893895  946.435309  602.110611  946.435588  602.111443  0.000877
196  571  19.465350  213.962864  -6.960380  947.803524  1302.289168  947.803773  1302.289447  0.000374
197  350  175.105134  -58.309243  -5.104323  954.748128  1982.885585  954.747898  1982.885787  0.000307
198  711  -97.312912  407.526562  -26.878809  956.807262  795.971429  956.807087  795.972913  0.001494
199  509  58.393282  136.196919  -3.248529  960.045421  1494.180524  960.045234  1494.180446  0.000202
200  659  -58.393282  330.293829  -17.158407  967.813767  990.262204  967.813354  990.261125  0.001156
201  444  97.312912  58.367340  -1.856453  972.555825  1683.872465  972.554478  1683.871131  0.001896
202  775  -175.105134  522.547674  -46.731201  979.264906  484.043771  979.261596  484.043833  0.003311
203  602  -19.465350  252.793287  -9.743147  979.346717  1184.242931  979.346631  1184.244325  0.001397
204  383  136.218706  -19.448401  -2.784746  985.218200  1870.685896  985.218831  1870.685652  0.000676
205  735  -136.218706  445.915410  -33.347333  989.269414  677.304780  989.269656  677.304309  0.000530
206  541  19.465350  175.102022  -4.640803  991.294136  1377.177762  991.294276  1377.176811  0.000961
207  686  -97.312912  368.889456  -22.249873  999.931780  871.449001  999.932095  871.448474  0.000614
208  477  58.393282  97.297347  -1.856453  1003.541582  1568.344886  1003.540753  1568.346856  0.002137
209  632  -58.393282  291.546313  -13.451040  1011.146660  1065.738521  1011.145301  1065.739519  0.001686
210  791  -213.966667  560.482903  -55.475566  1012.300616  366.577248  1012.299714  366.577946  0.001141
211  414  97.312912  19.456702  -1.392472  1015.973566  1757.046011  1015.974847  1757.045129  0.001555
212  757  -175.105134  484.139100  -40.729407  1021.948436  558.951942  1021.949189  558.949849  0.002224
213  572  -19.465350  213.962864  -6.960380  1022.804360  1259.433431  1022.805382  1259.432854  0.001173
214  351  136.218706  -58.342439  -3.248529  1028.474978  1942.615171  1028.474393  1942.615721  0.000803
215  712  -136.218706  407.352703  -28.260210  1032.275745  752.658859  1032.277010  752.658407  0.001344
216  510  19.465350  136.216285  -2.784746  1034.792195  1451.801833  1034.793575  1451.801082  0.001571
217  660  -97.312912  330.199904  -18.081952  1043.180028  946.966017  1043.180394  946.967437  0.001466
218  445  58.393282  58.383942  -0.928293  1046.995889  1642.129605  1046.996672  1642.130971  0.001574
219  603  -58.393282  252.757346  -10.205941  1054.553975  1141.133300  1054.554227  1141.132276  0.001054
220  776  -213.966667  522.175895  -49.020832  1054.818171  441.102753  1054.817960  441.102109  0.000678
221  384  97.312912  -19.456702  -1.392472  1059.300990  1829.729655  1059.301569  1829.729849  0.000610
222  736  -175.105134  445.661695  -35.186001  1064.820444  634.083772  1064.820348  634.082462  0.001313
223  542  -19.465350  175.102022  -4.640803  1066.286787  1334.422471  1066.287233  1334.423048  0.000730
224  319  136.218706  -97.228182  -4.176030  1071.594258  2013.950412  1071.593488  2013.948856  0.001736
225  687  -136.218706  368.732080  -23.633248  1075.422626  828.117108  1075.423084  828.117858  0.000878
226  478  19.465350  97.311182  -1.392472  1078.265546  1526.107128  1078.265196  1526.106295  0.000904
227  633  -97.312912  291.463406  -14.375640  1086.519874  1022.466297  1086.520789  1022.466672  0.000989
228  792  -252.797779  560.004164  -58.216893  1087.852040  323.944438  1087.851865  323.944953  0.000544
229  415  58.393282  19.462236  -0.464179  1090.376620  1715.482306  1090.376342  1715.482710  0.000490
230  758  -213.966667  483.794648  -43.023308  1097.540080  515.914690  1097.540035  515.914650  0.000060
231  573  -58.393282  213.932445  -7.423570  1098.003384  1216.390596  1098.004979  1216.391622  0.001897
232  352  97.312912  -58.367340  -1.856453  1102.507049  1901.873467  1102.505285  1901.874022  0.001849
233  713  -175.105134  407.120929  -30.101773  1107.849540  709.384041  1107.848703  709.383597  0.000947
234  511  -19.465350  136.216285  -2.784746  1109.761729  1409.155011  1109.761641  1409.154665  0.000357
235  661  -136.218706  330.059034  -19.467106  1118.678101  903.623499  1118.678375  903.623519  0.000274
236  446  19.465350  58.392244  -0.464179  1121.682240  1600.040154  1121.681542  1600.039094  0.001269
237  604  -97.312912  252.685470  -11.131463  1129.919050  1097.893676  1129.919319  1097.893025  0.000704
238  777  -252.797779  521.729877  -51.767673  1130.408452  398.340471  1130.409822  398.340403  0.001372
239  385  58.393282  -19.462236  -0.464179  1133.652393  1788.351641  1133.652632  1788.352691  0.001077
240  737  -213.966667  445.344619  -37.483846  1140.435297  590.958558  1140.435791  590.958641  0.000501
241  543  -58.393282  175.077127  -5.104323  1141.462565  1291.454784  1141.462035  1291.453151  0.001717
242  320  97.312912  -97.269679  -2.784350  1145.561164  1973.428786  1145.561454  1973.428638  0.000325
243  688  -175.105134  368.522280  -25.477444  1151.004004  784.797079  1151.004579  784.799034  0.002038
244  479  -19.465350  97.311182  -1.392472  1153.197071  1483.576624  1153.196516  1483.575970  0.000857
245  634  -136.218706  291.339062  -15.762375  1162.010023  979.121856  1162.010552  979.122021  0.000554
246  759  -252.797779  483.381413  -45.775271  1173.154028  473.030845  1173.154349  473.031383  0.000627
247  574  -97.312912  213.871609  -8.349884  1173.345239  1173.192151  1173.345177  1173.192345  0.000204
248  353  58.393282  -58.383942  -0.928293  1176.792248  1860.687407  1176.793149  1860.688774  0.001638
249  714  -213.966667  406.831273  -32.403235  1183.472387  666.179257  1183.470794  666.179508  0.001613
250  512  -58.393282  136.196919  -3.248529  1184.899288  1366.270700  1184.899354  1366.270732  0.000074
251  288  97.312912  -136.158189  -4.176030  1188.433295  2044.348321  1188.433300  2044.347542  0.000779
252  662  -175.105134  329.871238  -21.313672  1194.251865  860.266918  1194.252226  860.265748  0.001224
253  447  -19.465350  58.392244  -0.464179  1196.560926  1557.633631  1196.559622  1557.632929  0.001481
254  605  -136.218706  252.577670  -12.519583  1205.386135  1054.556009  1205.386713  1054.556628  0.000846
255  778  -291.592951  521.209682  -54.971333  1205.979633  355.788493  1205.979426  355.788511  0.000208
256  738  -252.797779  444.964226  -40.240541  1216.057674  547.961232  1216.057436  547.962576  0.001364
257  544  -97.312912  175.027341  -6.031296  1216.766155  1248.306022  1216.765558  1248.307157  0.001283
258  321  58.393282  -97.297347  -1.856453  1219.765716  1932.440662  1219.765423  1932.441680  0.001059
259  801  0.000000  0.000000  0.000000  1224.000000  1689.010817  1224.000000  1689.010607  0.000210
260  689  -213.966667  368.260086  -27.782196  1226.619611  741.521233  1226.619633  741.522708  0.001475
261  480  -58.393282  97.297347  -1.856453  1228.281498  1440.783779  1228.282224  1440.784442  0.000984
262  635  -175.105134  291.173297  -17.611049  1237.560982  935.737429  1237.561322  935.739104  0.001710
263  760  -291.592951  482.899454  -48.984906  1248.734069  430.332136  1248.733451  430.332853  0.000946
264  575  -136.218706  213.780367  -9.739189  1248.774152  1129.869932  1248.773935  1129.870128  0.000292
265  354  19.465350  -58.392244  -0.464179  1251.277697  1819.084790  1251.277976  1819.084599  0.000339
266  715  -252.797779  406.483776  -35.164269  1259.087933  623.076695  1259.088855  623.075517  0.001496
267  513  -97.312912  136.158189  -4.176030  1260.149627  1323.180037  1260.149228  1323.178438  0.001648
268  289  58.393282  -136.196919  -3.248529  1262.542892  2003.563831  1262.541551  2003.564058  0.001360
269  663  -213.966667  329.636543  -23.621386  1269.845000  816.928611  1269.844338  816.929249  0.000919
270  448  -58.393282  58.383942  -0.928293  1271.577395  1514.940195  1271.576319  1514.941368  0.001592
271  606  -175.105134  252.433959  -14.370101  1280.899128  1011.152471  1280.899416  1011.151980  0.000569
272  739  -291.592951  444.520571  -43.455694  1291.631302  505.123670  1291.631228  505.122164  0.001508
273  545  -136.218706  174.952671  -7.421591  1292.141846  1205.007889  1292.140687  1205.008061  0.001172
274  322  19.465350  -97.311182  -1.392472  1294.155209  1891.013481  1294.153854  1891.013273  0.001371
275  690  -252.797779  367.945536  -30.547177  1302.213068  698.321827  1302.213596  698.321841  0.000528
276  481  -97.312912  97.269679  -2.784350  1303.463683  1397.759533  1303.464104  1397.759699  0.000453
277  636  -213.966667  290.966135  -19.921398  1313.116445  892.345350  1313.115374  892.344363  0.001456
278  416  -58.393282  19.462236  -0.464179  1314.755512  1588.686991  1314.755920  1588.689449  0.002492
279  761  -330.346665  482.348840  -52.651756  1324.224146  387.849954  1324.225256  387.850991  0.001518
280  576  -175.105134  213.658731  -11.591290  1324.234075  1086.456036  1324.235379  1086.457181  0.001736
281  355  -19.465350  -58.392244  -0.464179  1325.909861  1777.094212  1325.911533  1777.093789  0.001725
282  716  -291.592951  406.078489  -38.384484  1334.639873  580.108358  1334.639673  580.107133  0.001241
283  514  -136.218706  136.100101  -5.567117  1335.457127  1279.914580  1335.457827  1279.914762  0.000723
284  290  19.465350  -136.216285  -2.784746  1336.822174  1962.318243  1336.822523  1962.317428  0.000886
285  664  -252.797779  329.354983  -26.389922  1345.401136  773.640893  1345.401478  773.641147  0.000426
286  449  -97.312912  58.367340  -1.856453  1346.676630  1471.990569  1346.677089  1471.991538  0.001072
287  607  -213.966667  252.254359  -16.682756  1356.401771  967.715377  1356.401214  967.714508  0.001032
288  386  -58.393282  -19.462236  -0.464179  1357.784795  1661.972206  1357.783644  1661.972804  0.001297
289  740  -330.346665  444.013718  -47.128849  1367.100081  462.477447  1367.101158  462.478766  0.001703
290  546  -175.105134  174.853127  -9.275010  1367.533675  1161.592391  1367.533040  1161.592675  0.000695
291  323  -19.465350  -97.311182  -1.392472  1368.676304  1849.175509  1368.677020  1849.175714  0.000745
292  691  -291.592951  367.578673  -33.771995  1377.728068  655.230980  1377.727911  655.230959  0.000158
293  482  -136.218706  97.228182  -4.176030  1378.688131  1354.535277  1378.689475  1354.534409  0.001600
294  259  19.465350  -175.102022  -4.640803  1379.249497  2032.952712  1379.248904  2032.952709  0.000593
295  637  -252.797779  290.717605  -22.693093  1388.620080  848.977972  1388.619519  848.978487  0.000762
296  417  -97.312912  19.456702  -1.392472  1389.757131  1545.820063  1389.756580  1545.820099  0.000552
297  762  -369.053413  481.729649  -56.775299  1399.568491  345.615270  1399.568796  345.615239  0.000306
298  577  -213.966667  213.506719  -13.905922  1399.668829  1042.982741  1399.668463  1042.983098  0.000512
299  356  -58.393282  -58.383942  -0.928293  1400.634681  1734.745002  1400.634291  1734.745565  0.000685
300  717  -330.346665  405.615468  -42.063420  1410.072096  537.305989  1410.071849  537.304290  0.001716
301  515  -175.105134  136.022664  -7.421591  1410.765944  1236.506223  1410.766411  1236.507064  0.000962
302  291  -19.465350  -136.216285  -2.784746  1411.218028  1920.639484  1411.217484  1920.640491  0.001145
303  665  -291.592951  329.026598  -29.618885  1420.863996  730.435975  1420.864621  730.435609  0.000724
304  450  -136.218706  58.342439  -3.248529  1421.803290  1428.815965  1421.803109  1428.816292  0.000374
305  608  -252.797779  252.038895  -19.457218  1431.837801  924.277101  1431.836815  924.278234  0.001501
306  387  -97.312912  -19.456702  -1.392472  1432.674287  1619.195921  1432.674396  1619.196169  0.000271
307  741  -369.053413  443.443737  -51.259482  1442.408228  420.053754  1442.408519  420.053670  0.000303
308  547  -213.966667  174.728724  -11.591290  1442.885573  1118.091750  1442.886133  1118.092182  0.000708
309  324  -58.393282  -97.297347  -1.856453  1443.275162  1806.955775  1443.275084  1806.957726  0.001953
310  692  -330.346665  367.159551  -37.456191  1453.108524  612.280584  1453.107795  612.280586  0.000729
311  260  -19.465350  -175.102022  -4.640803  1453.506135  1991.439537  1453.505911  1991.439860  0.000393
312  483  -175.105134  97.172861  -6.031296  1453.899141  1311.142781  1453.899670  1311.142934  0.000551
313  638  -291.592951  290.427743  -25.925742  1464.015671  805.667583  1464.016297  805.666579  0.001183
314  418  -136.218706  19.448401  -2.784746  1464.771423  1502.703472  1464.772377  1502.702890  0.001118
315  578  -252.797779  213.324351  -16.682756  1475.022250  999.482423  1475.022192  999.482333  0.000107
316  357  -97.312912  -58.367340  -1.856453  1475.397706  1692.067153  1475.397216  1692.067393  0.000545
317  718  -369.053413  405.094779  -46.200556  1485.328834  494.700983  1485.328353  494.701261  0.000555
318  292  -58.393282  -136.196919  -3.248529  1485.676863  1878.556270  1485.677879  1878.556471  0.001035
319  516  -213.966667  135.925887  -9.739189  1486.020144  1192.987119  1486.020438  1192.989358  0.002258
320  666  -330.346665  328.651433  -33.307816  1496.177543  687.345882  1496.177699  687.344788  0.001105
321  451  -175.105134  58.309243  -5.104323  1496.901853  1385.448009  1496.900887  1385.448813  0.001256
322  609  -291.592951  251.787598  -22.693093  1507.151094  880.869990  1507.150078  880.870768  0.001279
323  388  -136.218706  -19.448401  -2.784746  1507.561801  1576.145601  1507.561755  1576.146460  0.000860
324  742  -407.707692  442.810711  -55.847006  1517.500420  377.883322  1517.501562  377.885722  0.002658
325  325  -97.312912  -97.269679  -2.784350  1517.897579  1764.384001  1517.897357  1764.384018  0.000222
326  548  -252.797779  174.579479  -14.370101  1518.141505  1074.538327  1518.140796  1074.537531  0.001066
327  261  -58.393282  -175.077127  -5.104323  1527.811101  1949.499681  1527.809860  1949.500000  0.001282
328  693  -369.053413  366.688228  -41.599241  1528.298708  569.502221  1528.298951  569.502715  0.000551
329  484  -213.966667  97.103725  -8.349884  1529.040951  1267.614107  1529.041275  1267.616065  0.001984
330  639  -330.346665  290.096590  -29.618885  1539.247264  762.446325  1539.246811  762.446124  0.000495
331  419  -175.105134  19.437336  -4.640803  1539.743068  1459.368682  1539.742547  1459.368271  0.000664
332  358  -136.218706  -58.342439  -3.248529  1550.144230  1649.091249  1550.143948  1649.092064  0.000863
333  579  -291.592951  213.111655  -19.921398  1550.238336  955.987471  1550.239103  955.988310  0.001137
334  293  -97.312912  -136.158189  -4.176030  1560.144747  1836.098040  1560.143669  1836.098037  0.001078
335  719  -407.707692  404.516497  -50.795302  1560.354797  452.324311  1560.353046  452.325118  0.001928
336  517  -252.797779  135.809785  -12.519583  1561.163855  1149.389592  1561.163231  1149.389213  0.000730
337  231  -58.393282  -213.932445  -7.423570  1569.649950  2019.740751  1569.649773  2019.741691  0.000957
338  667  -369.053413  328.229543  -37.456191  1571.286125  644.402370  1571.286346  644.401514  0.000884
339  452  -213.966667  58.267758  -7.423570  1571.916752  1341.918656  1571.917063  1341.919165  0.000596
340  610  -330.346665  251.500503  -26.389922  1582.285807  837.526284  1582.287900  837.525988  0.002114
341  389  -175.105134  -19.437336  -4.640803  1582.392255  1532.852535  1582.392356  1532.851247  0.001292
342  326  -136.218706  -97.228182  -4.176030  1592.489117  1721.490531  1592.487834  1721.491101  0.001404
343  549  -291.592951  174.405413  -17.611049  1593.245621  1030.964534  1593.244632  1030.964388  0.001000
344  262  -97.312912  -175.027341  -6.031296  1602.110763  1907.162288  1602.111766  1907.160704  0.001875
345  694  -407.707692  366.164772  -46.200556  1603.243400  526.927089  1603.244041  526.927046  0.000642
346  485  -252.797779  97.020784  -11.131463  1604.057878  1223.981528  1604.057342  1223.984070  0.002598
347  640  -369.053413  289.724193  -33.771995  1614.259310  719.346107  1614.256698  719.346567  0.002652
348  420  -213.966667  19.423506  -6.960380  1614.616730  1415.847524  1614.616648  1415.846714  0.000814
349  359  -175.105134  -58.309243  -5.104323  1624.819433  1605.848385  1624.819294  1605.847616  0.000782
350  580  -330.346665  212.868659  -23.621386  1625.261387  912.530204  1625.261720  912.530394  0.000384
351  294  -136.218706  -136.100101  -5.567117  1634.567538  1793.294885  1634.567181  1793.294816  0.000364
352  720  -446.304005  403.880703  -55.847006  1635.095322  410.206442  1635.095153  410.205513  0.000944
353  518  -291.592951  135.674375  -15.762375  1636.141407  1105.746061  1636.140614  1105.746400  0.000862
354  232  -97.312912  -213.871609  -8.349884  1643.767959  1977.531300  1643.768765  1977.532210  0.001216
355  668  -407.707692  327.760988  -42.063420  1646.134615  601.636844  1646.134585  601.636101  0.000744
356  453  -252.797779  58.217988  -10.205941  1646.792525  1298.260110  1646.791867  1298.260042  0.000661
357  390  -213.966667  -19.423506  -6.960380  1657.110565  1489.348414  1657.108597  1489.350097  0.002590
358  611  -369.053413  251.177652  -30.547177  1657.186526  794.278028  1657.186933  794.279805  0.001823
359  327  -175.105134  -97.172861  -6.031296  1666.995245  1678.306254  1666.996047  1678.306172  0.000807
360  550  -330.346665  174.206551  -21.313672  1668.142395  987.402752  1668.144444  987.402372  0.002084
361  263  -136.218706  -174.952671  -7.421591  1676.351302  1864.457181  1676.351802  1864.455926  0.001351
362  695  -446.304005  365.589257  -51.259482  1677.888021  484.585917  1677.888728  484.587061  0.001344
363  486  -291.592951  96.924048  -14.375640  1678.894464  1180.277448  1678.895074  1180.276951  0.000787
364  641  -407.707692  289.310605  -38.384484  1688.996810  676.398527  1688.997328  676.398171  0.000628
365  421  -252.797779  19.406916  -9.743147  1689.337192  1372.172116  1689.337357  1372.173216  0.001113
366  360  -213.966667  -58.267758  -7.423570  1699.368514  1562.370097  1699.368148  1562.369949  0.000395
367  581  -369.053413  212.595400  -27.782196  1700.036154  869.142787  1700.033911  869.142724  0.002244
368  295  -175.105134  -136.022664  -7.421591  1708.891022  1750.177474  1708.891178  1750.177302  0.000232
369  519  -330.346665  135.519676  -19.467106  1710.897477  1062.088949  1710.897260  1062.088178  0.000801
370  233  -136.218706  -213.780367  -9.739189  1717.813014  1934.931817  1717.813494  1934.931250  0.000743
371  669  -446.304005  327.245833  -47.128849  1720.668556  559.080279  1720.667834  559.080732  0.000852
372  454  -291.592951  58.159942  -13.451040  1721.473953  1254.504744  1721.474642  1254.505065  0.000760
373  391  -252.797779  -19.406916  -9.743147  1731.661794  1445.665250  1731.662636  1445.664869  0.000924
374  612  -407.707692  250.819090  -35.164269  1731.798408  751.156994  1731.797436  751.156843  0.000984
375  328  -213.966667  -97.103725  -8.349884  1741.361474  1634.862532  1741.362009  1634.862958  0.000684
376  551  -369.053413  173.982922  -25.477444  1742.776770  943.885245  1742.777417  943.886297  0.001235
377  264  -175.105134  -174.853127  -9.275010  1750.478847  1821.414796  1750.478768  1821.414187  0.000614
378  696  -484.836866  364.961765  -56.775299  1752.178778  442.508893  1752.179047  442.508410  0.000553
379  487  -330.346665  96.813533  -18.081952  1753.495615  1136.534316  1753.496030  1136.535341  0.001106
380  203  -136.218706  -252.577670  -12.519583  1758.926126  2004.674805  1758.925028  2004.674650  0.001109
381  642  -446.304005  288.855884  -43.455694  1763.405451  633.634789  1763.406481  633.635072  0.001068
382  422  -291.592951  19.387566  -12.988708  1763.849503  1328.374778  1763.850581  1328.375939  0.001584
383  361  -252.797779  -58.217988  -10.205941  1773.736840  1518.688273  1773.737345  1518.689187  0.001044
384  582  -407.707692  212.291915  -32.403235  1774.507976  825.857149  1774.508296  825.859051  0.001929
385  296  -213.966667  -135.925887  -9.739189  1783.061048  1706.776979  1783.060409  1706.776372  0.000881
386  520  -369.053413  135.345709  -23.633248  1785.377230  1018.450602  1785.376840  1018.450976  0.000540
387  234  -175.105134  -213.658731  -11.591290  1791.731615  1891.972486  1791.729690  1891.971551  0.002140
388  670  -484.836866  326.684154  -52.651756  1794.834289  516.763144  1794.835162  516.762902  0.000906
389  455  -330.346665  58.093626  -17.158407  1795.906202  1210.685010  1795.906601  1210.686289  0.001340
390  392  -291.592951  -19.387566  -12.988708  1805.991284  1401.835297  1805.991404  1401.834541  0.000765
391  613  -446.304005  250.424868  -40.240541  1806.067315  708.194600  1806.066461  708.194745  0.000867
392  329  -252.797779  -97.020784  -11.131463  1815.533500  1591.191117  1815.535117  1591.189559  0.002245
393  552  -407.707692  173.734558  -30.101773  1817.094298  900.444081  1817.092599  900.442720  0.002177
394  265  -213.966667  -174.728724  -11.591290  1824.439611  1778.066099  1824.439046  1778.065244  0.001025
395  488  -369.053413  96.689254  -22.249873  1827.806747  1092.784541  1827.807058  1092.784968  0.000529
396  204  -175.105134  -252.433959  -14.370101  1832.623085  1961.806417  1832.624019  1961.805738  0.001155
397  643  -484.836866  288.360097  -48.984906  1837.431742  591.085627  1837.432075  591.086131  0.000604
398  423  -330.346665  19.365460  -16.696601  1838.099118  1284.487954  1838.098880  1284.488460  0.000559
399  362  -291.592951  -58.159942  -13.451040  1847.870076  1474.835082  1847.870122  1474.836794  0.001713
400  583  -446.304005  211.958248  -37.483846  1848.622919  782.704901  1848.622980  782.705251  0.000355
401  297  -252.797779  -135.809785  -12.519583  1857.023669  1663.124995  1857.022305  1663.124950  0.001365
402  521  -407.707692  135.152500  -28.260210  1859.526459  974.863209  1859.527546  974.862351  0.001385
403  235  -213.966667  -213.506719  -13.905922  1865.470362  1848.684056  1865.469956  1848.685521  0.001520
404  456  -369.053413  58.019051  -21.327513  1870.034964  1166.833364  1870.034849  1166.833247  0.000164
405  175  -175.105134  -291.173297  -17.611049  1873.127932  2030.874147  1873.126016  2030.873984  0.001923
406  614  -484.836866  249.995042  -45.775271  1879.939951  665.421830  1879.941027  665.420686  0.001571
407  393  -330.346665  -19.365460  -16.696601  1880.044804  1357.890965  1880.044423  1357.889451  0.001561
408  330  -291.592951  -96.924048  -14.375640  1889.457338  1547.324069  1889.458502  1547.323005  0.001577
409  553  -446.304005  173.461493  -35.186001  1891.041276  857.111049  1891.040969  857.112299  0.001287
410  266  -252.797779  -174.579479  -14.370101  1898.180025  1734.442513  1898.180811  1734.444475  0.002114
411  489  -407.707692  96.551227  -26.878809  1901.773920  1049.060412  1901.774845  1049.061833  0.001695
412  205  -213.966667  -252.254359  -16.682756  1906.127385  1918.586609  1906.127252  1918.587006  0.000419
413  644  -523.300796  287.823311  -54.971333  1911.023148  548.781232  1911.022704  548.780655  0.000729
414  424  -369.053413  19.340600  -20.866300  1912.032032  1240.544120  1912.031618  1240.544565  0.000607
415  363  -330.346665  -58.093626  -17.158407  1921.714329  1430.842881  1921.714025  1430.841757  0.001164
416  584  -484.836866  211.594446  -43.023308  1922.327910  739.717259  1922.326484  739.717814  0.001530
417  298  -291.592951  -135.674375  -15.762375  1930.725271  1619.253462  1930.724603  1619.253928  0.000814
418  522  -446.304005  134.940076  -33.347333  1933.291718  931.358715  1933.292577  931.358359  0.000930
419  236  -252.797779  -213.324351  -16.682756  1938.976094  1805.097761  1938.975425  1805.098840  0.001270
420  457  -407.707692  57.936228  -25.957766  1943.806594  1122.982175  1943.806779  1122.982007  0.000250
421  176  -213.966667  -290.966135  -19.921398  1946.385690  1987.731188  1946.386577  1987.731587  0.000972
422  615  -523.300796  249.529674  -51.767673  1953.363993  622.869156  1953.363226  622.870023  0.001157
423  394  -369.053413  -19.340600  -20.866300  1953.768679  1313.864736  1953.770219  1313.864502  0.001558
424  331  -330.346665  -96.813533  -18.081952  1963.079460  1503.293679  1963.079506  1503.294693  0.001015
425  554  -484.836866  173.163766  -40.729407  1964.564880  813.917578  1964.564673  813.917524  0.000214
426  267  -291.592951  -174.405413  -17.611049  1971.646878  1690.575838  1971.649832  1690.575389  0.002988
427  490  -446.304005  96.399474  -31.968104  1975.343974  1005.394014  1975.345341  1005.394429  0.001429
428  206  -252.797779  -252.038895  -19.457218  1979.386292  1875.046411  1979.385470  1875.047667  0.001501
429  425  -407.707692  19.312991  -25.497212  1985.594920  1196.575709  1985.595569  1196.574547  0.001331
430  364  -369.053413  -58.019051  -21.327513  1995.216282  1386.744142  1995.216668  1386.744120  0.000387
431  585  -523.300796  211.200561  -49.020832  1995.570866  696.924964  1995.570539  696.924814  0.000360
432  299  -330.346665  -135.519676  -19.467106  2004.112717  1575.194583  2004.111895  1575.195107  0.000975
433  523  -484.836866  134.708467  -38.893895  2006.620459  887.968744  2006.621804  887.969262  0.001441
434  237  -291.592951  -213.111655  -19.921398  2012.196017  1761.245246  2012.195031  1761.244123  0.001494
435  458  -446.304005  57.845167  -31.048508  2017.168244  1079.163648  2017.167687  1079.161847  0.001885
436  177  -252.797779  -290.717605  -22.693093  2019.385982  1944.245792  2019.386027  1944.246385  0.000594
437  616  -561.690327  249.028830  -58.216893  2026.288216  580.566471  2026.287183  580.566266  0.001053
438  395  -407.707692  -19.312991  -25.497212  2027.109932  1269.789087  2027.111547  1269.788629  0.001679
439  332  -369.053413  -96.689254  -22.249873  2036.346926  1459.132385  2036.347620  1459.133021  0.000941
440  555  -523.300796  172.841420  -46.731201  2037.613293  770.894659  2037.613013  770.894899  0.000368
441  268  -330.346665  -174.206551  -21.313672  2044.787441  1646.498174  2044.786932  1646.496306  0.001936
442  491  -484.836866  96.234016  -37.517032  2048.464661  961.817148  2048.464778  961.817674  0.000539
443  207  -291.592951  -251.787598  -22.693093  2052.347459  1831.217294  2052.347767  1831.216523  0.000831
444  426  -446.304005  19.282636  -30.588678  2058.735270  1152.615026  2058.736145  1152.616410  0.001637
445  150  -252.797779  -329.354983  -26.389922  2058.951513  2012.654970  2058.950966  2012.654102  0.001026
446  586  -561.690327  210.776648  -55.475566  2068.300819  654.358211  2068.300369  654.355205  0.003040
447  365  -407.707692  -57.936228  -25.957766  2068.323325  1342.571362  2068.323262  1342.571420  0.000085
448  300  -369.053413  -135.345709  -23.633248  2077.133472  1530.980743  2077.133324  1530.978951  0.001798
449  524  -523.300796  134.457706  -44.899106  2079.461155  844.724522  2079.459740  844.724608  0.001418
450  238  -330.346665  -212.868659  -23.621386  2085.077843  1717.158484  2085.079265  1717.157134  0.001961
451  459  -484.836866  57.745883  -36.599015  2090.067990  1035.409739  2090.068075  1035.411452  0.001716
452  178  -291.592951  -290.427743  -25.925742  2092.076927  1900.449239  2092.076761  1900.449997  0.000776
453  396  -446.304005  -19.282636  -30.588678  2100.016408  1225.696400  2100.015858  1225.696336  0.000554
454  333  -407.707692  -96.551227  -26.878809  2109.207524  1414.872687  2109.207338  1414.872363  0.000373
455  556  -561.690327  172.494500  -53.190531  2110.135827  728.072772  2110.135020  728.070439  0.002469
456  269  -369.053413  -173.982922  -25.477444  2117.549609  1602.241831  2117.549864  1602.241023  0.000847
457  492  -523.300796  96.054875  -43.524807  2121.084770  918.361249  2121.084672  918.361117  0.000164
458  208  -330.346665  -251.500503  -26.389922  2124.959053  1787.131092  2124.959926  1787.132022  0.001275
459  151  -291.592951  -329.026598  -29.618885  2131.361144  1968.900056  2131.360806  1968.900421  0.000497
460  427  -484.836866  19.249540  -36.139974  2131.401508  1108.694164  2131.402523  1108.694974  0.001299
461  366  -446.304005  -57.845167  -31.048508  2140.983689  1298.356984  2140.983086  1298.356824  0.000624
462  301  -407.707692  -135.152500  -28.260210  2149.735738  1486.644426  2149.737002  1486.644071  0.001313
463  525  -561.690327  134.187828  -51.362113  2151.763426  801.656794  2151.763798  801.655524  0.001324
464  239  -369.053413  -212.595400  -27.782196  2157.569911  1672.869698  2157.568986  1672.870820  0.001454
465  460  -523.300796  57.638388  -42.608498  2162.454960  991.752080  2162.454209  991.752420  0.000825
466  179  -330.346665  -290.096590  -29.618885  2164.407170  1856.373204  2164.406927  1856.371849  0.001377
467  125  -291.592951  -367.578673  -33.771995  2170.177866  2036.530506  2170.179343  2036.531164  0.001617
468  397  -484.836866  -19.249540  -36.139974  2172.436906  1181.618887  2172.436949  1181.618669  0.000222
469  334  -446.304005  -96.399474  -31.968104  2181.609888  1370.547067  2181.610409  1370.546979  0.000528
470  270  -407.707692  -173.734558  -30.101773  2189.882020  1557.839258  2189.880266  1557.839551  0.001779
471  493  -561.690327  95.862078  -49.990572  2193.154248  875.057315  2193.153231  875.057128  0.001034
472  209  -369.053413  -251.177652  -30.547177  2197.169883  1742.819917  2197.171395  1742.820094  0.001522
473  152  -330.346665  -328.651433  -33.307816  2203.399300  1924.843731  2203.399053  1924.843821  0.000263
474  428  -523.300796  19.213707  -42.150312  2203.543123  1064.844927  2203.542055  1064.845399  0.001168
475  367  -484.836866  -57.745883  -36.599015  2213.146567  1254.133313  2213.147077  1254.131680  0.001711
476  302  -446.304005  -134.940076  -33.347333  2221.868577  1442.218131  2221.866835  1442.218557  0.001794
477  526  -600.000000  133.898873  -58.281997  2223.478150  758.795760  2223.480488  758.794803  0.002526
478  240  -407.707692  -212.291915  -32.403235  2229.621319  1628.411277  2229.621820  1628.410430  0.000984
479  461  -561.690327  57.522699  -49.076103  2234.279454  948.221895  2234.280112  948.222420  0.000842
480  180  -369.053413  -289.724193  -33.771995  2236.326008  1812.049673  2236.326656  1812.049293  0.000751
481  126  -330.346665  -367.159551  -37.456191  2241.913592  1992.503350  2241.911922  1992.504769  0.002191
482  398  -523.300796  -19.213707  -42.150312  2244.321301  1137.588503  2244.322783  1137.588624  0.001487
483  335  -484.836866  -96.234016  -37.517032  2253.503628  1326.187906  2253.504003  1326.188974  0.001132
484  271  -446.304005  -173.461493  -35.186001  2261.734186  1513.322952  2261.735730  1513.323597  0.001674
485  494  -600.000000  95.655652  -56.913409  2264.624318  831.935828  2264.623796  831.937055  0.001334
486  210  -407.707692  -250.819090  -35.164269  2268.929526  1698.316083  2268.928730  1698.316266  0.000816
487  153  -369.053413  -328.229543  -37.456191  2275.015786  1880.517835  2275.015086  1880.517177  0.000961
488  429  -561.690327  19.175142  -48.618836  2275.110789  1021.098751  2275.110099  1021.098689  0.000692
489  368  -523.300796  -57.638388  -42.608498  2284.762238  1209.932440  2284.761589  1209.932964  0.000835
490  303  -484.836866  -134.708467  -38.893895  2293.482037  1397.734294  2293.481798  1397.732578  0.001732
491  241  -446.304005  -211.958248  -37.483846  2301.182047  1583.815699  2301.181525  1583.814632  0.001188
492  462  -600.000000  57.398832  -56.000910  2305.493054  904.849933  2305.493133  904.850810  0.000880
493  181  -407.707692  -289.310605  -38.384484  2307.783516  1767.510863  2307.782886  1767.509917  0.001136
494  127  -369.053413  -366.688228  -41.599241  2313.217767  1948.185023  2313.218349  1948.185780  0.000955
495  399  -561.690327  -19.175142  -48.618836  2315.620657  1093.636875  2315.621841  1093.636378  0.001284
496  336  -523.300796  -96.054875  -43.524807  2324.839448  1281.827404  2324.838668  1281.826471  0.001216
497  272  -484.836866  -173.163766  -40.729407  2333.056609  1468.725382  2333.057634  1468.725062  0.001074
498  211  -446.304005  -250.424868  -40.240541  2340.188447  1653.652023  2340.190446  1653.650718  0.002387
499  430  -600.000000  19.133851  -55.544627  2346.056469  977.486627  2346.056781  977.487041  0.000518
500  154  -407.707692  -327.760988  -42.063420  2346.161192  1835.954472  2346.160548  1835.954782  0.000715
501  102  -369.053413  -405.094779  -46.200556  2350.911582  2015.013670  2350.910969  2015.013274  0.000729
502  369  -561.690327  -57.522699  -49.076103  2355.782181  1165.786157  2355.784064  1165.786561  0.001926
503  304  -523.300796  -134.457706  -44.899106  2364.527266  1353.225205  2364.527105  1353.225221  0.000161
504  242  -484.836866  -211.594446  -43.023308  2372.203072  1539.115442  2372.202692  1539.114695  0.000838
505  182  -446.304005  -288.855884  -43.455694  2378.730663  1722.789144  2378.733004  1722.789348  0.002350
506  128  -407.707692  -366.164772  -46.200556  2384.041511  1903.607494  2384.041364  1903.607849  0.000384
507  400  -600.000000  -19.133851  -55.544627  2386.287344  1049.795216  2386.288469  1049.795263  0.001126
508  337  -561.690327  -95.862078  -49.990572  2395.569260  1237.497500  2395.568830  1237.496000  0.001560
509  273  -523.300796  -172.841420  -46.731201  2403.800900  1424.078905  2403.802085  1424.077531  0.001814
510  212  -484.836866  -249.995042  -45.775271  2410.898116  1608.860207  2410.897992  1608.860616  0.000427
511  155  -446.304005  -327.245833  -47.128849  2416.787007  1791.185927  2416.787243  1791.186820  0.000924
512  103  -407.707692  -404.516497  -50.795302  2421.404519  1970.432307  2421.403771  1970.430761  0.001718
513  370  -600.000000  -57.398832  -56.000910  2426.159186  1121.725883  2426.160186  1121.726713  0.001300
514  305  -561.690327  -134.187828  -51.362113  2434.956625  1308.722927  2434.957726  1308.724916  0.002273
515  243  -523.300796  -211.200561  -49.020832  2442.636486  1494.342910  2442.635818  1494.342420  0.000828
