# COL 1-2: True indices
# COL 3-5: True X/Y/Z plate [mm]
# COL 6-7: True X/Y position [pix]
# COL 8-9: Estimated X/Y centroid [pix]
# COL 10: Centroid error [pix]
1  698  407.707692  404.516497  -50.795302  9.851395  1348.111206  9.852239  1348.110676  0.000996
2  558  523.300796  211.200561  -49.020832  14.437556  1829.142646  14.437578  1829.142806  0.000161
3  646  446.304005  327.245833  -47.128849  24.364422  1534.826343  24.363967  1534.827424  0.001173
4  496  561.690327  134.187828  -51.362113  31.792419  2008.088375  31.792572  2008.087721  0.000672
5  722  369.053413  443.443737  -51.259482  37.699147  1233.403733  37.698061  1233.404591  0.001384
6  589  484.836866  249.995042  -45.775271  40.023615  1719.188903  40.021707  1719.187670  0.002272
7  673  407.707692  366.164772  -46.200556  51.399644  1421.537978  51.401209  1421.538864  0.001798
8  528  523.300796  172.841420  -46.731201  56.687968  1900.561506  56.687481  1900.562783  0.001366
9  744  330.346665  482.348840  -52.651756  66.249019  1117.851809  66.250232  1117.851873  0.001215
10  619  446.304005  288.855884  -43.455694  66.295725  1607.721728  66.296299  1607.722671  0.001104
11  699  369.053413  405.094779  -46.200556  79.128676  1307.141865  79.128349  1307.141080  0.000851
12  559  484.836866  211.594446  -43.023308  82.251082  1791.296362  82.249558  1791.295887  0.001596
13  647  407.707692  327.760988  -42.063420  93.249415  1494.895537  93.250867  1494.894924  0.001576
14  763  291.592951  521.209682  -54.971333  95.488044  1001.632373  95.487203  1001.631100  0.001526
15  497  523.300796  134.457706  -44.899106  99.123312  1971.636168  99.122367  1971.637860  0.001938
16  723  330.346665  444.013718  -47.128849  107.541656  1191.808201  107.541566  1191.807408  0.000798
17  590  446.304005  250.424868  -40.240541  108.480017  1680.435879  108.479299  1680.436319  0.000842
18  674  369.053413  366.688228  -41.599241  120.877799  1380.871794  120.877146  1380.872243  0.000793
19  529  484.836866  173.163766  -40.729407  124.682300  1863.114169  124.683135  1863.113519  0.001058
20  779  252.797779  560.004164  -58.216893  125.400830  884.926087  125.400927  884.927086  0.001003
21  620  407.707692  289.310605  -38.384484  135.370698  1568.131018  135.370420  1568.130848  0.000326
22  745  291.592951  482.899454  -48.984906  136.626284  1075.712267  136.626505  1075.712829  0.000604
23  465  523.300796  96.054875  -43.524807  141.712958  2042.317601  141.713282  2042.318501  0.000956
24  700  330.346665  405.615468  -42.063420  149.171579  1265.818292  149.170845  1265.818543  0.000775
25  560  446.304005  211.958248  -37.483846  150.886799  1752.916931  150.887015  1752.917059  0.000250
26  648  369.053413  328.229543  -37.456191  162.916695  1454.540157  162.915958  1454.539401  0.001055
27  764  252.797779  521.729877  -51.767673  166.367874  959.033561  166.366987  959.035214  0.001876
28  498  484.836866  134.708467  -38.893895  167.286538  1934.592025  167.286784  1934.592489  0.000525
29  591  407.707692  250.819090  -35.164269  177.733069  1641.191733  177.732947  1641.191005  0.000738
30  724  291.592951  444.520571  -43.455694  178.119071  1149.908369  178.120454  1149.907735  0.001521
31  675  330.346665  367.159551  -37.456191  191.109220  1339.828417  191.109381  1339.827594  0.000838
32  530  446.304005  173.461493  -35.186001  193.485295  1825.113465  193.485508  1825.113460  0.000213
33  780  213.966667  560.482903  -55.475566  196.749428  841.954872  196.750019  841.955406  0.000797
34  621  369.053413  289.724193  -33.771995  205.215075  1528.093625  205.214893  1528.093127  0.000531
35  746  252.797779  483.381413  -45.775271  207.706245  1033.320057  207.705887  1033.321169  0.001168
36  466  484.836866  96.234016  -37.517032  210.032923  2005.680328  210.032426  2005.680707  0.000625
37  701  291.592951  406.078489  -38.384484  219.937146  1224.166906  219.937016  1224.166557  0.000373
38  561  407.707692  212.291915  -32.403235  220.305767  1714.025306  220.307624  1714.025057  0.001873
39  649  330.346665  328.651433  -33.307816  233.324482  1413.784794  233.322766  1413.784861  0.001717
40  499  446.304005  134.940076  -33.347333  236.244532  1896.974635  236.242561  1896.975670  0.002226
41  765  213.966667  522.175895  -49.020832  237.916790  916.235182  237.915406  916.234749  0.001450
42  592  369.053413  251.177652  -30.547177  247.742254  1601.479041  247.742005  1601.478629  0.000481
43  725  252.797779  444.964226  -40.240541  249.387045  1107.731896  249.386276  1107.732268  0.000854
44  676  291.592951  367.578673  -33.771995  262.050662  1298.433840  262.051193  1298.434917  0.001201
45  531  407.707692  173.734558  -30.101773  263.057774  1786.579804  263.058064  1786.580828  0.001064
46  781  175.105134  560.881955  -53.190531  268.732200  798.838411  268.731693  798.838369  0.000509
47  622  330.346665  290.096590  -29.618885  275.786813  1487.633666  275.785849  1487.633743  0.000967
48  467  446.304005  96.399474  -31.968104  279.133412  1968.450292  279.134093  1968.449463  0.001073
49  747  213.966667  483.794648  -43.023308  279.443245  990.703945  279.444368  990.703989  0.001124
50  562  369.053413  212.595400  -27.782196  290.467228  1674.643546  290.468502  1674.643870  0.001315
51  702  252.797779  406.483776  -35.164269  291.380736  1182.214983  291.381755  1182.214566  0.001102
52  793  136.218706  599.477583  -58.281997  300.131878  681.316271  300.130490  681.314603  0.002170
53  650  291.592951  329.026598  -29.618885  304.429261  1372.655004  304.429468  1372.654567  0.000484
54  500  407.707692  135.152500  -28.260210  305.957891  1858.803859  305.959069  1858.803498  0.001232
55  766  175.105134  522.547674  -46.731201  310.087912  873.266963  310.087410  873.265815  0.001253
56  593  330.346665  251.500503  -26.389922  318.465284  1561.321431  318.465221  1561.322443  0.001014
57  726  213.966667  445.344619  -37.483846  321.299619  1065.307213  321.299321  1065.307901  0.000750
58  435  446.304005  57.845167  -31.048508  322.120795  2039.491104  322.119423  2039.489439  0.002157
59  532  369.053413  173.982922  -25.477444  333.358754  1747.534718  333.358809  1747.532729  0.001990
60  677  252.797779  367.945536  -30.547177  333.657210  1256.714942  333.658553  1256.715548  0.001474
61  782  136.218706  561.201266  -51.362113  341.301142  755.607242  341.300846  755.607580  0.000450
62  623  291.592951  290.427743  -25.925742  347.042148  1446.776244  347.041418  1446.775139  0.001325
63  468  407.707692  96.551227  -26.878809  348.974815  1930.646800  348.974442  1930.646397  0.000549
64  748  175.105134  484.139100  -40.729407  351.790096  947.893374  351.791672  947.892985  0.001623
65  563  330.346665  212.868659  -23.621386  361.328668  1634.794782  361.328793  1634.795122  0.000363
66  703  213.966667  406.831273  -32.403235  363.456109  1139.990603  363.454432  1139.992321  0.002401
67  794  97.312912  599.733442  -56.913409  373.061083  637.912453  373.060008  637.913470  0.001480
68  651  252.797779  329.354983  -26.389922  376.185865  1331.177257  376.186573  1331.177754  0.000865
69  501  369.053413  135.345709  -23.633248  376.385427  1820.100699  376.384506  1820.100356  0.000983
70  767  136.218706  522.845161  -44.899106  382.832916  830.159211  382.832749  830.160726  0.001524
71  594  291.592951  251.787598  -22.693093  389.858167  1520.743546  389.857991  1520.742851  0.000717
72  436  407.707692  57.936228  -25.957766  392.077224  2002.058774  392.076855  2002.059281  0.000628
73  727  175.105134  445.661695  -35.186001  393.809314  1022.663461  393.809671  1022.662776  0.000773
74  533  330.346665  174.206551  -21.313672  404.345514  1708.000838  404.346411  1708.000618  0.000923
75  678  213.966667  368.260086  -27.782196  405.882364  1214.699439  405.881708  1214.698717  0.000976
76  783  97.312912  561.440788  -49.990572  414.406895  712.292375  414.407548  712.292069  0.000721
77  624  252.797779  290.717605  -22.693093  418.935679  1405.547405  418.936074  1405.547206  0.000442
78  469  369.053413  96.689254  -22.249873  419.515762  1892.290322  419.515530  1892.290098  0.000323
79  749  136.218706  484.414721  -38.893895  424.698174  904.918402  424.698846  904.918503  0.000680
80  564  291.592951  213.111655  -19.921398  432.845887  1594.503186  432.846578  1594.502674  0.000860
81  704  175.105134  407.120929  -30.101773  436.115520  1097.522592  436.116849  1097.522314  0.001358
82  795  58.393282  599.904034  -56.000910  446.489049  594.481410  446.489177  594.482849  0.001445
83  502  330.346665  135.519676  -19.467106  447.484236  1780.887276  447.485493  1780.887262  0.001257
84  652  213.966667  329.636543  -23.621386  448.547554  1289.378885  448.546519  1289.379030  0.001045
85  768  97.312912  523.068312  -43.524807  456.102133  786.942742  456.101969  786.944133  0.001401
86  595  252.797779  252.038895  -19.457218  461.875293  1479.770998  461.875630  1479.772306  0.001350
87  437  369.053413  58.019051  -21.327513  462.718272  1964.053236  462.716863  1964.054237  0.001729
88  728  136.218706  445.915410  -33.347333  466.867233  979.830432  466.866855  979.830437  0.000378
89  534  291.592951  174.405413  -17.611049  475.973673  1668.001854  475.975899  1668.002861  0.002443
90  679  175.105134  368.522280  -25.477444  478.678134  1172.415820  478.678504  1172.417239  0.001466
91  784  58.393282  561.600489  -49.076103  487.998853  668.925222  488.000000  668.923710  0.001898
92  470  330.346665  96.813533  -18.081952  490.713186  1853.402463  490.713542  1853.401558  0.000973
93  625  213.966667  290.966135  -19.921398  491.420454  1363.974089  491.419184  1363.972086  0.002372
94  750  97.312912  484.621471  -37.517032  498.117527  861.809629  498.116945  861.809797  0.000606
95  565  252.797779  213.324351  -16.682756  504.973088  1553.793924  504.974273  1553.795396  0.001890
96  407  369.053413  19.340600  -20.866300  505.961549  2035.340023  505.961671  2035.338433  0.001595
97  705  136.218706  407.352703  -28.260210  509.309818  1054.840453  509.309607  1054.839746  0.000738
98  503  291.592951  135.674375  -15.762375  519.209775  1741.186793  519.209773  1741.186601  0.000192
99  796  19.465350  599.989337  -55.544627  520.364349  551.054979  520.363314  551.057095  0.002356
100  653  175.105134  329.871238  -21.313672  521.466120  1247.288030  521.466388  1247.287380  0.000703
101  769  58.393282  523.217098  -42.608498  529.844666  743.648807  529.844613  743.647830  0.000979
102  438  330.346665  58.093626  -17.158407  534.000735  1925.495575  534.001402  1925.495379  0.000695
103  596  213.966667  252.254359  -16.682756  534.469516  1438.430319  534.470693  1438.432035  0.002081
104  729  97.312912  446.105728  -31.968104  540.423161  936.838493  540.421779  936.838267  0.001401
105  535  252.797779  174.579479  -14.370101  548.197268  1627.562476  548.197575  1627.562270  0.000369
106  680  136.218706  368.732080  -23.633248  551.995141  1129.893289  551.994622  1129.894796  0.001594
107  785  19.465350  561.680344  -48.618836  562.025285  625.537516  562.026291  625.537929  0.001087
108  471  291.592951  96.924048  -14.375640  562.522403  1814.005930  562.522270  1814.004250  0.001685
109  626  175.105134  291.173297  -17.611049  564.448066  1322.084072  564.447726  1322.082812  0.001305
110  751  58.393282  484.759320  -36.599015  571.996985  818.598129  571.998740  818.599788  0.002415
111  408  330.346665  19.365460  -16.696601  577.315356  1997.116725  577.314698  1997.116741  0.000659
112  566  213.966667  213.506719  -13.905922  577.662960  1512.693108  577.663766  1512.692993  0.000815
113  706  97.312912  407.526562  -26.878809  582.988554  1011.974306  582.988413  1011.975658  0.001360
114  504  252.797779  135.809785  -12.519583  591.515939  1701.023495  591.516564  1701.022588  0.001102
115  797  -19.465350  599.989337  -55.544627  594.634535  507.665204  594.634138  507.665347  0.000422
116  654  136.218706  330.059034  -19.467106  594.891981  1204.933577  594.892128  1204.931782  0.001801
117  770  19.465350  523.291496  -42.150312  604.008501  700.309015  604.009105  700.309530  0.000794
118  439  291.592951  58.159942  -13.451040  605.879811  1886.408000  605.879284  1886.408255  0.000585
119  597  175.105134  252.433959  -14.370101  607.592261  1396.748908  607.591478  1396.749711  0.001122
120  730  58.393282  446.232622  -31.048508  614.425687  893.718520  614.425422  893.718517  0.000265
121  536  213.966667  174.728724  -11.591290  620.968844  1586.708389  620.968166  1586.707968  0.000798
122  681  97.312912  368.889456  -22.249873  625.782729  1087.161697  625.783123  1087.160341  0.001412
123  472  252.797779  97.020784  -11.131463  634.897193  1774.124499  634.896441  1774.123722  0.001081
124  786  -19.465350  561.680344  -48.618836  636.433452  582.161234  636.433751  582.161938  0.000765
125  627  136.218706  291.339062  -15.762375  637.968757  1279.905909  637.968826  1279.907215  0.001308
126  752  19.465350  484.828250  -36.139974  646.284284  775.315370  646.282599  775.316669  0.002127
127  409  291.592951  19.387566  -12.988708  649.250374  1958.342672  649.250608  1958.342045  0.000669
128  567  175.105134  213.658731  -11.591290  650.866777  1471.227750  650.865296  1471.228261  0.001566
129  707  58.393282  407.642482  -25.957766  657.100098  968.954811  657.098229  968.954143  0.001985
130  505  213.966667  135.925887  -9.739189  664.355156  1660.422628  664.355651  1660.421531  0.001203
131  655  97.312912  330.199904  -18.081952  668.774295  1162.345096  668.772329  1162.344249  0.002141
132  798  -58.393282  599.904034  -56.000910  669.246267  464.344256  669.246524  464.344504  0.000357
133  440  252.797779  58.217988  -10.205941  678.309186  1846.813808  678.309009  1846.812255  0.001563
134  771  -19.465350  523.291496  -42.150312  678.540639  656.955260  678.539282  656.956017  0.001554
135  598  136.218706  252.577670  -12.519583  681.193615  1354.754973  681.194239  1354.754329  0.000897
136  731  19.465350  446.296074  -30.588678  688.822318  850.501823  688.823773  850.500620  0.001888
137  379  291.592951  -19.387566  -12.988708  692.602669  2029.760663  692.603372  2029.762922  0.002366
138  537  175.105134  174.853127  -9.275010  694.239556  1545.466200  694.239296  1545.466865  0.000714
139  682  58.393282  368.994386  -21.327513  699.989073  1044.251475  699.987626  1044.250779  0.001606
140  473  213.966667  97.103725  -8.349884  707.789889  1733.782967  707.789862  1733.782641  0.000327
141  787  -58.393282  561.600489  -49.076103  711.169741  538.828517  711.168326  538.827704  0.001632
142  628  97.312912  291.463406  -14.375640  711.931528  1237.468869  711.931666  1237.468512  0.000382
143  753  -19.465350  484.828250  -36.139974  720.926187  731.993140  720.926318  731.993096  0.000138
144  410  252.797779  19.406916  -9.743147  721.720220  1919.040676  721.720153  1919.041125  0.000454
145  568  136.218706  213.780367  -9.739189  724.534505  1429.425697  724.533061  1429.425105  0.001561
146  708  19.465350  407.700446  -25.497212  731.591757  925.813101  731.591624  925.812589  0.000529
147  506  175.105134  136.022664  -7.421591  737.678484  1619.410389  737.677166  1619.411417  0.001671
148  656  58.393282  330.293829  -17.158407  743.061075  1119.552767  743.060067  1119.553408  0.001195
149  799  -97.312912  599.733442  -56.913409  744.145439  421.124348  744.146188  421.123216  0.001358
150  441  213.966667  58.267758  -7.423570  751.241126  1806.737342  751.241208  1806.739060  0.001720
151  772  -58.393282  523.217098  -42.608498  753.387217  613.619634  753.388631  613.620477  0.001646
152  599  97.312912  252.685470  -11.131463  755.222449  1312.477471  755.222217  1312.477537  0.000241
153  732  -19.465350  446.296074  -30.588678  763.559606  807.220067  763.560178  807.220620  0.000795
154  380  252.797779  -19.406916  -9.743147  765.098822  1990.755403  765.099677  1990.755454  0.000857
155  538  136.218706  174.952671  -7.421591  767.959268  1503.863388  767.959273  1503.862942  0.000447
156  683  19.465350  369.046855  -20.866300  774.561309  1001.193558  774.560929  1001.193521  0.000382
157  474  175.105134  97.172861  -6.031296  781.151481  1693.007110  781.151195  1693.008192  0.001119
158  788  -97.312912  561.440788  -49.990572  786.179791  495.571587  786.181242  495.571735  0.001459
159  629  58.393282  291.546313  -13.451040  786.284253  1194.802871  786.284575  1194.804394  0.001557
160  411  213.966667  19.423506  -6.960380  794.677118  1879.234620  794.678185  1879.234048  0.001210
161  754  -58.393282  484.759320  -36.599015  795.868612  688.663468  795.868561  688.663985  0.000520
162  569  97.312912  213.871609  -8.349884  798.614909  1387.315579  798.614706  1387.316000  0.000468
163  709  -19.465350  407.700446  -25.497212  806.409903  882.580701  806.409351  882.581674  0.001118
164  507  136.218706  136.100101  -5.567117  811.435716  1578.013872  811.434444  1578.013214  0.001432
165  657  19.465350  330.340794  -16.696601  817.699310  1076.587317  817.699324  1076.587867  0.000550
166  800  -136.218706  599.477583  -58.281997  819.277322  378.037657  819.277546  378.036520  0.001159
167  442  175.105134  58.309243  -5.104323  824.626577  1766.203948  824.626855  1766.204312  0.000458
168  773  -97.312912  523.068312  -43.524807  828.493649  570.334351  828.494622  570.336414  0.002281
169  600  58.393282  252.757346  -10.205941  829.626529  1269.946039  829.625726  1269.946039  0.000803
170  381  213.966667  -19.423506  -6.960380  838.066364  1951.224712  838.067579  1951.224932  0.001234
171  733  -58.393282  446.232622  -31.048508  838.583283  763.905196  838.582003  763.904876  0.001320
172  539  97.312912  175.027341  -6.031296  842.076671  1461.928241  842.076545  1461.929656  0.001421
173  684  -19.465350  369.046855  -20.866300  849.445657  958.019315  849.444365  958.019202  0.001297
174  475  136.218706  97.228182  -4.176030  854.931716  1651.823628  854.931562  1651.822389  0.001249
175  630  19.465350  291.587769  -12.988708  860.973807  1151.938410  860.973304  1151.938219  0.000538
176  789  -136.218706  561.201266  -51.362113  861.408634  452.422668  861.409830  452.422282  0.001256
177  412  175.105134  19.437336  -4.640803  868.071996  1838.949413  868.071337  1838.948881  0.000847
178  755  -97.312912  484.621471  -37.517032  871.056772  645.358538  871.057226  645.360350  0.001868
179  570  58.393282  213.932445  -7.423570  873.055673  1344.926739  873.056048  1344.927240  0.000626
180  349  213.966667  -58.267758  -7.423570  881.377687  2022.658693  881.378317  2022.658640  0.000633
181  710  -58.393282  407.642482  -25.957766  881.500105  839.289452  881.500000  839.290688  0.001240
182  508  97.312912  136.158189  -4.176030  885.575494  1536.261012  885.575025  1536.261470  0.000655
183  658  -19.465350  330.340794  -16.696601  892.635097  1033.479935  892.635443  1033.479982  0.000349
184  443  136.218706  58.342439  -3.248529  898.415268  1725.239924  898.416184  1725.239173  0.001184
185  774  -136.218706  522.845161  -44.899106  903.804754  527.131662  903.805118  527.130172  0.001534
186  601  19.465350  252.793287  -9.743147  904.352640  1227.190929  904.351723  1227.190233  0.001152
187  382  175.105134  -19.437336  -4.640803  911.456232  1911.193054  911.456637  1911.192599  0.000609
188  734  -97.312912  446.105728  -31.968104  913.838388  720.589350  913.837186  720.588767  0.001336
189  540  58.393282  175.077127  -5.104323  916.539395  1419.689793  916.540419  1419.690351  0.001166
190  685  -58.393282  368.994386  -21.327513  924.587551  914.760465  924.588973  914.762048  0.002128
191  476  97.312912  97.269679  -2.784350  929.079213  1610.260094  929.079602  1610.260400  0.000495
192  631  -19.465350  291.587769  -12.988708  935.946190  1108.906484  935.946580  1108.907199  0.000815
193  790  -175.105134  560.881955  -53.190531  936.800831  409.413898  936.801344  409.414799  0.001037
194  413  136.218706  19.448401  -2.784746  941.854591  1798.210940  941.855555  1798.210087  0.001287
195  756  -136.218706  484.414721  -38.893895  946.435309  602.110611  946.435558  602.111435  0.000861
196  571  19.465350  213.962864  -6.960380  947.803524  1302.289168  947.803878  1302.289348  0.000397
197  350  175.105134  -58.309243  -5.104323  954.748128  1982.885585  954.747912  1982.885932  0.000409
198  711  -97.312912  407.526562  -26.878809  956.807262  795.971429  956.807090  795.972858  0.001439
199  509  58.393282  136.196919  -3.248529  960.045421  1494.180524  960.045252  1494.180387  0.000218
200  659  -58.393282  330.293829  -17.158407  967.813767  990.262204  967.813445  990.261074  0.001175
201  444  97.312912  58.367340  -1.856453  972.555825  1683.872465  972.554557  1683.871209  0.001785
202  775  -175.105134  522.547674  -46.731201  979.264906  484.043771  979.261415  484.043854  0.003492
203  602  -19.465350  252.793287  -9.743147  979.346717  1184.242931  979.346666  1184.244352  0.001422
204  383  136.218706  -19.448401  -2.784746  985.218200  1870.685896  985.218875  1870.685678  0.000709
205  735  -136.218706  445.915410  -33.347333  989.269414  677.304780  989.269616  677.304340  0.000484
206  541  19.465350  175.102022  -4.640803  991.294136  1377.177762  991.294203  1377.176692  0.001072
207  686  -97.312912  368.889456  -22.249873  999.931780  871.449001  999.932093  871.448424  0.000657
208  477  58.393282  97.297347  -1.856453  1003.541582  1568.344886  1003.540752  1568.346910  0.002188
209  632  -58.393282  291.546313  -13.451040  1011.146660  1065.738521  1011.145040  1065.739553  0.001921
210  791  -213.966667  560.482903  -55.475566  1012.300616  366.577248  1012.299807  366.577882  0.001027
211  414  97.312912  19.456702  -1.392472  1015.973566  1757.046011  1015.974841  1757.045063  0.001589
212  757  -175.105134  484.139100  -40.729407  1021.948436  558.951942  1021.949201  558.949833  0.002243
213  572  -19.465350  213.962864  -6.960380  1022.804360  1259.433431  1022.805494  1259.432876  0.001263
214  351  136.218706  -58.342439  -3.248529  1028.474978  1942.615171  1028.474367  1942.615767  0.000853
215  712  -136.218706  407.352703  -28.260210  1032.275745  752.658859  1032.277069  752.658442  0.001388
216  510  19.465350  136.216285  -2.784746  1034.792195  1451.801833  1034.793727  1451.801182  0.001665
217  660  -97.312912  330.199904  -18.081952  1043.180028  946.966017  1043.180289  946.967324  0.001333
218  445  58.393282  58.383942  -0.928293  1046.995889  1642.129605  1046.996660  1642.130890  0.001499
219  603  -58.393282  252.757346  -10.205941  1054.553975  1141.133300  1054.554333  1141.132198  0.001158
220  776  -213.966667  522.175895  -49.020832  1054.818171  441.102753  1054.818067  441.102040  0.000721
221  384  97.312912  -19.456702  -1.392472  1059.300990  1829.729655  1059.301605  1829.729874  0.000653
222  736  -175.105134  445.661695  -35.186001  1064.820444  634.083772  1064.820485  634.082311  0.001462
223  542  -19.465350  175.102022  -4.640803  1066.286787  1334.422471  1066.287404  1334.422980  0.000800
224  319  136.218706  -97.228182  -4.176030  1071.594258  2013.950412  1071.593594  2013.948902  0.001649
225  687  -136.218706  368.732080  -23.633248  1075.422626  828.117108  1075.423000  828.117872  0.000851
226  478  19.465350  97.311182  -1.392472  1078.265546  1526.107128  1078.265106  1526.106166  0.001058
227  633  -97.312912  291.463406  -14.375640  1086.519874  1022.466297  1086.520824  1022.466671  0.001021
228  792  -252.797779  560.004164  -58.216893  1087.852040  323.944438  1087.851908  323.944938  0.000517
229  415  58.393282  19.462236  -0.464179  1090.376620  1715.482306  1090.376324  1715.482623  0.000434
230  758  -213.966667  483.794648  -43.023308  1097.540080  515.914690  1097.540044  515.914658  0.000048
231  573  -58.393282  213.932445  -7.423570  1098.003384  1216.390596  1098.004872  1216.391593  0.001791
232  352  97.312912  -58.367340  -1.856453  1102.507049  1901.873467  1102.505300  1901.874195  0.001894
233  713  -175.105134  407.120929  -30.101773  1107.849540  709.384041  1107.848826  709.383549  0.000867
234  511  -19.465350  136.216285  -2.784746  1109.761729  1409.155011  1109.761804  1409.154515  0.000502
235  661  -136.218706  330.059034  -19.467106  1118.678101  903.623499  1118.678297  903.623524  0.000198
236  446  19.465350  58.392244  -0.464179  1121.682240  1600.040154  1121.681546  1600.039077  0.001282
237  604  -97.312912  252.685470  -11.131463  1129.919050  1097.893676  1129.919388  1097.893065  0.000698
238  777  -252.797779  521.729877  -51.767673  1130.408452  398.340471  1130.409878  398.340396  0.001428
239  385  58.393282  -19.462236  -0.464179  1133.652393  1788.351641  1133.652608  1788.352731  0.001111
240  737  -213.966667  445.344619  -37.483846  1140.435297  590.958558  1140.435728  590.958762  0.000476
241  543  -58.393282  175.077127  -5.104323  1141.462565  1291.454784  1141.462091  1291.453195  0.001658
242  320  97.312912  -97.269679  -2.784350  1145.561164  1973.428786  1145.561411  1973.428712  0.000258
243  688  -175.105134  368.522280  -25.477444  1151.004004  784.797079  1151.004505  784.799053  0.002036
244  479  -19.465350  97.311182  -1.392472  1153.197071  1483.576624  1153.196388  1483.576004  0.000923
245  634  -136.218706  291.339062  -15.762375  1162.010023  979.121856  1162.010564  979.121992  0.000558
246  759  -252.797779  483.381413  -45.775271  1173.154028  473.030845  1173.154295  473.031495  0.000702
247  574  -97.312912  213.871609  -8.349884  1173.345239  1173.192151  1173.345262  1173.192264  0.000115
248  353  58.393282  -58.383942  -0.928293  1176.792248  1860.687407  1176.793187  1860.688813  0.001691
249  714  -213.966667  406.831273  -32.403235  1183.472387  666.179257  1183.470727  666.179528  0.001682
250  512  -58.393282  136.196919  -3.248529  1184.899288  1366.270700  1184.899448  1366.270609  0.000183
251  288  97.312912  -136.158189  -4.176030  1188.433295  2044.348321  1188.433335  2044.347712  0.000610
252  662  -175.105134  329.871238  -21.313672  1194.251865  860.266918  1194.252183  860.265691  0.001267
253  447  -19.465350  58.392244  -0.464179  1196.560926  1557.633631  1196.559676  1557.632850  0.001474
254  605  -136.218706  252.577670  -12.519583  1205.386135  1054.556009  1205.386782  1054.556646  0.000908
255  778  -291.592951  521.209682  -54.971333  1205.979633  355.788493  1205.979395  355.788576  0.000252
256  738  -252.797779  444.964226  -40.240541  1216.057674  547.961232  1216.057455  547.962645  0.001429
257  544  -97.312912  175.027341  -6.031296  1216.766155  1248.306022  1216.765596  1248.307169  0.001276
258  321  58.393282  -97.297347  -1.856453  1219.765716  1932.440662  1219.765354  1932.441670  0.001071
259  801  0.000000  0.000000  0.000000  1224.000000  1689.010817  1224.000000  1689.010618  0.000199
260  689  -213.966667  368.260086  -27.782196  1226.619611  741.521233  1226.619669  741.522738  0.001506
261  480  -58.393282  97.297347  -1.856453  1228.281498  1440.783779  1228.282083  1440.784488  0.000919
262  635  -175.105134  291.173297  -17.611049  1237.560982  935.737429  1237.561316  935.739034  0.001639
263  760  -291.592951  482.899454  -48.984906  1248.734069  430.332136  1248.733414  430.332872  0.000985
264  575  -136.218706  213.780367  -9.739189  1248.774152  1129.869932  1248.774088  1129.870245  0.000319
265  354  19.465350  -58.392244  -0.464179  1251.277697  1819.084790  1251.277938  1819.084512  0.000368
266  715  -252.797779  406.483776  -35.164269  1259.087933  623.076695  1259.088794  623.075442  0.001520
267  513  -97.312912  136.158189  -4.176030  1260.149627  1323.180037  1260.149225  1323.178251  0.001831
268  289  58.393282  -136.196919  -3.248529  1262.542892  2003.563831  1262.541513  2003.564032  0.001394
269  663  -213.966667  329.636543  -23.621386  1269.845000  816.928611  1269.844368  816.929338  0.000964
270  448  -58.393282  58.383942  -0.928293  1271.577395  1514.940195  1271.576428  1514.941405  0.001549
271  606  -175.105134  252.433959  -14.370101  1280.899128  1011.152471  1280.899425  1011.151979  0.000575
272  739  -291.592951  444.520571  -43.455694  1291.631302  505.123670  1291.631280  505.122033  0.001637
273  545  -136.218706  174.952671  -7.421591  1292.141846  1205.007889  1292.140510  1205.008101  0.001353
274  322  19.465350  -97.311182  -1.392472  1294.155209  1891.013481  1294.153752  1891.013348  0.001463
275  690  -252.797779  367.945536  -30.547177  1302.213068  698.321827  1302.213621  698.321850  0.000553
276  481  -97.312912  97.269679  -2.784350  1303.463683  1397.759533  1303.464103  1397.759641  0.000434
277  636  -213.966667  290.966135  -19.921398  1313.116445  892.345350  1313.115250  892.344367  0.001547
278  416  -58.393282  19.462236  -0.464179  1314.755512  1588.686991  1314.755931  1588.689438  0.002483
279  761  -330.346665  482.348840  -52.651756  1324.224146  387.849954  1324.225064  387.851232  0.001574
280  576  -175.105134  213.658731  -11.591290  1324.234075  1086.456036  1324.235364  1086.457203  0.001739
281  355  -19.465350  -58.392244  -0.464179  1325.909861  1777.094212  1325.911629  1777.093769  0.001822
282  716  -291.592951  406.078489  -38.384484  1334.639873  580.108358  1334.639666  580.107063  0.001312
283  514  -136.218706  136.100101  -5.567117  1335.457127  1279.914580  1335.457778  1279.914778  0.000681
284  290  19.465350  -136.216285  -2.784746  1336.822174  1962.318243  1336.822639  1962.317424  0.000941
285  664  -252.797779  329.354983  -26.389922  1345.401136  773.640893  1345.401581  773.641084  0.000485
286  449  -97.312912  58.367340  -1.856453  1346.676630  1471.990569  1346.677224  1471.991545  0.001142
287  607  -213.966667  252.254359  -16.682756  1356.401771  967.715377  1356.401265  967.714371  0.001126
288  386  -58.393282  -19.462236  -0.464179  1357.784795  1661.972206  1357.783707  1661.972772  0.001226
289  740  -330.346665  444.013718  -47.128849  1367.100081  462.477447  1367.101134  462.478780  0.001699
290  546  -175.105134  174.853127  -9.275010  1367.533675  1161.592391  1367.533062  1161.592653  0.000667
291  323  -19.465350  -97.311182  -1.392472  1368.676304  1849.175509  1368.677035  1849.175598  0.000736
292  691  -291.592951  367.578673  -33.771995  1377.728068  655.230980  1377.727920  655.230866  0.000187
293  482  -136.218706  97.228182  -4.176030  1378.688131  1354.535277  1378.689450  1354.534463  0.001550
294  259  19.465350  -175.102022  -4.640803  1379.249497  2032.952712  1379.248766  2032.952766  0.000733
295  637  -252.797779  290.717605  -22.693093  1388.620080  848.977972  1388.619604  848.978506  0.000715
296  417  -97.312912  19.456702  -1.392472  1389.757131  1545.820063  1389.756675  1545.820213  0.000480
297  762  -369.053413  481.729649  -56.775299  1399.568491  345.615270  1399.568854  345.615258  0.000363
298  577  -213.966667  213.506719  -13.905922  1399.668829  1042.982741  1399.668555  1042.983093  0.000446
299  356  -58.393282  -58.383942  -0.928293  1400.634681  1734.745002  1400.634325  1734.745508  0.000619
300  717  -330.346665  405.615468  -42.063420  1410.072096  537.305989  1410.071746  537.304256  0.001768
301  515  -175.105134  136.022664  -7.421591  1410.765944  1236.506223  1410.766278  1236.507024  0.000868
302  291  -19.465350  -136.216285  -2.784746  1411.218028  1920.639484  1411.217490  1920.640420  0.001079
303  665  -291.592951  329.026598  -29.618885  1420.863996  730.435975  1420.864717  730.435489  0.000870
304  450  -136.218706  58.342439  -3.248529  1421.803290  1428.815965  1421.803317  1428.816500  0.000536
305  608  -252.797779  252.038895  -19.457218  1431.837801  924.277101  1431.836935  924.278144  0.001356
306  387  -97.312912  -19.456702  -1.392472  1432.674287  1619.195921  1432.674450  1619.196059  0.000214
307  741  -369.053413  443.443737  -51.259482  1442.408228  420.053754  1442.408463  420.053598  0.000282
308  547  -213.966667  174.728724  -11.591290  1442.885573  1118.091750  1442.886157  1118.092012  0.000640
309  324  -58.393282  -97.297347  -1.856453  1443.275162  1806.955775  1443.274923  1806.957733  0.001973
310  692  -330.346665  367.159551  -37.456191  1453.108524  612.280584  1453.107666  612.280545  0.000859
311  260  -19.465350  -175.102022  -4.640803  1453.506135  1991.439537  1453.505927  1991.439953  0.000465
312  483  -175.105134  97.172861  -6.031296  1453.899141  1311.142781  1453.899691  1311.142801  0.000551
313  638  -291.592951  290.427743  -25.925742  1464.015671  805.667583  1464.016330  805.666656  0.001138
314  418  -136.218706  19.448401  -2.784746  1464.771423  1502.703472  1464.772349  1502.702905  0.001086
315  578  -252.797779  213.324351  -16.682756  1475.022250  999.482423  1475.022103  999.482407  0.000148
316  357  -97.312912  -58.367340  -1.856453  1475.397706  1692.067153  1475.397069  1692.067375  0.000674
317  718  -369.053413  405.094779  -46.200556  1485.328834  494.700983  1485.328472  494.701282  0.000469
318  292  -58.393282  -136.196919  -3.248529  1485.676863  1878.556270  1485.677906  1878.556529  0.001075
319  516  -213.966667  135.925887  -9.739189  1486.020144  1192.987119  1486.020372  1192.989394  0.002287
320  666  -330.346665  328.651433  -33.307816  1496.177543  687.345882  1496.177542  687.344817  0.001065
321  451  -175.105134  58.309243  -5.104323  1496.901853  1385.448009  1496.900978  1385.448828  0.001199
322  609  -291.592951  251.787598  -22.693093  1507.151094  880.869990  1507.150049  880.870818  0.001333
323  388  -136.218706  -19.448401  -2.784746  1507.561801  1576.145601  1507.561898  1576.146405  0.000810
324  742  -407.707692  442.810711  -55.847006  1517.500420  377.883322  1517.501528  377.885793  0.002708
325  325  -97.312912  -97.269679  -2.784350  1517.897579  1764.384001  1517.897388  1764.383854  0.000241
326  548  -252.797779  174.579479  -14.370101  1518.141505  1074.538327  1518.140725  1074.537602  0.001065
327  261  -58.393282  -175.077127  -5.104323  1527.811101  1949.499681  1527.809732  1949.500000  0.001405
328  693  -369.053413  366.688228  -41.599241  1528.298708  569.502221  1528.299051  569.502661  0.000558
329  484  -213.966667  97.103725  -8.349884  1529.040951  1267.614107  1529.041289  1267.616097  0.002018
330  639  -330.346665  290.096590  -29.618885  1539.247264  762.446325  1539.246868  762.446101  0.000455
331  419  -175.105134  19.437336  -4.640803  1539.743068  1459.368682  1539.742425  1459.368282  0.000757
332  358  -136.218706  -58.342439  -3.248529  1550.144230  1649.091249  1550.143808  1649.091933  0.000804
333  579  -291.592951  213.111655  -19.921398  1550.238336  955.987471  1550.238978  955.988264  0.001020
334  293  -97.312912  -136.158189  -4.176030  1560.144747  1836.098040  1560.143502  1836.098009  0.001245
335  719  -407.707692  404.516497  -50.795302  1560.354797  452.324311  1560.353035  452.325181  0.001966
336  517  -252.797779  135.809785  -12.519583  1561.163855  1149.389592  1561.163104  1149.389191  0.000852
337  231  -58.393282  -213.932445  -7.423570  1569.649950  2019.740751  1569.649830  2019.741598  0.000856
338  667  -369.053413  328.229543  -37.456191  1571.286125  644.402370  1571.286458  644.401558  0.000878
339  452  -213.966667  58.267758  -7.423570  1571.916752  1341.918656  1571.917083  1341.919181  0.000620
340  610  -330.346665  251.500503  -26.389922  1582.285807  837.526284  1582.287942  837.526046  0.002149
341  389  -175.105134  -19.437336  -4.640803  1582.392255  1532.852535  1582.392343  1532.851355  0.001183
342  326  -136.218706  -97.228182  -4.176030  1592.489117  1721.490531  1592.487796  1721.491128  0.001450
343  549  -291.592951  174.405413  -17.611049  1593.245621  1030.964534  1593.244529  1030.964373  0.001104
344  262  -97.312912  -175.027341  -6.031296  1602.110763  1907.162288  1602.111769  1907.160617  0.001951
345  694  -407.707692  366.164772  -46.200556  1603.243400  526.927089  1603.243902  526.927104  0.000502
346  485  -252.797779  97.020784  -11.131463  1604.057878  1223.981528  1604.057334  1223.984047  0.002577
347  640  -369.053413  289.724193  -33.771995  1614.259310  719.346107  1614.256819  719.346532  0.002527
348  420  -213.966667  19.423506  -6.960380  1614.616730  1415.847524  1614.616619  1415.846891  0.000643
349  359  -175.105134  -58.309243  -5.104323  1624.819433  1605.848385  1624.819420  1605.847693  0.000692
350  580  -330.346665  212.868659  -23.621386  1625.261387  912.530204  1625.261845  912.530315  0.000471
351  294  -136.218706  -136.100101  -5.567117  1634.567538  1793.294885  1634.567199  1793.294953  0.000346
352  720  -446.304005  403.880703  -55.847006  1635.095322  410.206442  1635.094960  410.205428  0.001077
353  518  -291.592951  135.674375  -15.762375  1636.141407  1105.746061  1636.140386  1105.746505  0.001114
354  232  -97.312912  -213.871609  -8.349884  1643.767959  1977.531300  1643.768787  1977.532202  0.001225
355  668  -407.707692  327.760988  -42.063420  1646.134615  601.636844  1646.134467  601.636114  0.000744
356  453  -252.797779  58.217988  -10.205941  1646.792525  1298.260110  1646.791899  1298.259969  0.000642
357  390  -213.966667  -19.423506  -6.960380  1657.110565  1489.348414  1657.108482  1489.350113  0.002688
358  611  -369.053413  251.177652  -30.547177  1657.186526  794.278028  1657.186862  794.279764  0.001769
359  327  -175.105134  -97.172861  -6.031296  1666.995245  1678.306254  1666.996059  1678.306007  0.000851
360  550  -330.346665  174.206551  -21.313672  1668.142395  987.402752  1668.144390  987.402199  0.002070
361  263  -136.218706  -174.952671  -7.421591  1676.351302  1864.457181  1676.351843  1864.455963  0.001333
362  695  -446.304005  365.589257  -51.259482  1677.888021  484.585917  1677.888677  484.587174  0.001418
363  486  -291.592951  96.924048  -14.375640  1678.894464  1180.277448  1678.895232  1180.276858  0.000968
364  641  -407.707692  289.310605  -38.384484  1688.996810  676.398527  1688.997353  676.398152  0.000660
365  421  -252.797779  19.406916  -9.743147  1689.337192  1372.172116  1689.337322  1372.173062  0.000955
366  360  -213.966667  -58.267758  -7.423570  1699.368514  1562.370097  1699.368176  1562.370050  0.000341
367  581  -369.053413  212.595400  -27.782196  1700.036154  869.142787  1700.034051  869.142620  0.002109
368  295  -175.105134  -136.022664  -7.421591  1708.891022  1750.177474  1708.891271  1750.177226  0.000351
369  519  -330.346665  135.519676  -19.467106  1710.897477  1062.088949  1710.897359  1062.088052  0.000905
370  233  -136.218706  -213.780367  -9.739189  1717.813014  1934.931817  1717.813601  1934.931298  0.000783
371  669  -446.304005  327.245833  -47.128849  1720.668556  559.080279  1720.667921  559.080662  0.000742
372  454  -291.592951  58.159942  -13.451040  1721.473953  1254.504744  1721.474547  1254.505069  0.000677
373  391  -252.797779  -19.406916  -9.743147  1731.661794  1445.665250  1731.662553  1445.664821  0.000872
374  612  -407.707692  250.819090  -35.164269  1731.798408  751.156994  1731.797549  751.156696  0.000909
375  328  -213.966667  -97.103725  -8.349884  1741.361474  1634.862532  1741.362018  1634.863107  0.000792
376  551  -369.053413  173.982922  -25.477444  1742.776770  943.885245  1742.777487  943.886433  0.001387
377  264  -175.105134  -174.853127  -9.275010  1750.478847  1821.414796  1750.478800  1821.414249  0.000548
378  696  -484.836866  364.961765  -56.775299  1752.178778  442.508893  1752.179096  442.508459  0.000538
379  487  -330.346665  96.813533  -18.081952  1753.495615  1136.534316  1753.496046  1136.535322  0.001094
380  203  -136.218706  -252.577670  -12.519583  1758.926126  2004.674805  1758.925086  2004.674689  0.001047
381  642  -446.304005  288.855884  -43.455694  1763.405451  633.634789  1763.406558  633.635012  0.001129
382  422  -291.592951  19.387566  -12.988708  1763.849503  1328.374778  1763.850778  1328.375908  0.001704
383  361  -252.797779  -58.217988  -10.205941  1773.736840  1518.688273  1773.737362  1518.689151  0.001022
384  582  -407.707692  212.291915  -32.403235  1774.507976  825.857149  1774.508348  825.859141  0.002026
385  296  -213.966667  -135.925887  -9.739189  1783.061048  1706.776979  1783.060414  1706.776395  0.000862
386  520  -369.053413  135.345709  -23.633248  1785.377230  1018.450602  1785.376860  1018.450964  0.000517
387  234  -175.105134  -213.658731  -11.591290  1791.731615  1891.972486  1791.729822  1891.971573  0.002012
388  670  -484.836866  326.684154  -52.651756  1794.834289  516.763144  1794.835351  516.763074  0.001065
389  455  -330.346665  58.093626  -17.158407  1795.906202  1210.685010  1795.906622  1210.686436  0.001486
390  392  -291.592951  -19.387566  -12.988708  1805.991284  1401.835297  1805.991317  1401.834554  0.000743
391  613  -446.304005  250.424868  -40.240541  1806.067315  708.194600  1806.066465  708.194624  0.000851
392  329  -252.797779  -97.020784  -11.131463  1815.533500  1591.191117  1815.535169  1591.189603  0.002254
393  552  -407.707692  173.734558  -30.101773  1817.094298  900.444081  1817.092545  900.442697  0.002234
394  265  -213.966667  -174.728724  -11.591290  1824.439611  1778.066099  1824.438913  1778.065254  0.001096
395  488  -369.053413  96.689254  -22.249873  1827.806747  1092.784541  1827.807158  1092.785065  0.000666
396  204  -175.105134  -252.433959  -14.370101  1832.623085  1961.806417  1832.624109  1961.805758  0.001217
397  643  -484.836866  288.360097  -48.984906  1837.431742  591.085627  1837.431994  591.086067  0.000507
398  423  -330.346665  19.365460  -16.696601  1838.099118  1284.487954  1838.098767  1284.488441  0.000600
399  362  -291.592951  -58.159942  -13.451040  1847.870076  1474.835082  1847.870162  1474.836881  0.001801
400  583  -446.304005  211.958248  -37.483846  1848.622919  782.704901  1848.622969  782.705233  0.000336
401  297  -252.797779  -135.809785  -12.519583  1857.023669  1663.124995  1857.022420  1663.124874  0.001255
402  521  -407.707692  135.152500  -28.260210  1859.526459  974.863209  1859.527610  974.862392  0.001412
403  235  -213.966667  -213.506719  -13.905922  1865.470362  1848.684056  1865.469876  1848.685485  0.001510
404  456  -369.053413  58.019051  -21.327513  1870.034964  1166.833364  1870.034960  1166.833331  0.000033
405  175  -175.105134  -291.173297  -17.611049  1873.127932  2030.874147  1873.125911  2030.874089  0.002022
406  614  -484.836866  249.995042  -45.775271  1879.939951  665.421830  1879.941087  665.420635  0.001649
407  393  -330.346665  -19.365460  -16.696601  1880.044804  1357.890965  1880.044413  1357.889399  0.001614
408  330  -291.592951  -96.924048  -14.375640  1889.457338  1547.324069  1889.458382  1547.323033  0.001471
409  553  -446.304005  173.461493  -35.186001  1891.041276  857.111049  1891.040989  857.112295  0.001278
410  266  -252.797779  -174.579479  -14.370101  1898.180025  1734.442513  1898.180831  1734.444426  0.002076
411  489  -407.707692  96.551227  -26.878809  1901.773920  1049.060412  1901.774882  1049.061844  0.001725
412  205  -213.966667  -252.254359  -16.682756  1906.127385  1918.586609  1906.127161  1918.587113  0.000551
413  644  -523.300796  287.823311  -54.971333  1911.023148  548.781232  1911.022663  548.780690  0.000728
414  424  -369.053413  19.340600  -20.866300  1912.032032  1240.544120  1912.031381  1240.544644  0.000836
415  363  -330.346665  -58.093626  -17.158407  1921.714329  1430.842881  1921.714105  1430.841901  0.001005
416  584  -484.836866  211.594446  -43.023308  1922.327910  739.717259  1922.326569  739.717791  0.001442
417  298  -291.592951  -135.674375  -15.762375  1930.725271  1619.253462  1930.724644  1619.253833  0.000728
418  522  -446.304005  134.940076  -33.347333  1933.291718  931.358715  1933.292591  931.358361  0.000942
419  236  -252.797779  -213.324351  -16.682756  1938.976094  1805.097761  1938.975461  1805.098783  0.001202
420  457  -407.707692  57.936228  -25.957766  1943.806594  1122.982175  1943.806831  1122.982010  0.000288
421  176  -213.966667  -290.966135  -19.921398  1946.385690  1987.731188  1946.386567  1987.731463  0.000919
422  615  -523.300796  249.529674  -51.767673  1953.363993  622.869156  1953.363199  622.870177  0.001294
423  394  -369.053413  -19.340600  -20.866300  1953.768679  1313.864736  1953.770355  1313.864682  0.001677
424  331  -330.346665  -96.813533  -18.081952  1963.079460  1503.293679  1963.079523  1503.294583  0.000906
425  554  -484.836866  173.163766  -40.729407  1964.564880  813.917578  1964.564769  813.917605  0.000114
426  267  -291.592951  -174.405413  -17.611049  1971.646878  1690.575838  1971.649821  1690.575385  0.002978
427  490  -446.304005  96.399474  -31.968104  1975.343974  1005.394014  1975.345416  1005.394441  0.001504
428  206  -252.797779  -252.038895  -19.457218  1979.386292  1875.046411  1979.385431  1875.047672  0.001527
429  425  -407.707692  19.312991  -25.497212  1985.594920  1196.575709  1985.595629  1196.574584  0.001329
430  364  -369.053413  -58.019051  -21.327513  1995.216282  1386.744142  1995.216505  1386.744169  0.000224
431  585  -523.300796  211.200561  -49.020832  1995.570866  696.924964  1995.570628  696.924858  0.000261
432  299  -330.346665  -135.519676  -19.467106  2004.112717  1575.194583  2004.111823  1575.194975  0.000976
433  523  -484.836866  134.708467  -38.893895  2006.620459  887.968744  2006.621849  887.969218  0.001469
434  237  -291.592951  -213.111655  -19.921398  2012.196017  1761.245246  2012.195002  1761.244007  0.001601
435  458  -446.304005  57.845167  -31.048508  2017.168244  1079.163648  2017.167457  1079.161714  0.002087
436  177  -252.797779  -290.717605  -22.693093  2019.385982  1944.245792  2019.386058  1944.246463  0.000675
437  616  -561.690327  249.028830  -58.216893  2026.288216  580.566471  2026.287330  580.566245  0.000914
438  395  -407.707692  -19.312991  -25.497212  2027.109932  1269.789087  2027.111430  1269.788731  0.001540
439  332  -369.053413  -96.689254  -22.249873  2036.346926  1459.132385  2036.347660  1459.132873  0.000881
440  555  -523.300796  172.841420  -46.731201  2037.613293  770.894659  2037.613218  770.894863  0.000218
441  268  -330.346665  -174.206551  -21.313672  2044.787441  1646.498174  2044.786923  1646.496298  0.001946
442  491  -484.836866  96.234016  -37.517032  2048.464661  961.817148  2048.464683  961.817580  0.000432
443  207  -291.592951  -251.787598  -22.693093  2052.347459  1831.217294  2052.347774  1831.216525  0.000831
444  426  -446.304005  19.282636  -30.588678  2058.735270  1152.615026  2058.736077  1152.616418  0.001609
445  150  -252.797779  -329.354983  -26.389922  2058.951513  2012.654970  2058.950904  2012.654164  0.001010
446  586  -561.690327  210.776648  -55.475566  2068.300819  654.358211  2068.300411  654.355224  0.003015
447  365  -407.707692  -57.936228  -25.957766  2068.323325  1342.571362  2068.323312  1342.571357  0.000014
448  300  -369.053413  -135.345709  -23.633248  2077.133472  1530.980743  2077.133192  1530.978884  0.001880
449  524  -523.300796  134.457706  -44.899106  2079.461155  844.724522  2079.459814  844.724520  0.001341
450  238  -330.346665  -212.868659  -23.621386  2085.077843  1717.158484  2085.079134  1717.157056  0.001925
451  459  -484.836866  57.745883  -36.599015  2090.067990  1035.409739  2090.068037  1035.411422  0.001683
452  178  -291.592951  -290.427743  -25.925742  2092.076927  1900.449239  2092.076668  1900.449923  0.000731
453  396  -446.304005  -19.282636  -30.588678  2100.016408  1225.696400  2100.015856  1225.696454  0.000555
454  333  -407.707692  -96.551227  -26.878809  2109.207524  1414.872687  2109.207196  1414.872578  0.000345
455  556  -561.690327  172.494500  -53.190531  2110.135827  728.072772  2110.134901  728.070371  0.002573
456  269  -369.053413  -173.982922  -25.477444  2117.549609  1602.241831  2117.549831  1602.241052  0.000810
457  492  -523.300796  96.054875  -43.524807  2121.084770  918.361249  2121.084658  918.361036  0.000241
458  208  -330.346665  -251.500503  -26.389922  2124.959053  1787.131092  2124.959877  1787.131951  0.001190
459  151  -291.592951  -329.026598  -29.618885  2131.361144  1968.900056  2131.360811  1968.900460  0.000523
460  427  -484.836866  19.249540  -36.139974  2131.401508  1108.694164  2131.402577  1108.695015  0.001366
461  366  -446.304005  -57.845167  -31.048508  2140.983689  1298.356984  2140.983089  1298.356765  0.000639
462  301  -407.707692  -135.152500  -28.260210  2149.735738  1486.644426  2149.736926  1486.644110  0.001229
463  525  -561.690327  134.187828  -51.362113  2151.763426  801.656794  2151.763715  801.655479  0.001347
464  239  -369.053413  -212.595400  -27.782196  2157.569911  1672.869698  2157.569029  1672.870884  0.001478
465  460  -523.300796  57.638388  -42.608498  2162.454960  991.752080  2162.454293  991.752392  0.000737
466  179  -330.346665  -290.096590  -29.618885  2164.407170  1856.373204  2164.406860  1856.371927  0.001314
467  125  -291.592951  -367.578673  -33.771995  2170.177866  2036.530506  2170.179376  2036.531200  0.001662
468  397  -484.836866  -19.249540  -36.139974  2172.436906  1181.618887  2172.436966  1181.618599  0.000294
469  334  -446.304005  -96.399474  -31.968104  2181.609888  1370.547067  2181.610392  1370.546958  0.000515
470  270  -407.707692  -173.734558  -30.101773  2189.882020  1557.839258  2189.880237  1557.839636  0.001823
471  493  -561.690327  95.862078  -49.990572  2193.154248  875.057315  2193.153145  875.057052  0.001134
472  209  -369.053413  -251.177652  -30.547177  2197.169883  1742.819917  2197.171277  1742.820339  0.001457
473  152  -330.346665  -328.651433  -33.307816  2203.399300  1924.843731  2203.399049  1924.843883  0.000293
474  428  -523.300796  19.213707  -42.150312  2203.543123  1064.844927  2203.542154  1064.845470  0.001111
475  367  -484.836866  -57.745883  -36.599015  2213.146567  1254.133313  2213.147057  1254.131665  0.001719
476  302  -446.304005  -134.940076  -33.347333  2221.868577  1442.218131  2221.867006  1442.218458  0.001604
477  526  -600.000000  133.898873  -58.281997  2223.478150  758.795760  2223.480470  758.794789  0.002514
478  240  -407.707692  -212.291915  -32.403235  2229.621319  1628.411277  2229.621725  1628.410401  0.000965
479  461  -561.690327  57.522699  -49.076103  2234.279454  948.221895  2234.280071  948.222407  0.000802
480  180  -369.053413  -289.724193  -33.771995  2236.326008  1812.049673  2236.326522  1812.049251  0.000665
481  126  -330.346665  -367.159551  -37.456191  2241.913592  1992.503350  2241.912097  1992.504787  0.002074
482  398  -523.300796  -19.213707  -42.150312  2244.321301  1137.588503  2244.322834  1137.588583  0.001535
483  335  -484.836866  -96.234016  -37.517032  2253.503628  1326.187906  2253.504043  1326.189056  0.001223
484  271  -446.304005  -173.461493  -35.186001  2261.734186  1513.322952  2261.735693  1513.323672  0.001670
485  494  -600.000000  95.655652  -56.913409  2264.624318  831.935828  2264.623855  831.937142  0.001393
486  210  -407.707692  -250.819090  -35.164269  2268.929526  1698.316083  2268.928793  1698.316243  0.000750
487  153  -369.053413  -328.229543  -37.456191  2275.015786  1880.517835  2275.015070  1880.517177  0.000972
488  429  -561.690327  19.175142  -48.618836  2275.110789  1021.098751  2275.109992  1021.098605  0.000811
489  368  -523.300796  -57.638388  -42.608498  2284.762238  1209.932440  2284.761667  1209.933159  0.000918
490  303  -484.836866  -134.708467  -38.893895  2293.482037  1397.734294  2293.481800  1397.732495  0.001814
491  241  -446.304005  -211.958248  -37.483846  2301.182047  1583.815699  2301.181316  1583.814782  0.001172
492  462  -600.000000  57.398832  -56.000910  2305.493054  904.849933  2305.493139  904.850894  0.000965
493  181  -407.707692  -289.310605  -38.384484  2307.783516  1767.510863  2307.782856  1767.509915  0.001155
494  127  -369.053413  -366.688228  -41.599241  2313.217767  1948.185023  2313.218156  1948.185680  0.000764
495  399  -561.690327  -19.175142  -48.618836  2315.620657  1093.636875  2315.621878  1093.636332  0.001337
496  336  -523.300796  -96.054875  -43.524807  2324.839448  1281.827404  2324.838803  1281.826691  0.000962
497  272  -484.836866  -173.163766  -40.729407  2333.056609  1468.725382  2333.057511  1468.725204  0.000919
498  211  -446.304005  -250.424868  -40.240541  2340.188447  1653.652023  2340.190362  1653.650697  0.002329
499  430  -600.000000  19.133851  -55.544627  2346.056469  977.486627  2346.056728  977.487044  0.000491
500  154  -407.707692  -327.760988  -42.063420  2346.161192  1835.954472  2346.160445  1835.954721  0.000787
501  102  -369.053413  -405.094779  -46.200556  2350.911582  2015.013670  2350.910911  2015.013346  0.000745
502  369  -561.690327  -57.522699  -49.076103  2355.782181  1165.786157  2355.784161  1165.786673  0.002047
503  304  -523.300796  -134.457706  -44.899106  2364.527266  1353.225205  2364.527120  1353.225220  0.000146
504  242  -484.836866  -211.594446  -43.023308  2372.203072  1539.115442  2372.202572  1539.114540  0.001031
505  182  -446.304005  -288.855884  -43.455694  2378.730663  1722.789144  2378.733090  1722.789400  0.002440
506  128  -407.707692  -366.164772  -46.200556  2384.041511  1903.607494  2384.041353  1903.607814  0.000357
507  400  -600.000000  -19.133851  -55.544627  2386.287344  1049.795216  2386.288432  1049.795349  0.001096
508  337  -561.690327  -95.862078  -49.990572  2395.569260  1237.497500  2395.568759  1237.495941  0.001638
509  273  -523.300796  -172.841420  -46.731201  2403.800900  1424.078905  2403.802126  1424.077401  0.001941
510  212  -484.836866  -249.995042  -45.775271  2410.898116  1608.860207  2410.898063  1608.860649  0.000445
511  155  -446.304005  -327.245833  -47.128849  2416.787007  1791.185927  2416.787422  1791.186727  0.000901
512  103  -407.707692  -404.516497  -50.795302  2421.404519  1970.432307  2421.403827  1970.430693  0.001757
513  370  -600.000000  -57.398832  -56.000910  2426.159186  1121.725883  2426.160053  1121.726686  0.001182
514  305  -561.690327  -134.187828  -51.362113  2434.956625  1308.722927  2434.957733  1308.725077  0.002419
515  243  -523.300796  -211.200561  -49.020832  2442.636486  1494.342910  2442.635876  1494.342693  0.000647
